{"user_id":32200,"collect_list(fan_id)":[2008,3326,6952,19993,29072,30989,31436,49053,52991,67661,73727,74393,79098,79941,88401,89907,98643,109956,116197,57981,156100,159001,168073,184898,185518,197311,132717,220925,227180,241387,247909,261272,261979,273511,274016,281206,281984,296553,311214,314166,322945,325414,338586,355139,357171,358527,361104,361116,384160,385099,385261,387318,397219,402890,403889,405764,408342,421229,425998,457593,462694,472469,485466,505058,505515,510043,515893,523151,534157,537763,544834,552946,559266,559885,565912,613365,616881,648223,651140,661890,663285,665635,666955,672504,672818,682210,687009,691285,702992,717161,719979,724806,725628,732127,732773,736613,750918,757225,757631,759222,777039,785476,789083,793964,808028,815412,818413,823379,826078,838765,841333,853634,856715,859641,876504,891930,902633,910944,913110,965215,972949,974331,977893,983451,990832,991787,995232,1000912,1001138,829782,1018352,1031523,1034995,1074929,1091189,1103494,1103861,1114815,1127656,1131288,1136401,1145214,1146180,1151108,1151957,1156151,1174983,1175831,1188141,1006493,1007755,1204188,1205748,1210308,1219136,1259112,1265333,1279372,1282888,1295068,1301361,1307764,1310401,1319081,1319921,1339957,1354107,1358276,1366078,1374019,1392820,1411995,1428709,1433171,1452888,1466960,1484697,1489176,1506330,1528638,1533273,1533544,1535985,1536808,1538019,1542078,1570333,1571425,1583898,1619006,1619654,1633199,1642417,1646463,1659120,1661975,1665805,1686455,1703544,1709464,1720344,1738539,1755726,1756055,1760685,1760878,1795854,1810318,1817432,1834037,1867164,1623509,1624884,1626908,1887357,1896697,1909402,1932326,1935836,1940127,1944608,1946856,1972008,1973450,1983997,1985662,1992635,2031377,2047671,2059128,2060598,2062415,2067192,2086873,2087170,2094329,2125265,2133042,2133742,2154472,2156594,2170533,2184637,1879513,1880717,2202224,2206380,2211377,2218992,2224021,2237513,2239633,2274882,2300937,2320207,2333677,2343398,2351736,2360643,2411287,2423017,2429322,2443360,2443451,2464073,2467247,2470751,2508714,2508871,2562653,2568670,2578067,2579787,2581629,2630031,2671652,2679109,2680514,2696453,2707251,2709080,2743013,2776692,2847386,2853886,2864670,2866026,2901411,2905532,2927639,2929284,2945910,2953002,2956512,2964123,2980892,3033743,3060156,3085028,3100055,3102316,3104455,3105181,3125647,3134885,3222459,3230354,3245513,3253067,3261341,3282339,3306494,3306977,3309211,3314576,3337794,3368339,3369501,3401169,3403732,3408927,3435160,3436997,3463229,3477540,3493894,3498419,3508396,3514211,3557483,3567733,3587871,3591959,3606294,3611210,3616926,3620137,3623949,3625171,3629886,3639840,3640738,3649204,3666879,3690820,3753081,3755022,3761069,3777507,3829823,3847847,3877033,3880497,3897986,3940828,3944687,3976479,3992963,4010142,4012881,4016543,4027941,4033915,4047624,4055041,4060528,4064441,4073089,4084297,4085667,4104899,4106489,4143325,4148467,4150363,4151423,4161085,4161788,4191512,4221576,4222454,4228100,4228733,4229391,4231199,4235223,4242574,4259929,4261464,4268199,4322714,4346694,4355528,3927715,4398404,4481054,4486736,4501730,4534635,4562454,4615026,4732456,4754464,4767325,4824598,4834761,4887494,4912296,4924365,4926456,4931825,4952952,5005783,5032478,5034721,5072871,5154748,5158292,5194750,5207856,5225468,5226967,5241014,5266069,5274420,5282374,5287978,5445533,5522475,5545193,5595029,5625369,5626469,5641871,5646531,5688759,5690894,5743439,5759166,5809544,5842555,5857001,5930682,5479847,6066604,6110914,6191708,6226716,6248594,6273631,6300273,6383868,6480663,6538240,6587971,6613176,6627511,6724804,6726259,6731409,6836188,6844403,6957423,7026800,7031364,7049082,7128137,7196840,7205577,7207031,7260489,7280304,7293492,6662863,6665662,6667526,7373470,7391039,7419950,7426625,7434475,7436098,7461387,7467752,7478237,7506131,7534007,7558726,7582518,7597383,7598195,7624062,7643051,7645806,7654558,7666602,7683305,7697251,7699090,7762784,7828867,7835227,7862196,7940974,7994456,7996145,8101597,8140398,8187106,8190563,8193620,8231031,8235483,8258753,8340627,8372922,8391564,8442840,8451502,8457022,8460367,8554451,8637963,8672469,8679198,8693816,8699354,8715762,8831680,8837338,8888926,8901925,8981547,9014276,9020455,9040991,9048228,9056251,9075633,9081186,9093013,9096752,9184822,9248029,9295896,9299748,9309241,9376054,9436019,9516830,9529195,9532161,9538389,9569622,8729012,10011210,10015107,10045104,10057783,10084993,10109299,10110354,10206601,10290305,10342256,10348067,10374781,10378653,10464349,9619280,9622777,10672256,10687707,10725150,10726322,10729787,10743362,10836120,10856780,11021413,11077719,11103077,11163807,11214130,11233979,11302911,11420610,10489874,11555726,11567473,11610288,11669220,11672671,11719808,11749808,12021721,12068965,12094272,12155895,12220461,12230797,11446342,12387987,12437923,12472394,12493791,12552611,12559412,12572758,12597605,12620725,12634335,12637137,12687211,12740181,12765499,12785132,12809292,12843014,12848273,12897294,12918388,13022488,13024637,13036052,13060711,13102972,13152700,13161768,13251781,12335538,13380366,13451024,13481316,13489194,13490236,13535620,13617481,13622312,13679917,13695873,13727465,13742083,13811818,13825029,13935967,14054323,14118822,14178814,14202916,13277328,14343255,14382057,14419833,14508496,14522432,14541144,14569937,14594025,14618769,14677195,14705062,14717446,14719867,14731837,14802491,14831517,14939454,15104281,15112578,15115523,15332587,15334676,15338539,15384395,15417422,14289756,15461582,15536075,15551257,15687556,15713633,15797477,16021190,16042714,16045136,16115276,16124562,16170682,16199599,16230442,16291233,16305254,16318000,16583973,16611506,16678677,16697064,16795751,16854749,16866214,16926019,16930724,17316643,17405597,17468196,17638836,17695230,17709700,17731733,17757490,17888373,18037007,18169606,18262916,18286372,18305144,18386604,18405914,18433443,18485273,18504159,18648061,18707778,18840923,18854038,18866780,19009109,19142098,19166169,19214744,19317051,19320001,19394438,19480042,19510088,19589972,19610477,19683052,19716858,19806577,19941633,19959474,20040378,20050849,20072101,20083585,20131287,20167259,20237301,20290600,20348725,20410175,20418545,20434657,20520693,20559902,20576037,20668162,21039899,21132581,21222535,21511753,21554754,21589570,21710397,21836994,22151580,22225045,21075374,22347752,22486706,22611882,22692372,22722115,23068271,23114608,23131899,23196569,23226526,23433768,23480847,23638599,23662476,23716418,23957278,23978262,24231202,24291487,24455155,24545195,24554274,24630536,24663812,24679150,24690042,24724155,24727753,24862636,24970993,23587036,25077890,25106416,25215230,25235354,25317402,25331192,25351321,25501452,25552131,25641403,25688356,25830865,25839664,26057597,26246818,26365108,26386320,26526494,26569417,26856998,26906459,26996378,27142123,27196438,27322867,27368107,27442288,27478986,27497673,27587322,27730812,28049949,28210339,28415154,28515866,28712797,28791671,29295975,29322440,29431561,29443938,29529756,29598509,29641051,29778387,28229902,30025757,30070827,30093408,30096841,30123395,30138917,30163758,30261839,30347291,30388236,30507652,30863112,30890777,31159957,31342027,31466443,29891305,31801525,31937310,31978280,31994503,32102431,32166372,32247502,32459204,32546930,32572176,32579657,32647128,32674791,32793985,32829025,32858111,32876603,33127792,33283829,33313806,33337813,33344957,33372131,33385798,33417659,33453621,33782400,33785469,34119404,34139731,34346997,34541944,34546993,34665172,34710630,34793620,34912324,34957807,35006050,35346092,35693872,35728631,36204315,36490354,36666520,36668971,36692675,37102504,37137534,37227073,35165931,37394613,37550326,37772592,37849063,37866182,38077142,38319339,38345698,38374406,38461121,38763918,38805627,38882193,38933326,38942967,39295365,39573403,39614618,39709933,39863329,39904808,39963522,40071939,40220585,40396307,40488888,40559778,40613008,40680706,40859041,40979400,41010786,41156646,41215862,41252236,41467580,41473520,41491597,41501480,41639184,41651447,41694732,41762729,41835608,41867482,42007558,39656608,42119436,42149734,42397646,42436735,42569391,42676571,42815204,43067042,43309973,43541149,43553778,43713212,43748417,43882722,44023795,44161609,44189807,42059879,42080482,44415534,44521891,44580131,44604142,44701159,44961540,45029734,45067056,45166824,45460593,45509380,45759500,45784003,45908037,46201081,46265243,46593065,46604795,46800987,46960679,44278119,47311523,47409133,47485067,47670334,47719993,47932961,48503927,48529189,48687882,48708862,48879116,49325828,49394100,49442928,49491647,49499945,49500417,49524771,49652956,49740413,50016908,50362219,50386979,50428126,50602052,50683868,50687504,50740316,50752690,51026151,51080679,51137660,51384839,51400078,51849759,51941430,51966789,52019459,52101701,52569863,52589299,52600994,52685255,52701806,52784207,52892969,53242263,53825315,53948336,54153676,54525483,54924998,55048322,55074576,55359301,55470469,55518027,53593905,55842339,55846692,56087585,56171367,56175731,56377567,56525638,56616497,56670138,56746526,56810450,57229385,57312788,57338119,57625655,57791056,58168530,58457627,58727665,58736126,58860750,59014407,59126401,59165576,59282743,59363247,59804500,59834378,60053074,60104836,60792363,61239302,61561784,61579055,61831142,61909424,61915695,62045656,62411322,62442561,62795872,62936719,63235083,63249069,63584609,63740260,63914467,64010389,64286298,64513353,64752279,65160561,65164988,65275145,65334459,65352016,65758733,65923841,65959670,66475695,66504633,66535655,66836658,67380247,67383947,67456185,67515017,67802050,67812235,67848642,67921317,68370397,68512417,68768953,69161989,69362712,69365633,69560807,70073946,70379126,70525023,70909189,71090981,71323046,71704737,71759895,71891058,72620275,72710226,72977510,73345477,73492569,73574344,73758913,73942331,74128648,74134089,74629528,74747491,75064352,75238739,75399980,76054761,76191506,76760035,76814136,76846575,76857975,76869479,77268624,77559585,77818398,77866587,77892101,77899843,77955321,77981718,78121021,78168659,78321099,78473291,78706172,79314353,79370497,79786520,79885518,80103412,80312299,80348812,80505250,80656346,81275780,81317096,81325667,81467542,81645611,81739631,81927245,81954527,82579504,83120098,83279388,83464257,83481113,83524643,83614648,83983935,84105661,84169845,84209860,84307258,84955950,84987784,84994922,85064619,85156021,85194181,85249619,85493220,85679608,86331805,86482674,84422704,84501526,87261089,87449631,87507775,87854560,88748667,89164959,89193917,89365683,89453821,89517500,89579020,89909358,90020978,90173264,90213862,90369738,90476239,90515300,90525148,90572643,90666301,90674461,91424616,92154607,92193447,92391168,92557181,89742983,92788533,92833443,92908595,92928794,93197666,93242253,93286963,93308015,93343708,93676681,93976686,94136961,94164251,94306837,94464734,94603294,94647382,94944484,94944730,95125674,95208989,95253074,95664585,96063892,96349076,96749567,97096491,97146917,97147996,97249736,97281073,97488636,97498783,97644720,98018636,98088220,98113475,98126595,99057899,99291188,99956301,100033201,100034381,100096427,100274303,100445324,100476575,101206673,98223772,98230114,102016213,102773716,103251366,103286136,103374655,103538303,103899967,103983679,104014181,104047683,104236852,104275967,104307976,104383364,104546219,105011933,105190960,105402965,105858122,106012360,106268984,106329467,106455175,106624978,106629001,106791053,107193330,107267678,107344437,107684434,107762753,108367658,109535698,109718987,110050764,110183028,110314089,110773412,111147246,111175073,111262830,111415436,111645451,112439652,112543062,112718584,112886230,108769137,113952731,114236780,114719356,115059764,115578534,116097819,116576875,116825765,116932898,116970788,117569915,117757966,117989696,118177908,118563476,119449455,119630325,119695756,120163241,120620296,121127293,121865664,122074165,118731854,122876685,123064187,123220552,124770068,124866248,125271023,125662606,126107988,127068747,128797893,130202786,131578052,131591898,131624874,131680555,132246252,132249709,132301614,127805727,132517226,132583506,132723050,133083107,133103360,133207519,133408734,133731253,133805425,134456051,134535771,135002252,135034862,135186799,135296911,135398523,135453669,135506985,135529638,134124974,136076659,136129171,136154960,136168648,136462614,136632726,136699073,136752510,136874893,137028384,137044364,137384261,137400085,137419698,137587380,137630412,137896646,138069478,138145054,138245453,138503800,138545941,138686423,138772396,138917537,137439188,137444815,139438530,139467191,139477574,139643535,139733278,139801591,140149465,140208456,140245001,140263285,140358704,140926980,141166691,141262572,141281795,141458759,141815245,141858304,142006428,142175704,142276282,142444468,142501706,142506112,142849172,142893092,140724223,140751474,143156487,143622046,143789643,143881569,143970634,144159045,144200990,144301680,144353796,144551001,144835121,143057565,145204119,145277478,145364051,145534958,145753794,145843304,146039264,146262251,146612206,147010683,147021452,147072803,147254154,147287167,147338090,148145495,148909745,149414575,150492561,150587273,150681106,151609204,151628582,151703703,151784127,151951946,151956232,152011464,150313618,152134179,152161056,152214815,152558236,152847400,152860734,152894428,152909577,153083720,153133915,153175164,153176333,153324858,153560512,153717716,154062053,154152391,154602128,154620644,154633351,154713766,154895707,155082391,155249896,155686452,155725291,155814017,156040407,156065274,156543121,157077623,157090524,157278651,157670599,157742740,157843446,157941016,158003851,158057505,158247636,158323289,158506314,158540227,156282888,158831509,159007837,159027097,159494566,159574378,159650736,159771536,159772350,159800944,159816227,160196465,160549179,161162325,161461003,161517656,161581858,161942414,161945946,162228099,162311397,162392062,162441978,162477938,162624166,162636420,163032644,163190597,163506438,163902031,164378091,164550805,164660730,164787533,165146614,165208131,165296627,165467910,165605889,165728271,165793383,163371548,165928370,166035713,166455340,166652985,166679590,167837035,167938151,167957439,168324293,168327388,168792728,169161335,169303422,169325368,169938727,170072218,170390845,170895026,170903266,171098051,168725107,171257329,171383223,171431334,171644102,172048120,172523991,172591055,172744801,172783972,172850816,172945117,173117105,173199071,171150269,173676388,173756668,173980857,174218777,174291420,174326164,174383954,174400473,174430068,174544078,174687212,174952506,175363335,175390337,175441271,175586652,175679108,175704210,173607591,173649799,175931272,176054150,176220860,176431371,176499251,176884513,177000318,177121465,177422719,178509671,178509849,178626953,178756916,178876013,178967500,179015098,179037625,179236389,179425923,179439665,179623721,179792022,180162944,180169496,180370347,180665339,180682759,180803246,181036155,181331276,181475371,181482692,181607182,181614213,181926885,182041968,182056575,182248554,182352476,182377537,182420081,182491887,182525666,182893942,183005924,183024781,183063518,183207570,183214184,183236275,183393163,183672525,183716642,183831703,184077762,184098767,184494240,184775324,184845914,184865011,184891437,185091480,185223039,185599450,185644451,185796904,186108477,186269403,186318378,186401153,186717418,186814173,186914192,187328282,187329108,187347099,187880884,188322518,188460380,188537533,188910685,189863880,190299804,190346568,190478038,190652967,190828195,190833242,190906504,191121843,191358726,192163502,192322732,192553893,192693245,192781575,193311385,193349471,193560500,194556918,194639330,194875483,195144519,195249192,192496824,195378009,195390517,195459898,195516937,195686694,195974648,196108285,196396456,196603247,196914196,196986768,197136613,197594312,197631013,198063062,198097591,198427914,198703099,198815295,198893432,198946104,199210711,199224441,199380065,199556487,200011226,200048556,200210927,200310944,200700934,201559129,201600944,202365727,202601219,203069995,203178364,203191696,203267648,203306757,203648241,203880664,204409122,204439089,204521144,204666062,204757678,205177265,205235232,205280528,205402214,205429221,205755168,205928740,206118250,206625703,207117553,207261974,208130384,208604941,208617101,208768187,209569657,209821359,209858825,209927573,210094046,210229959,210262538,210350826,210794616,210973510,211438386,211635605,211882621,211948187,212016546,212249494,212310060,212542933,212567763,213284255,213759677,213794636,214451855,214585940,214764919,211550167,211561731,215348278,215441987,215502960,215677530,215868348,216213634,217129658,217231365,217981861,218040788,218056374,218086903,218227623,218374869,218508472,218929821,219469740,219505538,219600377,219817519,219993433,220135678,220450040,220598080,220755646,220801401,220869224,220930894,221258316,221559255,221585838,221929538,222363408,222699637,222786887,222892124,222902702,223134691,223163962,223313987,223365068,223376845,223674793,223872329,223882194,224310437,224395112,224605064,224611641,224774302,224824321,224880882,225036444,225052781,225132613,225484815,225822428,225839969,226207249,226282271,226414021,226662756,226708176,223766011,226958416,227044320,227594034,227788032,227966599,228169905,228197563,228228607,228469190,229220665,229494502,230133800,230342417,230939651,231034982,231082888,231094928,231441721,231505453,231776183,231819294,231956818,232139886,232579514,232703636,232759563,233095296,233130534,233157955,233250454,233984500,234062571,234197097,234639436,234928113,235029476,235054057,235237821,235509717,236292597,236388613,236420286,236443497,236890805,237108793,237462981,237482894,238041820,238220255,238289388,238867549,239085769,239184658,239684443,239696634,239705106,239973872,240033074,240078752,240622469,240635018,240638367,240924104,241207214,241438924,241600739,242010427,242374541,242567567,242726959,243214675,243241573,243824669,244049139,244099211,244271594,244309266,244445869,244662927,240785644,240840759,244964281,245379168,245792820,246270484,246653581,247155278,247307781,247504284,247518310,247841980,247920340,248150480,248483951,248719973,249295732,249376439,250012721,250330802,250412691,250542035,251170746,251213108,251742595,251969728,252158646,252204007,252685034,253102383,253133943,253362147,253685866,253784356,253937621,253979493,254105003,254236691,254251393,254305315,254470648,254724991,255219913,255475460,255613830,256708526,257072454,258504512,258691815,258791720,258819886,258910098,258986479,259167509,259332424,259422653,259431905,259734059,259755996,260444999,260679026,260717844,260734651,260941241,261469307,261841245,261908613,262068012,262876974,262976151,263379817,263427279,263561627,263583115,263674987,263711916,263755799,263992266,264510034,260351809,265681883,265753039,266033169,266617985,267821655,267849400,268180866,268297398,268587535,268919997,269345311,269485637,269944835,270666254,271093094,271200976,272711478,272969213,273205791,273317736,273439918,273645525,274641256,274971271,275024235,275199546,275269315,276114992,276370433,276441715,276841335,276964745,277199253,277892271,277954063,277975172,278527770,278593269,278861652,278862695,278948660,279232493,279283693,279701853,279865627,279935214,280232755,281322124,281622927,281850156,282223321,282718577,283505504,284161968,284605566,284724446,280437919,280490532,285151439,286014701,286788340,287066572,287088474,287369931,288455525,289443499,290371716,290537166,290896185,291505999,291787003,292599984,293824011,294014040,294365805,294964963,295043918,295360182,295503328,295811615,295961023,296168631,296338857,296416984,296899942,296956602,297360611,298140644,299139103,299140034,299622669,299765670,299908154,300351714,300352059,300516660,300623911,300641572,300802082,300824699,300857500,301059924,301568375,301603768,301958416,302769711,303582832,304076251,305079356,305396754,305747558,306042418,306297682,306495711,306759069,303014381,303053965,307827063,308320009,308511455,308761106,309105942,309225043,309656471,309685314,310070350,310300545,310423547,310534224,311431774,311611549,311823452,311909497,307518939,312380331,313472199,313694347,314144578,314832568,315542293,315944095,316001672,316044782,316302242,317176122,317306229,317334184,317594280,317845904,317994935,318136748,319209194,319600748,319854981,320092394,320253227,320455034,320817484,321155334,321287051,321427784,321580483,322080346,322262568,322513617,322970426,323382712,323713206,323852030,324072889,324308616,324324649,324505526,324553540,325027596,325382324,326348405,327459555,327778003,327992916,328135393,328210148,328311444,328568191,324830257,330734197,330910212,331463521,331649600,331854206,331916189,332066687,332474132,333618366,333666964,334195151,334333866,334393374,336710376,336857087,337182776,333172785,338221420,338295086,338370692,338959190,339497303,339528911,340622830,340931731,340991771,341173753,341227263,341582757,341758523,342553080,343124028,344199754,344296453,344373922,344455090,344513327,344717078,345642059,346706659,346803636,347648796,347992892,348497775,349382230,349621789,349761380,350220942,350262834,350698105,350791423,351682633,352767636,353001668,353519354,354741268,354830598,355032864,356474781,356750348,357239092,358670153,359133529,359381371,359402889,360006754,361044665,361581179,361737064,361870597,362530115,362659201,363355169,363392993,363856222,364119769,364126650,364735129,364779226,365119082,365129367,365592067,366173595,367365794,367414415,367418080,367607571,367959389,368378913,368388300,368773602,364344320,369121170,369287796,369755594,370021830,370268994,371887555,372042087,372113789,372282700,373312868,373365833,373991387,374577522,374981903,375599736,375715004,376071121,376146822,376688929,376722759,377294493,377295222,377329169,377815452,378036383,378040014,378770543,378890976,378971150,379049469,379170094,379202980,379262712,379539045,379713077,379788747,380387373,380442312,381283514,381390596,381647294,383041134,383376781,383514214,383982574,384031611,384335002,384454912,385083150,385477396,385509485,385863841,386411431,386448847,387404586,387916546,388111754,388400800,388814959,389329462,389381226,389857665,390320851,390422896,390582561,391021367,391415390,387825339,392564983,392834738,392960735,393596361,394083579,394119566,394407277,395013132,395889226,396148557,397104772,397662753,398613121,399249543,399454569,400229880,400480002,401409301,403264611,403550245,403833463,403859612,404372404,405006017,405110945,405936205,406225529,407064778,407094261,407413135,407464869,407833055,408589573,403286984,408952754,409225812,409316587,409637816,409651218,410021061,410321257,410348484,410709685,411603662,411727141,411833228,412382223,412423655,413181471,413214102,413407731,413664154,413933512,414410577,414712008,414777448,414952754,415133278,415347224,415935438,416017325,416573010,417188658,417789575,417791703,417960349,418735033,419127072,420636178,421053272,421116531,421227502,421504989,421923073,423284384,424038887,424525550,424969976,424971058,425318752,425383247,425418348,425944795,426400086,426437516,426660475,427011105,427691106,429128767,430578476,431020949,431284917,431440876,431479355,431852661,431883396,431915810,433024114,433071312,433133636,433271633,433291005,433750349,428564412,434680310,434794187,435392948,435791563,436121683,436819633,437213395,437800140,437887623,437995563,438221418,438287969,439596589,439649669,440369899,440961315,441190319,442238394,442295724,442403174,442418468,444419431,444952438,445029316,445495377,445659478,445741895,446738264,447500091,447914463,448253950,448535926,449373755,449491300,449782860,449991694,450516791,450544666,450564207,450600432,447118324,451096438,451457893,452260393,454379027,454607223,455172878,450947681,450985777,455500086,456500825,456532083,456754057,458306062,458519064,458574168,460087252,460581962,460693258,461149518,462129930,462213931,459851545,465236079,465331284,465663303,466282098,467695507,468542069,468759651,469128120,469270534,469405966,469521551,472281252,472809649,473010723,473014935,473665904,474364717,474391532,475516181,475931408,476551455,477097513,472973462,477452772,477818396,477948475,478399961,478415850,478821944,479230949,479498301,479594506,480067403,483355873,484357666,484913723,485085925,485475550,486031612,486525543,486534280,487108715,487720955,488006191,488344918,488996658,489029552,489057627,489589254,489725533,490464905,491182876,491340335,491924382,492406418,492507204,493607972,494574397,494921315,495193500,495385342,496134400,493486824,497843049,497849137,498784597,500001599,500107783,500169735,500790505,501077027,501724940,501729708,502295197,502502102,502808532,502871185,502958233,503606876,503933906,505017052,505194394,505691561,505811170,505913872,506425963,506704988,506975117,507807876,507898985,505397073,509130577,509135764,509202544,509560247,510000379,510154649,510266918,510808021,511227494,511732994,511994052,512470677,512645865,512991301,513380650,513676778,514385570,514468842,514609254,514701851,514934855,512094358,515956126,517072031,517306554,517550204,518015355,518030314,518057971,518347200,519731836,520849599,520904510,518829564,522781590,522868492,523062929,524251928,524477930,524620757,524873810,525261291,525360977,525822560,526011040,526133523,526134555,524334107,526786056,527330475,527358019,527608786,527812128,528275211,528471350,528533739,529882979,530183378,531390780,531391363,531515502,531631274,532109650,532351487,532411953,532419429,533067075,533256278,533505336,533747339,534341344,534682898,534755320,534758914,535105312,536144649,534079306,537075409,537354178,537374477,537876791,537957198,538156891,538495726,538569074,536489188,539124153,539496801,539523376,539620467,540010376,540521197,540707009,540789943,541045017,542434488,542474964,543237427,545870975,546076921,546511999,549514905,550408161,550415057,550431876,550469777,551442209,551475701,552236230,553150648,554011767,554355272,554398537,554500789,552708492,556497409,557309339,557411159,558088798,558405243,561262633,562072004,562701969,566259001]}
{"user_id":91255,"collect_list(fan_id)":[15337,20882,24631,37950,119341,223773,470972,999741,1112219,1166574,2282255,4125217,7755265,41241031,51776625,89661337,514947773]}
{"user_id":204094,"collect_list(fan_id)":[23412,34090,38289,42084,51372,51622,55349,61764,63852,72862,78077,84707,112073,139365,153506,167791,174370,179743,180664,205196,221708,236702,249688,255171,277873,289442,315733,332867,344357,350771,357981,366179,372213,372373,392839,416841,426002,428562,333796,434562,502083,545063,586079,658855,664866,681341,728099,763932,676297,869264,885098,909518,943173,973833,1053471,1111018,1129895,1138220,1223246,1269004,1290390,1309254,1381204,1196581,1414066,1506183,1516574,1558435,1651622,1658048,1737759,1745337,1758707,1791999,1884158,1962155,1994963,2096910,2112584,2154414,2219980,2283846,2623203,2699234,2701210,2746173,2475982,2822730,2875541,2927370,2983859,3015264,3170228,3255913,3259353,3286568,3301029,3341719,3430671,3529043,3605392,3609721,3817831,4012558,4066941,4305286,4423244,4501728,4522197,4703441,4949925,5431829,5482737,5505260,5512190,5534414,5645749,5768418,5791368,6034221,6470356,6583399,7480753,7593976,7714523,8146171,8147265,8518025,8897457,8908600,9136179,9347643,9678319,10040969,10059007,10381103,10390779,10607467,10725485,10744372,10787428,11148712,11199199,10487449,11524196,12169263,12536311,12571130,12632526,12770637,13258146,13417291,13513665,13805883,13806278,14056615,14516334,16092682,16582177,17042581,17076171,17133360,17138137,17240349,17526973,17618339,17705050,18699962,19580752,19887718,19952982,20072187,20281611,20365778,20897646,21576200,22282554,22587646,22809173,23211764,23397628,24150982,24682609,25760978,26827207,26951041,27453126,28653703,29246732,29265526,29900222,30062544,33221655,33961862,34491893,35243512,35847796,36189652,37114885,37190371,38915199,39138540,40519902,40520608,40569335,42005951,42499579,43119224,45168714,45524152,48443782,49513619,50236099,50595112,51371935,51816727,52008189,52664826,54238727,54444173,54960576,55478286,58209326,59291426,61770025,62334138,62404611,66176132,67175647,67624402,67643624,67725714,69037350,70406455,70778896,72006677,72407862,75250200,75905815,77237121,77920907,81047463,81568301,83048324,83510200,84354385,84551086,85178158,86087243,86655711,86972777,87867473,87987689,91647172,91883303,92225171,92258269,93305309,96707997,103788018,109048918,109839477,110599688,112278950,117168681,118054021,123390528,125936722,126783643,127489547,132060957,132377611,132434911,132588585,132952225,134373810,135076595,136384964,136547814,138744591,140593335,142453818,145666203,145879705,148126832,150973736,151007200,153144251,154073109,155168632,155480983,155790568,156322840,157728036,158760379,159947851,162341464,163238747,165659146,173506993,174022816,180611688,187034703,187079608,188388391,194076578,195949945,197843760,199650494,200806448,208453466,208481407,210604423,215547135,215748601,216262640,219223656,224151492,224270561,236855523,239896805,242254678,248193652,256480320,257743469,261689919,263470933,264810193,264841506,270256120,277375772,278346598,281608295,286825921,292174950,294681648,299103283,299889434,302301615,306119214,316942552,317891081,318811968,331978214,332929711,337280728,337388189,338720120,345294379,350184946,358191673,360243017,365888467,369069260,369238938,371864893,371914003,379336869,383948049,391592107,395487763,399177529,408717003,409217080,426488216,428650020,428966372,429929055,438791914,442242608,443597164,449152905,449205219,454987067,467517506,468350195,470016615,473567328,474252844,479605536,479641774,481072126,485658652,487722421,488728235,489041789,496736803,503377791,506457177,510253328,515827991,522827196,529450929,531061043,534752180,541030331,545509026,547341900,551300783,552806424,559392136,561906595]}
{"user_id":12884255,"collect_list(fan_id)":[2656,102074,387330,474954,565034,595261,736862,924017,1135845,1713459,2225414,5453913,6682111,7163542,10934817,21655332,34253570,46173272,55696168,67377468,156909185,199854919,265080756,316762409,354319910,510740456]}
{"user_id":20652289,"collect_list(fan_id)":[1450,24327,69767,70608,91670,112896,140271,156100,182907,197497,204032,269767,288797,291669,351644,357263,394368,479101,499716,517412,603505,693759,696586,735383,847272,944420,973833,981118,998353,1073010,1082215,1101686,1177110,1249348,1276623,1323292,1355795,1195292,1732300,2071910,2086873,2094134,2184411,2227841,2270178,2296685,2409384,2558436,2645954,2830475,2878311,3062761,3120680,3133429,3511402,3573637,3956930,4679503,4742261,4892843,5019771,5238049,5305365,5412667,5569786,5626809,5744261,5953163,6057169,7625314,7641414,8269470,8529170,8620487,8895698,9163303,9306883,10318105,11209256,11289435,11526816,11762531,12451499,12468358,12721681,12833378,13068601,13126313,13775592,14541976,14778053,15170724,15414019,14282470,15607317,15676593,17206658,17243203,17325781,17399698,18154129,18298021,18875771,19639715,20572434,20627275,21285896,21888818,22318470,22374890,22948588,23639560,23838718,24518669,24954244,25201893,25939464,27931617,28552517,28644185,29157428,30390902,30710215,30887563,31046956,31278739,32365999,33030564,35275281,37383906,38459741,41775266,42418385,43757364,43902113,44114565,44215228,44678430,46148142,46783062,50429731,51629477,52282641,53904886,54488615,54600743,54638359,55116455,53571299,55761355,55774823,57562933,58821353,61601960,62185993,67921332,68411129,69366022,72669925,73851061,77776362,78052632,79019938,80622678,81604400,85585922,86498001,89931864,100271868,100351879,106962552,108540519,108670830,119492636,124206919,135079216,135383817,138047449,138412955,140289989,146312696,146357194,151045658,152661911,152954823,161751574,163796524,172503026,177837663,180777036,185397331,192256639,192392421,195986521,199303507,210010063,224076030,224424527,230502764,237975422,261382333,272150920,275001443,280903407,287298646,301604742,302304228,305189160,307537171,318314587,321154063,322170082,322237316,324808971,337931105,342742106,345255543,346032108,350418064,357962058,368568969,374943381,384299928,384498140,385854633,387246980,389433400,390713576,401443752,409410583,429102571,460588880,476704392,478235251,493542443,499288659,500740328,505781758,510378499,511474376,517612268,526255409,534347778,536340200]}
{"user_id":146676155,"collect_list(fan_id)":[7098,307097,1828323,2648563,7782006,8924652,12254461,12437553,13876515,15673031,21008986,24522443,29665591,34000255,34487419,35226335,36810134,39051284,42099596,44625813,45246797,50286104,52229989,53902980,54371837,56635493,57823573,58894999,65545270,66722352,69975630,73211974,73576281,75698539,80315682,82590557,82816740,83520539,85082902,87259902,89381314,95112452,95727006,96110296,107272957,114187493,120006262,122073929,122312767,132704823,133758453,133878690,134154889,134798439,140086635,141808590,144285193,144491488,147129978,147161010,147990607,152873205,160106896,161196687,164232523,164795902,167045843,167615630,169931695,170393246,177071102,178382722,180921658,186943990,194597784,195741366,197567194,200764376,205322474,207401783,212533827,216751831,224097831,226501911,227351751,236380400,237282681,237960148,243557205,245625916,248438427,249255165,249267673,253090251,269497974,270698948,272626494,273337485,277030324,280009832,285199573,293240054,297113408,302901103,304509210,307803850,323329646,323424321,323644472,327284340,327739236,345326640,354385854,359109648,366663342,364442943,381608362,387657188,389031416,391842875,396242023,396421755,397316750,410721707,433253286,438370542,445162022,448499602,450993861,458335125,472303739,475528333,495701137,509111798,527879742]}
{"user_id":148159072,"collect_list(fan_id)":[14195,898109,1548489,6249994,20768547,28609231,34794380,45090785,49583068,50398604,50774194,54414208,55747537,55934396,62148144,67156155,67486213,68546752,69905429,70703215,78009362,79355608,81118042,81786544,83202463,87939124,93519085,94532392,95963908,97705372,99296023,102010240,102260095,103690417,104313530,107419056,110059382,110409899,112438439,113140197,113349262,115252229,116394859,119668123,120471227,126140737,128803646,131310173,134292524,135286430,135875622,137081069,138623202,139858261,140017260,140919052,145290546,147059230,147756644,151742666,152446420,152964266,157640734,157655256,164172941,169341692,170442516,171339965,173294866,175045106,175536554,179199087,182574495,187171771,187180646,188153351,194297380,202625716,207366633,210081603,218546418,225956002,223755044,234100700,238656740,244226055,251643921,255326838,283437955,284358160,286297306,291202572,302168401,305642672,311110299,311154797,311951233,315558414,322240000,324174573,326678441,343706442,351680808,354276056,354504124,367915590,395286614,397142768,397521587,408636954,430223389,430271519,431250111,434491051,436194466,444865969,446055986,449223233,453196791,460647117,471562883,479641201,483511464,486262289,494084592,515568567,517587347,536970665,537054607,552483697,554721504,559927811]}
{"user_id":188983,"collect_list(fan_id)":[74474,57744,178668,189601,193255,207292,325657,347431,379391,381068,400727,449292,516901,589630,543578,697096,773468,846907,1243903,1296111,1368077,1395706,1438339,1474107,1507547,1512997,1555928,1917713,2561343,2838856,3024036,3740756,4006547,4096152,4162403,4331983,4482319,4955949,5118295,5288800,5765173,7911972,8195387,9388972,9393113,13675967,19853715,21416467,26062996,30073505,43156506,47139625,69029874,69251881,69638751,69800990,83611459,96125863,111683174,112589197,118147777,120286625,134352808,134722809,166431789,170217866,202590761,206105898,234992061,270567563,322464528,440596344,442804406,448142930,540491359,540492486,540493242,540772759,540774326,540785189,540786398,540791645,547674237,547807263,547812285,547815268,551462413,551464650,551946608,551948330,552505679,557622862]}
{"user_id":3290903,"collect_list(fan_id)":[73525,102863,104420,108053,126770,158655,191472,240530,478799,510777,559055,608509,686401,777086,894658,907478,1048113,1065605,1117937,1208779,1214592,1417973,1598432,1676762,1743903,1747547,1790957,1821166,1853753,1872930,1970855,2051927,2240871,2315471,2571521,2603920,2671346,3001410,3085456,3193981,3449789,3526730,3161183,3630099,4101947,4270940,4275594,4399860,4591705,5089204,5610427,5716597,6040054,6590290,6897188,7146008,7873709,8250845,8747099,9364048,9598774,10804850,11397149,11467577,11573391,13173972,13492965,14012613,14382905,15181122,16367668,16587878,17792239,17804164,18316784,19678520,20158417,21055052,22727483,23227071,25910725,28731861,30091192,31245263,31749909,32636669,34001214,36078524,38595484,38870323,38907901,40367840,47536979,48164516,49769590,52351058,52918544,56314615,60988209,63374061,64904533,66315951,66317191,71254532,72193827,71122166,74735988,76302131,76471952,76899478,82447028,82654140,85341069,87159322,93961605,104864045,107256236,115859686,120403338,125487376,135814040,139897628,140577343,144630396,146470593,146893330,148511852,152164377,157239612,158898064,162414355,164720274,164784370,165522246,182328648,184256990,188222070,200483964,213716376,213974427,217425332,218581850,219561103,222637670,223285028,223321601,229170176,237728260,239558993,248574346,267059270,270162148,285993257,292930332,295657343,310770087,307512948,313162295,313783246,320958519,321672880,326770038,338478729,360011140,360329892,364259451,372420504,403008687,430314286,431305174,439365214,446062621,455497289,469448772,472776789,478975218,491404888,492186012,545869102,552040589]}
{"user_id":7107877,"collect_list(fan_id)":[106401,1986081,2755557,5872944,11509754,17691803,144892580,173699357,543401020]}
{"user_id":9363710,"collect_list(fan_id)":[100209,5818858,6310739]}
{"user_id":9745112,"collect_list(fan_id)":[71022,363095,844174,952905,960899,1200993,1223729,1554483,1600754,1927415,2003702,2499029,2680950,2814835,3361226,3593004,4338564,6005878,7207801,8030964,10307012,10609068,11158558,11392712,12021396,13191561,13918040,14709988,24486350,26986277,27026664,29644316,30758329,35151932,37502466,39544855,52077687,57395485,57681521,59664615,65432803,65715921,68582710,85788563,94682467,137018169,137956424,157396076,158435537,165693859,168283364,169980186,175732954,270111763,278019483,278538272,294349959,306789352,330879824,398711600,403738394,412538620,493485528,505252276,505423935]}
{"user_id":66029061,"collect_list(fan_id)":[72595,3921040,4599376,6646001,7052630,8573456,13963569,14909394,17132317,20684167,28654355,39293959,40360328,50386838,53353370,55926719,56566041,78673038,86086204,119714584,121978838,156705391,161779858,161952423,164708464,189688438,200842347,203736199,204545513,217266527,265768318,268003808,277650369,321597850,323948381,328474858,378316132,417277476,424019534,445787510,540970134]}
{"user_id":170141,"collect_list(fan_id)":[172494,255452,1504750,1707059,2036243,2399534,2503704,4079347,6844990,7336305,9153688,10382750,11560794,43584034,98304069,203989512,285128003,324425213,528894926]}
{"user_id":683281,"collect_list(fan_id)":[192820,294112,436605,447472,495407,549574,687048,722896,898562,902269,912333,1180670,1206676,1285241,1322228,1197786,1414908,1654263,1623388,1625168,1888438,1928799,3527044,3720719,4721616,4857849,6121743,6757478,7018897,10475442,10917010,11451233,12334842,14681278,14842419,27583813,29255318,78247571,97924756,109469320,131875081,132500733,138901167,177275071,300558537,416180005,509913310,549938926]}
{"user_id":65443364,"collect_list(fan_id)":[181340,440057,654378,717433,893769,1845250,2709477,4077898,5904632,6573720,6842845,9842503,10881828,10929675,10486735,12098363,17720232,29767114,55867803,59101604,61684599,69395886,107291118,114959132,121317539,136935552,142239539,142923128,147864300,161684813,162040797,193482029,215352962,219305295,229839783,249953714,250078929,278219902,278744949,289490114,305740326,327194184,377981551,388702384,452480995,482424696,525296920,533022638,558620046,563329827]}
{"user_id":23670073,"collect_list(fan_id)":[219804,439627,1038943,2305152,5337945,5410567,5530001,18263886,18748421,26485805,27243287,40165381,44576363,50248590,55183563,57284287,58953385,60712404,85346893,90810074,126030993,159947851,227473780,288205580,292355851,296298397,307044083,312382989,326714567,328123577,340425082,385748550,421102429,429057563,439092821,441914799,449578276,456819633,459803664,459808006,467064170,468978802,472466119,475657795,487646507,489820796,489830166,493553488,498735578,512069938,512770054,516631617,520326147,521222051,527355053,528583193,531125829,531578616,533436578,536144858,536891657,537371516,538785057,539214961,539224051,539914448,541209528,541697313,542093918,549629539]}
{"user_id":57437559,"collect_list(fan_id)":[279941,4956236,22081311,37253099,49700612,63642353,67793212,69427759,71875192,88277843,103531524,124360768,137970894,139487506,146393975,148982259,151083028,155741380,168579769,169294950,175395714,188213850,189090982,194549794,228886320,253671687,256120677,264141344,269439228,283141820,307560476,328530987,408460292,437977152,454836064,455950816,505304383,562014966]}
{"user_id":399625694,"collect_list(fan_id)":[293606,349365,1784397,3434129,4083164,5413817,5725928,5880073,6487083,6811763,8167840,9290503,9578396,11163823,11241821,11630397,16552501,18839448,19013232,20468478,21191289,22681177,23085430,24869039,27769353,30276866,31490686,34261408,37280557,43552917,44648130,45945798,46244596,56715656,78305207,83609518,87052423,88208410,94990425,114548192,119642330,120151095,139841801,148227588,155135635,171730962,179567349,184985394,187917643,194301448,207150259,211865456,227176077,278764704,279633129,294729353,307583947,309358659,322923060,332232243,349142663,366854100,371334306,382374865,384776064,414562798,461538323,465318528,479749648,485263056,519657356,555111395]}
{"user_id":73912130,"collect_list(fan_id)":[429037,431232,711227,1293010,1419488,1650162,1846251,1888725,2063877,2133950,2531504,3987649,5142697,6404198,6468220,8987458,11782270,14539983,15698831,20415508,21479783,21755994,24327888,27252646,31063569,32715462,33709309,37696546,50633249,53851094,62628683,70541875,79255970,83932542,92485168,95746148,103717419,133150550,141156718,143010192,157565881,163620212,166961928,172381020,178822409,183438090,191112874,194907332,208083466,268988040,277389906,283837456,344519697,384185485,392790314,402406560,459582737,463417013,463948438,474636278,477516850,507510009,523353052,527205744,529970261,551988867,553933854]}
{"user_id":48421928,"collect_list(fan_id)":[465361,2990965,3889692,6961120,9480792,12511648,16809495,20525306,20556602,24390614,26680309,29394837,32714721,33827663,34306630,41585746,42194645,42287915,45398490,46242555,46350872,50585875,51322194,54857757,55140393,55485213,55702908,57473670,59198679,63003171,64253595,64674325,64823955,67138591,67317748,72817570,73225020,81960448,83208854,89368071,91489545,93218019,95757336,96058731,96389095,98676023,102116223,105865911,107522922,108226525,113501269,116683625,119298337,119455540,122473030,123497780,123809148,124112070,124440604,134195479,134499208,135745707,137570702,139193155,139732703,140270454,141171200,141452643,144669754,145608618,145917711,148703320,150576741,150580848,152568537,152637777,153216474,153495959,154231473,155932671,156588808,157807377,161002436,164176974,165532461,168500513,168683200,169722598,168731396,172366434,175751525,178193241,180250645,180716982,178207650,181250216,181821149,185210263,187655504,189711945,190561677,190768508,191444130,193882344,194346103,192474516,196950789,197080371,197527360,198201887,203827779,205871767,206728470,214545743,215512512,216839144,218655182,218684743,219794668,217911596,222085235,224039265,227298646,229467951,231694919,236930006,238977029,243675555,246242080,246747105,250309540,250572817,255540295,256357417,257316336,260515367,264595718,267871868,268748013,269215470,271774584,278379534,279279899,281503354,284841431,288000528,292863374,297805969,298212274,298296385,300740593,308152611,312636937,320498034,324333513,325365842,327574088,327923366,329076885,330630304,330966634,334987953,337167753,338557932,345571396,345707139,349332763,354070735,358260527,359451450,362156811,366969788,367184664,368984796,380861739,383322570,386351109,386627003,388019641,394708191,396217893,408295110,411166950,419381169,456766335,466886177,472451306,474468625,476062045,479149095,489487844,494752627,507628089,509687393,524395323,545035939]}
{"user_id":1246200,"collect_list(fan_id)":[707268,2219378,3029258,423093351,480079306,492606025,498631305]}
{"user_id":33501135,"collect_list(fan_id)":[738598,818916,884314,1148576,3586706,9678053,11860721,16306452,17752143,20512345,31812315,54339972,54681130,67380015,70487346,77323556,84173201,133343643,142975540,144026382,152874507,152976009,167370243,167675616,195632850,219082310,230292425,254873889,337382304,353348775,453864112,532701223,558419086]}
{"user_id":23618,"collect_list(fan_id)":[914799,5510970,14179753,30217221,32756024,57917422,87612448,124558026,159357818,206539018,301181940,339163229,441374525,492490233]}
{"user_id":144473190,"collect_list(fan_id)":[930448,21254129,28088372,36374930,43566533,45381423,71434602,80988414,82691356,82720669,86197777,94462401,95614904,99700272,108842596,137895701,144874935,152521728,155357128,165475495,174798621,176329173,181216499,196812547,199278126,201163465,202636185,205639436,205986217,219401545,228158776,228603500,231313962,233055468,234156780,242470138,248625791,255696396,257382535,258224395,258237699,265599546,269239199,272419251,273929984,278379839,285166841,296138454,299695667,332744375,336887324,338718376,346201011,354059555,355946874,358208117,372183557,382240225,378635465,391882111,400309462,412486932,422974147,439750893,447899874,453008784,455236174,460400363,480852580,500930270,514383343]}
{"user_id":418038974,"collect_list(fan_id)":[1125565,3520088,11874384,44722492,123070229,167531770,356081767,369656435,403449563,452564736,454781745,469685787,475905655,498538761,517350696,521972208,559409060,560323260]}
{"user_id":42203,"collect_list(fan_id)":[1305442,3972445,16862041,30203836,54714152,135797830,152652172,153549573,218214307,220980995,336697742,370742433,402358036,475767585,498485440,536890137,547320122]}
{"user_id":104752267,"collect_list(fan_id)":[1259656,1819270,3124951,3583213,9269832,19494562,21860009,25788845,32436790,37082797,37669918,38309157,42720281,44454981,52415591,66524040,74789457,77251231,80004644,85155473,88027790,89236528,100663010,104375219,122431109,125897954,137558015,148140544,164594163,171166324,179040448,184539201,194074075,310098932,357839397,377929566,543571402,558051715]}
{"user_id":168326528,"collect_list(fan_id)":[1305057,7260192,8906526,16467613,19684127,29651714,35808855,51172410,53347673,54481651,55380441,55494898,58991911,62305356,62412824,64516173,75511851,82863319,84215133,86086218,88310489,90545097,91208128,97279882,100687922,102185273,103942863,104914136,109201810,109301821,114524233,119659381,120736524,120794189,120806767,134945031,135466015,135994711,141256873,147615142,150737903,151117071,151180463,151499373,152087647,156759858,157660737,158948152,159052426,160978335,171252074,174618531,185280102,192651259,199879499,199995507,202051025,202116390,208507720,218185098,220556540,237996823,253477524,256340226,266199090,268042834,283105360,292207392,316239831,319677216,329878608,360900020,369092418,370427319,371332399,404286651,419201134,435929076,438638190,446102417,516305002]}
{"user_id":98859725,"collect_list(fan_id)":[1856214,2549512,2767489,5866490,8460681,8901616,16085755,22383736,24795503,50214411,54599120,57506714,73702316,84797785,94868085,95011601,96150447,113279400,115185804,115635034,117516754,120814937,127736676,134682181,134836612,136175450,144416172,145972287,147431579,148920349,149558785,150758309,151196478,158827247,160344434,161925878,163185008,163383439,166384041,177531322,177560287,177820888,182103479,185299397,185947080,211608906,215565291,220104140,239387912,243003735,251932286,254716642,257008900,257896554,263476118,274705934,274978576,278705701,285195643,297897388,304419565,334962642,343943666,421513311,453128110,483411160,486483633,506407396,515740771,524596598,533778522,537915738,539322240,554241205,557049150,560557731]}
{"user_id":206101613,"collect_list(fan_id)":[1701347,7089902,9207643,10147102,17826172,18016447,39689995,56208013,56378147,58116925,59268214,60058371,64685598,70668014,80444809,85185517,86555945,87845352,127693383,140589119,159360582,164122976,185621382,210168051,227907771,235323380,245647526,247196614,257705699,269508136,279188363,296623447,298180189,330048680,340954589,351094608,351311760,356161119,368398727,382952908,389989331,459373445,469649125,487524643,529696067,534380305,554241141]}
{"user_id":49730393,"collect_list(fan_id)":[2576425,5166316,7142873,14668810,15525521,20420801,19824536,21133242,22817519,27558530,30415303,30924280,31071394,31705359,32173353,35377379,36844962,42859328,42958629,43839656,48349506,50018993,52277418,52916313,56213824,62918051,63093237,64224632,65509941,66689937,67795043,68239505,69643225,69987125,71530229,72000279,79004022,84312427,85297656,85332272,90723032,90774391,93319585,96323388,100517254,119754493,124017554,125948677,126710347,131493301,134988459,135266483,135757767,139582621,140051264,145146061,146046715,146465475,150389115,150696487,155675173,157570358,157789645,159720854,163494622,164187601,168801201,169487578,171628652,179541068,184212528,193939004,194437766,196881766,201731481,202142615,214404275,223508442,224912738,240507803,253666332,257747672,262551472,268449537,271547242,281910219,283519975,301014817,303968093,322932238,327834059,329080355,329531588,332331710,332941440,333763545,338802394,339203561,339270262,351490707,351650819,354463028,362495257,366947156,388694106,390638385,394118129,404391992,415894384,417349850,418137247,430854901,434995956,437691903,438566577,438960923,441237764,450233062,452552825,453939920,454289476,458602082,469295654,469969702,472167038,479627585,480979928,496318360,497038828,510178281,512758773,519001783,524706975,527344645,526685562,533543546,536696377,536904766,538320939,538471493,538870536,539179352,541085050,544275575,545028823,552957319,553553924,556551416]}
{"user_id":59307591,"collect_list(fan_id)":[3918069,5112254,6015711,9535385,10326793,16031249,16953556,17530879,23055567,38582605,41773580,43343146,47823251,48666557,53743549,58818965,59141975,59439238,63518346,69322537,69343444,75447487,77931035,78282738,80313618,80578451,83441282,83792850,92963999,93310910,102906625,105738381,117235575,122553391,130020090,133544687,133956409,136867280,137154220,145687648,147332981,156262126,158704135,160497644,162885576,165339828,165564169,166233707,174025686,174033875,178898122,179019316,182653596,189911714,192426049,199214253,201839097,202283775,203199165,216516289,224296689,225054503,226745603,228943854,230573935,237680173,244901519,256445644,266365159,275649559,277056323,280671683,285305833,292080038,292994899,329719781,331343521,355944833,377317783,386784218,389879754,409537800,439244600,449073700,467108594,478587082,491074537,496967764,506186545,507183690,517292715,522299941,524912608,544416590,560861328]}
{"user_id":122601820,"collect_list(fan_id)":[4401500,9011405,18670157,33403539,38471638,64065475,70951383,136016269,138056923,138861637,159559874,166010044,166291325,169255190,225406570,245644090,257599240,266748692,267753091,306643314,324591553,328132874,341033891,345241367,348454281,444783827,454384922,455822075,471866813,483749056,495005095,511208978,513277259,534516795,541139058]}
{"user_id":136526371,"collect_list(fan_id)":[4683341,6524156,8804136,18066455,19565462,20562667,21439416,22069872,22314115,23175822,26364762,28502118,28530197,29058065,30184630,30546308,31049948,31224607,31318003,31392606,31900251,32191988,32888979,33099402,33469275,34667316,36948905,41115829,45403393,46465217,46748444,49079158,49580171,51315179,52194836,51702650,54468817,56635400,58171570,64944309,68731033,68856556,69727987,73092619,78455802,84597528,84740779,85098904,85682303,86871971,87029073,88471402,89532254,89715117,90587523,89732025,93271226,96112984,97483992,100283970,104989824,106225498,106428190,106554950,106727452,107912759,110498411,119467633,120397854,130217131,131906030,133828450,135663712,136530049,136530455,136965662,140688810,143268699,144634868,144930064,145640802,149525230,150827522,151426085,151534160,153619408,155943898,162392207,164163328,166253610,166962942,170884016,178708777,184525770,188215526,189065606,192940295,192487017,201079376,201607514,203214376,201308122,207144814,209047588,215448498,224140859,224173700,231234703,236171808,252198160,252688308,253262995,258626665,267503840,267551497,267898409,269067170,269342191,272627090,272975935,279501347,281530755,288517359,294901604,303294239,324009679,361835666,367292901,394159948,422005541,467887565,480520519,480944242,483647739,483890763,493591969,494454134,498485805,507449918,513430953,531398941,539326709,545829763]}
{"user_id":5070329,"collect_list(fan_id)":[5271957,44764891,78451192,102276782,431663003]}
{"user_id":32541258,"collect_list(fan_id)":[6529259,16365597,23199060,37211568]}
{"user_id":21085773,"collect_list(fan_id)":[7204261,11201972,16045674,16838484,17120062,20111920,20644248,20800076,21421325,21894412,22511181,25300196,26656402,36379787,39912933,40274968,47568471,53605429,59446891,71130872,82757290,93989239,100086989,115590400,119722869,132316289,132350665,135606565,137353722,150666601,155948970,166952343,172015558,179049445,187424415,202109531,204927185,206764487,225414807,226144191,239991567,255859117,263498352,289762754,304303353,310278200,311584471,313971003,328647197,337680903,340019783,338132042,348167401,420185024,421445135,425665697,426101975,445575385,447799956,448737101,455566009,455634070,473224174,473288148,539710210]}
{"user_id":184050555,"collect_list(fan_id)":[8648499,10731640,41789452,77547552,89257520,109887734,115653282,137231563,139540014,147904785,150305765,154292182,158034351,159123404,168340293,168430055,176292020,184693646,186482390,193093123,199437503,199560556,200605268,204432304,204496382,208356991,211007510,213168717,217134759,220025371,221025907,221431598,222212027,227969025,230184733,230547085,230946053,231660868,236427741,238103259,238998234,241456092,243687658,244898615,246845963,247860126,252689593,253848545,254509658,255336262,257354100,257506255,262126466,265191779,265297409,268429800,264841328,269696029,269954125,272472631,274436290,275287010,275519372,276756476,282143369,285561746,285868375,288804397,290480327,290879177,291630161,294666728,297042907,297251577,297357693,298231075,299672698,301190483,302279347,302645159,306129923,308693225,307457742,315857815,316168703,316407225,319462875,320124828,320372018,320681007,322055087,326497833,327126191,330774377,330951048,331334016,345298025,348324092,350175096,351699678,357942638,362414867,366168763,368706004,371106526,371442562,371696828,374748624,376013398,382278892,382605878,384542549,386318595,388741270,389756356,391941732,393704576,401902736,401994574,402593037,408348174,409069056,412010231,416252848,418585610,419479800,426194789,430210502,430924348,439420242,442396589,446104191,450119626,454817261,457510678,459920004,472157615,477782331,494678291,496493488,501625820,508367174,512097638,519459670,519893079,522449394,527663606,531708718,534361325,541486992,543348394,544374057,559484981]}
{"user_id":34782205,"collect_list(fan_id)":[9088410,552370037]}
{"user_id":236033952,"collect_list(fan_id)":[9028781,18183710,29813431,50646877,72320637,84560218,119471529,144683903,147540303,170577642,177214566,179981801,186542152,223651393,228438230,239740807,240357446,244406569,245261030,251788297,255014800,259760567,259814639,276252640,283099321,280484764,286308839,289500305,295716174,298999797,300399491,301458438,304346771,305682037,306323371,307551969,309296288,314447965,322409844,325503369,325758958,330054035,332971452,349599788,358304424,359098443,361546722,374997895,376612959,378599612,379181327,379258235,386767502,391383428,394695590,404656915,416468150,432748304,439864499,445343594,452992045,454298878,459467835,455298591,465853018,468765552,471103917,472186909,474095974,482109989,486532045,486800318,486984877,487202014,487257873,489764326,493865713,500678531,501856303,503452991,504531092,505654472,506248698,506744680,510523826,512183151,517778596,518405354,519837043,520938802,525952296,534847260,537034055,537312388,537448892,539879951,539905481,540835290,548324516]}
{"user_id":410342076,"collect_list(fan_id)":[10520745,29207719,72709969,78706170,82334903,88089129,102273673,121698228,151247471,168374573,173304580,174851424,179460544,192478048,198818591,210156899,225195831,248886019,255570953,255764930,263421904,269754678,289470880,307202824,327005514,333527257,346246426,351879526,359114315,369529834,387067154,390162187,418519936,432535840,483013894,488718168,494412629,516909572,538879476]}
{"user_id":428921079,"collect_list(fan_id)":[13711300,54680122,143695132,315699521,471203846,501068128,511234882,517059301,518081362,527257433,540646068,545731065,548491894,550617371,550872799]}
{"user_id":14838045,"collect_list(fan_id)":[17491719,273633028,365625220,393784975,414333245,422896926,524600657,538980197,542841811]}
{"user_id":187795780,"collect_list(fan_id)":[17182542,17721700,26960436,33316602,71409443,98288998,163879512,205553479,227913427,314501192,328455968,355065270,367539852,376742914,393547337,484153689,492017808,499974563]}
{"user_id":23615143,"collect_list(fan_id)":[23175263,178508461,214007584,265663993,277126394,373428849,373676482,391688411,497548058,506463543,514043150,533768631,534969703,551167212]}
{"user_id":420066683,"collect_list(fan_id)":[77124346,524045334]}
{"user_id":155594477,"collect_list(fan_id)":[80030261,95983037,96401699,100590083,113548294,138090666,141975754,154062728,156142722,160190085,161614307,163489739,163833649,168573873,170475299,173368697,187787329,191353301,197561648,257963040,304812628,317610208,320072091,321345724,324382849,354090891,397342330,514220844,552687113]}
{"user_id":134769715,"collect_list(fan_id)":[94946514,166494671,389712139]}
{"user_id":173467255,"collect_list(fan_id)":[104384489,229064116,277174367,357879068]}
{"user_id":193034120,"collect_list(fan_id)":[102145127,135130252,140602642,165031266,175445882,175763361,188028478,212697900,224887518,226162671,227232069,227454485,229434884,230979769,238780427,241978402,244457902,259315941,291245157,295724355,306090127,309778875,315477477,327903340,340652136,346826151,350632000,360981588,374191358,375080710,396164426,402905606,406154366,408562103,433604046,439589043,439680139,449188369,451731957,452594447,476198770,478244910,480676894,481133634,485592069,504900469,518751209,535737371,558841673,559450237,559912602,561913803]}
{"user_id":389209192,"collect_list(fan_id)":[118020971,137010340,152757202,229643989,249958461,256393791,260955019,268042834,300045571,308246177,321699682,322456696,324120858,327372539,331048703,332316888,379181785,385210069,383196208,393649420,394737096,398494850,399093089,416807209,423510169,429202718,448063764,448065496,448287079,450746367,454626103,455936225,459844336,483281628,503362468,509889748,517680522,518685156,524851386,528868891,530888762,533288657,539918987,542037460,542389360,545554731,548546988,548875608,549117002,549192104,547024973,554843600,557505138,559897826,560395560,561566654,564789346]}
{"user_id":272410187,"collect_list(fan_id)":[159202633,230351906,249253957,253385345,268831311,269110347,281876140,284158063,299831880,321664207,360591053,362656742,366179133,381526305,383219229,409066069,453470872,548807168]}
{"user_id":267736291,"collect_list(fan_id)":[171925994,383719227,405128300,413863060,494324349]}
{"user_id":506820963,"collect_list(fan_id)":[257639818,496088573,509509541,510371023,543180932,562590783,563425296]}
{"user_id":159783468,"collect_list(fan_id)":[272342607]}
{"user_id":82836844,"collect_list(fan_id)":[292007692,321789978,331183927,388915855,405066176,516987714,554574942]}
{"user_id":435361,"collect_list(fan_id)":[432345684,461989737]}
{"user_id":454085526,"collect_list(fan_id)":[446374982,503454858,537931931,545741301]}
{"user_id":316372083,"collect_list(fan_id)":[460504223,463171223]}
