{"user_id":124839,"collect_list(fan_id)":[9261,23011,28383,48945,60901,64052,66365,73646,104330,105506,57690,155188,190872,192789,263964,326985,522317,701501,724134,853416,1271877,1547812,1553389,1758987,1870954,4136403,4471635,8378601,9629597,10233891,15949704,16695423,20092214,20404913,23254717,33894011,41225981,42729876,53309343,83160765,111422821,129337830,193837055,220075520,237954239,238379075,263553215,303051700,308677616,346942691,412175003,548251913]}
{"user_id":753570,"collect_list(fan_id)":[4466,95484,116634,139296,215418,387290,626821,747193,909811,1018401,1187354,1331527,1395706,1429733,2118547,2960688,3124871,4073621,4225091,5723095,6202131,6886589,7056282,7545145,8827586,10238272,11591366,12645706,13295019,20894151,21869995,53552619,61215474,61689963,70829725,145666966,147646992,152042846,172121244,197430681,212788926,236033952,417542671,427178133]}
{"user_id":1148047,"collect_list(fan_id)":[35885,43295,143594,1228401,1314059,1584070,1601496,2149719,2941990,3435467,4451683,4749202,5105214,5508573,5597739,7223772,7664333,8808197,9717053,10262670,11669054,11824221,12036561,11443140,12565558,14021911,17964467,19656736,24380557,50238029,56778041,59193572,68146300,71189479,78110921,82735485,83975095,85529107,89980873,102016476,103702755,104631463,121475424,126700383,132739744,132865848,135359289,145991945,150841529,168299931,169658368,170988187,175183413,181955523,188634383,203741850,212245002,211524551,219782703,228410034,243297667,279012262,292603329,300299496,315309829,322394247,328180662,331066539,348716773,353154033,435055372,442503007,459980337,467976907,509908935,557390785]}
{"user_id":2890857,"collect_list(fan_id)":[4113,187486,435580,527241,834484,1545264,2061627,2180707,2265931,2667090,3278206,3289626,3500682,3761770,3874761,4633029,7493006,7806888,8590563,8926639,9025912,9112312,10345498,11087455,16306452,18127690,21231021,23667300,28958957,29304150,29590267,31360942,34924581,39917247,53924867,55840493,67693555,73920570,79390141,88766267,98349258,98795013,114117325,119669013,121368352,132888741,135585296,137448293,145238291,147282863,151092451,152384107,158264555,198478293,200389999,209288864,220446359,242467509,320257267,339323840,413891464,430867887,468830520,498143123,530550635,537216748,561827501]}
{"user_id":9748662,"collect_list(fan_id)":[7865,18461,45942,182694,317799,493304,553921,1502962,1587729,4623804,5848283,6017411,6746130,6952906,6671428,8099224,10353033,10646011,10940732,11486182,11816759,11902503,12920272,13384104,14125058,20299327,20401649,23747124,23805510,23881682,24382845,27578468,28332506,29095347,29489509,30571027,32949670,33210090,33462031,33726423,34106015,34551811,36121311,36879609,40375362,40640214,41390411,43674820,48564389,48864115,49303644,51559251,53782475,53811990,54238567,55343556,57093278,59762229,71397685,78698851,78909862,83429999,92693861,97118741,101257944,104280746,105858990,106394548,107328677,107927419,112378139,114970001,115707251,113673602,120794189,121910018,132983790,133947054,135466015,135843773,137970279,141746097,142734968,146100640,146475195,146922911,149084172,151518487,152143076,157246643,158322220,158430770,160925142,164566815,165940131,167191204,168597426,171898519,198125833,209780820,216804044,224206846,237166718,260858091,273741277,280615471,372998498,398175772,416306513,419062268,473191036,480221966,483552840,494900177,509322494,515957904,526995329,530709828,552687113,564528494,564682173]}
{"user_id":24142927,"collect_list(fan_id)":[20875,34479,72085,104783,280358,355062,399736,509509,525342,566319,592112,638467,664635,673101,1688644,1755028,2497098,3246480,3161510,3814815,5623957,7993289,12724621,18113363,18653265,24555582,27250796,29537059,32125118,32171983,33537482,38815349,42572340,58566614,78945028,105387328,109647036,132172971,145003507,173677274,188511619,195625983,222797166,225821927,229550917,304307087,338837604,366922122,375633928,381861660,414565858,422237936,443664051,461347770,487374831,488048311,496790283,510874292,511686999,512071753,512878389,516304765,518947529,523772260,525393476,531086207,531416156,534536218,536115908,561568000]}
{"user_id":105626492,"collect_list(fan_id)":[7118,13664,156348,526582,2022420,2361249,2535583,2991651,3332702,4709253,5049748,6858688,10731670,12140250,13888583,16752781,17248821,18096983,20838909,20868072,21012735,21393847,22055966,23270741,27781024,29007891,29630688,31795984,32190942,32410717,33761497,36107060,36394178,38086281,37322014,40781569,41613402,43889556,47386257,48587272,50891168,54482916,54923610,57612475,60358361,61463668,63964483,76795443,80400065,80816260,81221500,87557702,98009913,100643104,106317385,110340361,111187710,124779866,128074082,131734478,132860421,136074781,137040849,138317305,139058237,140003256,142714123,145814797,150635721,153108046,163992629,171691983,184125939,199950837,201730139,215340364,223146218,234206707,242376284,249375399,382932014,416516569,445954330,466873062,483145028]}
{"user_id":148082454,"collect_list(fan_id)":[38434,371776,546765,550190,550944,606984,694171,1861724,1919426,2693931,3924614,5018687,5223794,6055080,6866496,8817543,8897046,9005116,12139842,12814106,12944933,13113239,13825588,14640627,15464475,15651166,15960799,17036461,18164586,18658577,19208612,22357251,23187789,24063473,24350802,29353111,29620675,29780581,30785550,30820530,31774352,32572713,36504999,37874948,38866048,39286376,40468444,41612117,41845144,44068320,45869785,54323432,57177744,60598658,61162803,62227543,63073077,63092451,65159811,65214670,73586948,78307193,79211470,80571798,82709999,83208794,87314926,90589240,91751706,91959956,97802656,100013882,101009575,103011587,103151633,106663208,107126169,113243501,116869305,126067149,134465332,137756452,139320770,141291069,141561618,143749245,145357559,151684039,151824072,150328005,152757500,154533705,154558270,156521732,158051395,158813407,160318556,162783433,166576766,166898554,170421162,170482796,171280227,173462837,176473191,177083249,180287514,187570252,188150326,193190422,199856594,202646393,202926131,213264916,215367939,216562843,225201497,232904346,240411447,269877554,271185197,286646905,331951287,332257100,332409603,340662280,344333539,352898986,353735453,359296934,399520329,414315627,414735721,414842736,419931283,425159988,427874689,437416574,439963802,447636032,450074367,458178833,455234786,469698868,490912978,496386162,498113110,498920105,501473876,511649180,518273995,522264121,523144581,525528883,540018947,540367593,542171140,547025238,555833370,557720468]}
{"user_id":431103202,"collect_list(fan_id)":[9074,26146,28445,30483,30548,39497,39628,40150,53001,53922,701,75379,96026,104859,137467,174615,190013,192065,194144,196772,199527,206892,211462,218135,249582,269952,280899,295826,316245,328221,330304,340669,355252,358972,364299,369800,371299,373027,380004,386499,386996,393089,394348,412204,414576,423079,426667,447789,472788,485373,496714,501537,506098,559543,564465,609527,614527,628479,654701,655014,659287,671290,542660,697070,716080,722354,728202,746301,759031,769165,780435,798951,801544,820581,844792,851289,865744,878311,882760,895129,911374,922540,923816,924490,948045,949905,832737,1021749,1040679,1073728,1073940,1075651,1079519,1178119,1226346,1274734,1277873,1293931,1338757,1350901,1451468,1473578,1487670,1508965,1536108,1585194,1597840,1618966,1620884,1408696,1633026,1714556,1737763,1745844,1782829,1790566,1823544,1861065,1627364,1947345,1961773,2038576,2038991,2095039,2139366,2158814,2199029,2208010,2254954,2282194,2320500,2332126,2375025,2408103,2413773,2435004,2439245,2451366,2458969,2474315,2600245,2622358,2629419,2691024,2704591,2710585,2731236,2764415,2781422,2481580,2807542,2811442,2814418,3330950,3331379,3354408,3385781,3392472,3453229,3453768,3483061,3518418,3680074,3850460,3869648,4033467,4140786,4147187,4184042,4184162,4265914,4277077,4438790,4506811,4574982,4642674,4799618,5257464,5267812,5357309,5365783,5592597,5725325,5858663,5890163,6128485,6266995,6299173,6332549,6411701,6509127,7006396,7250856,7486546,7552373,7684202,7961187,7976107,7976981,8525123,8603950,8050972,8922248,8925778,8982290,9149031,9219543,9253020,9323361,9323521,9582159,8741729,9911117,10236966,10298080,11222356,11317460,11328057,11454510,11534925,11688140,11797346,12083343,12354963,12379688,12491822,12494558,12741527,13203155,13801319,14033240,14265275,14600690,14727800,14905981,15454444,16068944,16260299,16321742,16349964,16490907,16962339,17271837,16536887,18177551,18314733,18324366,18343784,18361012,18567380,19541240,20256170,20374691,20752055,20933716,19831277,21124613,21255782,21346601,21473350,21555669,21808966,22022810,22442628,22659622,23718329,24127295,24594712,24644828,26228879,26618046,26651049,26994408,27210096,27554449,27886757,28068347,28462066,28580524,28731861,28923718,29059056,29811805,29820887,28298498,30185940,30347309,30512470,30657394,31227924,31327822,32127687,32727257,32799714,32942675,31586279,33521491,33544805,33861220,34848365,35580619,35626218,35709493,35839801,38397680,38524186,38653042,39436414,39585472,39765131,41411456,41503066,41617491,41853263,42629888,42632987,42963282,43350895,43441806,42069108,44520852,45152158,45599911,45655408,45663957,47794839,48866649,49389738,49582369,49867316,47123243,50740675,50983613,51011377,51264565,51562822,51613887,52734593,52940960,52965483,53039154,53336647,53759514,53856060,53948454,54685849,55138666,55219983,56014676,56258543,56502979,56541888,59204709,59903937,60015601,60574138,60683628,60718136,60785923,61040159,61663213,62098729,62874148,63634160,64883343,65165395,66184732,67852224,67964524,69228603,69744525,71087663,71112262,72092127,72184447,72281985,73415629,71129328,75917177,76505579,76624655,77802142,78009993,78187307,79912299,80264253,80836675,81801283,82120328,87371769,87587603,88477068,89472576,89489040,89702770,86820893,89919671,90703065,90931191,91325303,91398331,91938619,92221101,92297337,92406469,92593063,92696723,93970829,94888944,95485919,92650224,96647107,96902981,98403179,98886905,99136756,99494899,100122635,101551797,102005056,103090276,104151709,104765183,112952669,115197236,116426297,117167297,120205017,123581243,126397988,127054284,127552862,131764966,131893865,133424488,134246360,134338986,134731356,136023105,136096823,136160468,136379225,137216645,138434941,138553659,138696922,138914887,139316953,139456117,139554684,140602642,138961590,140898522,141008368,142113037,142138989,144051908,144383801,144944158,145909530,147447075,148880202,152676421,153812006,154151496,154181321,154502070,154533649,157209494,157878489,158001357,158699840,159011529,159668253,160174422,160259957,160708063,162125317,162749505,162829010,162865377,163153626,164428673,165577860,165754937,166786385,167025847,167819063,168413227,168512882,170265365,170538567,170653200,171474871,171573682,172351513,173908616,174749732,174798541,175379616,177013277,177047993,177408320,177708897,177976169,178051834,178149675,178167794,179015222,179754235,181725689,182587881,187104995,187298532,187875424,188835080,188942692,192702556,194518180,194856545,196083135,196682458,197229282,197462149,197789596,198110528,198525329,199809460,200101368,198266860,202621285,204047224,204768802,205781663,209599303,215691939,216487958,217513313,218302727,219783159,217883309,221765555,223274773,224632893,225436733,225519976,227266053,227969421,228384947,229344646,233355718,233583359,233958895,234623286,235953550,237503916,240045661,240491459,242682542,245131490,245401407,246370950,250584283,251427133,251436690,254528349,254942892,256430259,258136835,260247932,261145150,262278046,262398302,264604998,265364475,265963561,267157629,267515584,268851402,272258865,272771565,278838573,279427764,283376690,288441982,289791594,291060365,291103296,291444821,291902938,292765726,295514877,296329385,297061548,297488042,297764065,297831061,299243299,300672911,300751748,301386525,301802370,305854776,306999165,307251418,309532858,310697574,310950828,311175632,314382825,315837182,317123658,317195315,318234212,319547394,321382162,321451980,322230574,323207212,323340945,323440555,323680114,323718930,325801892,328387649,330598704,331149823,334097093,340086538,338138414,343520687,343762268,345474122,345559239,346054128,347143474,349163598,350609547,350647451,351828494,352662775,353478590,354362697,356775399,357180739,357740941,357866034,360182658,362727114,367755280,370124097,372004764,372112548,372985496,374185441,375332304,375945107,376378378,373566147,380176690,380263909,381406449,381523300,381814668,383021661,383699614,385839561,386842619,387225152,388357066,388783928,388951403,389009651,391320693,392677763,395744974,397112835,397213858,397469211,397648014,398227215,398918508,399094114,404249149,405364991,407394553,407702462,408025956,408113093,408469893,408541984,409073087,409356059,413320952,413457085,414395238,415596621,416025376,417510260,418504210,420844518,422020212,422078074,422222566,418256195,423667161,424149014,425013570,425298149,425768451,426541584,428240791,429660248,431937710,434968951,437289588,438285231,438957695,439273448,439400056,439964714,441047185,442403536,442710439,444827974,446645427,446686301,447338674,447519264,448092476,448722835,449152905,449455567,449723688,449796838,450006466,450118957,450522015,452664641,452808436,453203459,453447645,454758627,450922730,455908034,456356358,457629329,458527329,463239209,464017611,466611760,468374211,464226095,469189249,470085530,472553483,476516785,476892698,478398000,479425588,479480645,480105255,480106721,480180126,480332733,482258542,483603503,484293742,485262216,485832231,481942390,488104225,488791304,488927302,488933724,488936656,489724962,491540218,493388839,493908523,494409905,495498609,495656653,496766533,497164792,497295262,498082249,498092015,499615366,499879850,499931596,501493918,501691124,502235551,503094581,503167838,503271930,503561622,503764030,504986843,505076006,506191103,506291629,506960161,508162013,510586210,511521919,512870222,513098474,513823005,515083855,515137562,516391316,516773580,516873296,517356820,518058747,518372025,515802297,519060360,519184044,519235617,519390415,518828454,518884626,522212147,523056743,523225962,523617794,524458851,524560486,524861606,525606145,526068277,526884616,527836596,528097169,528265147,529351939,529545395,529855478,530013293,530254427,530489655,530698875,531470386,529106725,532051313,532089092,532378704,532531215,532890864,532918384,533120706,533774126,531700327,534370355,534476186,534561405,534649120,534891623,534955189,535248200,535307067,535458684,535586494,535626357,535678165,536170435,536235844,536436238,534056221,536563415,536915347,537094684,537116488,537314929,537318943,537521107,537608265,537672565,537977775,538060901,538149124,538341766,538420656,538579335,538729355,536517811,539244286,539304384,539372595,539386946,539463807,539472954,539616578,539665749,539773571,539781159,539824529,539927330,540016140,540035406,540047585,540182157,540403958,540447385,540498678,540509023,540546466,540691871,540703166,541017398,541230910,541329237,541428860,542011905,542049830,542059623,542104863,542534529,542760076,542768484,542820346,543150815,543162925,543179107,543255286,543292017,543344167,543420706,543433640,543515408,543582476,543597599,543663589,543774104,543790972,543968749,544069021,544073406,544161225,544212657,544225547,544266398,544288905,544378253,544484125,544522519,544568211,544628102,544637141,544687951,544897696,544906958,544911450,544977086,545033950,545146348,545198760,545227482,545293426,545435153,545483565,545611367,545761672,545779452,545842713,545886161,545998889,546052305,546087049,546152477,546164534,546245963,546292474,546389997,546443586,546680764,546693174,546820261,546839880,546914048,546966221,546992189,547158861,547211606,547217260,547306938,547321813,547361713,547372543,547378411,547562469,547625365,547722741,547727929,547729859,547888663,547984448,548007853,548057528,548074666,548176236,548181730,548459488,548493129,548649802,548735179,548793900,548796861,548860825,549095044,549234233,549311493,549347004,549410520,549545194,549581421,549702859,549776373,547054675,550068277,550110250,550166798,550267618,550275710,550811439,551254973,551927512,551963065,551975604,552019089,555182640,561110159,563324908,563937825]}
{"user_id":181937596,"collect_list(fan_id)":[118366,16784645,27570258,75044990,135893607,144319548,147644337,177040259,182833325,209879298,235087944,244891216,273344704,318413104,323290681,330798690,339846654,386123595,392794587,393720457,443255117,444765219,476174478,492388547,522724651,529973947,533538351,541554951,542886304,555350394]}
{"user_id":5279885,"collect_list(fan_id)":[190406,291892,787473,793797,1081263,1556016,7374972,13066062,13424183,15659098,19595926,20728931,22708028,27140129,27537705,42075218,50276072,92521574,124936490,122793572,132583612,140445007,159780855,168112389,194129992,202833802,222754201,240411307,243485820,373327599,436504790,488223948,510901272]}
{"user_id":104876,"collect_list(fan_id)":[274718,1103377,1545463,2610060,3422685,3546495,4135195,5391947,5826570,6286835,6562637,7187201,8148651,8532179,8974485,10755183,10763471,11151188,18912696,18616465,37642791,39360575,41199200,42487616,58193318,59934561,77714008,79505683,93570439,141399498,144958238,157896823,182372890,207598186,219209734,251918334,336243569,336825198,338774578,358185082,435948008,449329549,501746200,503442554,514947773,545008906]}
{"user_id":12389568,"collect_list(fan_id)":[266069,2796703,3281578,5068941,14220888,15958273,16809216,51988153,69236987,142043599,151205203,151408327,176521085,182838150,191723877,192668607,200951277,219111424,227487492,240980833,250254058,252166373,254273559,256313840,277704202,287955058,291066418,297254202,305133131,306525783,321618438,334708491,334999664,335055395,336055373,343714723,343780652,344284911,351392158,351760173,362763919,362882493,369839290,370508493,384408479,397823922,400528167,403872961,410326587,415120835,425280133,434516107,443327821,444359262,450861267,451855055,454302372,455962192,462484048,462939149,464535236,465909259,469356271,469885862,475755078,475755963,477887605,489391711,485922153,492371181,496582390,499262079,504293364,506904801,508301017,509019442,518938212,520306135,522008022,522029868,522921842,525461220,527480162,527907146,529006708,529561192,529839718,532321099,533718030,534681645,535917511,536687981,538780648,539049579,539049582,539973455,542338387,542624188,542817555,544456599,545915429,546091048,547615009,549986219,550286651,551216299,551326012,552594426,552815249,553403286,555777235,556233512,556234983,556668760,557593035,562995467,564161989,565233973]}
{"user_id":40048641,"collect_list(fan_id)":[246270,564613,5767316,9943124,10477122,15300628,15448970,32512708,38291814,49653225,51928272,52612208,72957791,99367999,101822448,106325788,116559962,135782922,143449729,147184458,152861817,161882342,168239957,170564996,172885223,177987155,178552316,221652705,222349174,357198402,381446701,447942140]}
{"user_id":225215161,"collect_list(fan_id)":[312910,371713,333985,612079,859641,1501745,3244151,4038298,4717276,4910236,6965176,8718231,9641326,20752840,32629193,46879760,49051130,50170658,55356769,60817988,66139376,71817142,73768987,91001094,97109765,98817895,117492513,133964171,136503353,140217203,155566970,159945617,160744561,164588005,167025847,184830176,188360133,211720477,230521015,258667445,266938273,267574098,271993443,280628924,284276301,381721498,401852466,442326788,446914105,469589366,471892369,479018889,481097591,492289400,495374784,495849534,503758476,507764152,526897228]}
{"user_id":5397337,"collect_list(fan_id)":[343355,455305,501234,947223,1395198,1498825,1843151,2145792,2664491,2932227,5686622,6111572,6160066,6857903,6916796,7423800,9007000,9069327,9289053,10056934,10276521,11155927,13747296,15769771,18469629,20337825,23859453,24946288,25235352,25654455,27567939,29202703,29614465,29841736,31122986,31405320,37409077,37781447,37856761,42729876,48222545,55098901,55445476,57447790,58845464,62023402,63369938,65207156,71374760,76826765,85715822,88210016,88533045,115920141,132752218,132946195,133635683,137998021,139661685,141497805,141510471,149643154,152934795,169211752,169699108,174728812,179988368,182637701,188777508,200611717,206701587,208617228,217922212,221142664,240783362,256468545,260471434,269439079,273714297,283077272,294313897,299516995,341152314,343100280,345128053,346557896,350683012,352045445,354018477,363301631,364327990,390068222,390919139,391932378,392976805,410552708,418930882,419205685,431503063,449855909,466916782,475147830,495723017,498586256,499785769,500652447,506472053,505372319,514433556,519845350,519993082,522998425,523245308,526572057,528001441,529763458,533159466,547253958,548184283,548717217,554626394,557005354,559848504,559892361]}
{"user_id":52692556,"collect_list(fan_id)":[563583,3227590,6321843,7966561,10767562,20077719,29073276,37400826,39755406,40980437,44161125,46714456,44298243,47628112,52142455,52408798,53406779,54800733,58180438,58383733,61313277,62947449,64280284,68399634,71301901,75316619,76078835,94356030,98609533,114007188,114108895,138491766,145748428,147177706,147518067,150184860,151048635,151539570,151541801,153930809,157819602,160471380,165043646,166240192,168258950,176186764,176215124,177831425,177972789,191624980,206934258,217933285,224589348,223749595,247883484,257467598,275004340,284959490,304727320,324225600,333287041,344188483,356719334,367533682,387841899,426084117,486587585,498777910,507565146,524846819]}
{"user_id":323217925,"collect_list(fan_id)":[612079,15280864,51776417,52382994,61055426,104341783,147702125,159569098,255629301,316848519,389904714,406751533,431170478,448650735,504582061,523126722,534479360]}
{"user_id":64418797,"collect_list(fan_id)":[734834,2671357,3018962,4425259,4785894,5357446,6639975,6907163,7546600,7347673,9081365,9312312,10342560,17852275,20007458,21884603,22860969,23725883,28160964,33410614,52425900,61006253,66554003,74635182,85917381,102665467,106413558,122068631,132696512,134300339,139245674,150990405,151516264,156677875,156815550,179986033,192657897,200165078,211215878,298768798,303202168,305981417,326883044,359087846,359244468,393822408,410574053,462462474,465318394,496971723]}
{"user_id":114539011,"collect_list(fan_id)":[705497,977144,1709570,3877272,10578701,14207866,17763014,18494149,18662703,21724573,21865075,21866938,22051869,25471876,26251032,28444746,31294533,32273050,33048511,33344170,33670434,34353491,38511766,38657816,41015690,50956351,51478676,59953825,61673377,62007899,62848722,63301166,65543356,77961873,79492859,80562140,82217808,83679087,89457370,113225565,120160814,120851250,122993023,123830069,123849819,136331493,143133632,143575452,151013532,151740099,153585173,155074261,167458264,172251586,172343789,174612496,178096828,186567442,220122837,258488930,258691405,265528284,279364043,314508028,328776686,340523705,352714293,357750561,364631305,403658641,415393851,415401389,416180005,435733141,437760601,449420575,482554705,521066775,526883651,539562875,552788052]}
{"user_id":252130151,"collect_list(fan_id)":[746822,26446939,47057930,154226576,161370063,174629183,193321215,204667307,205577194,206583085,207074431,219384461,229669369,242932155,248430294,248940347,256491399,275391735,294768263,307036341,311210984,322046202,359454744,378097642,410511016,416250675,431271901,440892533,445093046,446606986,451421525,453910565,455710019,455804038,456720337,469961203,477357550,482578929,486217195,492574726,498763573,541671185]}
{"user_id":85585109,"collect_list(fan_id)":[845828,13221751,15627448,25552745,56554301,62859348,72355641,89774082,106148014]}
{"user_id":105206028,"collect_list(fan_id)":[967396,4592405,9558655,14663449,24889126,26893439,29848567,40373400,46303789,69307050,71741040,72752245,84684304,87367021,96448918,103335582,105986105,116489787,135085114,150931052,157408955,166094966,180780942,190141692,191433847,195734938,199624174,207531151,211856995,212842771,214654435,218872374,222698208,221139301,227527673,236057160,247396490,253981641,267455875,282504387,284664814,285783174,308551182,311899339,320529979,321993776,326166647,326619508,340005843,341366994,353065533,359679037,373620666,383143706,383870001,387286787,406181620,414638515,420400304,430222021,441327417,445675775,448507236,449669409,459283077,460834899,467857161,469540143,478964691,513200851,514844014,515815722,539516660,544281017,548760918,553605755,554998631,561170440]}
{"user_id":337069,"collect_list(fan_id)":[1096168,16596856,319728441,331599797,509301379]}
{"user_id":214649474,"collect_list(fan_id)":[1110601,1283380,2163629,2506771,4280478,4770984,5089493,5688671,6076504,7522130,8039939,9141017,13802107,15009645,15541788,16771485,20628081,21656754,21807952,22571750,22624095,24516035,25062774,25763730,26101944,26476047,27099615,28679416,30674003,32441295,32611448,33647514,34146950,34234095,34563781,37221478,37273506,38534580,41717477,42557793,48514033,49699848,50031616,51436423,53298979,53404096,57577970,58600867,59789216,60059048,62776502,66885944,69166649,71273418,71294874,71604924,76358595,76784557,78454904,80383719,81352093,82664397,83898042,84131896,86037032,89888552,90799920,92265601,93412578,94694017,94940362,96087014,96118515,96634624,97679719,99233172,100339929,101502674,101855112,102624074,104154412,105337954,105377359,107708656,108997007,112019012,113564306,114660774,120361321,118647653,123268216,123622431,125268709,125825925,132515522,132989821,134021406,135820853,136046729,140047988,140761311,141148279,142160136,143887146,144392785,145329114,145766820,146377716,146904501,147256972,150254053,150498413,151673103,151859803,154794978,156977145,157211197,157360256,163675128,166176874,167281704,167759607,171550235,171628840,173995286,176018592,177261773,178510850,179303995,179758020,182866954,185293211,191173932,194897358,196785230,199203162,202226298,203229344,203842111,207082679,208986799,211651988,213502690,216746572,232077487,238696547,239021497,241225637,241266055,241450237,255602590,256417529,264005512,269530174,272617376,275916236,278445440,279282320,289739999,289509567,318019886,321163683,323139521,332586702,334648730,334727537,334806298,339363952,341232890,345683575,351774187,357600954,360117349,361675458,364805956,366464737,378012705,381637230,386012057,392256327,400498707,400594600,406062537,411069283,415473030,416223675,419010622,444492866,445403015,448716922,459395542,466044105,469721381,473357858,475236234,507251718,516624360,520557015,528187270,531274445,531499825,535403160,536357364,549834976,560857712]}
{"user_id":215938193,"collect_list(fan_id)":[1819797,2829173,5828152,65852597,148164063,166776884,172895358,186835045,210458875,226743883,276696808,319866623]}
{"user_id":3016372,"collect_list(fan_id)":[2088816,2518717,2569505,2680627,3092019,3227923,4072308,5022749,5288934,5776700,6253808,6801516,7389384,8724098,15207362,17902344,19479671,21903134,22543649,23805704,26212911,27796227,29476603,37406908,37582076,43550589,49016893,49222027,53538997,62780239,90073367,96989499,105655379,106463064,117610600,132101702,159154374,159306309,163839475,165339017,170287988,178122666,180582529,187958354,192155265,192357272,193777875,203180099,204788217,209743132,213763021,215842236,238515548,242082105,240876128,248419150,254996100,256041621,262915520,271565900,272384890,279756145,284511778,285197595,295629790,296319851,309262388,328926342,331945799,332105675,344454627,345099463,348161371,350777464,350924154,351796919,352438246,360356103,363951208,365335933,370630912,374384718,378171978,379672951,381194554,383573304,391761539,403502239,419506359,432868782,435473106,438018155,433858804,444637508,451894978,456140898,459124719,463614148,465290991,467628036,470129764,482997208,485651709,488034824,488555479,493218804,496926239,500929536,502218627,502636925,501376057,505525364,507792257,508833732,512548330,514284542,515493132,518569709,518737616,521669682,522651227,526113803,527275499,527545661,528256074,528662226,528785414,532524077,533700813,536381651,537158611,540783418,543356039,547585985,554247205,555020194]}
{"user_id":282427944,"collect_list(fan_id)":[2820384,6609001,7286339,8361809,9161382,12780724,13830299,16513284,19400347,31695181,33407956,46588507,57201118,77262951,105538136,127507943,134129898,147543717,157488378,159958964,165385552,173180680,180834416,181534890,188139044,188777508,190739846,188947756,205182096,210451258,213833724,214215692,225128337,237521342,239289918,239505073,244190523,249633990,257636456,257733042,258394506,268971129,274735921,276620714,286717168,294401422,306725649,312949151,313707150,315500863,317490214,331069251,345168497,346695701,346730884,351075267,351439169,351843824,354253048,361055313,372990598,375271163,375445493,380546710,385799158,386567717,389228527,396994046,397619587,400637969,412739612,415097635,418175569,418590993,421673859,423525278,423544137,423570333,423692043,423693038,425316054,430295454,435423530,442726839,443854286,445581631,455827979,455302383,465547249,464223311,472441408,481279759,484022314,489651659,502270978,504445660,512691749,526203152,526304420,526608260,526887288,527454930,527555114,527657860,528338925,528949530,528970181,529134046,529169699,529188657,529193576,529349522,530047435,530064618,530362517,531405961,531405980,529058466,532236882,532445488,532528944,532549333,539017960,539018200,539018520,539288411,542437478,541179328,544027812,544596108,544597552,548187693,553330981,554631294,556758529,557198677,559892620,566446010]}
{"user_id":336991647,"collect_list(fan_id)":[2917550,6319898,11619176,29033875,31037079,32429114,38527596,39847738,43138005,43318058,49667040,52867989,58579219,66653326,69665576,74026164,85063194,85293258,87720828,88372609,88666898,93579984,96230683,98398499,99162992,101847832,103029980,104914136,132389000,134778573,135620862,139692152,142872896,145614699,145879875,146355334,147819097,153194123,156878479,156967955,160505008,161213951,163562629,163832055,168476710,169316389,175560625,176284767,186502893,187219232,187491693,190185432,190186033,199387467,201730139,203337330,203556345,204190376,209353968,214404712,215335331,215764695,216746633,221597003,225299625,236663490,236690559,246510110,251399963,259278919,262203597,266233866,268649730,284128393,291746676,295453990,303688973,317154095,319760683,332288352,339549469,370682210,379516582,404286651,405343380,445293355,545153879,547444215,549245183]}
{"user_id":417547515,"collect_list(fan_id)":[3254685,132158779,137585234,140911242,145700252,155755595,165380374,167602905,175128871,179838718,183641651,185090981,205674089,215603737,234175577,260026645,260642911,260935207,290062856,300044913,306488525,314974414,325236238,360573092,361325093,369797530,382201870,406260273,416010305,436456313,444660435,462383373,490989736,497802530,502880734,538265255,557456763,561427286]}
{"user_id":12788116,"collect_list(fan_id)":[3806354,548192468]}
{"user_id":73843943,"collect_list(fan_id)":[3817463,7477561,9193262,20345360,26347293,31795984,36909943,42243768,47132863,49669303,50776731,56294916,61097431,68249871,79193170,89141835,101014851,101823737,108616016,135756990,137426543,141425614,180775484,203959536,207479334,208956103,209765219,218936822,265905927,285501275,314177574,321634090,324215911,357669778,373898526,418046367,439690965,564376905]}
{"user_id":175477038,"collect_list(fan_id)":[3669274,124479177,159154285,211324381,254988863,396035465,451787625,509368344,513128739,530783737]}
{"user_id":73988608,"collect_list(fan_id)":[5554737,5858750,6146152,7861417,9584019,12534562,13902790,14848912,15265900,15645944,17484706,17494981,17669236,18756619,20257776,22073240,25187884,33410089,33664086,41921676,42093052,48329798,54371495,55505972,68384282,88511081,94167414,98058306,98512731,100506791,103498726,114892393,116356328,118482756,123366658,123705560,133041396,138402697,139482516,139553935,142318382,142600905,147673910,150935555,151392310,155208326,160939863,176214491,178722653,193278490,195211613,198531290,199541763,213283479,219201148,223430899,227797816,237214497,256904046,273428919,323547410,330557160,333943505,337771009,339381798,371558709,511224042,523595696]}
{"user_id":12159723,"collect_list(fan_id)":[6288497,26557788,29065372,123497481,199434944,364779199,473229771,516145492]}
{"user_id":118043530,"collect_list(fan_id)":[6651517,7912060,17957033,27290390,36344728,45767684,51807600,52867989,77481661,80548421,81114108,89288186,93579984,96602339,101131338,106150050,112952669,132868443,133119388,151505425,154587418,154698231,158986977,182118918,184971053,185720166,204217601,224676791,260403275,334841739,371332399,385964392,404286651,431041404,550971252,552687113]}
{"user_id":443761818,"collect_list(fan_id)":[6093787,10422260,18416363,36660642,60055245,62384259,72286362,102316293,109189663,112822884,113691671,121764671,135415874,136407454,142019161,152813063,152870541,155176819,160118324,166418147,166681778,168418815,169241753,169253706,174247062,174686811,175719433,173605242,176708411,177809101,178303809,180136136,186941023,187163852,190039591,191837893,194561754,198367276,198899171,201375793,210915136,211099135,212400670,213420639,214327827,215015988,218832044,224111258,225644393,227747027,230352560,230652124,231338517,233080989,233306800,238429767,238576084,239363307,240616488,241130167,241357594,244662140,245047263,247457528,249740594,250336829,255353090,255936317,257439903,261967122,262607503,264064667,265076693,267150095,269201006,273223213,274319237,272373970,277359757,278619217,279747722,280160321,281738289,282190700,283354357,283855826,287694763,289803041,289894017,290499778,293352380,293655615,294749088,296540762,298601802,299929030,302316932,306996250,307838427,308181214,308442757,309874907,312318028,314504333,315456641,317255960,318547095,319762619,320657449,322971989,323419794,325662121,330166607,334491582,337001915,342627577,343877966,346438001,347715143,365399233,374544072,376354279,376665727,389110759,389574186,390370893,390557579,392202754,403917118,406409805,413268682,414391281,414101776,424942875,429699856,431741590,437667090,438234210,441208277,450828113,452278812,455581509,457252517,462481831,466674255,469904184,471629203,481392271,482194565,484029907,487362503,491247057,492081333,494091004,496751974,501966784,506538394,507615463,508783745,509727273,511142416,518258420,522837328,523529656,530530316,531284917,532906181,532953818,534589532,535942620,541089374,544407452,550767814,559523878,561125774]}
{"user_id":275448776,"collect_list(fan_id)":[8374637,8423947,13719236,40377449,49073747,53298032,57473670,73225020,79552047,81221565,96716845,121423297,135127054,140572549,148151002,154231473,156588808,157954800,160984100,163476358,163721677,165668838,169128789,175362792,180602438,181021737,181821149,183901606,206408230,211716587,212063277,222534193,223635472,233514274,236286567,258202486,260419842,264595718,274043821,283537458,295873455,294325348,300807331,301180386,305425292,318456765,316692994,322470399,326145070,330630304,344232280,344547178,345707139,383322570,410214085,428090456,432418731,452876484,456831186,466727641,466886177,486980952,493928706,495456865,507628089,553905237]}
{"user_id":180062188,"collect_list(fan_id)":[10801944,18938500,21156196,33850151,34177056,50021307,80185055,85063194,101822925,119488734,134415788,153224202,153453478,153593956,154928896,159893955,172812428,173938125,221762546,255109386,466028583,515466148]}
{"user_id":29728002,"collect_list(fan_id)":[14206534,142470373,435215695]}
{"user_id":84569354,"collect_list(fan_id)":[33861220,440549251]}
{"user_id":90640785,"collect_list(fan_id)":[37926692,48029843,84726391,176018771,194849618]}
{"user_id":371413509,"collect_list(fan_id)":[40520280,131650612,164724138,234507757,240877171,246510691,276632894,284672039,288027556,288415021,289632161,296084942,297811794,300220214,322977885,336996434,341438714,342122262,344256512,348732798,349893204,350653203,351105196,363680664,386598767,391033927,399259656,403584955,406439026,420080288,438031356,447437426,509819888,513301557,514725390,525317870,547405454]}
{"user_id":510323541,"collect_list(fan_id)":[40577791,125810089,235155946,497615769,511329559,511605259,512136963,559754246]}
{"user_id":75471298,"collect_list(fan_id)":[44469112,299650936,365511013,443521648,493287852,519298812,531115415,548777399]}
{"user_id":286209469,"collect_list(fan_id)":[58066402,163660927,358699319]}
{"user_id":29650907,"collect_list(fan_id)":[75871088,156579975,475748615,479301735,498955283,532568695,535801555]}
{"user_id":194704949,"collect_list(fan_id)":[103861777,120151132,143199137,145961656,150822865,152786503,155753605,161818564,204189798,222096333,249507604,281039356,303398448,337790161,406565037,452193814,523892735,542203666,547130325,548604039]}
{"user_id":504757616,"collect_list(fan_id)":[179873856,186417266,246703025,271595861,328896885,332971452,442830647,447251411,484313616,503843188,504283751,517905385,530935367,531499730,541489986,547380921]}
{"user_id":20555763,"collect_list(fan_id)":[188012669,280410006,346302428,456582840,526476683]}
{"user_id":537019071,"collect_list(fan_id)":[253360748,323744691,432953771,505534379,509180541,529522227,536725050,537006883,538862972,549260782,553329623,553775713,557840249,566632872]}
