{"user_id":507628,"collect_list(fan_id)":[3268,10468,11421,15878,17195,21797,32459,42077,69377,74441,104289,104347,105659,111564,116863,136961,137764,142217,147572,150813,163400,191463,202291,206883,131642,223070,227294,242833,246965,317878,337342,339945,358607,364299,371988,387118,391183,397477,401312,415756,472825,517318,524349,539582,430980,554962,556247,582943,600808,629046,721042,739070,765792,787420,816887,865744,873092,972931,1036719,1108581,1135454,1235967,1249139,1309699,1323676,1372606,1391907,1425389,1437649,1487163,1495330,1506132,1553253,1745405,1775402,1798159,1802670,1813104,1844106,1627932,1898269,1916034,1875578,1876082,2259283,2298311,2449049,2499871,2507010,2525288,2535521,2573572,2580753,2602076,2627023,2657076,2715279,2722241,2474635,2877065,3134767,3166828,3209183,3273108,3365392,3374789,3772118,3871744,4080014,4296108,4504227,4785567,4854458,5032043,5319357,5493579,5904131,5926517,6114758,6264757,6295609,6383393,6847197,6864075,7070303,7072144,6675772,7421066,7895694,7964573,7355642,8088860,8606283,8615581,8978127,9072618,9293375,9369351,9413501,9849522,9922060,9936984,11035349,11396761,11786689,11805579,11876496,11951415,11438307,12372093,12743453,12770444,12878290,12880494,13186404,13337497,13699413,13729664,13900480,14194666,14228735,14308516,14364585,14461710,14546695,14726873,15257182,15385558,15671282,15921394,15942665,16089454,16623037,16745387,16824718,17100822,17412762,18018126,18543053,17559967,18708236,18785409,19346240,19877653,19938079,20002525,20255757,20613677,20858214,21177916,21256847,21494311,21710248,21847410,22026824,22186949,22417783,22628637,23477537,24175909,24728235,25295677,26305294,26311730,26891260,27208758,27437066,27731647,29949445,30289538,31163518,31204823,32481033,33183794,34263511,34323081,35200029,35378703,36084179,36128136,36323781,36447249,37409576,38080510,38345757,41211705,41946032,42201854,42968543,44506686,49103681,49613326,52871289,54434875,56047768,60718708,60780375,61970373,60416188,63942932,66459174,66597263,66747174,67435061,68462470,68967918,71625414,72849966,73250394,74861816,75560755,79318445,80380276,80452775,82351296,84295206,85601462,86088751,86600633,86675620,88629000,88723941,89432686,91853348,93217748,95136550,95848308,95984244,98823557,99114539,98213622,101560530,107544257,108155576,110014619,110736951,113794456,114353424,115175699,116861369,117082107,119565032,121235680,122703551,123592402,124533091,132260142,133443590,134816054,135408974,136095495,138067932,138324452,140878385,142099369,146695158,146885766,147467151,151843921,155850759,156213754,156531456,157706796,166678119,172337175,177093685,179251274,189129478,193713474,197401824,197953068,198461402,200374066,202236373,203273207,209757645,210709704,211470479,212056605,216516017,218151892,218675408,230633439,232179079,233677613,234497247,235422885,236875715,237283874,240209137,243430216,249113006,250616612,251685893,252619515,252890920,261725029,263780175,268034376,273225337,274797542,275697917,277545602,278410942,287016404,301016668,301289434,302019634,303396803,305116400,307250811,311317531,315125865,315987135,321995368,324615902,325328427,336546604,345750751,347340509,347645530,354295865,358581639,359792566,361220233,362251606,363088161,367555670,367608241,376640755,377245002,385130862,385363545,387721426,389048408,389662724,390401366,390598107,393244475,407187703,409934352,410258052,416052878,416700855,419218968,423692888,424780632,429069122,434687062,440223106,440667395,447368698,448122078,448947411,451881276,462227425,462367585,462745830,464453264,465399228,465524997,465544030,469695421,469825724,470972941,471487939,472742633,473003864,474875127,476408617,477200242,482662188,483819730,484132800,484646498,487999036,489445283,490473093,491389031,494718335,495264656,496568482,500015038,500444308,500939233,501951364,502513161,506555902,506713782,508053873,509699407,510013336,510032448,511703388,512449087,512850336,513233983,515146109,516522165,516840655,518642401,518788661,519273751,519306988,519349811,520270631,520724040,521720928,521852400,522958643,523353052,523597873,524043627,524854493,524958856,527173095,527365407,527530376,527782365,527842644,528714369,528840015,526754975,530232112,530294697,530411710,530991811,531162199,531274731,531437142,531535930,529114427,532203838,532240300,532546257,532636521,533332769,533641666,533841631,534326947,534650781,534922780,535108429,536057542,536838622,537678797,537796097,537929608,537945251,538001060,538011930,538160227,538209615,538471866,538677896,539566239,540583106,541279440,541505889,542486150,544896827,544908021,545698570,545726007,545782014,546590286,550846604,551260535,551631126,554056656,556919674]}
{"user_id":3100207,"collect_list(fan_id)":[18107,95024,161676,536809,1021353,1380930,1704449,2049550,2092951,2352205,2675943,3184486,4932250,5037845,7697778,7349607,8366968,16048809,19101049,20173282,20643727,21340451,22303448,24820537,28303427,43638386,65423747,68113764,71619402,74862349,78269154,79297837,86783269,101122541,153341256,160626757,224036288,257169097,366237796,513893623,553909072]}
{"user_id":24603721,"collect_list(fan_id)":[6002,25034,27460,40071,53366,67190,93310,120116,185158,239176,367123,443536,475412,504920,506434,539175,554524,617905,744638,1029303,1355699,1396627,1399229,1459929,2415866,2446581,2614676,3068397,3102706,3140441,3184486,3388063,3431389,4459306,4571612,4606290,4728424,5029396,5106956,5143882,5744395,7090472,8430539,8452210,8851322,9534730,12605492,14934285,15750323,17848439,18517150,21517900,22900136,23752593,24586598,26686242,30721822,33649420,43606391,52174008,52612744,53720099,64432557,78440957,78590580,89187613,119566862,133261044,146458111,158417929,176961512,183545364,198337057,212744795,218452250,235230776,249534514,399267576,429028889,442095430,492292078]}
{"user_id":54208566,"collect_list(fan_id)":[13811,31517,93382,195500,353238,397046,405263,407465,517810,534204,655828,727961,1000357,1389765,1752318,2140145,2556823,2873833,3768118,4290895,4629501,5054909,6737038,7152101,7624029,11152760,12152226,14163957,14557316,16961802,19272240,27319508,31488376,33645454,34261615,35072044,38241266,38368324,40061940,47525744,47661247,66014704,68390239,72735609,79938862,99884526,111623228,115729227,117252780,133816505,134416730,136139909,142099735,148075811,148949356,154077525,154492780,168377368,170868793,176747154,177600627,181381030,191235475,220768478,229687480,230832415,249498984,260579655,265047886,272858175,288101907,305578512,337931105,359964263,362933284,371480619,375500253,381741610,396546386,396908584,453455443,469154843,473009672,473334441,490998844,492777063,493665247,496946805,509217096,517924413,522793820,529631012,529633941,537529578,538419043,538813337,539181721,539896939,541017388,542097555,548140229]}
{"user_id":124530862,"collect_list(fan_id)":[18915,38511,826298,836512,1243013,1974834,2264271,2866147,3586550,5149608,5726806,10118955,11112964,12672475,13201876,17595584,17900551,20472658,20819235,21842293,22437410,22805381,29245735,31496481,33111034,35933263,36889364,38366085,38377281,42175623,45358089,49705246,51508116,55590924,59104521,61260596,62771385,63073442,63295950,64959341,65306450,69085131,69844906,87968664,88038706,94977214,95919635,96187353,105891373,108113146,117157062,119683817,120205017,123839368,125903531,126077130,129884708,133828481,136877019,139161917,140848960,142176402,144888898,148020048,150570487,154129855,155993473,157288597,158078161,159142226,165339828,165826671,168284441,170871802,168747430,171322751,172683390,177976169,195513157,208905643,235954436,251114452,256056967,273513299,299513934,302739278,302776693,314834748,315286201,358402905,363552666,371332399,395955355,398146026,407402807,409103259,415387462,415395518,415400336,415401389,449943144,464576777,473690796,475657795,476901740,476989489,477501345,485144379,489071533,521919530,531398038,532156303,539174202,542075559,542302941,550040576,550268774,552687113,554727894,556062509]}
{"user_id":272267131,"collect_list(fan_id)":[4582,63627,79077,256186,578821,828004,968937,990463,992956,993143,998950,1301493,1799103,1800053,1996679,2255768,2272497,2612146,2654456,2935068,3043744,3213314,3382191,3765862,4115536,4275356,4290129,4371415,4499482,4538872,4558541,4742115,4819057,5005926,5552725,6171705,6333549,6583065,6615232,7366544,8077078,8363158,8524438,9002903,9685303,9817315,9924950,10272360,10651622,11214352,11431112,12695522,12853267,13604951,13281103,14394681,14748272,14821266,14931908,15028767,15369947,15561032,16237985,16674145,17011665,17066864,16529461,18387557,18679138,18763184,19541730,19601964,21391398,21414715,21499653,22598414,23679136,23976194,25375315,25613594,25792907,26473775,26990799,27359485,29091367,29237426,29319724,28281424,31438606,32632603,34419318,35820877,36377751,36842362,36935791,37055673,38653308,38892376,39457957,40318357,40506145,41062331,41723969,42684899,43155902,43238305,43365028,46026847,47254302,49678363,52387073,52733197,52928779,58424050,59400664,61115726,62176731,62556714,64819943,65764688,66982489,67155889,67182505,67431489,67952632,68009616,68469957,68932646,69198172,70427903,71983576,75263308,75487900,77526565,78510710,79745896,81650968,82719253,88193203,90279435,95256387,96442326,101607691,101708079,102315934,102927168,104556891,106403790,107265589,110145153,112027018,119982105,122890400,124309867,122790528,127931163,131964759,127818019,133157259,133510866,134245648,134249937,137738379,138662062,139362639,140080494,140170965,140694855,142177485,143365736,145250043,145841278,147631247,151364032,153407621,156984672,156273369,160864008,161652204,161833078,162639454,165237492,166064952,170481751,181455888,182617771,183101396,184511391,191644072,192981763,196453645,202812449,204243378,211005566,212844057,213867239,215449005,225398617,225698941,229456804,230258709,232586457,234287561,235331645,249344538,249397846,257090200,258470080,260668538,266788049,271050755,273579675,277557390,292781589,293728657,300230644,305821760,317913153,320039834,321563652,323564061,326512129,327926320,328283414,331740584,339061160,339194194,339863824,354350960,360041707,360250326,366939522,376777791,378742181,380347868,386197205,389522789,393369450,394516465,399620967,413993308,438771166,445488950,447619805,452726271,453844189,454187788,461748018,473597858,473718632,473793105,475718470,475970573,476130503,476814172,477813850,478550900,479784458,483917266,502462086,502642261,509527085,510227185,513349141,516711083,516931191,519771758,524361334,527744844,528634137,529451081,530425130,529110053,531787651,532674237,532914294,538405729,544459267,545086462,547605166,554640927,557112170,564730966]}
{"user_id":27298,"collect_list(fan_id)":[125924,294915,454876,71554190,218913729,529024515,552687113]}
{"user_id":94093,"collect_list(fan_id)":[78093,123834,231238,719105,961333,43795479]}
{"user_id":190077024,"collect_list(fan_id)":[79424,1427789,7712784,8308163,90762756,183645987,187077192,197544698,204465484,239939107,241654471,272773322,274462845,280210976,304213452,314011753,316704723,321534368,340340002,342291305,344572058,358165544,366131525,367220201,395009440,399771285,401375607,405408164,415276226,415390316,415395518,415396299,415397361,415398425,424238870,449676502,450473105,450598060,470138270,476901740,476989489,477498472,479478472,481046374,515529555,516177728,523254014,524982022,527407776,531024155,537105781,538255053,538596497,539126661,539181721,544596533,549600988]}
{"user_id":26851463,"collect_list(fan_id)":[198268,5582441,9042793,9488194,11487485,17184370,19261455,19495553,19659486,20007722,20695676,22236305,22722031,22798885,24904860,25609227,25947584,26302143,27664728,28169838,31031848,32723181,32875803,33635132,33938601,36274047,38028419,38736213,40533657,44214600,49381602,51922619,54891095,55032199,56504399,59180356,62711719,62929475,63826203,64373900,71079139,68247540,73360011,76138603,79541260,80662694,83278926,96537379,98076259,99251182,103123525,103376692,108595441,119463269,122712204,125470852,122764481,128122917,131714183,136185944,140338782,138953190,144166717,146904997,156222159,158882594,172606993,191091591,195376814,199741020,201865734,226375314,237126279,257740850,258749503,265928420,274836899,275602645,277801199,321148289,324225273,328743348,364429257,373254986,380244480,380539123,478102789,500601908,535324959,547691530]}
{"user_id":77495114,"collect_list(fan_id)":[164562,357263,367990,499723,589294,1795358,1886800,1973338,2142901,3320910,3385995,3509377,4117017,4214157,4350451,4861935,5060230,5077938,5745227,5776264,5858638,5890065,6395178,6626337,6646585,6690505,7488508,7645133,8517761,8868822,9430758,10744841,11233704,11548761,11795407,12903425,13562754,13261830,17931651,18729023,19028481,19619860,20468633,20822537,21354468,22565156,24218908,25862296,26676792,27301894,29414789,30075807,32547065,33254033,33598764,35491011,37122027,38604864,38743021,39044989,40137161,40186922,43573264,43887881,44813904,44942277,45118076,50170479,50175103,50403304,50494318,50642597,52641015,53131768,54716318,55051866,57233023,63499878,65139235,67258755,67596105,70554779,70787169,73277079,73927693,80962589,84055585,86211496,90727121,91568706,94490148,96395320,97586725,98825069,100216290,103012858,105444713,109402948,115758031,116128935,117945285,123749464,124433071,129680857,132387295,132558578,133090941,137742244,138053168,139976563,141079028,141970329,142209915,146517428,147887961,148882559,156167702,156408688,156982734,157216877,158258541,160412806,163018913,164079332,169057562,169885825,170811398,178278985,180533882,184461319,185194957,185515255,199836673,204252527,207033000,214843241,215897453,217604219,219853043,220308675,221188219,224279089,226036135,227100120,229434884,231731905,241079063,241987293,247119702,251392780,252124811,255124983,252288614,262649765,264117559,269385452,277159656,277399792,280141199,284193118,290050902,294526581,303170551,304771398,306576448,313353569,320208798,321312461,331719411,334163317,336209847,338795302,339748693,346155839,347062326,349286245,355803780,356047561,357140893,364368424,395942537,395969971,400110475,400353252,407484726,410237081,422267957,424576284,425019665,426137565,431793445,437452051,437755786,451094894,468829907,474726363,475124827,479146831,482739427,488235974,485940004,498923928,501034634,519004278,525895457,532323474,532336425,531691429,535650226,540234831,541052131,549953947,554559871,555533492,557936228,563323510]}
{"user_id":6149574,"collect_list(fan_id)":[268105,489493,1811794,3137842,6760968,137500097,271222323]}
{"user_id":57445075,"collect_list(fan_id)":[319096,777997,1878502,2817665,4067958,6818117,6906318,7860117,8009776,8161401,8301899,10848271,12538246,17752433,19022661,19439812,19663893,20452900,21424331,22522077,24612583,25388735,25850224,27484198,28066792,29310607,31745042,33719670,36079895,37414938,38024266,40367286,40586659,42332692,43559423,44152622,44595243,44933827,44991617,45354394,49188333,50419915,51814096,52181637,52664347,52687075,54379019,56015303,56385386,56649385,60448950,62098169,67185321,67578055,72420997,75789957,76701941,78836973,79796408,79934318,81410386,81572781,87925817,89216960,89359828,89464137,89787792,91425099,92352517,93546845,98408116,102732053,104187914,105551438,106033696,106094081,107534007,108427300,109213689,109790987,114498335,116587843,117987420,119846602,121839664,122984026,124552502,126448023,127376981,131091709,131250437,131829531,132268442,132734639,133180616,133859260,134287578,135796753,135948500,137884193,137968138,138559074,139605233,139974428,140192397,140418018,140474170,140846790,140981838,141347400,141861782,142871642,142875213,143037700,143838627,144516931,144586338,145150169,145234293,145254134,145904287,146647381,146886862,147073032,148542245,150873255,152778515,155554048,156563228,156976724,161730048,162072144,164619926,169579061,172094499,172567667,179659622,180401321,188891175,192535555,192735263,193798863,194659267,196352062,197376131,201682060,202316542,202377512,205096935,208083513,209033933,212400665,213488785,217398357,219357988,221178650,221634666,221908012,223148686,223432057,224162470,224580047,224966019,227170634,229011562,233167486,239696809,242539626,243222545,249004372,256826497,258147770,261689655,266473875,267579011,268425559,264776592,273395911,275836385,278261312,279030746,280598210,289377725,318800892,319143983,321696117,324358335,326764842,326850074,331248107,332049912,334889313,335394001,337319811,337969671,341778468,348081339,356291679,364333370,374237896,376860733,389459519,390906436,411416319,414393343,419185180,435752008,437168431,441230271,452992835,461364607,467326888,474937966,487279125,490986535,495722266,497396386,497421486,510722893,511734795,512488873,513092101,519214024,522087096,524671957,525416822,527664760,533416841,536147790,536173151,537156028,538156669,538478954,539190075,542540168,542696090,547912891,549748396,554320327]}
{"user_id":263867768,"collect_list(fan_id)":[233836,23665519,56883446,65941206,106609340,110800821,134346453,172181066,215545728,360264821,454197247,457818788,520637681]}
{"user_id":363397212,"collect_list(fan_id)":[223245]}
{"user_id":120522154,"collect_list(fan_id)":[388457,393975,610605,873902,878481,971433,1209710,2345724,2384510,2977357,3646389,8317683,13843916,19193941,25231315,41830087,57723862,59893162,66617633,98996570,124820672,155022141,166375074,235983717,238030530,247823562,268252796,290798930,380655684]}
{"user_id":268770181,"collect_list(fan_id)":[347760,556950,1086236,1390076,1893799,2096646,2927625,3006497,3172676,3602400,5707347,5976355,6518194,7616531,8348588,9351312,10605053,16410269,16498400,16624980,16676039,17325054,17690374,18007309,18143326,20918699,23268308,24274331,34486342,35563299,36070478,36271467,36852482,36943748,42971058,46438833,51091976,61893228,62497966,69656646,74090820,74571121,83418810,86921435,88585384,89594107,93185090,93325967,94455024,95389544,96361817,99194571,99702640,100165701,103806348,106945572,113707489,126801766,142781021,145313840,154094033,159121268,164083815,187831332,203992127,207582658,215446783,227249153,235954436,254053598,256267878,256857567,256966868,260699167,327393841,345834234,356224359,390884661,499837685,541012150]}
{"user_id":27832682,"collect_list(fan_id)":[490260,698667,1473184,1529484,2517857,2528734,2620246,2726564,3321326,3374810,3726389,3831181,4256088,5717800,5728774,6153706,6415360,6623166,7011443,11172987,11576919,12106744,12462762,13630030,13279970,16646309,20366922,27823098,27979568,27992589,28361148,29908836,30459841,32470195,37358604,37755215,40563980,42091138,53479701,60881513,92219089,95125855,99566759,132222191,134781844,141109552,141606339,152527591,154540573,162299478,182040474,184498407,185846867,204400263,208690022,214918285,217199014,224715781,243376201,255968985,268258526,282972650,288523346,296477005,302274390,302506571,309439114,427297639,444711124,447607985,447789127,455826370,466153306,467120517,480983014,555235640]}
{"user_id":1355098,"collect_list(fan_id)":[634045,1043416,3363217,5248693,8494381,58659862,135874233,137504694,186760142,355254302,439438632,523607427,540703198]}
{"user_id":9089969,"collect_list(fan_id)":[635198,2797988,6599863,10500075,17771300,31787069,529551008]}
{"user_id":32279020,"collect_list(fan_id)":[613369,615035,1342243,1389765,2226110,8139686,8702623,8785363,14308149,14645268,14727132,24018649,26293202,27091780,26765936,32223489,32504907,32768076,37128955,54625146,55922474,64897081,73726402,78399822,79041132,89607199,101206144,116125230,116751273,119914769,138125697,139066242,143585948,152651135,153349624,154068246,163183351,164351179,184782489,190714502,216980714,239608347,267876289,283800746,341794002,366985388,401159062,464720483,476186018,484117246,526229550,545033379]}
{"user_id":191615887,"collect_list(fan_id)":[671142,19156957,21883297,29265662,39575615,43296929,47881740,50574443,63569102,67526742,67625354,71707821,73199877,75826333,102986078,104994855,106933279,129896030,132919963,134441475,136379225,136803897,137285229,153677520,155529476,159989413,162980133,170851988,173352855,174365927,183834317,186971781,188151192,198129528,201186342,201243586,205226821,211420634,211439060,221529263,223138497,226842380,233939171,254940271,256727692,268872866,283581217,293697309,294359223,307529276,317235708,320710272,330886389,333830570,336274938,341061177,348019032,352614264,393925518,402586305,415723229,430864322,446675378,482117862,499906618,503007758,513301689,518932457,547697385,559233253]}
{"user_id":19123558,"collect_list(fan_id)":[955371,1751359,13068648,13111545,31163348,34805437,40506483,105378605,302691328,476901740,476989489,515450541]}
{"user_id":195280578,"collect_list(fan_id)":[906288,17461154,27616170,82862982,114795602,136343037,142501011,146810803,156358372,157889871,179180044,182657234,183781660,190362283,193960535,195656996,202095619,203181252,205878045,210803357,214190507,221617056,223934140,228276189,239755384,241387034,243863143,278227179,280364671,285128003,290090687,296461203,310401415,331133138,338565904,341623057,338124325,348185460,357309681,362962834,363023742,368057226,368606133,375211427,388872296,397385067,405554538,418862299,420065702,420548476,420548565,430603245,433722581,435435342,437035915,441819668,443344796,448801251,451684081,451729823,451829614,460678666,460994423,469980566,473008921,481977654,489599195,496449397,501093656,505816613,510635539,514415914,518512699,527065114,535613480,538364483,541080968,544469892,547761306,550310140,551897874,552877736,553967482,554051747,562276600]}
{"user_id":112842845,"collect_list(fan_id)":[1193537,8228575,18172721,50917363,55829651,66692590,67562837,70824287,74675198,83764549,84168529,97604359,101590716,108227038,122082623,124630711,126433986,131816329,133885786,137396680,153653661,154235128,161380434,171283839,171507116,180301734,182154222,183739061,195626519,233351851,237813842,249533340,248337378,255250928,265669998,274173300,278942518,280497256,281984182,311688872,318515111,367533682,391429621,397566456,431039139,432040167,441428037,443902960,456054093,496584925,501276411,543768316,562463304,562936888]}
{"user_id":331495569,"collect_list(fan_id)":[1043858,3171483,4469246,7847697,7862004,8915799,10255376,9622662,12123258,12818759,14621730,19180635,23731946,26030007,29608322,40434053,49715573,50014724,50201959,57489265,61556005,63543050,63717937,73827376,75256347,75314249,80272033,103788225,104000685,105446632,106335133,134534427,137939623,139277137,141371395,142110907,146135276,163185592,165082290,170263440,196033328,202242382,202392406,204930210,210273582,213450295,222186600,223824989,229574995,233735155,237660338,244249272,249680491,251236528,255104989,261640015,267759182,274260396,276218982,283712336,292599068,296150603,311186438,307419817,319865445,326272457,326565629,333871326,333250724,351831428,355843651,361850759,364602751,368638416,373886042,378992430,386420138,387195441,388545335,393763991,400604812,402090985,406738831,409810698,411227339,428220409,436269340,436468703,440730039,443244334,462294287,473897796,490655083,497907091,502820309,505925281,509504369,518165204,522603661,523108228,543029605,541155777,555553194]}
{"user_id":9489285,"collect_list(fan_id)":[1451988,7031754,14931579,17698437,23742465,25501053,29555630,30401959,34131035,36248879,39252847,62039667,71156313,102614919,121426309,302776693,399461264]}
{"user_id":40147706,"collect_list(fan_id)":[1556039,1584860,1944801,3969196,4721820,5564045,16682683,18022711,34383137,49479643,54332241,54443603,56557395,81089715,93125752,99970643,115015491,117949399,120482878,120644511,122286202,138138606,138855359,141123809,145967825,146536679,155118966,157247966,157780282,157886099,158683865,163486729,165505788,166896795,167642081,171825526,172576383,177709676,185989731,205073309,209171867,210062887,212010479,213446445,224533011,228267812,232576818,237478337,237857027,257080706,261993364,266020576,266767877,275301217,281777179,301018303,308215719,309292416,319090314,325338942,346007060,351259895,368054252,373741847,384918347,385768365,392947536,411522381,426989076,431590773,447643507,451730684,451914047,477167310,477546238,479914120,480167859,481029692,482175676,487435690,487907106,499497626,501028780,507128551,524892065,537096429,549245671,551300964,555967429]}
{"user_id":174231120,"collect_list(fan_id)":[1532338,6802946,133514466,143037392,415398425,415399445,415404361,561465675]}
{"user_id":411764434,"collect_list(fan_id)":[2171450,3858932,4897297,5455998,5492402,7183203,10143147,11139766,11243636,14350323,15071311,21252854,22420456,22628452,24157267,24793294,24914314,29560720,29622294,38297096,41834657,43299884,49124348,53833480,55564312,57192845,57694118,58417335,59513760,60812379,69647008,78043657,79702073,86223769,90187657,92066700,92303838,96851690,99044604,103485063,116734717,116786398,118221567,127400769,134477350,140335860,143469721,144817404,145163409,151803472,151897872,152637723,153204813,153634871,154860838,157176235,162273402,162736904,165390384,170388617,181752378,192763003,193625634,194014163,200589172,200953210,202359956,204231852,208695314,208866817,209341635,216625848,236871409,237487449,238717925,243950808,244774139,245597383,249037499,249063070,256696490,256810849,257754946,264728702,279689091,285906980,288719689,289610086,303287423,309419110,314772993,320251094,321286429,324592887,325779511,330439510,331878849,334037767,360677195,364020583,364577910,376464674,382227522,382548829,384032907,387258641,391918233,412458305,412971297,415385763,418497122,424321173,439585454,458677934,471762284,485474807,490359361,490041174,525457277,529916197,535745516,543834036,547139353,550774798]}
{"user_id":281596962,"collect_list(fan_id)":[2335490,11137943,23871014,29191801,31569349,35318229,42796739,47226729,55748576,56453973,56891527,60114415,62200205,68285609,95460943,98799465,118232544,132084759,127725042,136118783,139180912,143430143,145776038,147847193,149933358,157195534,160529226,175634968,183023268,240821358,255786148,285619736,309416830,330890924,412821245,434334547,450492359,481318838]}
{"user_id":197584339,"collect_list(fan_id)":[2577859,4838800,19155220,26486502,38462610,39110928,39664962,48182558,55173279,56502732,57576124,60791690,65051317,68415072,72857103,74638708,79054108,84283325,96383706,100096979,100358815,103896659,123159944,136976158,137576026,139433336,147077345,148258672,149637726,152490585,152910618,153460073,156882804,157201776,157807509,162297319,162896505,169500247,172381643,173207119,177467006,182617974,184082328,191502640,194788892,223534241,226139158,232097427,237551296,245263945,245950406,251474633,252026976,298462695,305632437,324326533,328649282,333261490,349283779,352128534,354756079,405096989,458026135,501962630,528889850,526748452,533381043,534711707,541697914,545161790,550778967,552687113,555460653]}
{"user_id":374574106,"collect_list(fan_id)":[2887009,9394454,42217264,47586741,64274904,76034069,147361172,151688153,167531961,204290273,263045670,338929447,386398788,483855732]}
{"user_id":99396603,"collect_list(fan_id)":[3909011,4606896,7138772,15701800,17741663,56820936,66611693,75618537,82617871,160876163,266399346,279012042,286687046,507040123,517128078,517702616,518022432,518178354,532529022,551953197]}
{"user_id":213518738,"collect_list(fan_id)":[4553844,8554223,10113656,14328114,18218082,33488417,51606545,54983217,55697016,72709969,134863454,138090859,150721265,153840218,154117624,164065300,171907389,183636228,194159336,209010375,223906964,233688402,258327099,282770654,307720620,333444042,342312095,346736815,366696172,390862103,432775344,434903887,454479436]}
{"user_id":8171482,"collect_list(fan_id)":[5158477,6154344,7492570,7717893,13766394,15949830,19948657,23583151,25766754,27852803,28672182,38077232,43851564,50380719,52642102,58674002,62746226,63333749,67109298,67917732,71613638,83212516,84544929,93047004,96366976,108899319,137861835,159017351,173806217,216339413,247327690,255003110,376787283,503869815,529989457,547136870]}
{"user_id":329813582,"collect_list(fan_id)":[5341925,24379764,37404436,153398043,177531887,194113400,268042834,386950384,476083701]}
{"user_id":7579711,"collect_list(fan_id)":[6043107,59116069,67144807,185141625,230633352,296415755,330775353,374474507,498084725,519994498,531388132,532156383,539289779]}
{"user_id":9289798,"collect_list(fan_id)":[5499448,6642418,7963474,11620742,17883083,18255740,24585950,25444505,28025900,35764766,49367475,50058305,51629324,55248801,73702316,77792937,109540652,113871679,116683340,121897820,152360013,155159365,167671896,174207497,176018058,193444288,197592078,207922486,210045206,311210984,399289200,416104526,423365936,464560575,492187631,511828900,512075008,528655133,528823218,538374256,544435176]}
{"user_id":9715096,"collect_list(fan_id)":[7653992,8992213,15078423,17324092,18533841,33308196,33335319,44335284,86962173,106646162,107560141,150884667,156971338,157518535,270250943,278678492,281575192,290535422,319258904,323259386,339247094,412295931,471768837,483105495,487504287,516598788,519490346,529225252,539630344,553422333,561963404,563239483]}
{"user_id":96211703,"collect_list(fan_id)":[8413489,259325034,304310893,320444295,349276554,524146218]}
{"user_id":174883358,"collect_list(fan_id)":[8154147,39227111,172640698,173128323,207465278,286028141,320965469,369605828]}
{"user_id":94247946,"collect_list(fan_id)":[8809392,529459361,541454609]}
{"user_id":25552745,"collect_list(fan_id)":[11718116,23408043,252040279,350903967,527916917,543470025]}
{"user_id":249838527,"collect_list(fan_id)":[12667151,142496423,381465070,562703152]}
{"user_id":209124611,"collect_list(fan_id)":[17390949,31380479,70518478,100168019,103974884,109736549,141510138,209250539,215755341,275112437,299012255,375484783,418931395,448146910,463658132,528326632]}
{"user_id":29422165,"collect_list(fan_id)":[18589632,24093370,28593134,30417557,30826740,35025684,35293042,59550990,70882522,72572889,97960587,115166009,116331295,124795183,125023252,142810783,143060222,182768866,213058228,239819950,262254889,263365572,288014676,305949779,312800955,394226491,427248460,461605283,463588901,468018451,468416276,476149407,493107102,515529939,516547023,516844821,541323635,546370229,547252126,548796096,559588761,560266518,562481282]}
{"user_id":53174947,"collect_list(fan_id)":[18760590,52917048,302412485,324323008,342326143,356012829,360474940,435351694,457789088,496526381,497891226,514178277,517619458]}
{"user_id":248135386,"collect_list(fan_id)":[45156820,45302481,59534358,62712270,67635005,71093042,94642914,94643239,98241834,108081274,111912242,122984966,143550920,166236859,166387064,171235656,174045749,180321640,186942995,195381295,205629720,215488186,233502819,245176487,248414920,290670496,302036636,310496353,429432505,438783852]}
{"user_id":59068563,"collect_list(fan_id)":[54599414,61252719,98462034,116330728,116593397,139264370,141595818,142121634,145774979,156800058,172828170,176066520,241792593,280723910,284283087,289976731]}
{"user_id":36612001,"collect_list(fan_id)":[69306881,252742602,315155497,529169699]}
{"user_id":90393641,"collect_list(fan_id)":[70907889,434672759]}
{"user_id":29449927,"collect_list(fan_id)":[133164644,134800938,146164993,172964546,209191369,333807252,530349185,548800808]}
{"user_id":5121622,"collect_list(fan_id)":[136992267]}
{"user_id":367507148,"collect_list(fan_id)":[141800523,163169205,178357938,179345377,184909375,187843646,212004178,239336326,247682618,255692655,255838989,263612291,265645010,265751354,269247332,270140432,275665948,276363657,278451287,286389400,286691785,294170646,301012906,301406490,304447570,304598133,309697161,310038287,311049096,312983525,314135108,314986449,318191381,322610182,326111349,331792286,343806770,350709951,351834176,353341448,359452912,362087848,366900307,367187606,367292802,369187162,373140541,374111128,375087297,375608933,383795306,386702828,391290734,391721023,391741419,393745342,396205765,396222184,399669415,401664285,402077086,406145573,418692572,419449889,419967949,420445523,421706125,423004214,426412817,427567220,430738754,435920324,437288515,444276750,445970041,450115712,456030670,460868033,462747593,463384611,466263843,467087603,467360853,469560108,471806482,472741282,474320570,477792700,482337362,482596751,484012609,486483780,488391357,494408318,494963515,500299150,501892216,502136900,503882798,505261762,505336478,505813240,506932455,507033134,511301732,511440885,511686964,517475525,519248637,521675133,522954860,525277109,525568768,526787349,527277431,527413144,530205377,532645496,531680783,535243987,537794840,538374256,539222027,539513379,540133622,540274489,541377206,541826956,542077915,543036649,543083200,543370436,543427184,543910801,543916399,547709713,547745670,547871121,549076550,553074841,553892731,557898607,558528944]}
{"user_id":153043191,"collect_list(fan_id)":[154496092,177004173,269216151,347411807,522116577]}
{"user_id":205682294,"collect_list(fan_id)":[187305392,307382188]}
{"user_id":207886842,"collect_list(fan_id)":[236510607,358369476]}
{"user_id":275332623,"collect_list(fan_id)":[239926298,259182838,275195035,327752842,469698988]}
{"user_id":212039251,"collect_list(fan_id)":[455800546]}
{"user_id":146357114,"collect_list(fan_id)":[535917511]}
