{"user_id":63294,"collect_list(fan_id)":[18285,33309,35985,45610,68686,106651,171731,188583,259839,262138,213688,396162,411139,519117,1025306,1221084,2251433,2289919,3006342,4277396,4558409,4737242,5453463,7119474,7620532,8273229,8379189,8478972,11893909,12197185,15387196,17791307,23069554,67094001,67204083,78151589,141378536,151356780,198335829,530186314]}
{"user_id":78305,"collect_list(fan_id)":[13836,51822,53871,72952,90520,127492,138931,192075,282552,420329,502774,503866,507265,547842,575248,692521,675261,982118,1077189,1087046,1187451,1223757,1284726,1469619,1560136,1593027,1594788,1751703,1912127,3000877,3509363,3598401,3981353,3925865,4689524,5000820,5887165,7141722,7605656,9739820,10711427,13299329,16608375,17392530,19156296,19309938,20793610,25845458,28647454,32423472,32748345,50653312,53472120,57893705,96491454,98422211,131585903,152937166,155956634,198010937,221010338,269516573,327757568,411763448,421203471,439609396,487328832,500773513,505139573,527730080,532057564,533138864,533756868,538829435,561270720]}
{"user_id":415245,"collect_list(fan_id)":[20298,152636,360903,401236,664835,956647,1516868,1728318,1767246,1811428,1917859,2093764,2320539,4124167,4521168,5765662,6863522,7072147,8434038,9583257,9776625,10179623,10950675,13722873,13882238,14124142,15996370,18034634,21729697,22488755,24104490,37191661,45976348,55071070,56147108,85046498,95603374,96537348,120761477,131837685,139909668,147647660,163298803,171639247,175269404,210614411,221392367,236277128,253516798,264763086,275501655,410539774,454213062,457285397,513749303,531260157,536191078]}
{"user_id":469170,"collect_list(fan_id)":[3208,5812,9383,50043,71868,78139,83270,94065,113203,114010,122844,163326,164845,169673,250095,324041,331614,376963,406523,415979,526511,541170,616498,627123,694845,759121,781890,784058,893799,937148,1000315,1114990,1120205,1133919,1223340,1257429,1414383,1438753,1804310,1820056,2056893,2302736,2327104,2386516,2412268,2671812,2722420,2754308,2936185,2969120,3326114,3426069,3448889,3949974,4021568,4305401,4457817,4507917,5182454,6385194,6478532,6806834,7111367,8028858,10575086,11090466,14768206,20678735,23841956,24681547,25936333,30445916,31122465,31232261,32490592,34551870,35126453,40695809,40880537,41463854,41791955,49496402,52847127,54086443,72971184,73067366,81757555,94870091,127712206,139279356,139981718,146172306,150947910,151298064,161296256,167250297,170956905,173194190,199071662,204641995,211662191,215967955,217567823,224126030,226006370,266779912,272077717,268626326,276278527,283438601,283948486,284566154,352287121,375359489,389635296,390051760,444333740,445346158,452026645,475628858,514151317,514361898,523379949,524132141,529629371,529982826,531221566,536603235,551284609,553010486,559896377]}
{"user_id":1817775,"collect_list(fan_id)":[42286,106704,274885,306472,309954,344607,362814,439676,497828,554862,571764,601683,636617,670945,766390,869820,1219749,1367106,1552893,1585009,2009724,2175160,2405735,2528627,2662125,2671122,2694010,2718816,3580088,4693694,5639738,6136207,6200192,6259196,6283484,9160776,11679998,12715593,12896531,14384453,14957995,15907862,16177608,19359623,20036785,20344782,20563121,24611819,26526476,33951170,41482231,45626694,45657717,51838586,65625032,78088950,78755686,96533244,104781174,105669225,124511284,133039468,137200278,143443993,244008625,289828767,328264675,334554428,382784712,383757101,558475063]}
{"user_id":27720365,"collect_list(fan_id)":[21809,691222,1262937,1349541,1527522,1794098,2000973,2088798,2124916,2403755,3452380,3901731,6725766,6792165,7582210,8668471,12159723,12439333,13284977,15914970,16618517,17519314,19375989,21912137,21935238,24269184,24293627,25716128,26687736,31363098,32217518,37220276,42279236,45112718,51172410,54152551,54517174,59344369,61591994,65025144,70724686,71702737,72576991,92883013,94739253,95569304,100498568,109030836,119394889,125608232,133083547,135110507,147977388,152032953,168238867,226396448,237765505,249108393,253477524,270352156,271473930,275393844,277403964,278036442,285421613,288031481,293205358,324310847,349403746,377719880,380894769,440657837,473443870,477705012,514313561]}
{"user_id":38971455,"collect_list(fan_id)":[10894,20959,27996,35755,481,66191,80258,83536,228959,238610,286089,327056,516496,625019,778101,978051,1053347,1137230,1183735,1204454,1259656,1660851,1766759,1776428,1796908,2022420,2298847,2435184,3205219,3237522,3370668,3564765,3689945,3888366,4287067,4288077,4835135,5092669,5629437,5477407,6503785,6614369,6623878,7223444,7430452,7930240,9101858,9137156,11158614,11657801,11693671,11731722,14193200,19238282,20085186,21243833,21570577,22748113,22249893,25788845,35066209,36744732,39628635,45848101,46295723,50241194,55055637,57692777,59432301,63161912,75554046,77357969,77891592,79730700,98269352,98393057,121978838,132462354,134267736,134441670,141516892,145752286,150406585,164485438,165226749,166272051,168644309,175429444,177972761,194335941,198747319,201233054,202292495,205188095,214892429,218075264,224365892,257905337,291566246,294175895,301119486,338593954,352144480,391743462,396148737,412302493,442520305,445146039,448146910,455887632,461645708,494811654,499813046,517422468,525228464,527660328,532242690,544614347]}
{"user_id":49056619,"collect_list(fan_id)":[6355,13379,32823,140321,383022,415524,444127,537094,595176,598626,803663,814264,861109,876255,993520,1123484,1381914,1503109,1558101,1897056,2098896,2113991,2711121,2825438,3517217,5138382,5449337,6398281,7105012,7585037,7351609,8833641,9478224,9847013,10419580,11158600,11358881,14209113,15255704,15452937,15630734,17655235,17798230,19900397,20387382,20779537,21005308,23335532,23935828,23963832,31272538,31525926,32528105,33998144,35590623,36704353,39141785,40676270,42824838,48617349,58051628,63959791,65665097,73206057,76253252,95827156,102112259,102460713,104783521,105298673,116491012,119456265,122914522,132306611,132609574,137546142,150479196,156300958,167473097,165860522,220582683,242179718,282772708,290899342,381697083,382288032,385639168,424519612,432137414,502112894,519200411,522886807,531601691,538081026]}
{"user_id":189478,"collect_list(fan_id)":[60056,97630,169648,189470,585354,1451031,1498146,1752560,2345724,3222390,4676380,5832222,7291552,8811037,12589283,15395137,16845008,16944257,23038399,31434318,37068569,40863847,41566673,42450977,62843050,69392446,83683164,135913204,142725965,143062867,145134707,150692073,171398318,181753266,182569401,211094737,231208275,234859897,255736512,282886249,341192938,360306896,398232566,430272425,435280478,457675401,461104832,494629935,499227931,507678919,513256627,528407803]}
{"user_id":968540,"collect_list(fan_id)":[107053,165679,171084,304588,380819,578217,1459646,11744020,12474429,18927937,20723332,27077692,34025585,53748690,134065629,150322718,199635096,254483007,279662425,332627163,442033659,481768372,483269139,503094502,534502732,550865239]}
{"user_id":85763092,"collect_list(fan_id)":[106892,736174,1316184,5808126,5945215,7560594,12721295,15721904,18105872,23200009,25543903,30338662,32902154,42433384,44070666,51258598,55785266,59547111,64951761,68598093,73336995,74259489,76719478,82198441,86655282,89891067,93191694,95206237,105595971,107335796,119179149,128906954,132605424,139040679,139902884,145968570,152181676,166845468,174495578,211014407,219975032,249958461,253102933,253916815,255715216,289205783,376251685,419577019,490943465,508044812,510063188,508721911,521076401]}
{"user_id":7638320,"collect_list(fan_id)":[180405,217732,528962,753196,771758,791722,796206,1112258,1325082,1326288,2050480,2310602,2351211,3492310,4789018,5052452,5441190,5656844,6282010,7102342,7256389,7436624,7577632,7913622,7352221,8273864,8451947,8560361,8931416,9183641,9880423,10228243,10578701,10758798,12725336,12754756,14774744,14807491,19139452,20205759,23784850,24035382,25057318,26241071,28378914,29657416,31215231,36195511,36476663,38633581,39798586,45647991,45890171,46679134,49751206,50162376,54566189,55589017,58728520,59699768,61085031,66333128,75770755,80649826,80843799,81611837,88747919,90753064,97564251,100000808,104244668,106607760,107254361,112772478,116438347,116528077,116579469,122396285,124174295,125023304,132965108,135643156,138802766,139256172,139405433,142566004,144735558,145825526,147277279,162056294,160988392,167887206,168884710,174098110,177121068,182537850,184108500,189616144,193540517,207544783,212428116,215107905,220955347,224434423,229952258,262628902,268784107,268885731,317887024,330160889,332066687,338563160,348920868,364514226,369047839,371542759,397261575,411035662,415233658,419858415,423626084,425551364,437143894,474761698,480130861,485481843,489444006,490142214,500559925,507697619,511447211,515467803,517733225,521361545,523607427,526846304,527164333,527814062,529360801,534255493,535384093,535926770,536146607,534119005,537339829,549784145,552331889,559555850]}
{"user_id":98102371,"collect_list(fan_id)":[314890,499723,4172867,16081357,20868368,23477668,27506183,26748208,34317598,45967189,46307643,51397508,51908830,52395730,53279255,65430145,68185302,88030746,88096990,91546643,95944904,96408397,98636729,111189612,125233600,134303634,134693720,136062447,158876654,277180653,277436550,314897280,328884107,353558831,454777839,471900341,476989489]}
{"user_id":63292332,"collect_list(fan_id)":[366227,570083,980911,6523175,7123657,8958297,12197407,13024639,13390336,17578924,18221988,21554366,25625725,26982337,30386634,30880387,32497663,35018479,41609429,41855296,52822773,64395911,67450878,71338717,79907121,95179691,105633555,109847227,112416267,122537508,128513716,132900264,133361842,140788664,144578676,155031947,155735190,182499133,187921630,191789161,199821532,215730492,217037002,221606506,224820524,260257062,267361569,269181764,271325412,277809375,300361754,432075085,525525859]}
{"user_id":5980412,"collect_list(fan_id)":[465386,986745,1255127,1287280,1696523,2330560,2908584,3713538,4853204,7169638,10041889,12294738,12372072,12432376,19897242,38273237,53887854,58775023,103219500,109395569,161656740,168522577,195388673,338732216,457447836,458154998,473959397,506978151]}
{"user_id":53046047,"collect_list(fan_id)":[480297,1331094,2375619,3893742,4592848,5912576,7407888,7451043,8231517,8499799,8577761,8601399,15169194,18766836,19222093,22164663,28684238,31148746,33990774,39274490,41308457,42929450,49458689,55153349,57717838,71574282,77326083,82986442,94465761,98452223,106085611,114304736,122502100,133856210,135280127,138177954,141298402,141885314,144884304,178543015,180168842,236854226,258488930,267457464,305393600,333328847,474601307,529744754,535111404]}
{"user_id":82823017,"collect_list(fan_id)":[610725,781599,14715719,56810616,63939686,164339111,224674084,230910576,269204781,303025289,327141744,372264730,394339371,415898783,430425222,438137507,439702837,441168240,470805114,495017294,507487477,523066428,533507170]}
{"user_id":222268547,"collect_list(fan_id)":[622294,816744,959731,1202969,1388319,1512426,1847201,1912531,2182033,2806166,2870165,3136020,3417698,5293184,5316499,5481986,6312581,7328554,7333196,7592438,8064501,8210250,9268779,9320039,9919471,10690367,11465153,11632329,12518433,12669820,13254397,13906746,15158197,16496331,17010337,17731630,18309835,18852610,21182473,21420447,22223075,24785259,27203936,28145873,28843028,32180249,32603156,34554337,35411534,36485674,37604131,39612425,39719866,39774139,40845321,43457619,50918545,51828243,52414072,53414891,53528586,58598950,61556870,62677397,73809314,78171761,78369077,79027395,83641958,89023965,93115651,96774509,100397306,102280557,102885981,108278267,114685852,115497678,118086722,120136948,126899503,133063927,143730661,150417618,150791226,151977588,152357753,153104063,153607859,154518850,155055567,154023869,156678470,161970085,162024786,165994483,167581612,169881681,169976933,174816873,179017426,178224469,183476492,185921806,187472666,188028958,196188089,198680307,202207359,203487495,203724523,209301791,212850023,215883975,216937428,218194943,221441778,222153166,229697036,230173269,233941336,237519797,250307011,251544725,252310616,261102160,261945137,263335885,264164335,265451465,269444785,271587922,273771697,277710329,289063427,289416455,304872082,308394087,312760599,329889939,331844728,339287750,340756307,356260528,360791726,369227012,382997298,385071237,386539859,401479757,402532537,413252263,421955726,429995035,432617524,443739359,446154443,448252291,449767057,459359733,484789504,518554057,521683983,523145689,527377265,527620515,529282971]}
{"user_id":226205292,"collect_list(fan_id)":[622056,8663499,16438810,21543149,54486275,109867704,117405373,175771400,288218658,340947669,379475880]}
{"user_id":384873668,"collect_list(fan_id)":[700325,3880855,6574265,30725104,44642738,65046398,65291990,73247982,78778608,100636015,116186814,120066641,124625177,129648991,137239806,137561307,142828772,147788433,151234336,152602195,155038226,153979362,169049815,173798770,177326776,178044277,179342145,182980519,183159289,203678670,225669482,226933277,238251259,248549345,249579567,250535810,251178629,254160869,261622427,266751602,267424149,268716976,268839614,268839779,269415173,270118888,270702197,271557077,271559197,272008386,279164971,282829331,295234789,300860078,312667393,318412345,318585449,320620969,321033874,322375274,322803421,322839625,323033690,323387883,323670255,324426837,324482497,324636917,324638150,326565656,326643917,330953554,331900017,331981028,332796731,328694225,335687586,335861278,339000047,346576234,349420175,364275387,369440375,373213392,386950384,389725019,395003997,399823837,400551188,400820276,400893216,403412498,450660992,451155357,451328275,453424557,454328623,454877287,454880450,460107142,488137788,492752598,492898085,495108427,495849534,503694554,507095043,507601570,508923039,509121827,509614874,510371023,511329559,511479489,511494754,511711074,511872868,512229422,512404016,513273983,515575522,515683517,534361778,550043508,550674249,563649303]}
{"user_id":68508131,"collect_list(fan_id)":[941512,3463351,3593592,5265498,5400130,5887128,6103089,6776018,6915063,7742973,8017844,8835852,9071699,10459841,11920957,11428680,13427782,13747579,14143822,14763040,14855444,15884782,16522945,17680506,18019742,18057448,20556602,20697243,21347847,21650885,22156445,22568242,22584293,22749277,23196945,26258055,26497527,26529781,27191088,27458363,27779567,29297116,30021215,30221093,30331325,30536851,30741523,31203179,32611221,32648790,32966996,33043001,33365914,33667178,33841798,34120023,33510977,35518896,35694775,35722912,35176901,37332549,40830620,40969779,41431213,41588722,42684408,42925549,43147670,45062845,46930822,47085744,44300565,47194576,48009398,48044526,48828581,50348855,51122712,51180243,51253196,51807269,51851425,52843374,53024182,53533621,51699018,53723114,54328612,55234127,55313629,55319713,56549234,56609453,56748208,56836859,57031033,57205296,57548371,57821839,55635295,58146177,58295925,58326442,58354812,58454564,58909696,59004215,59278329,60030117,60200556,60255472,61168903,61376905,62144175,62546622,63192283,63442156,64331576,64479458,64630343,65515316,66174363,67715286,67862419,67916039,68230496,68335832,69462718,70287841,70401081,71256369,71814407,72640006,73418386,74328149,74971685,75429254,76178602,76481749,76684413,78456616,78520335,78605418,79634020,79732762,80286414,81807505,81954443,82716710,82840654,83001988,83224357,83861052,84099282,84993471,85065484,85192215,85649181,86300568,86432380,84465015,87687056,88097474,88497833,88507458,89408314,89450601,89857996,90163606,90352690,90455599,91028242,91209901,91572468,91670793,92202695,92224992,93142852,93161298,93171853,93234278,93358449,93893303,94664686,94846898,95800447,97335214,97513977,97874878,98631398,99148041,99177939,99273710,99345362,99672300,99783275,100459143,100510175,101729586,101892808,102283409,103271521,103420882,103975289,104131752,104838803,106022409,106232925,106389499,106928546,106987996,107238998,107451143,107670416,108440209,110341688,110824890,111043028,111952333,112818987,113340427,113507353,108775832,115805588,115921969,116575454,116709277,117196016,118377634,118470740,120821905,121183213,121544981,118713908,123956500,125329495,125422170,125591571,126086592,126102106,131081013,132147465,133405649,133798378,134059631,134155988,134156461,134760756,134828488,135167129,135328935,135677144,134143621,136126766,136480493,136491089,137027376,137196100,137258837,137580864,138022386,138158547,138219162,138850436,138863607,137458666,137468253,139287710,139575236,139810830,139908886,140858866,141009554,141501788,142263382,142534862,143161403,143452356,143731051,143934201,144034179,144082705,144567593,144672267,144894608,145255670,145279798,145439746,145644401,145945401,146027826,146343756,146379845,146457931,147005254,147389103,147922053,150364906,150406089,150576015,151581820,150325509,152362663,152873348,152875011,153524653,154117741,154500626,154694203,155418946,155499653,155581309,156293546,157782758,158505433,156277260,159523843,159954863,159975368,161169353,161238730,161349604,161375031,161894689,162020097,163179093,163680222,163810550,163966667,164053310,164767215,164865743,165341226,166006720,166007323,166040964,166163064,166183767,167441350,167802536,169165943,169547440,170514721,170532108,168714563,171594537,172642550,176567879,177248308,179050466,179343153,180019292,180029498,180807167,181395746,181865287,182965207,184346252,184637904,184981758,185039588,185124365,185233469,186207278,186936157,187191714,187975811,188613082,188711216,191456846,191642247,192760895,194102220,195107346,195764541,196436110,196643906,197256985,197710385,199290112,199821467,200448564,200518288,204310340,206423563,206814779,207923451,211421747,213958925,213998827,214606222,214663838,215376525,215976047,217010113,217223430,217379831,217497670,218185512,220068854,220814808,221742480,221889660,222521992,223310874,224401833,225024713,231459491,232822248,234071885,234129046,234236319,234540713,240636336,242212057,242777042,245480428,245511004,250622888,250675530,251263365,251814625,252079941,253077896,255697964,260414459,262572030,267204990,267863708,271530371,271652677,272280818,268611154,275545588,281375405,285240750,291701878,292077082,292196206,293044924,295263547,298154869,301603602,303021218,318745226,319219703,321951845,322756929,323166608,323627611,324254801,325646336,325672484,327229572,329948603,333599811,334251731,334877418,340245736,341432516,351146182,354188256,360979700,372200854,373875963,375898461,381595464,386723428,389502287,393126517,395447455,395942537,397945678,398271885,400529005,404301695,406393091,406449404,416552227,416636125,418553064,429324101,431162181,445283761,445752508,452401262,453112325,457081971,458636319,460479753,461412966,467269980,472788670,476722595,483119718,484008487,485790044,490921128,491806011,492705172,496414458,502429827,506048717,510244601,543178199,546895838,549309049,549450321,549827013,550939596,552309192,555807586,557304739,557519819,557654083,559121082,560235800,561050045,563197412,563362295,565401267,559926018]}
{"user_id":117127228,"collect_list(fan_id)":[893227,3899478,4793657,4865685,5144881,5546836,9019621,9365603,9463165,9789383,10400085,10908086,13160143,13475848,13714063,14053851,14183699,14255603,13267618,14431872,15071505,15257935,15278861,15722676,15858850,16679790,16776782,16947350,17011107,17294048,17752284,18517863,18751925,19528779,20208533,20620355,20870024,21415791,22218304,22279115,22718977,25564756,26055192,26593099,26637800,26907074,27613671,27910039,29541433,30128086,30700239,31335400,32510778,33625115,33700538,34203694,33482018,33496141,35804858,36639858,38326693,38411755,38598274,38759308,43449791,44171020,44383313,44801599,46859989,48076624,49036217,49290305,49745221,51133075,51236136,51801732,51912344,52554618,53104368,53139418,53516391,54131016,55076479,55333812,56016245,56146401,57905302,59052571,59895787,60120706,61362315,62077842,63257636,64403623,65323986,66622615,66785235,67604151,68174401,69118720,70074515,70125076,71201026,72336930,74093640,76176647,76329325,79264435,79911251,80320320,77674052,83456541,84157647,86145053,87219191,89147537,90047769,90141183,94564335,95170789,100026736,100030940,102019827,102809459,104509906,104979944,105038331,106113166,113921900,114200706,116998400,118021017,118552339,121416253,126737204,130381498,131791218,133041461,133275670,133680722,134013484,134052865,134329335,135021081,136110563,136428859,137706650,137888259,139025396,140993423,141821900,142840818,146115103,146359275,147717529,147822820,147207705,150395183,150684669,151532348,151884565,152842810,152872518,153055852,153107793,154463623,155700642,155701436,158898589,158972244,160370348,163062392,163455762,164403162,167039443,168045939,170595604,172080329,172807235,177099500,182775082,183183880,188459409,188510712,190673927,193091785,194575554,199918706,219831190,220195630,221589771,227588521,229680238,229857701,231676637,257141246,261115176,266131898,267938036,269209370,272194673,275782537,277175610,279377214,279634929,286230668,291753754,295803476,300835902,305743379,306739640,311008464,316562057,317066583,324632440,325808889,330656249,332647245,334051821,335060989,350285129,352950246,353900603,363498934,364940615,368932037,374209079,376581646,390563689,393845475,398156246,403954675,405343596,433294374,439546563,449784844,450047638,450619003,452170316,455348437,463573706,464389124,466698997,467505946,469725423,473959397,480421755,480447328,483724288,488074331,489281384,494956499,499640239,505331916,511361319,515147145,519203429,524764676,530207989,530393256,531658264,536467685,545510432,547767473,552468426,552481206,554248424,556337773,558532735,555908773,560819349,562134435]}
{"user_id":196616488,"collect_list(fan_id)":[989827,9143410,27951729,440430995,468145206,469956553]}
{"user_id":429846726,"collect_list(fan_id)":[1161057,2800369,14310296,57207091,79959528,86116891,88210457,159242564,161836330,314826566,328214590,353000484,361787103,376511074,387417818,388764516,397357061,493475511,539941903]}
{"user_id":12034907,"collect_list(fan_id)":[2142331,3737377,14881177,15009491,20074536,23258320,23340576,27612232,35239745,43428795,46010715,74357819,78220542,78795464,93540230,96530594,103236848,105794270,119381070,142185736,153223813,161074765,176203804,177792079,202597981,202718851,230093077,281015894,282681724,290301671,324395369,324705466,328263290,328276599,353074303,357546947,403542188,423389287,437420693,472768365,527375121,536444631]}
{"user_id":298375663,"collect_list(fan_id)":[2026104,4050611,4373240,7662103,7798915,12056826,16109311,34740321,35718062,39153120,67457559,89659349,104652013,116932888,128643661,137036533,140509579,143922670,147232421,147563293,154239533,162188956,181267133,217874428,221328456,257058053,269958863,285689408,323871141,347402660,383953978,393498685,422729737,460468476,469961203,492312440,519666143,520468471,545463296,545466928]}
{"user_id":105168423,"collect_list(fan_id)":[2380166,3461753,3764360,11979971,12922401,13755764,19362225,22393051,23234690,24799281,29650555,31648153,32351108,34056995,47445368,49591968,64891743,67095834,71961546,73207238,78220797,91884108,113384125,116029559,127277763,144908602,146725583,154849519,181187162,184951612,185517064,222591202,227331222,248003958,256099696,256836129,273080247,276276621,278489144,298284714,422010049,436856702,487504287,498132710,498850154,500653566,511231524,511666357,514748289,521703719,518892365,536959332,553909072,562042686]}
{"user_id":6169227,"collect_list(fan_id)":[2770983,2904395,3945974,8342841,10781887,12275602,13126397,15732257,19550435,21841751,22832422,32621664,53841420,65146323,68150288,101783196,106663208,135160923,153802267,173855728,191416550,263692670,275266690,275352927,286751610,298678691,305282588,315872959,320522164,325379597,338837604,344614979,349966490,357051530,401041280,405381841,405627591,428483075,434390185,434516147,454445822,460727407,473253062,473959397,493297357,494366946,506675953,513668071,520001511,520590040,523924639,528602544,529458236,539238709,545628536,545741301]}
{"user_id":289206394,"collect_list(fan_id)":[3349426,3763364,4359037,8443605,18812043,33816651,87331522,105719239,151994977,156819974,169433405,175633135,184351551,184771788,185215986,186610115,188908539,189733690,193712681,194697974,194792232,201207801,209162069,212707495,216835737,222528100,222682983,223645745,235264752,240539990,241092790,254076397,254237566,257737554,265580959,265969762,268938341,270655788,270992912,273640791,274717289,278480679,289800165,292794136,293514752,297113408,299678065,304132115,306263205,314023823,325409807,327278565,332757671,346367304,358581639,368802716,385093778,385260392,386880042,389979150,393029006,404846280,407313977,416083195,429257232,432043405,432642205,448955469,447145338,456404024,461590246,462553634,467673969,468437394,470266976,471263610,473056871,473644424,474418238,486070886,491541183,498468086,503436217,506313894,509219151,512920587,518281073,518730536,543694431,545345978,550004137,552461484,562568692]}
{"user_id":41482231,"collect_list(fan_id)":[3814328]}
{"user_id":263188129,"collect_list(fan_id)":[3687687,36279748,85835366,100165530,133551998,137898199,171165131,256756877,267909138,425838004,512638318]}
{"user_id":91826324,"collect_list(fan_id)":[4335331,4750869,144955998]}
{"user_id":220875506,"collect_list(fan_id)":[7207427,8170810,12209690,13612658,14508763,26721285,27875490,42792916,43003811,52246408,54692584,55465902,58112998,60827944,74255509,82429468,91084292,93861344,94539594,94672228,97972891,98908858,104982002,106463846,115532835,118476151,119521197,124261193,132083325,133142620,135195153,138167942,138627556,139689292,140265538,141269395,144455935,144702980,144726892,143067436,145348523,148910371,155344518,156754041,159210047,162437522,170964023,174634651,175982931,178163122,178356563,181726809,182583216,188321338,188527375,195477126,200306704,202096695,202145145,203289785,208012835,212559681,212662697,213316626,213472143,216428663,216688439,223431487,234773337,236407960,236890221,239701691,246939573,247603354,248080218,268722629,279582443,291580809,316139738,316801348,321303124,326444318,331994013,333553693,353211646,378276196,378849192,378946699,405403510,412145626,447678793,454676918,467663694,470205974,491616861,532599055,531736749,543549522,546841597]}
{"user_id":294655464,"collect_list(fan_id)":[7176497,534419420]}
{"user_id":52033806,"collect_list(fan_id)":[7543900,22284553,24528661,41700258,45760903,66592484,85792959,94170587,147393835,151138717,166556282,169647705,222550587]}
{"user_id":469434988,"collect_list(fan_id)":[7785758,8537649,53871161,152587421,188541266,196027097,205460409,261004279,288192467,297665961,308254279,316247669,318342530,332571978,346075400,342983602,359814197,370103928,372053925,373271874,377665029,379847044,380481146,381975728,385576514,391312549,408859358,421947080,433615589,438324736,438599491,445231608,450656096,453738139,456682629,455353735,463374113,466138739,467141986,469823126,487987807,489215146,491754605,493906064,499990128,501197657,502991352,506045591,508481485,514669141,516503474,517388327,522740241,529969023,532843071]}
{"user_id":477747707,"collect_list(fan_id)":[7899376]}
{"user_id":81515026,"collect_list(fan_id)":[10883297,334391257]}
{"user_id":137659006,"collect_list(fan_id)":[11557765,12710421,17737257,19101726,35325822,39065258,49551391,50318700,51630519,59310349,59894357,64637428,76324748,77198951,77378887,83547546,85422868,87388421,101663233,101794682,104068811,107834709,116413981,117789286,126950769,131563625,132924302,134512923,134725670,135096867,136095790,136348362,137569254,139733315,141210897,141267777,141431213,142188609,149099552,150649158,153253068,154120194,154817168,156296361,156510929,158817416,159079784,159984843,160927552,161740238,162316680,163031099,163173392,163606257,163964198,164009381,164670074,164972909,165848270,166936490,167959366,169076776,169143194,169532398,170331585,172040144,174300809,173628265,176119281,176243119,176887081,178459227,184864022,185335584,186165089,194908319,195502203,195736154,196122159,196259508,196672699,197587143,200862259,204194346,204613914,205333770,205822414,208030275,208961634,209687938,212020715,212384102,212476046,212685493,213353172,213403814,215807363,217651200,218287692,220553538,220613652,220623701,221886892,222320022,222517983,223403402,223959308,225521316,226078245,226278077,227981488,228173557,229576349,230744446,231323745,231343238,235740636,235949617,236686577,236831363,236895539,237991512,238293235,238809718,240468438,244109309,244345836,244729063,246666804,250535565,252995069,254831351,258450083,258620031,264615477,266161046,266438956,268572306,268996904,269644580,270777116,272090528,272198045,275635049,278261942,280704973,280831410,281799122,286493548,287801870,288967909,292281558,293058409,293682292,296972208,299102744,300595095,298818133,303471306,303799235,304574895,307926123,310401010,311643039,311977295,311997928,312065333,316017243,318700367,319159679,319377731,321999006,322452621,322871306,325489836,328315861,330491953,331551542,335559026,336900820,337958017,338022021,343330615,345479422,345579256,346409858,346507361,348035481,348742559,349374539,350906593,352474649,352971437,358665291,359665341,360937251,369737809,373500046,376506324,382334763,383777084,384725524,386458613,393200350,405530877,409507540,412387052,412750973,412870098,412921607,413839704,414512748,415815086,419205222,425568291,426190765,430341062,430513624,433937185,435079314,436653151,444532802,444608753,446884288,448151709,451726793,452409356,453657723,461358373,470843592,476341735,477729534,479221827,482498981,488899002,492426997,497060505,504601125,515093121,520312750,535308168,541168995,552505830,556931789,557427466,557986607]}
{"user_id":150890308,"collect_list(fan_id)":[15805784,18162374,22154794,26722940,29374383,32677797,33209098,35603998,36552629,41762448,47457260,50783912,55264141,56431794,61091319,62183063,63534523,65880427,69153869,69569248,70591693,70938489,76346502,77896455,78487958,78537341,77660204,83224432,90028545,98611964,100948804,106226320,122106312,132230477,127744695,132737533,132838338,135695021,137998934,138883023,144264098,154581825,163724544,166928537,174435443,176576530,183935145,190058529,195380561,198450197,198918854,207060510,209076438,216986988,217010425,218076271,229825865,235466704,245559434,263498665,268999526,269253751,269504290,272802285,274415048,275619416,276065219,281046365,281503675,281526001,283099790,291454919,291791815,307288052,329144505,335871272,351784355,357485061,366871835,370122089,385099899,394944547,396802526,407233752,410512901,415396299,415399445,415403198,444241279,446757302,461188039,466902010,467665277,476987030,485822987,504073876,512638318,513771785,531991573,551614431]}
{"user_id":37090236,"collect_list(fan_id)":[20515063,58771852,97936953,218919494,239054561,305095724,557798207]}
{"user_id":101181333,"collect_list(fan_id)":[22224959,26940265,34187310,38527596,45687069,53759514,96230683,113933019,116307341,133688516,136199864,153154527,175079954,197696266,214021736,219373601,279924217,293097473,307891690,523082377]}
{"user_id":8240337,"collect_list(fan_id)":[23409045,79771779,180786027,422115263,474126968,547261376]}
{"user_id":14308962,"collect_list(fan_id)":[25350788]}
{"user_id":6268281,"collect_list(fan_id)":[28332028,45866244,66277039,67043068,188299031,335584004,348268544,512218892,550438198,564589982]}
{"user_id":13366940,"collect_list(fan_id)":[29002720,36538992,71838558,187866286,211673196,326718940,379847525,523249590,532245682,533418892]}
{"user_id":146492698,"collect_list(fan_id)":[31979221,72949813,81763345,108616660,140681086,147826734,155821478,163698639,184837023,218684699,243228485,249606820,379508731,419893595,454644913,505425675,529749384,529930313,531408776,534770714,536696377,542869029,543236463,543746601,544474717,553920369,559043840,564417166,564755595]}
{"user_id":122772824,"collect_list(fan_id)":[42280458,42331095,104844027,123779951,295561462,310243809,312738699,324640232,329186868,517523908]}
{"user_id":102892791,"collect_list(fan_id)":[58011175,77937022,99334444,103867060,105357301,115199299,142787013,159158773,160048009,177428075,195087875,250281120,269256782,271826498,300267063,502477238,560779638,562280739]}
{"user_id":338121701,"collect_list(fan_id)":[69714836,85422868,91819641,103099429,132145848,163694380,178494412,199129866,206939943,226822618,227895729,236913342,239467713,245876193,246856494,247899781,248691927,255509721,258166107,258220172,262465915,267973349,282494968,289072892,301600570,303583381,304566370,306666181,309436639,322772220,333649235,344543364,345945902,346886488,347798256,356423306,358435041,364716977,365553959,364443515,369192805,375642290,376456973,380940402,389380335,389831012,391301461,398837925,399099930,409145424,409384813,416820923,420453086,420525553,421750672,424050551,426218339,429401258,429696544,432188676,434585350,434635325,439358696,444225842,445213275,446279678,447420993,453364531,454838566,459441679,462499169,466185089,475885035,477624694,477864398,484384535,485725872,487439916,488135656,488508048,485905828,492608100,498104927,501884867,505051255,509554228,511583073,513900608,518902939,520518728,520577727,526453923,535946090,536725760,540210842,549610847,550271163,552295822,557917114,560414550,560775879,562609256,562798712,564252688,564861350,565541849,566297215,566514334]}
{"user_id":44188478,"collect_list(fan_id)":[74928462]}
{"user_id":367342848,"collect_list(fan_id)":[95063462,261941570,401851787,492617478,494188878,512642182,545712118,556775319,563417404]}
{"user_id":162843382,"collect_list(fan_id)":[104198114,156775750,292288155]}
{"user_id":144656455,"collect_list(fan_id)":[131564805,134242558,144545631]}
{"user_id":229727516,"collect_list(fan_id)":[139774673]}
{"user_id":156993120,"collect_list(fan_id)":[147993087,279978516,415398425]}
{"user_id":534282647,"collect_list(fan_id)":[214482082,246239068,250714028,315493948,356300160,364177164,376734482,377129164,390876077,394175900,407163064,426779098,430904370,432758773,435625666,436687200,457973774,467356049,468203895,473912121,480945899,483294975,485571476,489263605,489291308,499203817,499736733,505292338,506700461,508272750,508906073,513940456,516446683,519520331,522380242,524841484,525438153,526019622,526551561,528223179,530874420,531364529,532080303,533815048,534838329,536503310,539927371,540900063,543010811,545874317,546437639,543837918,551108303,553438666,553970372]}
{"user_id":371979170,"collect_list(fan_id)":[222436915,252897048,268870273,486342442]}
{"user_id":165818745,"collect_list(fan_id)":[304728134,419544566,480420419]}
{"user_id":446138755,"collect_list(fan_id)":[360620183,498593784,549002817]}
