{"user_id":8909,"collect_list(fan_id)":[4734,8921,11763,12185,14920,15070,21819,24147,35671,36284,38204,44113,45441,54182,55812,86239,92934,95389,101154,105314,142553,144449,155781,156333,200095,220089,223062,251463,266888,293918,294915,337816,350763,376108,380966,409657,442305,442570,452655,456978,489328,549198,568889,575680,601217,607072,696983,735528,744416,787765,819528,856207,858491,891855,830302,1019225,1061602,1080856,1007566,1333443,1385726,1518253,1568263,1572862,1690123,1698338,1744738,1899312,1941914,1983936,2026353,2080585,2199909,2201185,2283124,2343643,2344525,2364936,2369874,2392181,2415896,2429800,2499106,2688614,2753481,2756418,2890752,2916601,2937589,3048222,3051745,3225735,3280967,3305849,3348996,3464451,3510819,3624936,3674672,3776500,4016654,4022897,4147641,4539009,4774667,4785798,4380282,5002540,5029561,5208071,5361858,5379850,5387979,5459901,4838435,5865157,5903675,6478922,6549192,6735310,7149522,7275562,7409358,7634986,8056760,8093386,8255450,8324816,8409773,8426806,8712112,8717827,9691772,9707208,10118512,10427855,10444009,10690473,12315718,12360085,12365090,12471505,12755560,12871972,13769377,15167976,14273095,14277189,15448001,15668169,15767631,16052851,16289262,16605699,17425840,17645278,17737930,18016447,18027276,18343784,18590484,19779820,18633573,20156389,20170667,20559783,21179925,21608721,21734892,22110455,24974634,25632156,25725844,26081472,26118740,27275907,27475638,27947929,27959700,26757189,28497733,29504595,32157023,32407021,32812440,33397589,33546802,34324705,36727588,39235511,42217007,43059901,44097738,44618983,45000742,45476029,47357396,49099106,49268937,51215371,51278844,51398270,51876222,51957780,52593630,53776238,54637213,54922522,55206425,55830988,55607674,58497645,58844566,61763004,62761154,64037576,64741908,64848764,66534677,66883620,67802697,68647959,70292538,68326179,71400472,71927621,75824654,77191505,77530860,78910597,80582263,77622855,81608170,84684430,85567492,86929662,87493312,87877752,94037334,94453799,97869203,99221341,99937721,101849013,102052079,103872930,106818571,108614091,111270350,112607941,114456043,119848291,120138401,120205017,121499402,124689822,128982010,131505350,132287599,133132569,133278593,134703159,137302467,137862715,138026017,138363323,138466706,139324472,140123175,142018109,143936330,144217530,146017423,147301242,147393187,150491209,150790370,151063867,151216563,152349261,153646035,156410456,156877790,158448972,160435735,163091827,166504370,167161118,167399561,172546154,173416135,174699642,174996981,175972972,177844792,179790592,182418303,183111618,184318594,187365937,189777024,195949945,197094611,198681322,199497836,199661092,206675890,209961695,211423497,212822594,217688076,218783500,222519201,222730401,225360905,228285295,229024678,232291600,240150173,243825755,248011114,250047742,251058610,253986507,254621555,257922068,259564527,263665977,265381387,267624593,272849738,273874986,278527518,285048431,288922220,291574989,293492485,293776349,297949847,300632648,300927558,303421390,303938994,306840045,308965496,310452987,313269403,315033433,321776491,325679979,326088831,327571061,327898428,328257461,332044892,344177551,344959938,346241232,347952279,349311222,350102092,350124052,356204034,357395758,366333109,374366973,378149325,379378338,385964783,386112190,387521050,390469680,391471021,392590685,394377283,399562902,405978363,411227350,412401542,413857511,416498981,416865783,419426353,430399741,431127958,441186678,443299093,443457696,448370721,450388884,450890766,451111244,453057227,455146236,457112256,465156007,471165581,471482584,471743412,473736629,473926448,483025938,489591280,495585953,498445598,498573834,500462586,507244247,507600920,510789582,510845593,512347188,515328752,516608335,519061526,525841033,525922389,528189283,528864315,530230678,533610870,534816333,535590286,535806452,537783375,538518002,538733284,539601641,541028681,542066149,542284702,542495844,543008970,546481670,546657907,548763519,550450740,551032299,551821664,551824770,551855167,554583677,555128894,561671266,565453526]}
{"user_id":29031,"collect_list(fan_id)":[4734,12185,21901,23011,23835,70741,88241,128698,212956,253149,262337,300394,319977,382506,399005,417170,422959,432502,453890,551853,608303,609538,615998,667527,672104,699968,799827,948719,1201688,1343101,1364510,1718436,1797841,1993236,2572819,2930225,3431389,4458775,4804835,5801192,6483359,6532933,6553140,6925264,7124885,7604307,8454646,12624045,12878554,16031119,17318828,17429175,17847772,21111129,21626018,24276156,31190766,33703192,38837569,40427092,47591870,49549979,50338132,50408246,52064102,52516902,67112898,75362586,77557869,79623979,79834105,82567134,84139393,90419437,91780340,96744416,104010542,112944591,115707251,121753431,122517624,123839368,134836612,138861232,139920476,140592693,140754819,144949195,145529154,147438398,151219572,151484611,167574574,173581887,187456803,190158715,190985081,191241311,205685176,212924651,214154021,224108569,225885987,226477058,243677494,250268228,261397938,301691092,308368096,326083322,344820846,356221973,406653347,415388631,418730314,445787510,477498472,480995097,484137414,496671703,513647868,527537648,549502892,550797794]}
{"user_id":40212,"collect_list(fan_id)":[1099,1119,1567,2212,2541,2645,2767,2970,2977,3322,3463,3637,3817,4318,4803,5629,6715,6967,7373,7462,9216,11880,15258,15337,16064,31363,31563,34470,726,63997,70104,72385,80488,82426,109830,114471,118762,57759,145147,153728,157269,173616,175215,204896,206033,208903,130725,232167,254280,255452,259167,278068,283964,303981,310314,341411,353388,364382,392577,399720,420024,420314,427604,433169,474524,493370,504650,506425,524563,561205,622778,645473,649175,541930,746553,805814,973917,978866,995078,1012937,1032565,1119170,1153292,1179781,1322228,1325540,1393264,1470705,1486213,1596866,1696356,1734409,1983152,2050137,2202173,2595188,2630850,2852901,2997678,3137332,3314581,3583805,4181011,4673857,5428130,6701048,7924328,8098720,9487032,12753386,14791443,16468088,16596856,17201010,17456753,19353280,22804538,27478315,30218529,30691242,39798633,46358955,88926462,151404588,159845566,165843269,184575419,249686948,290381529,466325654,494891898,501226017,514947773]}
{"user_id":44453,"collect_list(fan_id)":[16925,378236,743129,772236,2042582,3805560,264725757]}
{"user_id":82535,"collect_list(fan_id)":[28593,43331,52897,54865,84665,88525,93146,97038,101868,141466,163439,171370,173502,201006,221742,235307,240321,285668,213981,344431,463313,510338,596131,963617,1015955,1025871,1675414,1952263,2269972,2310161,2383263,2679256,2930854,3007944,4454482,4679963,6203259,7169182,14734203,16333242,29043240,31347034,45885630,44266872,79650371,79777734,87588227,94773245,153254688,177149019,181641189,181834173,184623351,217750515,242774900,255584224,258163010,264418033,277014967,329862950,344354716,399700373,432763493,458613088,508292142,514849467,518406962,535415130]}
{"user_id":261300,"collect_list(fan_id)":[12303,22365,48934,51180,56477,65521,73800,82115,109203,113692,114752,117407,126058,129685,143380,184415,212552,225136,228959,236373,242982,264476,278677,293101,293868,295494,298133,308924,310374,315010,325072,213675,342012,439998,442507,481739,512586,522732,572627,589397,622080,636838,643433,681590,703009,708452,738393,796166,679546,867005,901282,929030,1031117,1037545,1106345,1193108,1252197,1323992,1412620,1434053,1449675,1498147,1503774,1621256,1647890,1727982,1785087,1925219,2038107,2330641,2362156,2555794,2590847,2902937,2954727,3434836,4036706,4304138,4436879,4650527,4830268,5017855,5024407,6236556,6445791,6535701,6946286,7076645,7462098,8359811,8471465,8686093,10189399,11416420,12295030,12897104,13205900,13258718,15134433,15894084,17361522,18254329,18529121,19461371,20229220,20748676,21435082,22438501,26032637,26609336,27002353,27260104,31417851,31592682,36268348,36367854,37253275,37857688,39571225,41662390,42063645,47421144,59035856,59952240,61231268,65342117,75089480,76546180,84690347,88182324,91048527,121092017,134216516,137394192,139499389,140892660,142411598,143565205,143916377,143936330,147965688,154706058,161583893,162577468,163625017,170587112,176324333,179789591,197462149,208031468,211261134,218075264,231092676,229756976,263093647,286468450,289545802,303544528,321849675,322321613,343321197,346063905,358737354,368648115,379501049,440961315,449472602,450388884,467419362,468203895,519884496,523232303,526168076,536702446,538321685,539658360,540275934,545754495,560640610,560779786]}
{"user_id":348887,"collect_list(fan_id)":[13980,73354,114064,117631,144472,156995,225136,241237,249111,255026,336254,344832,345911,352355,364160,381199,385132,410141,427088,445065,459997,475922,479421,568412,601482,619396,628776,644616,649565,703394,723773,749806,751251,769460,786397,798379,815546,676352,839975,858707,867799,931909,978053,992484,1049004,1050150,1096030,1097260,1168424,1008250,1259656,1294917,1372653,1468137,1496910,1498424,1521619,1559615,1632179,1676114,1939044,2058901,2076164,2198902,2230982,2342021,2404009,2552622,2480268,2900227,2947855,3049199,3330987,3597380,3602761,3643978,4016401,4060648,4179740,4281127,4305667,4362027,4379489,4925953,5449132,5570823,5754486,6212701,6308452,6349761,7740113,8857393,9282822,9857467,10011199,10414567,11999047,12116337,12537438,12657915,13494238,17685282,18364837,19036628,21044177,21753280,27775408,33832287,34260008,34767699,33490991,36001111,36008254,40722115,41873613,42509131,42046861,46238178,49049412,50527775,51177273,60595642,60808173,61010984,84821701,85096094,85309063,87901084,88380252,104250842,112655368,118010619,120258151,134244902,143037392,143222565,147179121,164725969,165004645,166829390,177147110,179006986,182257362,183625129,183673620,185929272,187653044,191232154,196502110,204434492,217863907,226889981,234012728,244760596,245267062,250754543,254565757,252321511,281297316,291208124,335148628,351567168,351819090,361147676,375864933,412217824,415093384,436935011,442349366,443415784,456491245,473933254,476247933,477962359,478332234,478752815,517844294,518102334,523114864,524579117,525102384,524309703,527086414,527303446,527545381,529315463,535924508,543980588,551144854,551319012,556349028]}
{"user_id":846546,"collect_list(fan_id)":[15502,30891,104059,144739,145754,203895,209568,267175,302057,387912,395269,423286,559266,568863,767454,773334,775612,979839,1003912,1093120,1170629,1184882,1224261,1322349,1396754,1505424,1541565,1646174,1775278,1785684,1789973,1869902,1918906,1958307,1988405,2013160,2087907,2127674,2264412,2294828,2376634,2392682,2449736,2453008,2459196,2709298,2822390,2839404,2859935,2881887,2997582,3041496,3057025,3085840,3140063,2795803,3171091,3229005,3381337,3470036,3589407,3628410,3637992,3987764,4014164,4079702,4099938,4244940,4306352,4349631,4492347,4630038,4633655,4716671,4733691,4755593,4804044,4874093,4889040,5064819,5557153,5702638,5824042,6076504,6107042,6286432,6311160,6320511,6530641,6636042,6644788,6044767,6047538,6047916,6737110,6796370,6859574,7236473,7405641,7560853,7763268,7852778,8246195,8346378,8435575,8704845,8043105,8966298,9104159,9333815,9465662,9506137,9703471,9743849,9763199,9925470,9929558,9937313,10512884,10521038,10645341,10765033,10965555,11394704,11664237,11702623,11893202,12016668,12220052,12233013,12302270,12316199,11436877,12467339,12817693,13074094,13148032,13178844,13316660,13344436,13391202,13843279,13271692,14458319,14538916,14631587,14768206,14809118,14812336,15614287,15695127,15818951,16008418,16291838,16670937,16895528,17580183,17732783,17907112,18254577,18366948,18389071,18407022,18551150,19286315,19330331,19511785,18635539,20369964,20453072,20926848,21013335,19851710,21693332,22072168,22194634,22422592,22667714,23164672,23813546,23918678,24177230,24709655,24817388,24842702,24867909,24928917,25345916,26032948,26339027,26513856,25048341,27029858,27073420,27133735,27140852,27225336,27490097,28077170,28089093,28097748,28649171,28788522,29321593,29590004,29719766,28319683,29911657,31316167,31615009,31741166,31883771,32409726,34062519,34268147,34962111,35024979,35689036,36043911,36088331,36481455,36531546,36624126,37240258,37544755,37688885,38123096,38318718,38493478,38552782,38584477,38739714,38741127,39054934,39492075,39535631,39604417,39893001,40123211,40376241,40883911,41137695,41473578,41845545,42915848,43581632,45720185,45835268,45979684,46026221,46194938,49928490,50220242,50920001,51446234,51756956,51838416,52940491,53095446,53407552,54324562,54589029,54896785,55132850,55533210,55926444,56496331,56904886,57133701,57684764,58152002,58442113,58569585,59041975,59206800,59618658,60452325,60724376,60950921,61399676,62522934,63000710,60436845,63253416,63542044,63790376,63872153,67915477,68815172,69538603,70500773,71417342,71545135,73165972,73381954,73481558,74140279,75784613,75956139,75982032,76652995,77732296,78448497,79561227,79629729,79674426,79688898,80329216,80901043,77659714,82305930,82683117,83360697,83884145,84051819,81174818,84692686,85596358,86141444,87151933,87235926,88480033,89457914,89470443,90238098,90464825,90713017,91309709,91724902,91891268,92576334,92922478,92944853,93652751,94328362,94589703,95987267,96306179,96543995,96943488,97075101,97739869,98134439,99678134,100733648,100793446,101503162,101839364,102004539,102287188,102358325,102895683,102951587,104293135,105061023,106097295,106878020,106949356,108196324,108898483,109364362,110248469,110307532,110421659,111030133,113258388,113357370,113770882,114376733,114991672,115070246,117987482,119245371,120048951,120400673,120506206,120659462,120943703,123905968,125078613,125349468,125531606,128259950,131976091,132213520,132303989,132412334,133332552,133360592,133973861,134922981,134966264,135197841,135851478,136065104,136777232,137119146,137538316,138115772,138185728,138632739,139289334,139598445,139785276,139993392,140203989,140217721,140785997,141096170,141221357,141261394,142552022,142747986,143138943,143434574,143455881,143604903,143926754,144227009,144761514,144866454,146976961,147060528,147113746,147322000,147622217,147733862,148082730,148228011,148915014,150437299,150617078,150825377,151085667,151160818,151453325,151839967,152430432,152674469,152888964,153073877,153719608,153808534,155199949,155992355,156108949,156159720,156768497,157820481,158721796,158844521,158960872,159791853,159840180,160517926,161632928,162289860,162754093,163046916,164016909,164975383,165166654,166771343,167025031,167315996,167413076,167583107,167869906,167977201,168343022,169050707,169091490,169605148,169696686,169704984,170257426,170910641,171603132,172587189,173845355,174229928,174561228,174586859,175591393,175788669,175982111,176040282,176102225,176651794,176689114,176736769,177549521,177596424,177601194,178104652,178153958,178176661,175826680,178467715,179728330,179830279,180194526,180930817,181032960,181646972,181869670,181958804,182342551,182612293,182617590,183062449,183135471,183137008,183396849,184410650,184451226,184581208,184619259,185039162,185323525,185430786,185862053,186300064,186475281,187642201,188711622,189339191,189805602,190451495,191266650,192333042,192577660,193626843,193681392,194046008,194364450,194573019,194598752,194773335,194823467,194846316,195031758,195537594,195673139,196172673,196318078,196478477,196529906,197194453,197705745,197778672,197928142,198205433,198518301,198742180,198858375,200798584,198297288,201991995,202002953,202143202,202589567,202688843,203298897,203414044,203825528,203828074,205174565,205722042,207242029,207508602,204895810,208592950,208751928,209290103,209330793,209837045,211466869,212148870,212747473,213024197,213717205,214298338,214543504,215119324,215472828,215610109,216463271,217483779,217534536,218272730,218876703,219452467,219952176,220925480,221410206,221996653,223055286,223475468,223536750,223836063,224637016,225127024,225479127,225795229,226151769,226528607,227183879,227437348,228210798,228339843,229240649,229512484,229651448,230263043,230499588,230684570,230707635,231004367,231381999,232329376,232349145,232696224,232789457,229815175,233412849,233532834,234244696,234365590,234719280,236561234,236880058,237496774,237706236,237766402,238191751,238409669,238546667,238665802,239087143,239660207,240886488,241879105,241898857,242347422,242358799,242552818,242744241,243576654,243846396,244085476,244338882,244693025,244738850,245561821,245718936,245835733,245937483,246480973,246543343,247051015,248034280,244865304,249286271,249683824,251017301,252368515,252915492,253840436,253982230,254727698,254912732,255721274,255779128,256105859,257745519,257942552,258779039,259076837,259287453,260178926,260949276,264098343,266021243,266306238,266676623,267198865,267298147,267691068,268224241,268953699,269199233,269623270,269763645,270419455,271199476,271289831,271555777,272234796,272728378,273810270,274297776,275146579,276768513,277084395,278342293,279608647,276549820,280816246,281370473,282064958,282757302,284471742,286501500,286586315,287435187,287654786,287731370,289297122,289638539,290179680,291323673,291612262,291875384,292573975,292578181,292975302,293212079,293508649,293757043,294472573,295302160,295799260,296048852,296521532,296682553,299678871,300159537,301479654,301517232,302067994,302403663,302591869,303613985,304800986,304885813,305193066,305239663,305769858,305914182,306265161,306922819,307092411,310381036,311501342,312116109,312135577,312327004,312616959,313350687,316122908,316362983,317848978,317937121,318546902,318624209,319236972,321147725,321731807,322538930,323585495,324062390,325827460,326982413,328394687,329885631,331690285,331945925,332685773,332704854,333351679,333755139,334340456,334921111,335702374,335802347,338594629,339288893,339571518,341590314,342487098,343694345,343718877,343781877,344055046,344199611,344727872,345052498,345219534,345702959,346764493,346922839,342991814,349583386,351387252,351752945,352299546,352470978,353991508,355996511,356736649,358290793,359727664,360271345,360599543,361336056,362838727,363357279,363628745,363643010,363916352,364096903,365489908,367327070,368683808,369368277,373279427,368881643,374502843,374536802,374574740,375801066,377372725,377906107,378002491,373581977,373639314,380333278,382201676,383128688,383356286,384170185,384692364,385322619,385905803,386997093,387190574,387944362,388678740,389193595,389315499,389656142,389784443,389926694,389957401,390527261,395280672,395412597,396882040,392512455,397726374,398535509,398798730,401678703,402142587,402409073,403233696,405836107,407192743,408099471,409010833,410358457,410398539,411814807,411921245,412369285,413525257,415640547,416017325,417110957,417364755,417399486,419214634,419745181,420000674,420101143,421689806,422519612,423484155,423801569,423871198,425086497,428690532,429688572,431258840,431441019,431756582,432303354,432692586,435193106,435920645,436414112,438336241,438543486,439292522,440482066,440975366,442024917,442034472,442267951,442834200,444384930,444446155,444639272,445411169,445967927,446880619,442928689,447298443,447680448,447983805,448791246,448928845,449067904,449398566,449545290,449546315,449818661,450749420,451231780,451870736,452413000,452525500,453632424,454348848,454639840,454797365,450924627,455490763,455862225,456352289,457008799,457678436,457834176,457864814,458194064,458604400,460269699,461474737,461864408,462536287,462665210,463890582,464097000,464106502,465734829,465736224,465847873,467188231,467981631,470025271,471003883,471161629,471671024,471991980,473109785,473573101,474181231,474200433,474547333,476866201,477544849,478212247,479360227,480956951,481210649,482167511,482388702,483532829,484671514,485389852,481989152,486146665,487911086,489384182,489573780,490458369,491660325,491831376,491930209,492543707,492721955,493732953,493892400,495693237,496612528,497313942,497505753,498695136,501199997,503359665,503704781,505516389,505583416,505820299,506727725,506775208,506966905,507454249,509225808,509606203,509679957,510226519,510292144,510475842,512241482,513139374,513304559,513442443,514152984,515175299,515446415,517506114,517637988,515766626,519244723,519581594,520419646,524448505,525228332,526029895,526254191,526527755,527190871,527577879,529133350,530003467,531391236,531412306,531789234,531799209,532178013,533759596,533876634,533914140,534963439,536065103,536369516,534105429,537687781,537782237,536467394,540224574,540766763,541016002,541304696,542111445,542498374,542752218,543184675,544230951,545018260,545304757,545889821,546013565,547639013,547998266,548185560,552002223,552490131,554149387,557138590,562700047,565765702]}
{"user_id":4909440,"collect_list(fan_id)":[9726,41012,220243,292790,315131,336944,381783,782394,1242578,1869300,2685209,3071355,5272530,7122107,9753628,14292589,15972288,16609925,18656791,23036031,24856510,28010310,32541524,37930650,50016175,64799683,65954401,89686655,92095542,140146245,145595708,313232684,333974850,424519612,548656490]}
{"user_id":86086218,"collect_list(fan_id)":[27367,375157,1090352,2668107,3778842,6939421,11260421,11629572,18218082,20935970,23262797,31728406,32170318,34679780,36872257,38544155,40588432,48084588,51586465,51871039,53347673,56195037,56870844,64377270,64627858,69089554,82632672,88191501,92130436,93403283,93411862,96390653,101551797,107738593,112773367,114311500,114970001,134975661,135771713,142196141,142601418,146098914,146277264,146691828,147156548,152857251,154743029,154923917,155993729,166825368,167319161,172878124,186128156,188175603,209869629,211156581,212768505,214368250,224347137,255491934,264775236,278954476,281615295,293642794,311014090,312568911,319001557,327947683,369825346,385048582,399767450,413236608,447233369,498913608,503907463]}
{"user_id":146657344,"collect_list(fan_id)":[1020,529567,664290,2115053,2162948,4843320,9175934,10958042,19019086,19571023,19743725,24271230,25550006,25607249,28856543,29037628,29257131,30809485,32375965,43584034,49544883,53106422,63223598,73302466,74550256,76626714,100634115,100905204,110132423,133419263,136692954,141148617,145643193,147413928,155576818,171256656,182303264,195143783,210993623,237268953,241644571,263963279,284876936,291811984,329383154,352763019,364022355,364286087,403312963,410823894,413494241,480663788,495518788,543587631,559534676]}
{"user_id":211465731,"collect_list(fan_id)":[10468,39129,164647,1016845,1650475,2231016,3249445,3856839,3908198,4716495,8953898,10709740,10764031,10930323,11919279,20501611,29092727,29515216,33908734,40148066,42628702,43087520,48067814,50645597,59139428,59622610,60213195,61036301,64627997,65763637,65781965,66252362,73184781,77614155,93129973,94570650,99771499,101719389,105340633,107442998,109710124,110739316,112303306,115703889,113708162,121530475,123306800,125528142,131977390,132129695,134014054,135744157,136214802,142407448,143403182,143577733,143918915,151918484,155171218,155583376,165685418,166064108,169767765,180765205,184792470,194985443,203678670,214157884,214811820,216088145,218822881,220683676,220719465,224730777,233604535,246391796,259710425,264044007,267697587,294433340,307309567,328671530,337584120,341327632,354960502,412761291,420799714,424239128,475407943,479280935,507437299,534992030,547128951,566109803]}
{"user_id":1237285,"collect_list(fan_id)":[103177,109376,166624,199744,289353,327929,385416,333990,446475,448316,477623,479156,481242,615719,683076,777181,778234,812355,978507,978926,1023509,1034795,1039772,1058224,1092156,1206896,1300221,1379956,1418046,1479942,1514062,1541799,1615580,1703752,1705680,1732044,1755441,1885382,2142070,2297518,2322512,2568480,2718171,2475521,2481706,2853821,2859957,2865038,2945239,2979587,3204128,3268330,3275164,3407770,3927488,4645597,4898523,5199065,5361858,5533741,6099578,6141613,6325600,6383377,6458860,6787541,6963873,7472659,7603926,7799962,8906473,8728887,9950977,10405063,10782194,10785775,11167066,11289620,11397168,11694304,11966289,13000942,13316241,13433203,13810911,15050303,15106571,14292059,15640234,15673539,17353668,18229917,18351070,18408057,18468698,18528246,18797659,19048163,19600556,21570273,21592772,23940172,23950241,24449388,26512272,27262861,27385846,27988959,28945455,29491112,28298664,30728595,32990232,33545967,33982670,34528016,35560466,37232206,37828377,42287716,45224126,45687469,51265352,54451955,58891967,63768911,66166663,66329468,68713154,71427035,72488079,74162223,74169340,74464693,76075418,77515472,77535337,79358384,81404567,84782463,85451469,89724775,92686649,95180913,95253687,98183976,101033189,102440763,104295193,109062745,115260628,122312241,123354510,133137837,133449508,133820323,135531569,136183064,138356310,142610184,148977244,150251045,150699194,154440100,157186543,158065098,160919603,161694852,164401053,164888909,165948512,167341216,167566495,168568528,170421162,171761246,174668084,180113929,186311829,191406421,191607839,191678241,192416921,194884500,205544901,215503118,223723495,227377366,227634294,246198396,255849646,256480320,262170542,264563694,266724894,267969741,270170072,280628663,283387496,294240713,299864071,300611043,304753083,305036086,308197934,314066721,318455842,318991937,322545238,328945261,341017646,347424368,347650819,352031096,360938909,379031345,384115780,399803944,409530973,410238763,410730947,433108222,435138050,443445986,445060461,466363896,464225688,480887881,484633477,519874224,527249952,537374477,545242500,557946674,558283137,558371786,561016433,564720569]}
{"user_id":4045453,"collect_list(fan_id)":[96930,117330,239940,272658,411177,526190,562969,819147,1142667,1540889,1554944,1750725,1820243,2902937,2930826,3097026,3370213,3529863,3543814,4074561,5232236,7150704,7868721,8452937,8668659,9682692,12444018,15455835,17698129,17860535,19403909,22355383,23094085,24170681,30129371,33784425,35302416,35614165,35859807,36557290,37054546,37551880,38905323,39819544,46049453,59125730,75766928,78814437,85632374,103714092,103839350,142042080,147212120,169154281,181259826,216238037,278771587,335908358,399936784]}
{"user_id":7631219,"collect_list(fan_id)":[60165,79777,114064,166836,204374,257718,307238,330743,373406,440594,446861,562888,575989,657422,665190,667961,744214,793308,678479,883062,911230,968480,1038571,1146434,1174872,1182346,1277238,1378473,1394995,1198987,1455836,1527522,1696425,1849059,2159119,2161188,2163537,2173920,2240440,2311928,2397405,2494408,2988735,3262436,3301213,3338269,3373503,3385657,3392776,3520127,3733576,3800091,4153401,4215097,4435189,4448780,4747341,4875130,5017346,6128864,6260803,6387582,6417364,7100808,7108562,7183074,7444474,7676419,8087883,8135346,8241061,8469500,8924612,8963964,9555853,9785756,9882210,9932244,10087450,10274115,10279096,10611018,11196044,11689962,11711093,12455524,12521594,13215597,14748650,15026582,15378103,15769771,16575020,16669598,17873738,18219968,18343977,18787934,18811743,18870339,19862775,20357678,20785470,20924635,21880368,22571559,23110561,23300332,25494577,26472960,27392638,27512713,29106546,29363760,29799099,31116002,31365100,33564192,34423382,35069263,35728866,38387058,38417528,40090162,40573229,41672038,44127854,44508453,49337642,49349844,50072580,52200574,53093008,53416597,53733807,58061203,58146459,58808803,59553657,61282934,61747483,60414311,63563301,65404464,67953079,69153869,71986852,72767405,73016678,73269299,75481813,75995755,77400791,77502991,79328496,82308635,83318028,84291441,84591602,88911362,91484124,94776215,95828526,96228122,96477912,97951312,98200964,104822113,107318982,120790766,121370649,125250048,133823799,134720814,135447349,136395920,136818255,137620013,139316317,140237377,140851059,143384426,146336904,146712780,146955200,147476671,153603796,155349459,158562339,160492318,160617499,162226445,162406225,162749654,169314373,172952617,175471779,177408320,178618583,179190757,184784807,183510584,186576288,187522202,188268195,193645419,193805579,193828134,198181133,198368366,199015582,199533039,200335435,203819834,204726107,206065190,206974343,211431863,208261782,213357038,213540655,213764459,214653505,219314329,219669348,220008852,217925347,221356113,222490588,223556281,227092327,233193582,233618208,239425151,242134786,242303616,243313883,249683824,250943093,257826638,269185759,269447023,270357516,271417301,273425974,274739278,272351375,276689935,276847741,288626439,295636642,300823236,305901676,309878986,310724878,311960775,313071330,314212879,318989689,324701676,325641174,329525840,342228646,347955111,353902714,352808794,361309352,368731006,372053101,381761029,384360893,386452412,387721908,388026912,388337393,391567521,392537328,405631939,408008729,409139694,420840627,422489997,422639693,423961724,425353634,426163503,429560731,433265578,434356932,433787143,442212944,438399091,443574018,444446141,451198798,453513086,454047544,455057207,458149861,459212007,464402183,467182191,468768524,469639868,470652392,471040437,468644095,475580001,475740532,472954423,479007235,479397446,481048503,482234202,483540348,484756442,487472911,488707688,488990800,489128487,490073554,491798877,493590562,494305579,495411903,497704916,498710753,499632440,501266395,504727891,501462203,507053219,515100465,515104760,515106873,516253321,520506190,521798502,523953597,525963833,526035704,529531428,533926222,537781270,537972911,539159850,539590525,539621300,539998404,538934485,541227192,542952585,543117331,543119537,543462765,544239124,545122302,546193155,546786488,549429106,555945637,562626732,565387169]}
{"user_id":70606856,"collect_list(fan_id)":[116430,8931613,11482371,17825888,20614963,24732561,44209222,46238015,48557194,50312156,53674531,61854879,62642770,73218690,73414019,73868018,77689837,78245611,84141213,85474143,90821986,99048870,100648914,101179121,103713988,106642177,116972369,120433638,120490883,126447136,136659587,136709681,137087447,141275932,142259419,146818964,151312221,154796519,155823759,157101870,157288269,157494318,159383739,164934301,168271305,168557207,170420650,170644120,180382895,182034160,184736069,185848635,188883374,193044745,206207491,212593528,214126439,218400468,227140858,233670777,243338309,247405142,251256137,258464908,269109484,269513738,302345605,303761303,311158035,312172243,333986678,341459778,382596388,392027177,392448292,403644670,407995933,409064530,411935857,411939172,415938349,436191066,442314825,443821963,447674431,454572714,476303930,504179964,522452323,529240868,542201483,563137453]}
{"user_id":146419120,"collect_list(fan_id)":[113854,536765,663945,782859,802703,1485591,1644197,1717797,1803888,2372134,2627290,2481932,3292364,4015501,4531069,4633875,5432700,5614114,5943662,6449148,6850095,7273863,6665594,8035850,8651140,9053320,9140522,9155159,9218970,10073218,10507938,10666365,11176017,11335344,11600349,11792229,14181747,15786487,16332177,16510747,16576691,17088310,18228289,19524310,19870442,20867003,21923393,22869743,26712486,27221143,27260505,27710881,28173675,29827092,30605930,32097830,33452711,35194113,38362472,43665908,45034517,51370481,54389145,54800942,58584794,67394153,70670383,73109386,74860371,81941483,82829762,83936915,84875760,85666797,85821389,89670908,91390627,92211978,94530951,94728643,99789549,106051971,107254728,112471007,112786651,114679137,118849448,119752378,121070386,126152095,131483564,131592715,132278910,132437411,132900343,138219968,139079059,139427174,140179239,143028345,145163487,146331582,146510475,148273033,153232390,157894804,157924615,158049058,168317247,169127765,178802640,187624790,194247482,202544298,207583612,226363879,248015610,263334108,266087429,274972785,313009811,324709070,337577518,373669820,381769541,408033714,417929093,436226649,437447461,442822066,446169382,447032752,447371957,454582538,464758087,466542138,469590921,470235797,479159513,488504560,494183545,499987146,500460744,509778190,510544531,510984550,511959747,508707274,527612764,532245682,532898789,533691873,535451962,538187516,548307147,562214700]}
{"user_id":32703991,"collect_list(fan_id)":[208622,486603,1731331,3071355,4024218,4716601,6337744,7161193,11837452,12146443,18071357,18908261,19468830,20883116,28531766,32280554,32300399,50349173,60306729,62089422,70170952,83643851,85289294,89205946,131566474,162414397,165873838,172227722,188709681,202964130,221662548,222392884,286461344,306822729,331317702,438154163,543432559]}
{"user_id":5029091,"collect_list(fan_id)":[307755,318727,533310,872122,889378,2158675,2250418,2609850,3020876,3387115,3490657,3652454,4359420,4646801,5028320,8415275,9289459,9873189,10458496,13525500,15833480,19495806,32767615,35855187,36101624,38201650,41114091,42573563,48943988,58811767,69275600,81270200,83525762,92469814,99099704,104184257,113545596,173535346,219564585,322300684,475407943,509816768,535553895]}
{"user_id":159061238,"collect_list(fan_id)":[302385,392109,764852,1216446,1675707,1691903,1733248,1953153,2661019,2711041,2903987,4326207,4367428,4659610,5941141,7964587,8400944,8038174,11663203,12322977,13371357,13726526,14422839,14744626,23106280,23301414,26520891,26776496,29576196,31147422,34602610,34965055,36279109,38600750,38865652,40009608,44497455,44500750,46421721,49127873,50108890,51599559,52145704,54124535,57076787,61071450,61121409,62417906,63483420,65297657,65551000,69332391,70909797,72377025,78108656,78112777,80734549,80923378,83422964,88522963,92959819,93574644,100171204,107329160,111056236,118827809,123189002,125818901,133002144,135219329,138840310,144048316,144706654,145428001,145760628,145817091,147911650,150593462,152679494,154096995,154530502,154754039,155392438,156182011,157507500,158505352,158742596,159715014,159959752,162644545,160978052,163757701,167024289,167410427,168027357,170086235,170133576,171761320,171158301,173677863,175095761,175397315,176743390,178314912,178804154,180622238,182723778,183277150,183371941,183562843,184621873,185437461,189994743,190281323,190852937,194512417,194811311,195988627,196544032,196863692,197346094,197506562,199565008,201747064,204780304,208715728,211333526,211439060,214016996,221256732,222138992,222270026,222675072,224798619,225022898,225345080,226241375,226292905,227222183,234524371,238423592,239151450,239977637,249017715,259052646,263378606,263406418,264050096,267378827,267483794,264811966,269453716,272269081,273266304,273347087,275678343,275678344,279915525,280334851,287793577,288934912,294442644,295215579,295755996,302522938,298712497,303540785,306491791,308465039,315006086,316134163,319551732,319869470,321502812,326381209,333690190,336161552,339712328,340642388,342310421,346576022,348704046,348738302,350366832,350567887,351183255,354235627,359171868,359603790,361200556,364484711,365100728,370168607,373361115,375992105,376803379,380226631,380351004,382085261,382516326,383981253,384748146,387258835,394401191,396388996,402534106,406265104,406681693,413385541,415048811,415388631,415875624,418504768,452774675,454217675,455473661,459184181,461915500,462292409,462825693,467522712,476995973,488630606,492995448,510627311,517794241,519438992,526419730,527179364,540236579,545153975,546759143,556293262,560333838]}
{"user_id":1876459,"collect_list(fan_id)":[360335,461039,1137818,4329264,21668833,23808874,34172442,181439101,531622514]}
{"user_id":19680680,"collect_list(fan_id)":[435394,1379545,1423790,2592402,2840968,3290266,3159280,4113267,4459098,4548969,4815870,5309977,5527063,5743631,6800297,10570723,12088229,12838874,13568179,14726262,15931466,16373544,16769717,17841282,18667592,18696540,19222877,21192755,21683403,25551632,35731979,40909484,42686033,45186382,49772042,51392535,54683908,54916675,59597249,71257475,72156169,78543269,83452033,95747867,96742232,98374948,103851863,106042711,113550935,113933190,116561839,133974744,135109769,135573883,139473424,140334594,143492317,155822932,164126662,167274363,167662009,168108244,170371487,178453524,179616086,180478711,183025531,187325971,188954885,198635706,204072106,216124363,216876461,228680237,229344895,231776225,237873236,245276583,250982556,257509637,292332975,294273663,310526436,312574923,313005011,313971368,314504102,329364281,330714243,342446263,343114982,355996537,384233560,386865226,403560626,444636370,468688655,477489125,503028647,522022693,524071177,526094841]}
{"user_id":171761326,"collect_list(fan_id)":[537860,2583092,5063721,5935413,7797318,8217098,10943777,13508444,26304248,28428296,33692535,36153674,38740171,40195702,40843001,50366569,50381880,50743843,53733562,55369070,64144904,66700838,70237566,71515020,74040477,79881738,85743439,85990209,94797713,105159025,111453230,113963662,114627752,120045271,120281165,121695219,121806940,122411049,128547594,132376432,133205305,134056278,136097011,136290447,137152612,138703170,141993706,142595316,145696680,146182641,146977596,148278114,150266884,151140959,154347862,154613164,155951813,155954508,157183598,160916143,161262271,162069002,164696922,165408779,165653135,169418529,172368473,173362749,174202027,174824287,175007961,175359641,176141073,176577537,177473178,178526977,179904433,180852005,186014726,192496000,195749076,197440077,198773030,200340813,200395523,201568808,202042312,203128872,203762644,206666914,206847496,211061930,211731833,212866516,215195327,219639584,219656060,220097062,222028056,224344261,224923694,227682402,227779337,228373569,231256587,231684034,232483197,234478567,236289645,237819631,238141339,242785683,243770089,243871435,244253833,240820307,245947779,246472266,246569433,246872981,250060856,255628952,257174014,264381917,265101247,267066664,267369505,268042467,268149246,268155978,268243749,268341317,268500696,269858062,270918996,273440889,273474262,273599977,273781587,274100724,274321230,277095086,278478043,279091260,279229881,281225592,283760179,284804774,289159358,284985243,293517420,294470244,295131909,295984821,297402674,297592835,298657355,298689903,299689238,300116784,302686295,304804547,305073389,305280621,307551287,310735342,312335069,313520866,314715897,315948289,320406519,321423641,321755119,324718424,329456312,330707970,332495380,335308859,336769297,340922821,341602138,342873439,343485672,346443183,346475424,347295880,349302921,354255267,354265813,354598405,357391476,362072177,362965632,365776839,367358364,370753786,370792465,376252147,373556424,381977798,388768340,396750663,400315720,400760010,401299965,402427680,402512181,405752427,405982611,406044479,407250743,412750308,414816378,415775129,415997638,417045625,420706445,424252595,424435465,425039389,425678556,426363757,426479057,426983173,427858090,429014721,430577302,434995612,435802237,436169316,436172939,437303356,441679172,444642147,444899279,442941173,447377532,449018070,449774033,450455037,451375300,452786055,453959826,454732853,454890300,456398211,458682759,455250669,462366776,463625193,464612072,465292600,465362446,465754871,466270358,466564247,469156185,470936654,471104871,472641177,473509284,478372818,479948080,477400942,484376592,485089313,488565839,490151225,491290597,492864902,495081568,497082074,504207812,504942510,506980667,508083193,513723898,515597713,517875995,519476699,519730637,523290049,524706426,525590708,526459835,524349489,527952741,530752190,530993875,531130547,531249640,531628600,532899177,533015976,533377394,534744755,535218985,536802563,536988718,537843845,540336080,544542300,545977447,545995573,546164657,546420436,547078117,547949856,548072489,550568634,553900617,553924720,554185587,554372881,554744236,554778645,555170485,556111156,558774863,558782609,559390922,561241037,561640508,564694906,565010746]}
{"user_id":370246389,"collect_list(fan_id)":[534103,9718038,12408237,13064299,16214835,16321864,18447361,20152450,20344330,21089344,23307813,23512333,26033416,26837238,28626291,28661151,32366590,37644997,52875902,56416152,58817740,58934921,59523754,61119619,70234755,70812587,75602360,87214544,88896700,95987345,114146264,125874151,132639725,133175084,139573501,141854791,143162493,158046835,159715846,173637915,192744589,224030281,227159197,231282954,239935617,279715310,290319058,290522104,300434422,301474019,310277242,323723093,345644865,374963321,374974008,376481871,379156813,391613084,392601493,393396774,399430733,402903452,417478317,431025848,432952448,437150012,447957541,451546652,468441450,491489445,493140231,510384718,517824416,522155890,528099199,533307762,534013568,534726786,536930879,552622156,557632806,561158824]}
{"user_id":267810099,"collect_list(fan_id)":[633264,1633026,3275368,5967789,6435304,13447055,18018660,18101058,20342852,20446574,32609102,39186960,40444450,42121851,47499541,49296405,51396566,53878585,64802764,70162004,80389668,85063194,85474143,88250774,99311444,100365912,102943698,123594832,124756089,139424463,142077570,145160175,148271249,157624281,162320781,162833926,163435990,168877075,176183442,177083249,178932059,182310523,189484961,191937113,198081713,198557080,203556345,207112032,208351116,210343950,224375664,233103342,237755209,257969194,267691689,272391491,288383890,305585829,313426607,331367025,347151679,446645427,537012121]}
{"user_id":45813753,"collect_list(fan_id)":[789439,1838399,4323293,6776018,7740671,8517585,10378616,11501831,16673259,20615240,26747889,37021368,37031403,38202713,44074889,47061803,51302501,58047614,68027011,77486103,80533534,89550214,89555789,91108419,98419715,127739571,138523308,150607437,151829303,176933439,225982505,260642692,264148760,285221025,306442240,309989835,321638691,376534874,484375810,496489067]}
{"user_id":124545548,"collect_list(fan_id)":[716409,11221474,25600272,38486419,37347576,51322194,54108448,60084808,60684135,61921361,71025743,72159854,74826621,99983062,111243496,112366045,113273431,142678504,151576063,152631734,154319780,155315810,155400714,157175220,162455410,162462172,168473250,174184907,174345558,187094431,189925788,195094983,201082999,202377368,219238350,224462874,228692247,237282531,239330988,242861779,246441614,248124615,258615591,260881366,270297331,271204046,303963428,317574825,323387365,331866448,337898715,349327461,356636163,398361434,413261091,417475936,439747306,444299576,445644904,469838063,482641634,524155667]}
{"user_id":222620376,"collect_list(fan_id)":[1184203,1487890,2724666,3011705,3139658,5291737,7179225,21213562,25620500,26368855,28118724,28318414,33197493,35226335,37620458,37751520,44142979,47215500,50443179,55459794,67901726,72152841,74249181,74910285,77461321,101108715,101899046,123580423,123613277,124602923,126522081,140696235,141602985,147961617,151569552,154226401,155595525,155751489,161478435,166618883,167243660,176250369,182262047,182838150,185519497,185830167,188905885,190742214,193808574,194360164,195797823,197081865,200901168,201478798,203795509,211694387,213397412,226453457,233218545,234417476,237294725,254541111,267745268,268953699,285846844,290972089,311719459,328132543,344066228,359274780,358535803,371301714,373894660,381713987,385587163,394291951,399761559,409544069,431277778,477265987,500187866,510808291,523868439]}
{"user_id":383871216,"collect_list(fan_id)":[1169030,2614257,2742469,3698359,4597102,6906318,8051342,14845859,14849974,15308848,16336256,16563496,18178138,19064991,23107570,23323682,23388806,25259156,25645418,26459331,26867936,28333617,30146017,30269384,30331107,36570781,38469938,38508101,39020381,39315498,39545478,41250303,43743615,44858233,44934918,45471502,45739793,45956923,48096249,49234127,49581036,47109259,50462887,50773679,50975094,52507219,56190732,57650550,57729693,59398233,60320309,60617473,65239182,67588637,72826875,73309272,73501045,74657967,75359908,76620872,80679696,81149569,81526554,81676811,84665208,84778821,84833775,85346233,87308358,90906920,92268734,89718711,93105606,93565881,98389187,100584083,100929544,101460038,103143738,103942863,104361663,106142793,108548058,109324663,109465648,112952719,113778686,114658133,115129039,117003291,119020403,120861244,122534092,123619345,124981183,134162347,134917802,137067801,137651826,139544690,141132788,141706872,144617300,144786918,152631533,159684968,168449182,174977435,175285099,175612823,176332039,179260178,200894379,208813740,211717286,214686533,218681935,220479415,222762092,224829178,226685900,230027563,235523357,261103295,266658127,269648928,273273654,279978516,276508827,299618505,302339606,304503023,307188476,312775884,312953751,315548313,315882649,318433578,325186211,331546181,342712747,343007004,348015099,348760637,377006988,378409631,378558967,381324321,419703893,425686070,433600279,438957695,447459740,452270395,475386233,508166655,513545349,512124419,560182487]}
{"user_id":160214551,"collect_list(fan_id)":[2492082,4488044,10493711,28106508,29926206,34405449,34761125,42751947,54060689,60398778,65085062,67664138,71126667,83961144,95508408,98113391,101170571,105605361,111967812,133852999,134527660,139881021,142678165,145231776,146325526,147224716,150690356,151189337,151286386,153117631,154938425,155161639,155463858,170047854,181285700,183884835,189182921,193534424,195499602,196766986,199864914,201170278,213856001,214376250,215868640,221848094,223795627,230264085,246003427,248649673,253677415,255406165,263478502,285128003,287232049,292753793,296913820,300889186,305638297,306978497,309024425,319508088,322896934,325966469,328287185,334620726,335250776,337958054,346273152,349966490,350518729,355092092,363296625,373229037,395081375,412330117,412360032,414540284,418500780,420008212,420903621,422315478,437646960,438646568,441046656,444005397,445286993,452227805,453756875,453763160,453804302,454142087,457221507,458322976,458987754,459314364,459353252,460474771,460772173,462425949,468481479,470005375,472165882,468694988,472947347,484435359,487530276,487690899,487739502,489264610,489306880,492241400,492680893,493155235,496671703,501162521,501748947,504657231,508082888,515109994,524974439,524976497,524978091,524979164,524980250,524980916,524982022,524982190,525610066,527405111,527405463,527405522,527407776,527409855,527410148,527410234,527413915,527414204,527414295,527417476,527425097,527425330,527430103,527430234,527437272,529016695,530850594,531865223,532194330,534693020,534708466,535040255,536374747,537090174,538402760,539460941,539994341,540877250,541764741,542290457,543700219,544265176,545360204,545575816,545720280,545749058,546167991,546202735,546468113,546805950,546809286,547833185,548127950,549737423,549738020,549742725,550098608,550353120,550458455,550461673,551604365,551732599,551826747,552085457,552577761,552911371,553171776,553579144,554721504,556997050,557573737,557956062,558093263,558204641,558264737,559178600,559403202,555933145,560516389,561255082,561634011,561680154,561734745,561827607,561973268,562113386,562957468,562984913,563031897,563032088,563080251,563772712,564855712,564859288,565022186,565039877,565752196]}
{"user_id":356664910,"collect_list(fan_id)":[2596061,2764093,5626777,17947098,43058291,48549547,64049234,82445209,85448383,98650620,134185750,138528610,138943151,147404500,152598983,152620432,155343228,156478620,157898715,162604506,164170189,177036437,184586026,185323563,186600397,206297823,231972458,235887101,237029241,251263979,262946957,329496460,333953564,343212399,415275180,471572548,490693155,501798922,523855342,525765007]}
{"user_id":184076558,"collect_list(fan_id)":[3687687,5666610,15761583,16339871,29010677,32361562,40742992,41547418,43334246,45141259,45156820,46855813,49809408,52176714,59220409,59872030,60935572,62669858,65753992,67635005,67767437,68316066,72620874,78793708,79261114,85928084,86572801,87826996,90984367,92189250,92863380,93347988,94643239,95846934,96822640,97391600,98580193,99388495,99642853,102501392,101289511,112582756,114108267,114903456,115886686,121539968,124618183,125383147,127338746,132669310,133026105,135311134,135989820,136095096,137124914,137822759,138372376,138432283,138550722,139351315,139453845,139945872,139964816,140816989,141839173,143287167,144266950,145071601,145244200,147382821,147456812,149068538,151979979,152560267,153636604,153721530,155154322,155742124,156085405,157034212,161376344,164678251,164738929,165028715,168254325,168828654,168841457,170600541,172716628,174242301,179054178,184871854,186589418,188812569,191311886,196070351,197663867,199342095,199893108,212803539,219674623,222723845,226147059,232558647,238393862,243095564,251525625,259771369,267530264,300939104,303541414,308627380,315701177,319007415,322004912,325828420,326666036,338837030,345742393,350454904,350808966,352534446,360784808,362578967,373722649,380005457,382713526,401167912,414823785,415938349,435466957,444744201,456539934,479167125,484710007,513787335,541882942,547722051]}
{"user_id":474816854,"collect_list(fan_id)":[3843803,9665878,34383137,35659199,36462064,41415059,68155103,74254634,82549980,84775891,99970643,148659818,151859704,154144013,157856755,163486729,177777528,184385092,188447966,201095190,202693848,209171867,219188992,224533011,226068386,223748788,228215267,235400276,236102894,237592317,244126964,245490904,253327302,265059477,280056283,294747404,300698560,302657783,310286880,310856133,320332929,323572436,325833995,326768863,340740494,341129972,343606503,346007060,350375906,351932957,354576448,356650100,361984069,364642244,370246923,374560162,393704893,405990237,411067079,418720903,434189192,443077448,460389174,460482570,466522202,477434567,479119728,480312142,484286000,494078856,499497626,499734884,501028780,526223407,529235279,536243775,543092982,549859144,550397198,565233960]}
{"user_id":79865199,"collect_list(fan_id)":[4344589,5533892,20921613,30603315,38138904,40864118,61801291,94837014,111215391,132626569,143271015,143364753,146332103,163319733,170203101,173276671,171159181,174061475,175558073,183170697,185229647,186714471,190075094,190347786,191377117,191523581,194216978,199369726,201981881,202180659,203932032,206904789,204880032,208897160,208944792,209568224,209859795,210045485,210249798,222776818,225527543,226349166,227616075,227926201,229321757,229557575,229571253,232469727,235974439,244613601,245892988,247759469,248028763,248461616,256124835,258560768,259525379,261033133,273358405,273486715,273581644,274424104,274492122,275543590,275623888,280583814,284110150,286729820,303239107,313828842,318999299,324555399,330980402,331148937,334808298,339802086,339856206,343955986,345841012,349722021,369530366,382395526,390778437,394712028,400520920,425179626,432255992,441973418,456485761,463948125,467183990,489987241,524016906,535627779,546641932,555720843,565794087]}
{"user_id":82356643,"collect_list(fan_id)":[5509307,12821137,22400526,41444493,47699492,52524429,62210716,63599838,67428678,68048117,70683832,73915817,74218090,81726345,87109480,91229457,91624305,94888944,97727859,103523231,107769742,111440653,115764154,116118258,116643485,118755308,127009067,130709914,131290540,132617878,139911552,144825876,145037035,145709476,148971255,153282208,154205988,159817672,164248493,171201552,179391160,183149148,184067721,186356393,186645276,196177027,203967389,204815854,205573787,210211071,215476720,220915197,224032373,224876373,226290611,229569548,234657333,235589692,241702120,249009275,254766565,265538805,283327323,320328799,320844676,330518643,339421501,352354123,366792391,377174975,391118669,399948036,420422367,421077976,425546314,446040869,462622100,459790778,479322012,499366717,512643399,527134917,542778203]}
{"user_id":358093567,"collect_list(fan_id)":[7737373,28630060,39870176,67374366,68731860,69142298,70533318,72317955,81829306,82453615,90709620,94819187,115196865,127079661,135690014,138056970,138884905,140852220,144167022,150533276,150575711,152971100,153396948,154211280,155392273,155871621,155931970,163002970,163735324,168719211,172569072,174778948,175660224,175685128,175772526,176005843,176295458,177162260,178753924,179171852,178204849,182420207,184060011,184269533,186379530,186698988,188065726,186074139,189948667,190868010,191090851,192713348,193187214,195013586,197944889,198419193,200385250,202202601,206979540,207232005,208836356,210306434,211033516,211511683,212690465,213380915,211596211,219577596,219772915,220866655,222933604,223675998,223686294,223950048,224010513,224994132,225711214,227035420,227926855,229992141,231900172,232289878,232291254,233024545,233703798,235403287,237279594,240533379,242277578,243995838,246155333,248652463,249523457,251024265,251952624,252044564,255349849,255715650,256226130,257557900,258487221,259625485,261278197,263166980,263416223,265144492,265213675,268209080,268453445,268723371,271178352,271647837,272569175,274585088,275273766,275988645,277797005,280967624,281036727,281606269,283866995,283958808,285700016,288743342,293110841,293698815,294689403,296603634,297998606,301774015,305843717,308818893,311945286,313181632,314081344,314639520,315138575,315479958,317204826,320553390,321164834,322113113,323564576,324128094,324377881,325793802,327384388,327904122,327961462,324856616,330685992,331514604,332042689,335342890,335522161,336040972,340475737,341831754,343417118,348360538,352443100,354569746,357493761,358872206,358998456,359579196,359823830,361882378,362995967,363020540,363067839,364052349,364957947,365307601,365399049,365488243,368276569,368609420,369136495,370360066,371752202,372789270,373413197,373661760,376135601,379062716,379137017,379707255,380628353,384161494,387564134,389215700,389680754,390057154,391108525,387863913,393748826,395681563,396697507,397973671,400331571,401636270,401939202,402684549,403029644,403720752,406017333,406256337,406733827,409688305,411725515,413106113,414300841,416015227,416566073,418563066,419726975,420285622,421341592,423529625,430048188,430519239,432910410,432990022,433034833,433974968,434167523,436927885,437648606,438233554,438572070,440277814,441509609,443491544,444491369,445715888,446752470,447547456,451904905,452601076,452783927,452908127,453541250,455639927,455712086,456583401,456719724,457532409,459387192,460747675,462747927,462753069,465624411,466655587,467900284,469125753,472030159,472530520,473173057,474867660,475219925,472892056,479902114,480517594,480551735,481311109,482027262,484201463,484343319,488921788,489419624,489636109,491756948,492604704,493626253,494128032,494863365,497496288,497587606,499296247,499619904,500049523,500226426,501344808,501536785,505161865,506170145,508310452,505362801,510005186,510950071,511528228,511656337,515341890,515883717,516437361,517734979,518959283,522014095,522229058,522700608,523196577,524123105,524564132,525695790,529361927,531074202,532158402,534393190,534721702,535630991,537934583,538194662,538389812,539009223,539347759,540133403,540342619,541011244,541826073,542018471,542669765,544887291,545889238,549843729,551079908,551965752,552547751,553680144,554619640,555881035,558809398,559478835,559632972]}
{"user_id":342516335,"collect_list(fan_id)":[8612877,41225006,71539075,94051252,94159877,104126624,108876445,121435465,125654920,132025651,132588761,135557418,138005271,143425898,151709840,153400203,153666503,157430395,164300545,166902180,174211924,175716803,180933609,181655157,184916398,187307465,192468005,199401495,201184611,214380817,219433244,224420458,226146460,229453412,238787414,240288475,243826430,255839608,261823390,261918679,271692977,274453295,303270263,303368414,304874415,311732905,327490518,331266157,361268546,377447749,380782715,452181464,454153595,464617699,468865507,469071766,478430476,486468323,509058075,516725657,531022262,548939710]}
{"user_id":20459818,"collect_list(fan_id)":[10162253,17307129,29354519,39310811,95552816,179350762,197855983,214837489]}
{"user_id":301187903,"collect_list(fan_id)":[14635348,86104817,98231529,183095496,183774251,231580484,238819408,286313135,329283438,345261038,381564264,430445167,435809874,451286382,491434309,537248356,537472445,556621399]}
{"user_id":64951086,"collect_list(fan_id)":[15781358,16765059,24492076,34960217,35081704,37890018,45713745,47210409,59682649,62228769,71313889,71701842,83605596,95910819,96868583,113291231,116806578,129930382,138277990,146191028,147579926,149026446,153406493,153881525,155676829,156820603,158645459,169959389,181563606,182602412,206960637,212060125,213991201,218119725,223198581,228148304,233426624,233778457,233321851,247233555,256273854,266188654,269955111,278577444,282978937,284394820,289031534,291793974,292574638,297939302,305401936,305745311,319194684,321057391,336062750,344773474,352140032,354539766,357048372,368273274,375816465,394320981,395929539,419557901,422081319,452268267,478658211,480760520,538135864,539340864,540247011,543094458,556294198]}
{"user_id":204376705,"collect_list(fan_id)":[17143919,31228422,59751894,109096271,108755601,133651729,145555338,150897194,177845526,182732254,192739770,196522119,199607433,202298948,204624792,221296391,225508301,235904942,247896908,248393191,262750078,270377615,286910976,318774088,336337810,364798275,425408486,433450729,454749367,486314179,505848599,508495250]}
{"user_id":397295869,"collect_list(fan_id)":[16568403,18134982,52658177,131901388,156784368,165238923,167675787,181986180,191484325,191970176,209984502,232468691,250586449,251890308,255807211,272010270,274723154,416704473,426615091,449362821,462633228,476386130,508377390,538656680,539473112,546067702,566300332]}
{"user_id":19588737,"collect_list(fan_id)":[17658667,20923994,22619651,24577136,32941662,34313465,45689325,50861104,56296239,56412326,68516559,77115704,89287924,92354321,104550057,107727668,113145334,205046790,258410793,296904859,353257825,390912886,419528265,445791973,446881639]}
{"user_id":133182935,"collect_list(fan_id)":[17865576,25772283,42597336,51067641,69620974,74078650,76563050,77238151,84970417,87765773,90333352,91168587,96094856,96618683,96997921,103524483,114452114,117541503,120295303,122293267,133668956,135289438,139588044,145694813,153006864,155763621,155914221,157427810,166016998,166185626,177415134,184154464,187183756,195929502,212372427,229354343,230433173,247669673,270503197,273429888,296248043,305871474,311922656,320473695,344404743,346073338,350270586,380068720,390973504,410071931,438000379,442908375,456608427,475185867,478325841,504042009,505496756,510132103,512671343,514406019,525375793,526168089,532489977,535956873,554278533,555450819,557394812,558476616]}
{"user_id":135460106,"collect_list(fan_id)":[17902647,25387438,25445539,50706360,54955937,67475403,67673673,69507282,82866288,85703926,94766671,96844918,99620155,99825768,111570733,120812473,135068342,135700604,154438068,157354211,175899917,176647749,179116898,179864753,182177485,191897583,194560886,204798867,231722816,247967063,270316206,271907436,277749805,326752353,329407747,337592585,352962099,382347597,391626653,401916217,419124199,450641833,458984865,487189385,497188014,500792423,509774767,531228831,532247139,537261862,539658771,556939646,559880394]}
{"user_id":135975909,"collect_list(fan_id)":[18128176,66368563,68190611,70252838,73867018,85574434,90601708,95793149,120872727,129023474,132512325,134028228,135812364,138286702,148399712,159892177,166604387,169341246,175463461,178196074,178411788,181556097,203328052,203874218,210698025,215375530,240912133,265082935,289124275,359033566,360100518,410248092,415395518,415400336,476901740,477498472,511544482,520699708,539476142]}
{"user_id":152212304,"collect_list(fan_id)":[17961628,37928012,49676165,69681487,71883341,76809230,82556347,85364514,92485912,94093194,105402271,111352922,116372509,120831486,135846854,137227521,135781516,137612150,138036314,139423053,143829299,144815673,146302604,150584061,150968391,151956447,152420513,153255506,154328134,157192977,157580526,157773216,158616544,162601937,163053141,164820965,166012221,167595775,172246422,173039316,175903550,179323735,180062188,181128971,181654645,183131662,185396086,185461767,186005139,189088827,189351455,191751170,194378745,201008638,201401234,205353671,206394304,210844187,214890340,219883850,220975770,221450385,222423615,223813552,226543380,235147325,241734495,243465119,246013288,246746395,248786841,250274865,255557635,259845907,270379165,283852924,291485452,300618279,303226316,312651534,312654514,324505975,333830570,347728043,383570260,387321802,414476139,445310499,448931251,450646372,458715982,459973921,471997606,506443364,517862688,527473094,535578586,551399178,556254735,559392390,560286430,561397765]}
{"user_id":358114446,"collect_list(fan_id)":[27243287,535890460]}
{"user_id":22847012,"collect_list(fan_id)":[28405519,41439089,41511575,44217319,45772418,57293411,289810926,493820913]}
{"user_id":47086307,"collect_list(fan_id)":[30844494,34676743,37844128,46781354,53070065,101919620,103928429,139046348,143598407,146460798,149098757,154698127,154714550,157873888,165030387,174111708,183857312,202050433,208130821,211813672,223856030,248733652,270084544,295402172,302139650,335493211,370831092,552687113]}
{"user_id":85232275,"collect_list(fan_id)":[32236366]}
{"user_id":75511851,"collect_list(fan_id)":[39851070,49708908,116754217,283105360,415397361,415399445,415400336,476995973,476999171]}
{"user_id":24572603,"collect_list(fan_id)":[44989936,97114724,207315011,538968654]}
{"user_id":178924729,"collect_list(fan_id)":[85242316,97545498,110802279,116789839,120632753,127424045,138923792,141699738,141850368,144078453,147498051,148241698,151549146,160228347,172873392,180501390,183764495,204356445,205805348,218605876,240930480,249596606,250587662,258408998,263460200,281539288,344917762,365252948,371392571,391203253,430742962,497516245]}
{"user_id":454461522,"collect_list(fan_id)":[106125959,155863384,360614857,453270790]}
{"user_id":493572157,"collect_list(fan_id)":[122522493,144793068,184624302,196815321,229785053,240087976,261859459,265835708,268086895,269830186,276649248,279326268,287953573,300834977,336837865,344627835,352480495,347883670,355894763,369935803,377702605,407285854,434209873,436234175,442708565,446437651,467158531,467662692,468078510,475154570,481277303,477397944,537969661,546245187,553205119,560095384]}
{"user_id":512944783,"collect_list(fan_id)":[119842540,155224664,159825533,270815878,296406343,381885027,384920473,384928149,389518198,445545153,453872233,517007141,536188120,542352550,560037040]}
{"user_id":181860618,"collect_list(fan_id)":[130121288,195897751,230371118,231961585,245349674,282639843,358602629,365094506,365260336,365715789,391049447,399852427,421573904,435853739,497590661,547622243,565116509]}
{"user_id":215059409,"collect_list(fan_id)":[176671089,179660648,205441389,284454655,350249502,363300461,485187319,494306045,506960433]}
{"user_id":270234893,"collect_list(fan_id)":[217046166,252245536,291205668,331802462,368779865,377618843,388752661,398066196,412054666,472866447,493542388,518749719]}
{"user_id":284988018,"collect_list(fan_id)":[297122168,315784814,317905028,328289827,351305410,378911776,403560281,417903863,446704242,482391427,536668070]}
{"user_id":428751158,"collect_list(fan_id)":[363939587,449157836,494799127]}
{"user_id":31067900,"collect_list(fan_id)":[550971084]}
