{"user_id":269851,"collect_list(fan_id)":[44668,51743,171952,174367,553202,1332652,1606753,16845352,21171800,25805556,53299269]}
{"user_id":344923,"collect_list(fan_id)":[29305,95915,118113,139626,152077,205005,212339,213521,288569,434221,486570,502175,577811,623318,647397,740546,1368297,1620517,1853068,2135275,2278003,2687669,2903739,2965226,2976112,3347311,4105479,4583286,4912878,6864986,7110377,6674065,8354583,9123051,9206538,10666096,11387390,11796445,11798593,14346239,14681278,17325413,18515681,19013441,19780091,22619908,23331852,25661440,26620755,27251214,33484404,50282369,50427737,56168306,61340856,63519042,65396259,65747493,68803028,77978996,87579282,123162082,134546712,135325299,135667593,142093660,160022520,172437834,180181778,183722105,187774531,198078467,215138432,215744726,214975340,220488893,222227385,244565475,267415710,288302965,321686842,326034585,360977156,371557002,379207538,438951878,526169320]}
{"user_id":2320607,"collect_list(fan_id)":[12249,50050,206310,328059,363741,505933,534570,598932,611513,646018,858022,893883,900135,1288787,1302766,1337069,1425959,1487689,1565757,1673345,1761663,1784732,1629316,2102294,2110487,2227907,2352458,3121753,3293173,3409180,3460451,3503999,3656382,3847732,4251581,4404322,5734946,6239947,7682184,7936975,8108289,12707072,13656232,21384669,21468718,26034169,28537326,28713944,31316200,37660414,60435695,75531660,112603853,112702450,123563787,138688927,159554196,164771062,262778382,362023283,366010134,395180372,462453498,483476826,492237627,511897850,552687113]}
{"user_id":6385178,"collect_list(fan_id)":[23273,3225133,3357990,4443423,11295209,16014448,18591918,22099050,22578294,27212505,42247221,66960709,67953544,102842640,184681896,380706809,551553476]}
{"user_id":35599787,"collect_list(fan_id)":[1294,183834,407712,562969,1546711,2439115,2533631,2902937,2943920,2991487,4091164,4895195,4950336,5493342,6105268,6695514,6851213,7441378,7473250,8324816,8533557,8949334,9400437,10337582,9621680,11078903,13292024,13855365,15292117,15864986,15875260,17699955,18920602,19784540,22089420,25442797,25036344,25053353,28705596,28857820,29826023,30557448,32603666,34153671,35423822,35677855,36091143,37569100,37857491,43024515,44881236,44902031,45583716,45611827,49375031,49801257,49849670,50118692,50298173,53538895,62982123,70624893,73770328,73865995,82174401,84546012,85176468,92092604,89748250,93074732,94113221,103311330,109539050,112595461,113785641,124440888,125006161,131751149,135399136,136781854,137907611,138268488,138428169,140249910,140949869,141652107,142514572,143009146,143982309,145850997,150346291,152487761,157922185,162165588,162212853,160949007,165126861,166280822,174452884,184017845,184796591,193095013,195013408,195401739,199772645,217529435,218578143,223923118,235628438,246287811,252417920,252299952,283079420,283620242,293335541,299194444,305370644,306165974,312021188,316245063,323417086,323601610,324636115,325177775,328591118,338805445,352774631,362006191,374879453,390237003,391219054,409116846,410623162,422060332,422659135,423995756,426072244,432872428,438305326,439760789,440720343,458075022,460816172,463632301,470445884,507948448,520413548,522253830,528525333,556105571,558507583,559655280]}
{"user_id":52707959,"collect_list(fan_id)":[57296,97799,1468063,1967013,2245521,2752965,3313624,3825483,5363499,5551906,6576052,7003869,7431130,7664101,11770925,11439563,12697756,14298950,15403337,15528485,15681158,16288068,16592374,17304299,17463489,17527091,17686571,17813583,18035008,18125865,19228141,19693000,20199853,21181347,21646541,21758300,21895000,22718977,26105790,27116764,27352374,27440753,28030186,28051738,28405939,30782663,31623274,31801670,32114269,32150310,32211501,33412560,33544612,34169581,34377457,35847332,38095776,41743308,41822766,45401717,45808885,46070385,46098981,46169188,49816977,50227943,50289972,50325961,51244405,51552347,51934552,52608701,53034627,54619550,55150236,55829857,57358097,58245254,58554016,58965321,59804166,59941103,60861426,61320488,61683023,61902950,63441943,65265479,68363167,68936633,72140060,72697516,73709152,73912812,71149181,74049699,74175052,78525613,80040964,81415079,84341451,89075605,93240364,93267361,96274086,96325142,97344246,98297995,107281899,107483949,109068110,112970795,113383112,115030924,121057176,121304625,122809353,131520573,133171884,133474789,135250555,134123792,134138989,136513107,137123772,137528879,138295967,138310459,138554983,139306764,140151635,142184959,145105588,151547890,157901080,158543378,159449766,164102876,164428824,171581807,173658768,179928023,196903146,201411965,201619448,206993743,216885044,219549276,220658551,225074518,231658473,233261592,240846092,245168760,250636601,256031269,262713709,265268535,270932871,300395702,300527056,311723957,315290877,319680670,322547646,323111812,327032028,330835875,378579618,404438979,405331199,414712641,414897510,420322920,429500029,434612358,438921555,472058904,477206609,480664763,495961434,501006470,506834412,509956383,510722893,519512510,525461832,529676159,532156303,536889330,540555796,541665849,549898452]}
{"user_id":3534772,"collect_list(fan_id)":[101385,301147,507238,556655,572439,886052,1041297,1271109,1754481,1902939,1977341,2816347,2830506,3043891,3054100,3408104,3452304,3505122,3889841,4485063,6521268,7261717,7589491,10529555,11748910,12021200,12795044,13329741,13435732,15414737,15824172,16171585,16495941,16813173,20101094,20143285,20860053,21413317,23189604,28363122,40178931,53554770,59280998,83514709,95988701,111146889,117654746,118944509,131946500,137844706,138436051,139732345,140069586,143775509,153335561,154131640,156324031,165362701,170045645,171197148,175614219,180931725,184220024,185096799,188393800,191983746,198531287,218762169,220746478,241508721,255553795,262784045,267579933,282018559,304047955,310665359,311573588,335951216,351684438,407284591,410466762,433703650,436475799,443838442,444449112,457773232,477244365,485637665,502284122,526823752,538294465,551580239,561539983]}
{"user_id":16907561,"collect_list(fan_id)":[198514,223091,270616,408931,907384,1343616,1442010,1486766,2014961,2266413,2522595,2763576,3046032,3389272,4019404,4301021,4646393,6743552,7236140,6674065,7541683,8848121,9373399,10127953,12823076,12864231,14285678,23044095,26305326,32726600,50327496,54807188,65249955,67661184,134739494,138072826,167889893,177064299,182156624,189919991,194854607,219658439,222603851,222811269,275031462,299624920,379512324,388075136,457288339,486288056,489102506,505885107,516600220,526734972]}
{"user_id":90717205,"collect_list(fan_id)":[150582,3412835,16139361,22355383,76147029,105929363,176207868,264717991]}
{"user_id":310858941,"collect_list(fan_id)":[197468,6347219,8791517,22265909,23749155,45656131,54727606,59165176,62102710,62192504,62688674,79385974,79949499,80968567,82025065,82191591,87478742,95051369,95790276,97282605,99712054,101174485,101631036,102840549,106780865,116738057,117518189,122496459,124458833,126358981,133605737,132447864,134936041,135131599,135843494,136249537,137773841,140052446,140407627,141402602,142847860,143328692,143839300,146048824,146157122,147764573,151045710,152573849,153405137,158132619,160056539,160891401,161686476,162020411,162689803,162697599,164213805,165393603,166422353,168448816,169022039,171088513,176684044,178525048,182723138,182741514,183718717,187399849,188481905,189126681,189789307,190321444,197920755,195314257,198611974,200409284,201311703,206021515,209675622,211709781,213308741,213712666,215828236,220741591,228311273,228602251,232542084,233776832,235146045,238630094,239865885,243836473,244366626,240796651,245898496,250041317,254407235,257515371,268834951,271473850,268686381,272606274,272929253,273620543,279726154,288295383,288498211,293113766,294577519,295262455,296043795,297861824,304593493,305882810,310676906,311035312,315541673,318763089,323937312,324351003,328082313,329592472,330516320,334464738,334938621,338670338,350747542,350757654,351216743,355325911,358836921,367697083,373469211,377975123,383191670,397200119,404987167,418367133,424591377,423289669,430642368,432545473,434562795,449379251,454708800,458094319,459604215,481340954,482545391,484921589,486972746,491421070,505024791,505243117,507660321,511487160,515256465,519949331,527376063,530834590,543182370,545573794]}
{"user_id":560369895,"collect_list(fan_id)":[194865,14087785,94738402,113120760,138620950,283796555,289318591]}
{"user_id":168944397,"collect_list(fan_id)":[322641,350935,795602,2769721,2802314,4202080,5522103,5783027,9001566,9084000,9212336,14419328,16630262,17642850,29608581,33882734,56736393,66107652,73236613,97372826,131829002,164974633,178536205,184096863,185778211,189415165,193186980,205769863,209954828,230583014,267368768,304118669,322355225,344528140,355415458,368078366,386842619,392890387,404575906,418440650,436897810,484601118,523621530,528193289,535970097,536269084,537121252,543779255]}
{"user_id":18473291,"collect_list(fan_id)":[370619,588872,1469469,2041682,2156356,3389594,4554473,4653738,4829961,6192562,12688790,14588199,21402879,22519838,27429861,30159737,30523795,43785610,45581576,83877124,88509859,107464143,138693557,139214450,142096783,154239844,159831924,164543984,225275802,226313068,267999300,301016933,323426181,366566985,391863135,437986364,477432948,536043943,545885787,556388800]}
{"user_id":110657666,"collect_list(fan_id)":[409644,2666954,16751563,84732112,86109133,99851714,102188295,103864134,124678031,144590757,146829083,151649734,155745841,159689763,165600658,172004633,173966936,183904508,190162222,212807538,217600700,218466424,223277516,223794614,223795313,238102071,238412406,242732556,254688995,261268252,303991126,310680618,319693300,320497421,325000508,338802754,353339826,436458391,436916429,487122521,548025223,557630921]}
{"user_id":194133842,"collect_list(fan_id)":[357654,1873056,3767771,40002288,44128401,152387762,363993230]}
{"user_id":266669009,"collect_list(fan_id)":[416853,32453510,34101555,49442068,61110347,113666003,119779753,136289892,139125970,141100823,154128630,174527808,278678492,311968870,377962356,436258635,447630666,523556068,533402222,547047111]}
{"user_id":90564663,"collect_list(fan_id)":[439764,504205,1245788,1374915,2269177,3409220,4553473,4385478,5422209,5833191,5839384,6068885,7356109,7838942,7906226,8392093,8594030,8978827,9283469,10346477,10762859,11423013,11630444,11756082,11874218,14176543,14357589,16619934,17650099,18725543,19545984,19826251,21833611,23537988,27623322,27690699,29330122,34056038,37647134,42139684,46511112,46790670,49458477,51350100,54376082,56367830,57677546,55597126,59994166,61227770,61727635,64282925,64594118,64779951,64926696,65234020,65572350,74007932,87500200,90014936,92059271,92521697,97023535,111173765,119967444,132368948,133345457,132443202,134580307,135174181,135901362,136510336,138565200,138895933,140448431,141017438,142242874,143914565,147029735,147640700,148264842,151197161,158488446,159213571,159226431,160952417,164459300,165599680,170052749,185430767,189126561,193681178,193702269,194159592,195822391,201700578,202357846,204325656,206473145,208368078,210257265,216040323,217577297,252420263,253465645,258789213,266226968,272125281,293678063,306232635,342055225,346591948,353248970,353425981,361033775,383445992,383599995,387971120,408441422,431887539,435234009,450740478,461368785,472583288,516240784,542692938,561690280]}
{"user_id":152366171,"collect_list(fan_id)":[635182,1009414,6822780,7665915,8789273,16415996,18726067,21382099,35219034,35234795,107013867,109882105,123510120,139389242,145599110,161757486,164064602,187677905,211153245,340177901,481574409,499866444,537024093]}
{"user_id":3583935,"collect_list(fan_id)":[740281,2851430,3445075,4505679,4506848,4637252,5494808,5544064,5738385,5767137,5923464,6128213,7120313,7383622,8721896,9576806,10478743,10814179,11011819,11788869,12026047,12116122,12411134,13576511,16417292,16803919,17123359,19145623,19351946,19735432,23808049,24975384,23571214,25231644,25960748,26665549,27558196,28869224,29630993,30012634,30614064,32323170,32421182,33266469,36007807,36016975,35126008,39239506,40151276,40542632,41466332,42621694,45649366,48347579,49131140,50045137,50766002,51404027,52235412,52519825,53163791,57176849,58092623,58938889,60646859,62693804,62830024,64176701,65867396,67283964,67386958,72713922,73484260,76976487,77475738,79663957,80522957,85219910,87264092,93296205,95728325,101863414,102164450,104493841,104541692,105593660,108653535,111272620,112797744,114983483,116488157,123060969,123288671,124577188,131788381,131852967,131964825,132133592,132289754,132906070,133911863,135381400,135863899,137536424,138074326,140025621,140860891,141984145,142312315,142670242,142966063,143709544,146776118,147435582,147461520,147584147,147824653,148324692,153607455,154765763,155196793,156042135,158024215,158552876,159370179,160102717,161533229,161753066,162330770,162665063,163051806,168826525,170995870,171037224,173862484,174533658,175235928,176512646,179961813,181131043,181657854,182359915,188721916,190276509,192342390,192928068,195693863,196656707,201829800,203866143,204506478,204785554,201294400,206770798,216318297,215011774,227265737,228041915,228583599,238271920,241628104,241836980,245760484,249293462,255454846,266456362,270288481,272054602,272712235,278118665,285905649,291334149,292561987,298441329,300935369,303336176,319635319,320489630,325784506,326022075,339432176,346624166,348032631,367441240,367775765,369711067,370494277,374328699,377674503,380641751,382930467,385184084,388709755,396709434,397444342,399887817,402322153,402943311,411883476,423561415,426823563,430145356,436233994,443324219,450402541,456231210,458367682,458698959,460098042,461438728,464052032,476595230,478573909,480452949,487441519,491535144,491773433,501223890,505987679,510385074,511382071,518730905,526106080,535769970,539715966,544025068,546515332,547101214,549060920,550691959]}
{"user_id":187456803,"collect_list(fan_id)":[809852,101822925,104374857,133344005,161437484,165030387,179663413,214714685,218584500,245392782,304567907,504756624]}
{"user_id":565069114,"collect_list(fan_id)":[700325,120066641,470873956,504251433,511440666,563387516,564866753,559949978]}
{"user_id":104444531,"collect_list(fan_id)":[1076283,1153914,6141986,6494401,8695022,8800863,18521280,26301121,32404936,42823541,46453087,57509388,58756889,78629186,84854324,95238186,108128667,109104630,119602560,131904530,161668320,168654244,178442629,183909106,203096592,207609334,215763517,218735230,231852355,260185513,295255874,314719431,323673780,452420142,520168749,523635586]}
{"user_id":336634204,"collect_list(fan_id)":[1225344,1199385,1947060,4109846,25053863,45305269,61296459,60382169,65150972,71777511,72936821,99372174,100175662,133502177,191966099,238486490,262420450,288020007,330637157,415399445,440316632,443390460,480732653,532163490,562095723]}
{"user_id":1989824,"collect_list(fan_id)":[1491188,3497582,22088304,167064804,198284851,444927473,482553721,557275941]}
{"user_id":223444290,"collect_list(fan_id)":[3880179,10731041,12962475,13139229,23498371,31670702,41700258,47915894,48028751,48876692,53072575,53884275,61673190,63939084,65539506,63158891,72692164,82334903,89683439,102508650,119267377,134274632,139077590,140750263,147495688,147528037,154045023,154246544,156457047,159567020,162875827,164091685,164686587,167402997,170825378,183804099,189127221,202500678,209174101,210632502,212370747,221995705,225725573,228935413,230715118,230796574,231684625,233233252,239135807,242075859,243106850,250416647,253209499,261006552,278073971,283606841,303814222,313686687,316097758,335338119,338903356,352947589,401934977,413429886,413823016,444942053,446474376,464499287,553699567,564729790]}
{"user_id":341298352,"collect_list(fan_id)":[4827034,28176997,59371135,76164657,80887928,100481181,104485680,114498131,134600379,137563046,138556275,138692020,140763975,141414679,153783534,158850082,161215007,161822495,162851921,164492105,167668822,168231435,168998089,171548505,185660869,185893458,185945983,186274226,192921926,194190210,195865688,198455389,200806795,200981937,203316085,206294530,211278260,218024972,218854254,219239473,225679717,226620911,231097978,237625725,237679385,241226191,247405888,250498228,255069162,257067599,258797110,267843920,270085162,272924901,274159558,275256255,277216106,278210252,279046608,280751721,281649043,281862466,288456568,293764503,293796080,295787992,296961855,299457875,301286602,302011012,303670351,304445886,308983626,314185865,314907135,315011690,315527994,317194978,318274831,318656654,321168835,323960723,324508474,325265193,325834380,326418027,329693180,330224104,331637095,332367734,333906515,334265879,334584099,336658571,337993896,338413310,338666629,341514741,343255131,344146516,344655758,345193857,349692645,350607125,351220867,353654845,354010203,354461647,357737338,359712233,364144705,367561820,367597020,370545376,372773968,368950185,374882658,376996589,383932891,384524156,389059996,390907758,391202847,402250452,402941272,413495767,415014965,415784846,415802550,416818561,419257751,419436735,428360836,429688514,434568099,435245370,433784513,441171189,447432031,461576380,470372829,475993890,480063663,480367386,486586745,488733054,488792574,498478477,499027852,512229073,513102221,514869990,519407673,519936110,522428849,524643536,524975678,528642486,532718555,534572589,536184937,536196881,541414588,546142902,546721532,548636294,550286242,550961553,551310319,552605216,555177306,555746534,557864729,562509394,565710754]}
{"user_id":162950812,"collect_list(fan_id)":[5351014,9784370,14456721,20184133,25036240,27454484,32391851,37424212,38969036,49635588,56210359,57152675,57202002,58253320,60351981,63293637,88745022,97402893,113493052,132688468,136097412,140276533,150511828,151233232,151777983,157803415,190596485,226776328,229312410,229835545,268343090,311877914,327349495,360280883,371198345,401929039,442451973,514941988,523936339,530187822,530474823,534962242,540555092,547197049,557995005]}
{"user_id":216834596,"collect_list(fan_id)":[5614281,7488223,22656890,29208389,30452678,85149061,87641997,90123153,97646746,99778041,106239667,109898034,120502346,120975561,123518793,131076821,132365514,133282274,134710154,137575172,138766270,141138102,146187549,151175959,150327999,154537292,154671482,153976946,162437522,163496638,164338829,164708464,165099530,166144485,177484687,181887200,191650207,195106285,199365556,209633305,212264522,226641940,231726258,239084740,239965591,243986981,245827424,251940731,253688763,253847090,258124256,259663943,270908917,270930676,275172410,284389534,285518720,299495838,304977476,367683636,376730547,399551747,442459326,491088386,514445518,526371871,534321338,548722742]}
{"user_id":228209283,"collect_list(fan_id)":[6609001,11201834,15344283,51276358,57835240,60757341,67103924,73696956,78718611,80540586,94405833,104557188,105538136,110674263,120902677,132812444,142302268,142855133,162764872,168438917,178228678,185761479,188846489,196842112,197169134,202175206,203440044,205710776,206485946,208860182,210900232,214620549,216968091,228994651,231356833,240507803,248665659,256456407,258156563,261430081,263961695,266147804,268796156,271491063,271634719,272545443,278041049,280216612,291887651,291958818,293051454,293968930,294033257,298083243,298542776,300274401,301014817,302535202,304768595,306725649,310259442,322727980,323151742,324132527,334523069,335155869,335858163,337253224,339276411,340085436,351012804,351273844,358613367,358744972,362103760,363394447,364291657,364508384,364920030,366365010,372295500,374587522,385725087,393143302,396573618,397619587,406641771,407476154,409803219,410211087,410669678,411174243,411205225,413989308,408811835,415534954,415936673,416188081,416578252,417021380,419712786,423552973,430832230,431589438,432788928,435413854,435422725,442591812,443371041,444207892,447605023,451701503,452009661,456883085,457258464,460526144,463099016,464113067,469790996,474763344,475845331,477595867,487943194,491035991,491607022,492975775,495242377,496032948,498527471,499453510,501319683,503405903,505780776,505976323,509156423,511927473,516980829,518415882,518774127,519480963,519996090,520061720,520951256,521033407,521397050,522190142,522740920,523588897,527313104,527842964,528076927,528113773,531256076,533136934,535776951,536807722,536850456,537322387,540309861,542099105,551686497,553077955,557818380]}
{"user_id":30855795,"collect_list(fan_id)":[7094449,8065012,11100461,11807277,26346682,27453729,35973939,37360074,45263173,48356420,54099216,54300321,55262586,60661778,66961010,71397685,72710569,76172014,77786316,80079905,82686776,84993740,93246377,101194552,101253924,103783978,113700284,120806767,125112992,126953142,131562466,133047819,136006228,136273823,137830922,137868732,138862502,139888706,151280479,152984095,166872799,177913645,201720085,233986517,239850798,245432263,263821607,270000220,289339756,310229679,361533719,364220592,379625083,387603048,467772715,469258889,553558129]}
{"user_id":275556676,"collect_list(fan_id)":[7869543,17035353,22575168,22847694,29593798,34386259,38767477,50588517,60776934,65006505,85245300,112800517,131776905,132424636,133734516,134401654,134555420,137171467,139233536,139582130,145415337,146153214,151476036,155597343,155861057,156348955,156957799,163561391,172240729,176371581,179783797,182857792,192883220,198749417,204835307,218292013,229544458,233020425,243268946,246932758,249655606,250207055,273890127,275484517,279616928,341756086,384840082,390055034,437628809,443614717,488981904,520439308,531511540,533618427,537775479,540175844,566325251]}
{"user_id":17927268,"collect_list(fan_id)":[8971635,27929562,134593342,210588981,231816194,461618161]}
{"user_id":5117605,"collect_list(fan_id)":[10370920,22791392,23769252,40360328,50952050,62482314,206526128,298227599,313338534,449116642,480221966,526635203]}
{"user_id":229682183,"collect_list(fan_id)":[10066959,81319705,287617868,391759113,511325542,537749923]}
{"user_id":50507651,"collect_list(fan_id)":[12514133,15557637,23303762,26086615,31366835,32295123,35630118,36266768,42328583,43294800,44037121,46036893,51068874,51633778,51844116,56217957,64931401,66049142,71109370,73023256,73700148,79308710,82268553,84652530,86353837,86878066,87919710,92748826,100098729,103091869,103412525,106205955,106372558,111662387,113680220,125369067,132452683,135336506,136003287,139363661,140658366,142599271,145513804,145586746,151495572,152422395,153725174,156008241,158136662,160494172,160642562,160890779,165604770,169993193,175463092,195761639,197298634,197526540,204306806,206061308,213589797,213598618,216065227,225337234,227397378,231606285,245490925,264058016,269381173,281491597,286114977,286819675,287366512,301142439,302021832,302912276,313816051,316928576,325238146,328424617,331542089,332765452,337150837,337750271,337801102,340619313,338180687,348690980,352104801,354952651,359950214,367834798,371907766,378302296,387407535,396162404,407596528,426551527,432479228,439966861,440776723,442619806,444048264,449420427,453600518,455284692,461777947,466663611,471971704,472609971,487928915,488001952,499410910,507161384,509069531,513154307,517434413,522005688,529524673,535175034,539153058,539890791,544859338,544876906,556576403,560025491,566216755]}
{"user_id":141873795,"collect_list(fan_id)":[13746300,16237269,28952570,61194834,62922986,84973811,87382057,88407963,110850798,116026720,124341130,135872583,136827839,137290774,138263742,138571802,141698466,142485524,144159736,146514748,150203158,150513741,151159643,154525594,155959662,157577527,159223537,162054657,167755737,169105151,176705963,181926681,191582095,202169611,203041095,209602510,216797509,226799498,236166962,239823476,243231730,244060501,248374404,259620978,275722676,314407506,332732449,375158744,398741263,417463170,428309434,430820740,444650020,448983566]}
{"user_id":482648379,"collect_list(fan_id)":[17444849,19512924,25365776,29187843,41522611,49206958,76063027,93910369,101546830,131509064,135092799,140776050,143966707,146046578,148388107,153087936,163836918,163412230,177555094,194040638,260727224,273661332,281661999,283984796,300632972,338644627,385584336,396843829,423460434,428085380,428894953,428974720,436097667,446855303,448877942,450607914,456067495,461380774,473153692,476616425,524628344]}
{"user_id":100147111,"collect_list(fan_id)":[18006782,22653669,29799949,35591826,41667527,56013560,57335105,80397011,82325190,88366434,100632271,117894251,122460541,127442852,151036540,157864343,158275643,184567705,185410022,197840445,210316708,218315692,278870380,283773458,299665628,308729029,313825981,322491364,342776367,349419761,350287525,388183973,450432342,504241811,563825366]}
{"user_id":321453673,"collect_list(fan_id)":[18759337,21741531,34669950,40591640,50690011,52623796,62910305,64589847,95934862,96330173,101075152,115122660,115254251,120489004,137821497,138552795,141434412,141905661,142115128,150244153,152517235,154235736,157191420,157670782,162187879,166981063,170314494,172172658,176141193,181823980,182269062,182743078,184153608,184823140,185529384,194420536,195018277,200979437,208862868,211587962,228304516,239573583,243201830,262661556,278123939,280612536,281061275,287716870,290952152,300442142,303491342,304947946,305122966,316108483,319956380,324341147,330401669,331552225,340519487,362298846,362700336,364921207,368117195,373676097,380082435,398135706,402046448,403197414,403597617,418193537,423862665,442264884,461910988,486167338,491292354,493667722,503255468,506172599,506218962,522497830,530836474,547548378,550880364,551410821,552032779,556167020,562759359]}
{"user_id":13396487,"collect_list(fan_id)":[23191864,35903312,72005080,76686694,110118405,133110566,134893186,138555735,145687287,153248811,164935603,190821568,200124086,219570292,249068476,252088641,253956508,287716857,317660180]}
{"user_id":239973277,"collect_list(fan_id)":[29178204,276118113,421265065,546117180]}
{"user_id":140194532,"collect_list(fan_id)":[32393821,40159022,48157824,304264317,305072363,467825183]}
{"user_id":187426119,"collect_list(fan_id)":[31802031,137672076,219775741,241935853,558630567]}
{"user_id":381835067,"collect_list(fan_id)":[46878628,170114525,309122832,330159092,347738006,534504437]}
{"user_id":299992264,"collect_list(fan_id)":[50290396,150571692,198780275,216420526,221244217,277850699,279686559,329126274,334438807,347547320,352418872,353919568,372353862,372489167,407653355,419486249,419560994,423652381,443438477,464020869,497112583,498178820,509557256,532147593]}
{"user_id":141357243,"collect_list(fan_id)":[51937863,59615710,139331534,156938563,164862174,169526442,186590116,226056269,252443229,301236841]}
{"user_id":223182625,"collect_list(fan_id)":[65456483,89150872,91972692,107438898,138336133,138946301,145391223,148549106,153319260,166970055,168147391,172937931,179012583,185738918,185865040,188093782,190543514,191467767,194136793,209860998,212282668,217746091,218298864,218357660,219935859,222443225,222469062,223498856,227069866,228819855,230874245,231226575,233911596,235815857,239925148,241638052,242364763,244891378,246485795,246647877,246852468,255277468,259144073,262727050,263796383,268411157,269255837,272797785,275585204,283629000,292049530,295567733,299444427,300766715,310216102,321745011,324807540,336875232,339939843,340645592,354840011,359201510,361892204,365364900,368405907,376144489,378657837,385749597,396790453,399994081,400901675,401130725,422100502,429304340,431023126,460480115,463785859,467731526,469638007,474807654,483170935,487390414,519443479]}
{"user_id":396093494,"collect_list(fan_id)":[148224836,207741934,284147461,297928362,329500685,348396197,375080710,383520664,393645874,412337298,444900784,445355816,448934602,474933129,501112783,502018496,504318189,509022496,532138669,549493392]}
{"user_id":40944,"collect_list(fan_id)":[150435576,200267625,275475140,290145885,497038828]}
{"user_id":216067218,"collect_list(fan_id)":[154298697,171481984,180800003,186001557,193406453,230978507,252352814,267722231,302628429]}
{"user_id":428206848,"collect_list(fan_id)":[162261915,177466236,195341383,252724523,276999168,279373902,282543418,283312924,283563729,286175454,290314264,291036222,293803483,299434080,302003133,309342912,311156020,319365468,321274347,335900971,356630311,367606586,368318366,373065387,373305718,368883006,376402931,402660954,405449009,412997339,423410377,430548658,448505343,451385001,463917224,468307961,478937766,480988530,483053884,483132401,488825721,491765118,509640492,513029443,530799160,536693699,540172310,548590904,548823267,550435395]}
{"user_id":193687057,"collect_list(fan_id)":[239937000,454976430,537197085]}
{"user_id":140682797,"collect_list(fan_id)":[369284274]}
{"user_id":31801334,"collect_list(fan_id)":[415387462,415398425]}
{"user_id":18116784,"collect_list(fan_id)":[425261364]}
{"user_id":227375991,"collect_list(fan_id)":[448663769,453746599,515793736]}
{"user_id":162042748,"collect_list(fan_id)":[492608302]}
