{"user_id":120247,"collect_list(fan_id)":[19727,20350,47213,50121,81125,82843,106096,141208,149154,164647,195414,203199,217253,219402,233620,234753,321765,340005,362924,374364,380301,456010,465921,522767,530679,550253,858131,955365,966700,1004199,1111855,1281261,1289539,1323026,1620610,1695920,2060773,2296711,2936304,3411144,4916102,5047913,5218706,5375341,6570894,6577721,7121716,7207963,6677093,7369349,7370126,7582687,9270408,10958885,12735370,17214719,17685766,18428966,21054971,26843132,28897997,29789735,35835971,37740818,38236076,44366881,49424913,50953078,53471032,55474249,63553015,67889219,69848778,68319548,72154627,84418658,132418533,182919141,193577697,195188002,201284921,203193737,209310354,218652669,220040923,223598629,229192592,230100127,237344251,285793021,289418992,308252417,324086654,327712570,335746366,341060123,342019824,348757938,349385410,422278730,425115845,425200921,428795276,496573191,502114636,503966437,507774491,520394245,522000438,522083785,522400654,527304800,529425967,529525336,529827387,529878858,537912261,540452661,542370013,543268791,559561353,560479286]}
{"user_id":1005745,"collect_list(fan_id)":[5127,8880,26185,28341,50104,62190,68841,192163,208110,255452,262021,266586,324668,339392,370181,376596,388162,486255,526582,602742,661873,688690,815648,815672,938246,1164273,1193336,1284382,1645906,1789663,2574966,2611438,2728862,2839091,2991730,3555935,3854248,3542483,4225204,4273031,4278855,4638104,4708382,5643081,5943302,6343881,6548891,6056806,7277059,7437935,7512497,7735684,7969549,8635801,8968337,9078998,10633469,12501587,12634266,12923184,16240643,16541696,16635100,17106566,17325448,17844945,22319245,25315553,26309936,26620367,29185651,30752078,30777045,32093569,38782997,40532372,45735291,46874536,50745402,51845923,53024212,56068810,59255567,63993649,64391452,64893640,65050682,65479399,66591982,68532617,71498830,73775409,80008779,80324212,81976848,95853971,96902981,98125851,103495736,116272606,125149290,132776398,133172512,137284227,141064823,144825477,151715710,153280299,166308002,177888898,182661154,183315644,203186333,204017583,215205586,224089573,229490365,285128003,303531032,313804863,324791825,416180005,450601304,453024930,531388428]}
{"user_id":1715701,"collect_list(fan_id)":[30677,64803,88466,140803,175136,185273,316046,368087,373578,419917,425443,434569,444666,479528,595825,610475,610605,631267,704986,710150,769357,774556,867168,919262,944371,967099,1010120,1091100,1133807,1351115,1566984,1668086,1698932,1732177,2001330,2066749,2109885,2116613,2202372,2238048,2442236,2193934,2577189,2788362,2916735,3246600,3846021,3879137,4092094,4150321,4201921,4499131,4603018,4915748,5570382,5783711,5891357,6237970,7324975,7387528,7978603,8366218,9200194,10263906,10451174,11590488,12342925,22441826,30162235,33614719,34285283,58133958,59861984,62045235,62413827,78918705,81007104,94790138,107030031,116296692,142481890,162537741,192090807,201189851,202426415,231248229,313332178,333057477,335815279,339226875,346653432,465758375,470949726]}
{"user_id":4598372,"collect_list(fan_id)":[94424,689433,1502681,2121416,2314231,3713950,4403012,4896538,5209656,5831376,7905813,8045640,9355683,10262663,10656479,12887119,19580913,20739526,22735126,23140173,25446691,26186863,31940506,38394354,44279854,62516934,99730468,141266970,160850719,165644340,189406283,190269696,199985414,269464806,282697817,321535210,347717841,361063462,386843561,404055047,406826878,408623359,435574878,467813811,472688383,487096735,488287969,493644070,521878932,545240661,551569543,552507774,558374256]}
{"user_id":29710026,"collect_list(fan_id)":[273856,568854,793502,1483012,4341048,4363239,4635247,5694107,15341159,15950701,17933512,19719652,25368916,26334605,31064712,31585178,55258197,57725525,76081070,82106283,82432744,83859908,85000212,89499565,97033115,102825713,106592239,139339849,146467195,147710812,180880782,200499152,247256671,270244942,293100261,301853953,305097361,374650595,452529318,485500475,495258732,532156383]}
{"user_id":316134734,"collect_list(fan_id)":[273567,2852191,2910101,3165643,4252268,9366368,9461292,10350573,16505525,18093322,26720331,42113359,56400009,87283653,111015225,124281068,127735876,151536767,155844212,155959174,174629951,219522022,224353446,224700638,242728740,324052521,351496701,358775158,386912801,465098051,495343503,531235543]}
{"user_id":81557931,"collect_list(fan_id)":[394767,8423981]}
{"user_id":37719974,"collect_list(fan_id)":[506282,673761,740863,940200,958484,983809,986467,1173255,1261043,1391814,1634410,1642047,2141781,2270814,2413016,3212436,3430553,3565814,3700339,3885630,3967000,4027339,4471899,4570559,4760785,4867848,5152290,5760873,6408142,6729146,8231653,8698006,8726813,9451365,10454670,10538991,10630057,15676854,16818864,16524631,17834714,19856545,20040072,22444549,23087737,24278332,25949334,35221864,37134586,37370406,46455018,48246140,51052260,52766326,56234690,56744158,59929503,60182106,61417929,62651043,67023860,67786288,70786393,70804298,77976844,79330729,82671553,82696121,82806693,83704604,87657598,87787498,93095814,106062774,113589990,131370062,132539118,132805060,134293032,137942394,151080848,151284922,152352780,156511583,162399419,162458075,169003071,177682859,187351085,192922896,193054428,217479621,217896099,223364480,233735659,234630201,268732323,268629232,282065624,300589165,320664805,339324164,353329416,367690317,376638202,409774379,410557149,416450976,416499083,423879022,432108270,447212112,451086098,458695136,476032993,486301270,491541180,513160762,518078502,519667010,524611864,555087977]}
{"user_id":483010700,"collect_list(fan_id)":[439274,485419,545607,546612,1219966,1397481,1819992,2093391,2727974,2971903,3478377,4068532,5457507,9493278,10003141,11077134,11383483,15896210,16374238,17758636,20791958,32279020,33047141,33151523,43709047,50185099,52042971,61591994,151172973,165151039,180649186,230108146,277303973,285734783,321112492,336996441,360847883,365066817,415387462,415396299,436168233,447570769,477498472,502780691,520875491,522340043,526171294,542589167]}
{"user_id":547187922,"collect_list(fan_id)":[539667,693391,850315,1711328,2051364,3606423,4159037,4629087,4801669,4866398,6093177,7066968,8751708,13333616,16369898,17928069,18437981,19157121,20322633,21121953,25884078,28427363,45769845,47283381,47409728,47585006,48815035,49660365,50899833,52448589,53840087,58866672,59737622,63151872,68846270,81059842,85535251,86970155,88763966,90873610,91384172,92518566,92949467,97099783,99319739,98244605,102894866,105433651,105441189,106883530,113509863,113729850,116765443,118550139,123888538,129538971,133099259,136842823,137114037,138438569,139870512,141457143,142344457,143308905,148242923,150683116,150836624,150846015,152219256,152692071,154116987,154436116,155364053,156555844,156654403,157795922,158182589,161063864,161528610,161881154,163015804,163526813,163778673,164491828,165352484,167002189,167249196,168286298,169955429,169991862,170070755,172550263,172987530,173910956,175314469,175939728,177305390,179605498,179908420,180981100,181877057,183271129,184823765,187775988,188100966,191385715,194461782,195374332,199252033,199590429,204675453,206633695,206650415,208847014,210760345,211849717,213630581,215397341,215735363,215947107,216661759,216758067,220083966,222266620,223572788,225584238,225821522,223771237,227917928,228283665,228882237,231539617,233907190,233953382,236099369,233262016,237982926,238722542,239105920,241412166,244238015,244263341,245156459,245719988,251506134,251528621,254441316,254580470,257055752,257433777,258662125,259102385,260565287,263654664,264858235,269011949,269113074,269430665,272969492,273349619,276568768,283975779,284284480,286815531,288209445,295330900,295572248,296294126,297764065,297788746,298431392,299209002,299515799,300698198,300798033,298743771,303143157,303322460,303730535,304206951,304427104,305930524,306314154,306847034,307532066,308126206,308536840,308993489,311588211,312734485,316636692,316818287,319233370,320047216,321091476,321251679,322296152,323935337,329776642,330285814,330845088,330923881,331397785,332316289,332530088,334665887,334708582,334946522,336456600,336602812,336740155,337085110,337206926,337335214,337521956,342424871,343397635,344897104,346054128,343006170,349195066,349414795,349824199,351043043,351249740,352572316,353148712,354405533,355779287,356271679,352843444,361533759,361940040,363064853,364844252,365744914,367985934,369276868,373662429,375550743,375604945,377242082,377469328,379696004,380794068,385533372,386407835,386704303,387125372,389040285,389764432,390298015,390620371,391964501,392744684,393028602,393288881,395584306,396148331,398830197,398909883,398936420,399440678,399536725,400279478,400884920,402100663,402794017,404971027,405284419,407589277,408545485,409099592,410609644,411159114,412339626,419289131,419637153,419790776,421358636,422222566,422625783,418264750,424428243,424867390,425399643,426233578,426453700,427116419,428858391,429240228,429437451,430034151,430674096,431733070,432493552,433184919,433398780,433528362,433955672,434970679,437047428,437074516,439534857,440145139,440581699,440621960,441070719,441248136,441420543,441487992,441491783,442010018,442483358,438413885,444294666,447305963,447980276,448485380,448953600,449321729,449550489,450797492,447103597,451679847,454130763,454882457,455467193,455986776,456371040,457026816,458347115,458536338,458682907,458808484,459448917,460414336,460916587,461828827,462462023,462922850,462985822,463322763,463700026,464153604,465969158,466554131,466844302,467258883,469332745,469504588,469601095,470044161,472205899,472473669,473114516,473802435,474068254,476003146,476888008,476931784,477045302,477787700,477972449,478128438,478246296,479263077,480761762,480816142,481273268,481397242,481798341,481865223,482415339,482481759,483317409,483347282,483500917,483814683,484742213,484957584,486657822,486834821,490384524,491103184,491698427,492060815,492729359,493066211,493429821,493886254,495700198,496499468,497872849,499649945,499726984,499945810,500057185,500860501,501215954,502046638,502715335,503235301,504522096,505204168,501362691,505920338,506960161,507194173,507452081,508591823,509532537,509756632,510365552,511173503,511180256,511535015,511798109,511822847,512022983,508705992,512470596,512896923,513038076,513151875,513499488,514414061,514714589,515358372,515363090,515526832,515889066,516203269,516635676,517244172,518200687,518557154,520873389,521532056,522782591,522951054,523333319,523372613,523454957,523579266,524822428,526230367,527181152,528254654,528421095,529348215,529503765,529990916,530292177,530977407,531235040,531488476,531740728,532115722,532304947,532821972,533344679,533366901,533404156,533478953,531723539,534154371,534386982,534561405,534637931,534823017,535058726,535199876,535506127,535575122,535691766,535769310,535944588,534057613,536990595,537168685,537259726,537312712,538388451,538766075,538880258,536519258,539093713,539304384,539448909,540314222,540409623,540481481,540616110,540729743,540741185,540989879,541238624,541432991,541680426,541959370,542142965,542288450,542345612,542432572,542731818,542998298,543242050,543638102,544157625,544369196,544859606,544934572,545330989,545513975,545823437,546052305,546276144,546341021,546841071,546870322,546880427,546990810,543880920,547206787,547508087,547514819,547719697,547982051,548041670,548793900,548944849,549021581,549127239,549173876,549702231,549706221,550030843,550125881,550233622,550316032,550345225,550611970,550678560,550750979,550754334,550884480,550931192,551790482,551995821,552184418,552313395,552369467,552376328,552529267,552581608,552586641,549949404,549966164,549972650,552820171,552942195,553040130,553052847,553073249,553142545,553215058,553290926,553409744,553437928,553441550,553674836,553685893,553700742,553786557,553885689,553922989,554036241,554040204,554071674,554160421,554253799,554360084,554407824,554637863,554766413,554806201,554840845,554862952,554904229,554924239,554929264,554945153,554990328,555062703,555182640,555262537,555422786,555439581,555480005,555491960,555551066,555561360,555616900,555631831,555641697,555648457,555649671,555667209,555712554,555791849,555810659,555830353,555854433,555871876,556021382,556025778,556026628,556053803,556076007,556114233,556133748,556193530,556211752,556268731,556311267,556365330,556386965,556456764,556535239,556545317,556585548,556725345,556735013,556741356,556813021,556834883,556835469,556838817,556910010,556957037,556970958,557034150,557198459,557271344,557365653,557534021,557557536,557561649,557571896,557729224,557827649,557835473,557841102,558146115,558185642,558189333,558287870,558385738,558426392,558558253,558637550,558730480,558813669,558856333,558954877,559025841,559031275,559119060,559159332,559266586,559311614,559346004,559363073,559447021,559472221,559473430,559570404,559604548,559681314,559684302,559705331,559728666,559810011,559815198,559880974,559911845,555905304,555940642,555963137,560128724,560168580,560186851,560312926,560322621,560496980,560498970,560595018,560691768,560775946,560904811,561028270,561041645,561280221,561451102,561465218,561559197,561708487,561711977,561738761,561800971,561812730,561941590,561970157,561975185,562142367,562263824,562351878,562894203,564007148,564384670]}
{"user_id":1012413,"collect_list(fan_id)":[603321,2098670,3023034,12382892,49659585,155682464,156596789,316517019,379530454,434555583,512343543,520304208,552485890]}
{"user_id":1108421,"collect_list(fan_id)":[804551,867584,970561,1512507,1408474,1672586,2160074,2261227,2350604,2557900,2772194,3177059,3483061,4702392,5391262,6042154,6223794,6303384,7799019,11629572,11958878,13022136,14034616,14091894,17075682,18288994,21282919,21654540,22143879,27235232,38570354,39557924,39842807,53942996,79859374,85346052,89416967,122297736,134040009,139464346,150958310,162650473,175583254,189405589,215320670,237271574,276365103,292268832,293642794,313327403,328610701,351658518,352576488,389387805,480448827,490842424,522136401,527372966,533336931,539922896,546409032,551869092]}
{"user_id":24206094,"collect_list(fan_id)":[728697,20404403,42022406,415403198]}
{"user_id":8060771,"collect_list(fan_id)":[888161,1116548,4521451,11383483,23494855,63340779,77964932,144911370]}
{"user_id":110628757,"collect_list(fan_id)":[872198,2653486,3407592,4114298,5243637,5930993,6604056,6685592,6896125,7319864,7825110,9082140,9204423,9879644,11224819,12369677,13124663,13557069,14562251,16896795,18398016,18581005,21715415,21822258,26571738,28544570,30276824,33541062,34005274,35219889,35398351,36680986,38925969,40108645,40928445,43438393,44342574,45064329,51933241,59089582,65302270,71334188,79328031,89128884,89707704,90783171,91937617,93582546,94519903,104039615,104554224,120182226,130133413,131914926,135149780,138032939,143159636,146700680,148052988,157450917,162489105,163900907,167170660,167214685,173203140,173619211,195142845,198500826,214268257,214744223,220917741,225256298,225928110,228046153,244647216,251668271,253162477,257237046,273457771,285028315,290113720,300996712,301789341,311689163,324401022,336792323,337255947,339885441,349849028,358198350,374538456,380442274,395615495,467030996,490446885,493076059,496759506,499624808,541025091,560074801]}
{"user_id":18874429,"collect_list(fan_id)":[1007094,5244862,5361613,19177678,20004812,21784573,27729755,26760718,29437961,32759431,33186729,43536262,43634828,47791135,50326312,51525386,53299957,56048574,56167995,59015400,59434176,64564013,69597497,72135226,75950772,79779262,79832566,82639858,84906740,91093806,92541044,95109839,96535222,97867176,104311215,118678597,131672717,134730055,135827752,145555827,150533646,150568965,162346152,171124794,172164275,177667936,180385855,221362174,224808824,245669973,271749598,313727950,331293176,384326792,407950866,409931328,426200045,449739674,477882135,497526474,498902371,551902205,554247331,554716238]}
{"user_id":536024171,"collect_list(fan_id)":[1007962,6084961,104758377,215663061,336750532,419618719]}
{"user_id":58423803,"collect_list(fan_id)":[1212314,3983808,10408814,10604191,11010293,15907774,17356262,24245729,34114117,50579421,55149501,55326391,61368679,67360951,84581493,105020344,123108870,123807749,135863537,136128289,139540644,143480926,145453189,147803755,162322013,163487191,171055428,190982745,188988474,195652610,202949325,204891031,218703197,247447562,251704706,251704737,254145366,265483010,277039671,353293928,375971522,393660241,402101762,424405967,450074710,490519587,496170317]}
{"user_id":220846414,"collect_list(fan_id)":[1314275,1602961,1633265,2383515,4641428,5263180,6249306,7221045,7834739,8330221,9219817,12227471,12310257,16059057,16540894,19575711,19740170,20603826,21908156,22143571,22441036,23011148,25247854,27831590,28339125,30103293,31315358,32668848,39205095,39705453,41478607,44997902,45906829,44275156,50551421,51214303,54993596,57601189,58173326,60864569,64083627,64600710,71230756,71350409,73105246,74539489,75373151,75718053,77487444,77781615,81686739,81926301,82938161,83536786,83763603,84228744,88392831,91407431,96746602,99786606,106332278,109020623,109552390,113204396,116608389,123005555,123580352,124477349,124753651,125057997,128220151,131806217,132829889,133422644,133635612,135133438,137704678,138610247,139818251,139899880,138941690,141908627,142355273,153395937,155976184,157459176,160800950,161921285,162021479,162712589,163584709,163917563,169203585,169837012,169864622,171124434,171495899,172786748,175508641,177038782,179066606,179256946,180697773,186859547,188790933,190605283,196364410,199691733,198305411,202356657,204614773,207053269,209590603,210555119,213089277,213786332,215892853,218303116,219388466,219676770,221283787,224817498,227182371,228170840,237850665,246390928,248906432,254865102,257250933,262456638,263016439,263702037,267580972,268821015,270682045,273916091,276987189,279005706,284678140,286231253,288742790,292326485,303440740,305561711,311142867,322415245,326709623,328441362,328593935,324843000,331770500,341236304,341931815,342050845,342780113,348304308,353535652,355641605,382178548,383186374,390240576,390660509,397383446,411053363,419478875,420853785,421074825,422304372,422356323,451694871,453930410,459167119,464086288,471158619,478832689,486967545,489194301,493826912,505322738,505501760,529198527,531932679,535253678,547682942,557951508,560295567,560478448,563098369,566833175]}
{"user_id":35530857,"collect_list(fan_id)":[1552133,5584885,19367122,106347568,129498485,132436450,156263707,164766900,220238999,328291229,402971803]}
{"user_id":101096378,"collect_list(fan_id)":[1572164,5626561,6651517,14152105,14342411,17339856,23958294,40520451,45513674,53423995,53759514,62775828,64089641,66802886,67067921,76782974,77481661,89584325,93579984,97140878,98111336,106150050,108147592,113018630,118930283,133119388,133802953,133851978,134381849,137561190,139496325,140860825,146589161,146631118,148522590,150296260,151505425,162024343,163223450,163967559,165609104,179573543,181608758,183898492,185041483,187650812,187937423,188661245,190377745,201579913,206989857,210561471,213056632,215427633,249514391,256590571,262186911,283984596,311322844,365609996,381489144,419121784,429012998,454032689,511072588,533003237,534972998,551041027,556566522]}
{"user_id":253278730,"collect_list(fan_id)":[1579872,3428938,3605235,5581823,12443939,18365732,20732707,31065326,40870978,47234999,50198996,59192816,62673762,70749642,76720111,78202164,79458844,86449014,93125752,93299480,104131625,107939355,118458660,133570306,133839077,136454309,136772102,142273403,144940384,145086388,146312696,146400426,147770474,151659147,155664323,155928377,157576053,158354313,159034443,159703006,164218836,165228745,166948051,168389719,170077857,170513859,177720779,178150701,179125880,179207564,183938718,185212414,186107853,187294366,198749417,200815237,203096297,203665434,208504915,208714976,213797714,215065679,218657875,220378382,226604726,231236748,236937571,238928903,243221027,244033096,245479027,253894152,255805036,257932802,258303359,256017803,264471006,271011022,279090888,300356721,304197713,304989553,305715952,307110655,312646007,319310888,323179838,323259010,325062507,326671483,333555053,337026184,339203482,339428701,340715666,342192025,345500932,351296921,358292357,376700252,379455700,381683184,386672086,388785924,397735515,398701537,400869299,410496440,412101542,415405068,426323848,429109871,431134454,431769123,432077933,435355946,443743678,450208954,458419544,461947101,471193354,485181814,491566516,491739929,496585473,500601129,509583918,510451943,513388614,513674269,518722769,522904062,527354847,528281056,533386689,534620141,535824405,537116027,539838667,546477821,558643738,558720386]}
{"user_id":544698065,"collect_list(fan_id)":[1839546,2286965,4140786,4336750,5435973,5617662,6076504,6358183,6604791,6708034,7352822,8132840,9908473,10383350,10786467,11471338,12196054,11439156,13754864,13783125,15309959,16676733,16708848,16900692,17114809,18097634,18163789,18556886,19120980,19531201,19760988,20132704,20191851,20216477,20219216,20314066,20371027,20689717,20843573,21095357,21379495,21849749,21088280,22422291,23061731,23622374,26319681,25044435,28330415,28544123,28753539,28897527,29162538,29664674,29763705,29917436,29947018,30320001,30439997,30630505,31384842,31951296,32045939,32070997,32111190,32555177,33925166,36092440,36246938,37286951,38556345,38606026,40082575,40527218,40914311,41128231,41210406,41584690,41646484,42553064,42707017,44527135,44981612,45429818,45492342,45579535,45857836,50322187,50322703,50430035,50562799,51534269,51565884,49896958,52852436,51701697,53794418,54271596,55031567,56470718,56764683,57289118,58781134,58804996,59550865,59623827,61198188,61380396,61557452,61622368,61880400,62166231,62341559,62592936,62893999,63244640,63549011,63833583,65081640,65247689,66121372,66760517,67436486,68000627,68512546,68637279,69408867,69871424,71019147,71471499,71552089,74619814,75258901,76308674,76978206,78142441,79585165,77616737,85376120,86160509,86523775,88228595,88355008,89237931,90088505,90213072,90321329,91235193,92949467,93201858,93301041,94320746,94397163,94584980,95211129,95324292,95485919,96195988,96225341,96243241,96400284,96932085,97400208,98081795,99852454,101837189,101955412,102288784,103896243,104456976,104898346,105493584,106075306,108444687,108656930,109482026,109708380,110340159,111042456,111550822,111844525,112680712,112962042,113175502,108766996,114717100,115060162,115919553,116013647,116138276,116433016,116604342,117488804,121210891,123076710,123403891,124174197,124205958,124276614,126090758,126313663,127449634,127932852,132381119,127812490,132813648,132814748,133192332,133212589,133637874,133638756,134075816,132449738,135014786,135247577,135319744,135484802,135524294,135738712,135861634,135997064,136385704,136391549,136564048,136706719,136978592,137094720,137112694,137177431,137230136,135757239,137579673,137650934,137657606,139511514,139794834,140264697,140270545,140369216,141467979,141489828,141581056,141881848,142374356,142525934,143360662,143886254,144513953,144524958,144772628,144902591,145705322,145883363,146207434,146557877,147084503,147422473,147659746,148547759,150572450,150730404,150798099,150824720,151067421,151152063,151452813,152052615,152221618,152688767,153469427,153640827,153675361,153712185,154034131,154255746,154464298,155555482,156151582,156933758,156950293,157006047,157008124,157110440,157124175,157474813,157620690,158916536,159115756,159630588,159889165,160668756,158655044,161122363,161880459,162278414,162632554,162892073,163228505,163632300,163890238,164056704,165081541,166233549,166734334,166801837,166822088,167438400,167648244,168638426,169847369,170216710,170391071,170581916,168734713,171675514,171836808,172609244,174065672,174905263,175052272,175126515,176934656,177379199,177803862,177895089,178185188,178425848,178591428,178956938,180049277,180320027,180663700,180713851,181375194,181436705,181964436,182002887,182014968,182071310,182366322,182704738,183078536,183178768,183643273,184086726,185141574,186703013,186930292,187389557,187648347,188448863,188872254,191124934,191136899,192734385,192944940,193358321,193570270,194472459,195098175,195583000,195981357,196342476,198804448,199576367,200570272,200843992,201055578,198265611,202382082,202517820,203340412,203416719,203433019,204276718,205127998,206201243,206497987,209374172,210641616,210680211,210926365,212070246,212211843,212266912,212721345,213278955,213570063,213747777,213885484,214783933,214842807,215072593,215570191,216775357,218301035,219381469,222046180,223941888,223988141,224347576,226361920,226641263,226769425,227049075,228377735,229579991,229585954,230149608,230404724,231203764,231727454,235079721,236167204,236384745,236791077,237827811,239221406,239242663,239255995,239866068,240578368,240735438,241084847,242602553,242732484,243952995,244201557,240825636,244890396,245757392,246645100,247104686,247784535,248671292,248726558,249680325,249741185,249748695,250211186,252604066,253169122,253299604,253875613,254968794,255835017,256835590,257074824,257476469,258055759,258751223,259203129,261109140,261628764,262203261,262212424,262649697,262757656,263853222,264062086,265860317,265893250,268363928,268773261,271654024,271792441,272126382,268649730,272646540,272744747,274607455,274779460,275005171,276271968,277568593,277886714,278830544,278980714,280527135,280803441,283037190,283287782,283389614,283521019,284358122,285311675,285578089,287536943,288207468,288890557,289999396,292343087,292668813,293219914,296419632,296991749,297251975,298219650,299647345,300157609,300286586,300780526,301374434,302598002,305575259,306072185,306347847,306927520,302995385,308073978,308321184,308826776,312016686,315868450,316886647,319058747,319710868,320407947,320724929,320789480,321307839,321568857,321720351,321808867,322923619,322960870,324109427,324444709,321216062,325686323,326195983,327499800,327944696,329059323,329919320,330226599,331734567,332877105,334609133,335294467,335352680,335855917,337207701,337483928,337565818,338443644,338710075,339298049,339970334,340767396,341213417,342388217,344292718,344347963,345868026,345957375,346037103,346640888,349831172,349887224,350005121,350684126,351711421,352064776,354422109,354476931,355072618,355954403,356092215,356500762,357355136,357666354,358713476,359057344,359480069,360025115,360870228,362293275,363616489,364146931,364864221,366902376,368220129,369163772,369178773,369336584,370194489,375935794,376785403,379403447,380968758,383157790,384049241,384119005,384753724,386124356,386577728,387553458,387683015,383224622,387924608,388333453,388366010,389119418,390673240,391138083,392160721,392564519,392717784,392768258,393844691,394650620,395852764,396084450,396533926,398010525,399691971,401804878,402215106,402285686,402473690,403220230,403549538,403767431,403816701,403843103,404299841,404719614,408102502,408368987,403307328,409503120,409604063,409978574,412440835,413276631,413738478,413890287,414958148,415897618,416051647,417856631,418248015,418875877,419861367,419976129,421234649,421311862,422002740,422424864,422555645,422659258,423700402,424395361,424753753,425636994,426764767,427138348,427713546,429016349,429435712,429877643,430386192,431044572,432111944,432204951,432889061,433257610,428469213,434310351,434849099,436602494,436726889,436987582,437111851,437327361,437579491,438006952,440105783,441033869,441584679,441718180,441792368,442137615,442403536,442687802,442816589,443193413,444277775,444289482,445137444,445612224,446199180,446330477,446563416,446763883,447289285,447440538,447900215,448261670,448694357,448738161,449165936,450474759,450603835,447112141,447118511,451519040,451765028,451854925,453038707,453157034,453357465,453783540,453885885,455027276,455171096,455372428,456490161,457079686,457160980,457295536,457504696,458303442,458318302,458537394,458952016,459349626,455235298,459985746,460619007,460769441,462174885,462298183,462956291,463756222,463765777,464580931,464633973,465012764,465063000,465179926,467064933,467988566,469269776,470430358,471302928,471585082,471861644,472111278,472342756,472454102,472562415,472567010,473570663,473800447,476425970,476595697,476751856,476819529,476942083,477020612,477022575,477100015,472926229,478036155,478618058,478950837,479108605,479367668,480018865,480085105,480353815,480364752,481135291,481293646,481334581,477356300,477388039,482337761,482921264,482986378,483109931,483609646,483951647,484442988,484596650,484672961,485317651,485785876,486059162,486426911,486515130,486681913,486748954,488247282,488820085,489119520,485987264,490304051,490915280,491450511,491732934,491878513,492486518,492523867,492932895,493176974,493980390,494460305,495875020,496342093,496568482,496684305,496794928,493487659,498082268,498122381,498316366,498378157,498582324,498736195,498931695,499075790,499152472,499461616,499470642,499527549,499624461,499808083,501286818,501347178,501476935,501687778,501690660,503550620,503935781,504328975,504521144,504558851,504764100,505473172,505695653,505918854,506108130,506415847,506706200,506961351,507124031,507299949,507831516,508060192,508445104,505421925,509098984,509910300,510010439,510126168,510143636,510323867,510798327,510857792,510959898,511940287,511965088,512191314,512242765,512736121,512870222,512934095,513041057,513060630,513079054,513166852,513571989,513801059,513835748,513887573,513980071,513988727,514233398,514465716,514673684,514714971,515069893,515093083,515194811,515535015,515542515,515688806,512079823,512112209,516288291,516374576,516440078,516504665,516673256,516778219,516823066,516940956,517047720,517232460,517376406,517568461,517600519,517968313,517997170,518019078,518080014,518270742,518648098,519095636,519652106,519680075,519682396,519682502,520036964,520071891,520102879,520136986,520271581,520289516,520778322,520911190,520971835,521075005,521081076,521166878,521273066,521274219,521589643,521838042,521878607,521889446,522142018,522422653,522567693,522593246,522893929,523014741,523283596,523534556,523539361,523654206,523707511,523711652,523814002,523871507,523920068,524000213,524032213,524225626,524273934,524611785,524638685,524816767,524842575,524851985,525128114,525317487,525550054,525578981,525605119,525673109,525856950,525876559,525986231,526067918,526075703,526246022,526251168,526274786,526357157,526422942,526428456,526432251,526611037,526672131,526883008,526940525,527024560,527085958,527097094,527112310,527158038,527189157,527325601,527385338,527398673,527532748,527578662,527588417,527615414,527797443,527831526,527867496,527914641,527976695,528762158,529013148,529015231,529034174,526693677,526701472,529433288,529511933,529530342,529681811,529777042,529785446,529814658,529850759,529905943,529969994,529984545,529996455,530010781,530063431,530209582,530267370,530615576,531237967,531329025,531501029,531576112,531579738,531617362,531771379,531804206,531906318,531928640,532192813,532475612,532478970,532652000,532711229,532731518,532800319,532853782,532955289,532971045,533022289,533076149,533078855,533138776,533182433,533236925,533303732,533343137,533363060,533438600,533524652,533534924,533610839,533617559,533753606,533790513,533993705,534196820,534380097,534401770,534503945,534561405,534763166,534779843,534928287,535016901,535183338,535208279,535240571,535280495,535303246,535341589,535380474,535423777,535436486,535439730,535476601,535496063,535524026,535719129,535729371,535761803,535814632,535892182,535920341,535930302,536033486,536085033,536128541,536171271,536181084,536181123,536220985,536245555,536335767,536369543,536433607,536596640,536698876,536737161,536904766,536911302,536918330,537008849,537053912,537065206,537077677,537117231,537151433,537160517,537161110,537170329,537204132,537311307,537360455,537363625,537670136,537783446,537786046,537790786,537791519,537806075,538040233,538136317,538320208,538478957,538486879,538513107,538573260,538577131,538636802,538709120,538741063,538766846,538862136,539040926,539057017,539135890,539194211,539250357,539277631,539321885,539377857,539397829,539435122,539439303,539526241,539591819,539615760,539718967,539818243,539831528,539834130,539838379,539960039,540095331,540105223,540108474,540117189,540125656,540153041,540199942,540248950,540331060,540333951,540391964,540425372,540454373,540454752,540513509,540539368,540578964,540589957,540602123,540614935,540670084,540694721,540707278,540723273,540760015,540769256,540830549,540868747,540946066,540959838,540983697,541017198,541033647,541058907,538897761,538921537,538926271,538943541,541231916,541314513,541358088,541397435,541645013,541661111,541723662,541796762,541800058,541854072,541892169,541964465,541973899,541995867,542048184,542049830,542068774,542104374,542135121,542178414,542194114,542261801,542305703,542323168,542324741,542356415,542441572,542461049,542477678,542525512,542635041,542642993,542643544,542665515,542668832,542669980,542705870,542710221,542805666,542832857,542849300,542859368,542976452,543005712,543011351,543062239,543077193,543093675,543141656,543201132,543257364,543269216,543292396,543296179,543301614,543335109,543413392,543450881,543471347,543616186,543747786,543755360,543811451,543811906,541122379,541165666,543984719,543993128,544012791,544028018,544082161,544139418,544155044,544230283,544248155,544256717,544283476,544325043,544335635,544359434,544384634,544409560,544414508,544422291,544432766,544448117,544488843,544552208,544581002,544610404,544614164,544633351,544674113,544705440,544803525,544821183,544852974,544872516,544872540,544880511,544892660,545007754,545009852,545020733,545079051,545124121,545134381,545136127,545145993,545211008,545235133,545263843,545301508,545310218,545370098,545401543,545421665,545430212,545438873,545446547,545478979,545537001,545548089,545569745,545628591,545662486,545670217,545726483,545736014,545773915,545813497,545817518,545842388,545861897,545886364,545926278,545937151,545960377,545962065,545986637,546038259,546052305,546104464,546193215,546210916,546237310,546270347,546284490,546383281,546479852,546565418,546739866,546763417,546797549,546857475,546979551,546984790,546994176,543856670,547078904,547127905,547192495,547211675,547222772,547267129,547297790,547332279,547334775,547399235,547401875,547446934,547467843,547497310,547514615,547521349,547562263,547598946,547605286,547651288,547681042,547684219,547703870,547744332,547753956,547798035,547876996,547881655,548043813,548055919,548088555,548171818,548188572,548320433,548414099,548439911,548459488,548483232,548485146,548493129,548504121,548543242,548658734,548687329,548741556,548778204,548860825,548909905,548950318,548950705,549004901,549054489,549061475,549111679,549154391,549240536,549342265,549379494,549393271,549418174,549426681,549531256,549545194,549553288,549584794,549705761,549723617,549763081,549793464,547042108,547067053,550063993,550074215,550082250,550089105,550095517,550107782,550127776,550132039,550182525,550184365,550318648,550331705,550336986,550353727,550402977,550422885,550450940,550459910,550462269,550510030,550527801,550527943,550542312,550578941,550619735,550623619,550699306,550722204,550789164,550795455,550831365,550896277,550974008,550976453,550989312,551055993,551188969,551296076,551393887,551414811,551484715,551505088,551517850,551539787,551580803,551596631,551599982,551601089,551608001,551650462,551669565,551692451,551710410,551738922,551784072,551798209,551826368,551844389,551846714,551860558,551945049,551972117,551993758,552019905,552028765,552112737,552136199,552145479,552233607,552236032,552244838,552246924,552292385,552294310,552299838,552334598,552351876,552358647,552358917,552364838,552367022,552397683,552413917,552472521,552477490,552481267,552555679,552556440,552594359,552597891,552618762,552673137,549898734,549899364,549921420,549942375,549942935,549949170,549957543,549960908,552928436,552937112,552974758,552998145,553002269,553006308,553021974,553106748,553138231,553150378,553177945,553217865,553285396,553292651,553297642,553302441,553328687,553358849,553402949,553408458,553476880,553490190,553525923,553572099,553578427,553578918,553600188,553641892,553707615,553720521,553744142,553782116,553857521,553876810,553877723,553881240,553904590,553905035,553973603,553979203,553994305,554010947,554069562,554127361,554152288,554154684,554310456,554328166,554408681,554410059,554420631,554425355,554471791,554523384,554548109,554570943,554680350,554691365,554712557,554730386,554749384,554781382,554827073,554848188,554848319,554850455,554894152,554950023,554999387,555031482,555054373,555131629,555163919,555236000,555245345,555259567,555299783,555319291,555363427,555377986,555380472,555422188,555429783,555481809,555516396,555519562,555538551,555542687,555568940,555573746,555594491,555640176,555648975,555655309,555677258,555691618,555734978,555767689,555779210,555785726,555794062,555814267,555883908,555885926,552757061,552768766,552774664,552778583,552778814,552801152,556045058,556053009,556058235,556068297,556107054,556108332,556153813,556214511,556226193,556288473,556304126,556498825,556714584,556842407,556890804,556904689,556967779,557000844,557230569,557303720,557439464,557446139,557449727,557468485,557546784,557548082,557773249,557838178,557932016,557990642,557994355,558045081,558058015,558080490,558089813,558098519,558111470,558170926,558249328,558252108,558258568,558297503,558320695,558341597,558393092,558393345,558398512,558406759,558448959,558476017,558479201,558490750,558503529,558511869,558601999,558614309,558649304,558682586,558687169,558718329,558733998,558750383,558755298,558872900,558875942,558907074,559004202,559035058,559054724,559102362,559138606,559201233,559215301,559244790,559276321,559286891,559325295,559356918,559362263,559402032,559428873,559445376,559527202,559527743,559538882,559557963,559561173,559619824,559649281,559737762,559869135,555943207,560031677,560158620,560187034,560380328,560561637,560770140,560785760,560847243,560949081,561014351,561022592,561132604,561139410,561139519,561242667,561434936,561444897,561475499,561579030,562021361,562038106,562233296,562269080,562274366,562386436,562391654,562546024,562961675,563095723,563240393,563253845,563372583,563625865,563665163,563665803,563700938,563802507,563879573,563900710,563926649,563928769,563953769,563973942,563990708,564015387,564032850,564068322,564110907,564221555,564246053,564289806,564292958,564308611,564366441,564433341,564441159,564453973,564729404,564857549,564877708,564901793,564987096,565387324,565420501,566124090,566740358,559980159]}
{"user_id":162225325,"collect_list(fan_id)":[2390120,16505308,33996282,63063980,99116263,140764265,148133433,151907420,163308007,165948334,167376255,173303353,176114503,252710253,252716474,253199725,334710886,368860731,410616660,448886248,519839203]}
{"user_id":19394242,"collect_list(fan_id)":[2932335,3996610,4028194,4367205,9656905,11194633,15548362,19370805,21526479,21603974,24481393,33657144,43574611,56185531,62414189,134020732,139705724,150449015,153456506,153929734,155127297,182268877,189704712,218052049,253103175,292007692,339269318,411783647,431940041,432778553]}
{"user_id":123401968,"collect_list(fan_id)":[3457453,10754058,11915701,17894513,27379374,35304005,42413746,57110852,58553898,63660970,70243627,87550940,91818047,92875577,120979869,121466358,122701561,134718383,138094708,138420256,140241351,144104821,146721378,159835291,164456208,174333775,179661487,180634956,183679179,184850842,187171478,196978275,197453162,209688302,213105817,218380312,227458683,229565450,226875402,231441886,256969817,259961094,271274847,273199030,275214692,283472359,290920020,294641705,296230203,297851400,302455129,321452054,328537282,329471921,336459810,337373689,355635353,365557198,375302902,379721258,380173989,386711684,416903236,421437901,422403352,425922775,444255913,451448350,454265851,456753608,466229850,466518762,501087942,522360494,528701307,529037614,531802349,533962352,546867866]}
{"user_id":248886019,"collect_list(fan_id)":[3660909,6184084,8572028,51692296,54650109,78435725,96085719,100054491,104096645,106495458,120086009,120450540,139450644,145227935,145359406,146469955,147679146,151104290,157193612,158885023,159372619,160460536,172927340,171200479,174638266,177248911,182798723,183389308,184508481,185531684,188651931,196182520,196356892,198071462,200430316,202046983,204011963,204662982,207410700,207884513,209328632,213640222,224444738,224478281,228089157,229282862,238079914,239747919,243906938,247114927,247591800,248257330,249884279,250236210,251393841,254775771,255626708,259379686,268188227,268945971,271653108,272730122,277780290,280225877,282799389,289341040,312127203,320935002,326452536,329189571,340364302,344242559,367559998,389759904,393302740,405899304,409763438,418485773,419304801,426737156,438022277,444422613,451104475,454803891,460772492,464666052,467602146,485727404,481958376,487515209,495608463,502947604,507094217,508228267,515886769,515902438,522606302,551976522,553166440,554447467,562644492,559949978]}
{"user_id":117247057,"collect_list(fan_id)":[5679406,7294570,7776976,18327898,20802040,20805798,20892002,21094775,21746603,33759863,33942761,39959797,50674289,50887275,55237878,55948290,56886316,58683865,66646589,69365427,71457815,83566529,86887378,90044514,90370431,92833906,93366040,92631879,101122484,101584177,102506645,102806458,104362208,110570540,112946671,114268740,118424004,119051338,125409487,143554437,151856148,153606707,155070014,156388314,156871835,161947985,172133958,173965521,176591535,195394832,201658776,202446219,204929157,216071798,226590189,230498641,236479273,245970922,254157562,275500415,286424160,324568262,356217534,389153312,398524170,422762816,464541039,480261242,500660380,516254952,522140461,555410134]}
{"user_id":59117477,"collect_list(fan_id)":[6651517,7625860,11232023,20254588,20507201,23401760,24009058,31653863,40520451,43633228,62247513,66802886,77481661,93579984,98117269,133119388,133909117,136714095,156410914,183625067,215704621,218080544,317144166,404286651,514067718,524518515]}
{"user_id":153535496,"collect_list(fan_id)":[6171108,43138005,43537894,47200772,50023449,53919461,56892385,59161021,61377019,62168668,77209343,83149254,89870701,95165729,95598056,109114164,114309623,133898702,134790013,139496012,141927226,157961279,176620532,202572249,216787153,225171443,246510110,254929838,255758775,273237960,299446341,317352403,416180005,420217992,464856625,491377901,523030249,538954623,542707186,550071667]}
{"user_id":188552319,"collect_list(fan_id)":[6221914,20263856,43308767,48009172,49368135,58731416,70935681,72145972,72976122,90735275,93418145,93965652,94115115,102578406,107778896,120831486,126163603,140938483,143217351,146010662,147164728,157468873,162366618,167992315,168019363,172796457,174360816,175154969,175891498,177393872,184697567,189541660,193007394,197979803,198617201,200586858,205983842,206877185,207656990,209683815,212000126,213956599,214660402,217558398,221450385,221714171,227112525,229843044,232089271,232819963,234488249,234751385,239347057,241964269,243709992,244529447,247943608,250456136,251284269,256279608,259269946,260037327,263244882,269607362,274534559,282665270,283179198,286924767,287884991,288452952,289858109,291578203,300943934,303624948,308638535,311843884,307423858,313933490,324832447,337063637,342046074,348122862,350388822,352517121,359798639,361533719,363748263,385371381,392184605,393211303,397867498,397345894,404854221,408005030,415355324,421424306,423412711,430819277,430953368,456362982,458457665,469665279,470427735,471013105,477557556,486378957,499026883,501352247,508402762,509781392,520802645,525005259,531321542,532494718,533839594,540975548,541528212,543921721,546467177,549214633,553144543,553578937,556288811,556928878,560435635,563049031,563723853]}
{"user_id":59781838,"collect_list(fan_id)":[7202386,27478315,32049253,62674781,68670511,83426125,99602640,100722434,125777715,148135156,150473539,151931879,184573587,191264458,198002931,203438161,217951393,284030191,292266732,299355824,326800044,338903059,404286651,416513284,430440738,462808733,501927232,553574415,556311262]}
{"user_id":133891097,"collect_list(fan_id)":[6681721,137186368,140288331,159786857,263207768]}
{"user_id":3804567,"collect_list(fan_id)":[9640684,42456139,54323090,123034463,260203850,525929606]}
{"user_id":9381840,"collect_list(fan_id)":[13055380,52497105]}
{"user_id":41534305,"collect_list(fan_id)":[13521136,21008822,24802456,24953061,24969953,30889624,32942326,38322588,38627733,46233667,50450254,64522509,65000607,73747182,84144449,89269003,89954859,120016757,124730579,133729128,145471568,176406800,181263351,185058053,190959280,193497171,246507513,248095500,316298284,317575117,375490201,386898024,428788121,444859054,449427946,455950816,484692335,500685578]}
{"user_id":344300290,"collect_list(fan_id)":[14662213,79173766,85632758,85935230,120385302,121381427,133258546,139853411,141482425,153526383,155236864,160184879,163779542,171212054,173988645,178197181,181593201,184193038,187412616,188079376,192582587,192499264,202295519,207120790,209128506,212630754,213331390,219524309,221167313,231043005,232290957,239354742,241204103,242831083,240862325,258327099,266751120,268303365,293961081,295910277,296280766,302093169,302443220,323706707,325963425,324919101,334864995,338389896,356908432,364402840,376579441,378092823,384352378,385706631,402197202,404136378,434009613,437735152,453967857,464568326,466110024,498442047,499824360,515501838,522066479,539130872,543087001,550762524,553517577,560604492,566510574,566511789]}
{"user_id":445516578,"collect_list(fan_id)":[15257393,15461619,18685833,36440282,82178818,93123094,144935094,147102167,168086342,208124630,216139042,225792150,229957391,310272984,324006505,324990960,340421329,374753322,378551548,405280066,443345241,471045400,474474378,480045133,484855921]}
{"user_id":168438070,"collect_list(fan_id)":[16618647,24784121,40452670,46097563,49856387,64600946,65589962,69809745,73516423,90248259,91548078,93187645,96574842,101730424,108911130,131541933,133736763,136117590,138255543,142595183,151556501,166458230,167290940,168000188,170382213,183585938,187217332,187962186,201587721,208475137,215305899,219964013,220965211,224702377,233982646,234395307,246891181,262441954,274470024,314356704,337058649,352619833,379822748,387873999,410090907,414456062,457070593,490355777,495381285,499803146,514513030,546359263,547412932,555791104]}
{"user_id":495475036,"collect_list(fan_id)":[20721377,27684663,198667364,229401200,249884276,270199279,273701584,282036828,302093215,325241856,337399916,342563261,373414537,389861148,420937923,422294267,434565437,460832570,462866875,465419324,468681678,473792997,475606958,476699403,490924597,491045153,497535583,500912823,503006310,504870601,508355774,511190436,515804593,519345980,521584107,522493702,523022382,526976924,528222609,528441260,529775003,530604448,531221656,532656125,533329088,533619229,534048765,536360261,537787669,545913750,546655420,547728264,548095072,548355221,549018572,551631818,552140835,554543345,555061068,555599447,561134482]}
{"user_id":161692677,"collect_list(fan_id)":[23537526,57519620,73957424,86848322,98017414,113229842,113567482,133173873,137520482,140009904,147530689,156489467,157125527,194166791,295076344,318304589,358280036,359888890,365962094,379907119,504059070,539161718,558580834]}
{"user_id":479446737,"collect_list(fan_id)":[28332211,158859631,177559679,184329374,411435062,468952938,527972913]}
{"user_id":4462158,"collect_list(fan_id)":[44151481,324381979,459449857,476318362,484603263,506102294,514236567]}
{"user_id":66185099,"collect_list(fan_id)":[56425249,85364466,87577760,137257216,156856503,307031194]}
{"user_id":80163028,"collect_list(fan_id)":[137035415,161702920,167741933,177595846,196632198,247899539,268180076,277095086,278800498,301464314,301585853,303639629,325286093,355352286,359010698,367762322,376120399,412924256,416163115,426549305,427422630,430080970,433793427,433856933,463129843,463626449,476689283,521110044,535547450,537077053,539740958,539991155,540796092,541450884,548387133,550991209,551134582,551432059,552367975,552852411,554445620,561657523,561902614]}
{"user_id":180441043,"collect_list(fan_id)":[141364435,468621128]}
{"user_id":271568300,"collect_list(fan_id)":[191937294,208555698,235961515,242471885,243149493,247757321,278106044]}
{"user_id":102772601,"collect_list(fan_id)":[227187222]}
{"user_id":176736040,"collect_list(fan_id)":[238378458,269185759,301014817,310221570,311287146,429560731,451195786,486047933,520951256,523396280]}
{"user_id":138145184,"collect_list(fan_id)":[350718675]}
{"user_id":340848774,"collect_list(fan_id)":[526549973]}
