{"user_id":29957,"collect_list(fan_id)":[23932,27606,45781,48602,56668,77733,88241,106094,57930,153860,165519,187827,219998,229284,314141,331320,407546,441019,474532,487053,522753,545063,621775,638896,667616,670684,721127,765209,817309,850911,877623,907411,951059,970585,1102805,1189247,1235360,1283717,1347315,1657562,1733384,1982757,2115503,2143605,2322030,2703800,2765554,2774799,3802565,3884340,4089816,4388451,4689063,6640668,7313471,7611945,8633883,8989092,9160776,9443685,9480417,10731883,12087580,12747579,13394407,13600349,14503914,16295557,16462062,16666332,16696736,18630058,22124348,22273181,24969953,25581946,26618974,27191465,34282889,40684934,42217680,45009374,46725294,48705077,51218333,51716695,57928275,65566793,74849068,96887004,97803329,115661876,137338443,155082391,165195602,165807084,168405188,172434206,179593390,188162898,193209678,205215464,206314174,216620778,223949047,260577141,279834745,332908114,413857511,433114336,433604876,496934336,506614349,517467941,522144902,541699444,544789504,547605201,548526307,555631986]}
{"user_id":39059,"collect_list(fan_id)":[39842,269791,285471,322859,344172,495953,657954,1153264,1240618,1494574,1917093,2115732,2726156,3488479,8972641,12383959,18462088,19903892,21221162,23451725,48329570,89298294,104634805,137926907,200039283,357110488,375173281,390902572,460440156,478380885,497748874,563294045]}
{"user_id":93246,"collect_list(fan_id)":[8868,73717,109345,192717,207395,240986,365856,514047,430108,583906,2432536,2760957,2819104,3330890,3344682,3434836,6219531,19632931,38990795,92812330,382018167,473576496]}
{"user_id":219222,"collect_list(fan_id)":[14078,14780,20316,22853,25150,59671,72717,109817,128154,142312,170904,238192,567296,687968,817977,842698,877790,1139137,1999520,2081101,2380993,2568053,3155961,4657205,4691030,7208518,10279353,11229709,15104362,15604798,16749985,18315619,19753581,22041019,41066718,43024227,49463384,50604500,76857157,76867018,90192616,103779484,139399153,155640839,176639342,178256910,192355852,205911876,212215452,228476881,326584200,328623256,363082178,447811254]}
{"user_id":332577,"collect_list(fan_id)":[27138,548108,1012306,1852492,2179352,4398735,15725215,21326291,34787590,376449554,420411695,497232991]}
{"user_id":6288339,"collect_list(fan_id)":[34590,46775,50797,65521,83421,90266,100534,128368,165758,203846,233656,291669,503436,551727,618428,543102,689887,777030,786070,1266879,1307684,1414559,1442942,1591614,2607558,2994919,3107985,3204810,3666382,3950760,3953994,4203595,4391135,4946583,5350404,5888324,6146448,6514796,7523466,8426854,9080220,10375619,11221807,11333463,11540548,14481981,17171781,18793637,19020458,20404174,20942056,23485352,26636113,27575330,30690819,32706981,36696213,38356055,38556549,38927842,43031096,44153582,45902569,44251346,56649677,63713868,65446831,82031608,108902782,119508224,143619249,151404588,169602187,205879918,219220410,249072038,262481798,268676639,288192448,300039969,301797357,322429991,338748700,339033175,357771525,363198420,447016584,461989737,498599047,504448981,527340998]}
{"user_id":13923785,"collect_list(fan_id)":[18494,34884,35147,47030,102542,107672,120358,183647,189969,204514,253565,260034,288326,319134,338750,343742,374817,398260,447818,467939,471800,474583,506944,524307,531501,550405,595209,596183,627292,734115,758319,788739,812863,819220,855607,935118,953039,967457,1055679,1103805,1249681,1255942,1331972,1411098,1641899,1841959,1929071,2043045,2062109,2122131,2165863,2174818,1876021,2262731,2284906,2310822,2332708,2445957,2527816,2551544,2562867,2605730,2610155,2688513,2750371,2861012,2877365,2878588,3023529,3221465,3292807,3160844,3700041,3541819,4006838,4312590,4510583,4550931,4572629,5120380,5182336,5255071,5395434,5867766,6169671,6515233,8234070,8655578,8841957,10302330,11505125,11658049,12262626,12767626,16055471,16553322,16659511,17626006,18077486,18355886,19267833,22213864,22402583,25275814,26136114,26209115,28065809,29039694,29531914,30618883,30637188,30748568,31080665,31148825,31477863,33199376,34496585,35511649,36387148,39571225,39884521,40676117,41803319,42552333,42798715,43615600,44233620,47651790,51587105,51675644,55039139,55439835,53626442,56624969,56635493,58854060,66481612,69220283,72989818,75353067,76271814,78953519,89418228,89653518,89963129,90724512,94988458,95587843,100038977,101080003,105591602,120420892,133555800,134647378,137348747,138325994,141267597,142340570,142538859,144562377,146179094,147083824,149050700,154369693,155687659,157143765,161115230,167818850,170823121,173126081,179393742,186307087,194810837,197580281,198967351,199145132,201936981,212923816,218780919,217951394,221980665,222557372,224538681,228745701,232930991,237587954,238596008,239024687,256613510,262492795,269649069,273562323,294236137,296084289,312065350,341217155,347831782,356416646,366123729,368240013,371542867,373609024,381748559,411615167,417620365,419726616,447780543,452520250,459253664,463745668,464137836,475630840,481248177,487633606,489203495,496886476,499987154,503085579,504739809,513666855,536400040,548459077]}
{"user_id":30559049,"collect_list(fan_id)":[33384,2073993,5096334,5115894,5156876,5842411,6117737,7421101,7669774,8035935,9413288,10448977,11312258,11651318,14648895,15348657,16562728,17302564,17341045,18519102,18884189,19524658,20132337,20142265,21042431,22237728,21093795,22684151,23336065,23895323,24025563,24371212,24425882,25391967,26920813,27111324,27329259,27758785,28877521,29793858,30322338,32254670,33245197,36043900,38684998,40630547,41466500,41887583,42264533,44074207,46085844,47329464,48730734,49217287,51636928,55794251,55823764,56160294,56307259,57825680,59631965,59972270,65137778,65956470,67674894,68906403,69245947,75595572,80060331,86666993,88316166,89456245,89648725,90778161,91827940,92394518,99153858,99775218,103541533,116717238,118642349,125166573,132281731,133985912,139919806,146026659,147138056,151417627,153809549,156456963,156649978,161583893,163425031,172229069,173110071,180923994,190913132,200493260,203042108,206244239,212385603,213478242,219749273,222483472,234287199,247568950,289592232,304783655,327125566,335256500,340430518,343646957,350742632,355490925,357068143,359550929,360741427,366365263,378424149,373545990,385414314,399427679,400024096,406626409,416896371,443798343,444636370,448215566,449939584,451764960,453612806,453930410,454604749,456157278,467268626,469133264,469653701,470713784,487530276,489264610,495414443,496671703,502596181,521151973,522315892,522443057,531283393,534006787,537804910,540810816,542224790,550997300,557608737,558269936,559800982,562498139]}
{"user_id":39656608,"collect_list(fan_id)":[37893,226341,571016,595328,605162,606046,623834,697588,722209,746822,857794,868271,899482,924452,996917,1054392,1169478,1184242,1460257,1571063,1675256,1868280,1887557,1972719,2059967,2257193,2257460,2901553,2985786,3022995,3623949,3629886,3668625,3834783,3948053,3976879,4170011,4372154,4443185,4448227,4548286,4584830,4932050,5026933,5270855,5389498,5779138,5872518,5902868,5906452,6215422,6413376,6478631,6606338,6653036,6824090,6917125,7018948,7025268,7078065,7215165,7288791,7857513,8126400,8206008,8251760,8666456,8893585,8975932,10011210,10112807,10175281,10282217,10912299,11033103,11063323,11451523,12355615,12410749,12459213,12504889,12548793,12569794,12611660,12650159,13236383,13405166,13512669,14407558,14760420,15037268,15149073,14292810,15648893,15934439,16038695,17004001,17095649,17321527,17351164,16538997,17747159,17919674,17967434,18207931,18250434,18879888,19337698,19467222,19907337,20575942,21376041,22156656,24487206,24535748,24624223,25371408,25599922,25714243,25778777,27199917,27624592,28424707,28552078,28630751,28879263,29796825,30482849,31265025,31526255,32031901,32888223,33621657,34453247,34641208,35289282,35988177,37119953,37421600,38108543,38389532,39025965,41527953,43316026,44499060,45128301,45549052,46138947,47720694,48560957,48587563,49660365,50449775,51157491,51501962,51646496,51896431,52302085,54683015,54971882,55577409,56125674,56322992,57494246,61129095,63706420,64791225,66566569,66779479,66785965,66850482,66979801,67188687,68132970,68489330,69003730,69330478,69780678,72569292,72867106,73713634,73758913,73783638,75380528,75381399,77735511,78040242,79315512,79323954,79349503,80446717,81846375,82378379,82408743,82438452,84663763,85697217,85792822,86256102,87282304,89488009,89705297,90455220,91202615,93747656,102206802,104258106,106209976,111293274,113342849,114274428,116602665,118514418,121935192,124719678,125418238,131533942,132356881,133376809,133655733,135074341,135952632,136473195,136601044,138388515,139034808,141117886,144425003,144538632,146112144,148023086,148961746,151540377,152423360,153281425,153745289,154521312,154568839,154588233,154679182,154878875,158856922,161631839,162938398,163465202,163697944,163789605,164554634,164711910,166315416,166513665,167237971,167733860,168032093,171531183,172839759,173892739,174282591,174774517,175292337,175525043,177800727,178196475,180012372,180131066,180769212,182529381,183762779,185245999,185488838,185515773,189042247,190588820,190685141,192213224,193942570,195191711,195343241,199404509,200972179,202148355,202196967,203173896,204288819,209024289,211289181,211473344,212892795,213765334,214239627,216428267,217545732,218611237,218679701,225266336,226768668,229155823,229359287,234473317,237014891,237247347,237996852,238173990,240351388,244203495,246350941,246604267,247756482,254368507,254592369,260170225,261817944,262306026,265109271,271660754,272781592,282782259,291819537,293937010,293944739,297113728,297340625,302490714,309255559,311446569,316861520,321330659,336864351,341085492,343923030,344542023,345454869,346298378,351356241,351637769,356384267,368726924,364434563,373481794,373674353,376014283,376396838,377184097,380856084,381090260,384700734,385493783,391262858,395016185,408279105,410659021,411005172,411017832,411044075,413267236,414514002,415180101,416232214,417818937,422960032,428273950,431002260,433491526,434610951,435959036,433793005,442046481,443255117,443637505,443845529,445588468,446927879,447748189,449032398,447163101,452453382,454447482,464650757,465956213,467201090,469473417,470059784,471635486,472461684,474346929,474732203,474865811,475560316,478485072,479679628,480475092,482657121,485149972,490316980,494913908,495204407,496264897,497218069,501011787,504747874,522088906,528428181,529864101,530068364,531503771,529114786,531806639,533277873,536336495,537767604,539406075,540019127,540428382,542187434,545292081,546809761,550272015,552424977,559323777,559405858,559407686,562603588]}
{"user_id":47167934,"collect_list(fan_id)":[33649,265883,1200282,4051273,22261059,45513910,90302150,236332543,412423933,412674707,415388631,495849534,536891657]}
{"user_id":34362,"collect_list(fan_id)":[60087,97679,118382,125154,139068,174528,189418,132674,227790,269862,330305,359393,485701,520835,648230,704882,707031,837535,975215,1130869,1159418,1254722,1343933,1490032,1587765,1640393,2087083,2684329,2898318,3078372,3191144,3629772,3845546,4109583,4255564,4426173,6188388,6767993,8157975,8430986,9141026,8741844,9929425,10018971,11475888,16654865,18861520,20355749,20490883,20817344,24717049,30829877,31348947,41461576,49109801,58111273,61767769,64592635,86985615,92692676,95599101,108000791,113146456,117028771,140109417,163164336,181250289,181733814,186843990,188677897,192399712,201741864,210149778,253582962,272208619,277066101,290296564,309012266,335996583,378399961,386384123,431575801,432295471,433216597,463039194,477128127,494642596,497218069,513825723,532260633,538500326,547649977]}
{"user_id":44593364,"collect_list(fan_id)":[121961,134019,713842,897401,1510383,2908487,5868656,5940610,7102563,7161392,7635953,7640220,7751989,8181843,8555816,8052314,8930724,9695580,10377688,11983545,13055380,13179952,19155068,20473438,20762674,20953000,22022368,24605113,25934039,26324296,29475986,29934481,31501174,33411183,35717572,39532579,41248155,42871156,43856106,44642738,45130938,48048287,49107768,50478752,51905442,53317927,53520240,60530822,61087829,64208814,65434646,65678953,69320371,76256269,77496410,80746185,87564148,88708600,86822307,90808366,91268852,115134421,132288865,134325392,158533031,159233676,181558152,183455043,190824932,198415218,199732857,204343868,218764336,219168665,223002728,244823902,249633990,253570272,258982794,278859554,336476777,526033407,531402746]}
{"user_id":289205783,"collect_list(fan_id)":[67543,16771485,29899052,51084108,98792334,151180463,156027905,163517632,186041073]}
{"user_id":431214943,"collect_list(fan_id)":[89150,108258,361778,413959,601362,971321,1045431,1099716,3111989,3140538,3142498,3495622,3610971,3894821,4218113,4681226,4698409,4756106,5345586,5375005,5460858,5512190,5469841,6525533,7308560,7553325,8446568,8552704,8619655,9107919,9138262,9689764,11327793,11390380,11490005,19683015,20279412,21252056,21260219,21281701,21313733,21325472,22641546,23435144,24758984,23581430,25916834,27904259,28487407,30484213,30494920,31217451,29888343,32975929,32992202,33699714,35009442,36384289,37158815,38102922,38371665,38378637,38894543,39836347,41762056,42633676,44306112,44367909,47923052,49433862,49612590,50782461,51269858,53339799,55263876,55353049,55834230,59262595,63741476,68922191,73286820,73552754,76214862,76437157,76681469,83321898,84106807,87929254,103026152,106848756,108983042,114180741,120562653,122038298,124371100,130133413,132516071,132472586,135409442,137399605,139786258,140091908,140103954,140199782,143508782,144167527,145878760,146008047,147388087,147417172,147552017,148507844,150522966,152413347,152976283,153537485,154769363,160370652,160747954,161624910,162341464,166252064,174889922,178562446,188906725,186056811,189669057,191795423,193335298,193391236,194677356,196482645,199740781,200579730,208143368,210367835,210604423,210667808,210717546,212061389,218448522,221899028,223124412,226395513,227161039,228343995,229810131,234054580,234787026,243984065,245949377,247303034,250899276,250998966,255844369,262435015,263025496,263669846,266493667,268500182,269012715,273329743,276027898,293936638,302948751,303862922,305489546,308558517,313587801,319694306,322437327,325346982,327994118,330024565,332260179,333410536,339402088,339971633,340667391,346913961,348589327,350268971,354733600,358135824,366990037,367679625,369607555,369926745,375365999,379522267,380428230,384780518,386567717,388431932,392122426,394619404,395353709,396196568,396688594,401254508,401783900,403606528,410089925,410535464,415397361,417341763,430530466,431412269,432805409,435291394,444871006,445146039,445566015,450376116,451351931,456031318,462145661,467155071,469008845,472282392,472498296,474474675,477591431,478005839,478870965,480403519,492360986,494919713,496907577,497295325,497967994,503238350,505278550,506137754,507838001,512239972,513231521,513376602,515607913,516315395,518254176,520613466,521007388,526579410,527893883,526706647,531414769,532183238,532189145,531681806,541760395,542235746,542308589,543397178,544082788,548036996,551166249,554104758,556785964,559361882]}
{"user_id":19866,"collect_list(fan_id)":[312707,1523133,1942470,9153688,314631604,342576745,415390316,415404361,453641536,459320372,462986876,484136595,484137414,484989289,505543025,514617474]}
{"user_id":9845081,"collect_list(fan_id)":[263417,2476521,12165047,13336862,15941951,17451745,18772687,32436645,33910545,35089397,39411397,44079207,45864255,72551359,74967345,76147029,86178739,105601172,112498659,134390966,159129171,159946457,210199873,278449326,393055620,415387462,488673512]}
{"user_id":44245667,"collect_list(fan_id)":[231523,286349,444685,549309,576126,587156,543631,700323,765194,916742,933828,989643,1007383,1236178,1195719,1421091,1444522,2029967,2156299,2291047,2419290,2495212,2838689,3008850,3360838,4185614,4690842,5007994,5845061,7310496,7517744,8865325,10096600,13520757,13532437,16521376,17413575,18191384,21696321,23739964,25068460,30145222,30339741,34779449,40865209,44359672,53421907,53844005,55086001,57909205,75562178,78620281,94567878,100624888,102114274,111363666,113881311,117937613,134370722,137340966,138355757,141173990,142424757,140724748,143689797,144111926,145448821,147392988,151540945,150309529,163664386,165584903,169482419,171619011,171833911,172920897,176602904,181673403,191652973,192139342,193186887,200101109,205763666,225611159,228776098,229356067,231636457,237781027,272037280,273578251,275116748,277116361,280225940,284724827,286111252,292731774,297064654,299865249,312395374,315600817,317302606,321574928,323363221,339748693,348124058,350644940,353543154,356231159,362617778,365248884,379514109,378675315,387854406,392864973,399800143,397370176,404111779,405503619,406894483,403418066,425863185,435152351,445698492,446330864,447218340,447656592,448882808,449421013,449811861,451390584,457118668,460193728,465512914,478503299,481263464,482490346,483719513,484434518,484715464,505455100,508716823,517873137,519392517,519900361,522646217,525548016,531900599,547450781]}
{"user_id":66668362,"collect_list(fan_id)":[371489,575976,746094,1375868,1467836,1768335,2493724,3271428,3307209,3308596,3679327,3704135,3830832,4092747,4141843,4519972,4804302,5146817,5457466,5649702,5689534,5746546,5801030,6231586,6316727,6466256,6580733,6695315,7166461,7576124,7664000,7715760,8012450,7339668,8093339,8304237,8359587,8394939,8512466,8634987,8832370,9056154,9145803,9461985,10081671,10175487,10511529,11012579,11102675,11886427,12174664,12614301,13250151,13369118,14018613,14164055,15307409,15564857,15897316,16821694,17247235,17404899,18873452,19123750,19639851,19769729,20532934,20738721,20875550,21007234,21096220,21260068,21710781,21752083,21848404,22015861,22458902,22253942,22254883,23676704,24054139,24593149,25247015,25710877,25872565,26311562,26386507,26797125,27138790,27895476,27989999,29839336,30319502,31022166,31987106,32025469,33402360,34268226,34331559,34380946,36632378,37128166,37939451,38896032,38972444,39405041,39956349,41956828,45610308,46587074,47668541,48801646,49201061,49358675,49705438,47132030,51590065,51787949,54714349,55120065,57782546,58676241,59038100,59054827,59934920,61638650,61912118,62074810,62306799,62355539,63453581,65647514,66047619,67898184,68162611,71168601,72508291,72675881,73025999,73381379,75747799,76559591,80857719,82084913,82567518,83368603,83763285,83879675,84672827,86600797,87398404,87550591,89563335,90238098,90534315,90564842,92227596,93431731,95625919,97102761,100853831,101143656,101180371,103867398,104129383,105064501,106775708,108477271,110853066,114939153,115986524,116984040,117661129,117699621,123277614,123574930,125452469,130341891,132217206,132262760,133175079,134075882,135334224,135843782,139263719,140058132,141767931,142117621,143477910,145648323,146402968,151710679,153635888,155302164,155905218,156439993,158446709,159580667,159790467,161243725,161828031,161934335,162193032,163473603,164317240,166585944,167101717,168474776,169732165,170544571,171381482,174029461,174669802,175210265,176200579,176530265,177363040,175796479,179960387,180323944,180432899,181304397,181835346,182446456,182595928,183423059,189565656,191048460,194804831,197050034,198029446,198320194,199732905,200172442,201982091,203033892,203090095,205169513,206351113,212792238,213522975,213806818,213994704,214336662,215643642,215748458,217225477,224630758,230839736,231095148,231849022,231869748,242178062,243209262,243590123,247791037,248024761,248128257,249195978,251091641,251410506,251528621,251966017,258191790,258442229,259551639,262134165,263730464,267360029,267596653,272015322,272140028,276010416,276119504,278636884,287691340,287828414,288009461,296170663,298039155,299547843,300199090,310510867,314576831,316567463,319917072,321329815,325606682,327136030,328415426,329898253,332787833,333101987,333950403,337836613,342561572,342608814,343646957,349499568,349501472,355512219,356211117,356559895,363515352,370232534,377339591,382211266,386690852,403356341,408970422,416821785,418722681,419105057,421082609,421946330,424833663,432423323,433890980,437626063,448143813,448730108,453869796,454369639,456273167,462515454,464086288,466915150,470203110,470324449,471338105,472920514,479492619,479979370,483595333,489490855,494250943,494802181,497530425,500917774,507656127,508063027,508632372,508733765,525052040,533582308,537733365,542492020,545458372,559223128,560361575,561079284,561898058,562829147,563786508,565588017]}
{"user_id":153255506,"collect_list(fan_id)":[347760,37145686,60110024,66030286,71566673,75687313,106974344,110299323,117253816,211024056,341006611]}
{"user_id":184210556,"collect_list(fan_id)":[370501,378098,2122850,3383512,4326509,4356520,5015531,6534428,7806794,11311801,13117753,13715693,18499486,21204179,29035074,29158875,29251975,29573628,30165507,30192836,30472992,31814565,31911461,33183326,34819013,42660517,54081567,55021461,56316269,56488159,60844026,64291644,64732252,64963264,65005935,67382099,69311607,69908322,70428090,74020492,78541684,78982721,80032903,84267471,84726496,85357721,88448760,89867689,96844143,97431446,97488464,97586725,109121527,113220754,116106170,118941763,129077200,131683581,132642575,132839124,139530072,141123809,141380032,141722419,145301842,148319556,150644580,151248563,154744215,155994708,159154504,162406672,162414109,164830332,165766580,163399442,169136261,170836161,174356527,182296775,182725994,186010971,186220689,187900046,190040736,202146222,208660386,209363842,212611822,213411394,216605780,217244523,221905081,221905683,223149755,225444738,228093130,240503534,260503365,267270917,269507406,270866841,275962663,276591298,276954389,290264043,291767908,298023561,300942023,313178525,319081916,319528865,327931688,329958186,330571854,331012054,331515998,332573907,332758492,338840399,342187116,342888704,343882853,353695048,358194277,359571798,369488902,380452669,380529307,387664626,389306821,391667061,392846116,401517516,416162266,420714077,448395831,452588712,460740303,462926955,466285121,470378114,474935008,488423235,511648130,515568642,533736594,533919909,542162400,550819502,554980733,555210612]}
{"user_id":5550791,"collect_list(fan_id)":[480361,3667929,9100312,89141835,175622922,273649764,369047671,439690965]}
{"user_id":166581699,"collect_list(fan_id)":[445362,6651517,23958294,25507137,26194071,26519287,28351486,48896457,52559170,82635342,134917802,137067801,142029819,159550333,163921010,168727428,197669504,234488898,237303821,272335380,321211272,326335291,353257825,404286651,405578128]}
{"user_id":287168321,"collect_list(fan_id)":[498859,573215,996785,2059128,2369630,3212242,4193464,7640208,9154880,10536130,11006251,13037425,19428800,21507964,28269292,37780798,41949146,42736214,42927192,43106950,44020248,44730544,46876665,47812324,50896008,52057572,51713999,61372673,75846457,79471952,82845359,84178334,92239606,92693051,94644431,95783731,98636028,98678793,100848711,103705123,112821650,121676930,122040359,122214881,124121696,124312852,124419316,128956532,135370672,136465465,139232183,142405008,143279683,144250581,147964751,148167831,152857586,157300343,159137901,161495295,163826766,166059433,167406700,167812163,168039061,168414008,176869138,182968164,183598530,183660858,188762315,191761769,193598059,196447956,196611376,197591576,197857468,198152266,199250930,199501089,199802295,212140406,213408098,215892512,216506810,217190507,219680775,221153995,225249210,228706787,231945489,233999202,237985561,240023606,241226081,241978402,242758945,243112879,249586764,250427293,253088289,255661573,255727012,255854913,257266918,261988356,262219272,265285421,265286593,265840700,267589469,269990831,270076979,271853974,272421404,278301989,279253611,280680146,282978649,284521449,287917081,292881494,292962224,294730240,296977333,298173872,299292073,300360674,300429482,300583949,302812274,313994656,315716333,317983783,318283176,320163160,321370315,321405904,321672119,322016342,322172371,323209910,323296930,325236747,325436452,328000157,328086425,329674280,331713692,332156387,335939234,339130552,342793031,343420845,344074402,346136985,350961924,351351933,351464305,351617678,354093646,356405089,359851356,364520682,366005726,367078442,369073292,370096614,371603080,375160902,376320227,384994253,386477099,387918251,388615142,389136563,389273338,391276095,392951590,395726328,396856283,404937049,416942421,420898255,424568396,423398705,432493263,435162018,436395375,440446265,445024143,446822884,450197264,451994110,455468883,458627510,466530744,467400910,467588066,468860420,484619560,486251142,486380875,487505939,489900079,497888003,498667926,504580303,504757186,505954413,506917402,508666623,514876779,519658865,521463516,522906071,522925879,523327528,527190789,530113532,533565095,533696622,534602174,534625908,536043358,537631586,536476291,543507470,544074824,544144470,544752100,545702809,546934264,552023403,552809771,559471845]}
{"user_id":25426774,"collect_list(fan_id)":[651217,913640,1457403,4441327,4766278,5192415,5361858,6043413,7711775,8708880,9358955,9740286,11330306,15106703,16143137,16613103,16948096,17332884,18012967,18210160,18289442,21683819,21911710,22138249,21084312,22608346,25280659,25036240,27271819,28743074,29111752,31301979,31710271,33109626,38053082,38190205,40883338,41792655,44645688,44806251,46304198,47501612,49376286,47122493,51172196,51430144,52379510,53152450,57302524,59745189,68057287,69087176,71682429,73922653,85412556,85467840,91235804,94868085,96674567,103483464,107395506,107619876,109118190,120725596,123345592,135616739,139257846,140675202,145688892,151809414,155105329,158807624,161955608,165092145,167959022,178106513,180765205,182879172,193700804,208832953,212039484,222304194,231321758,234047011,245780857,250297618,250811064,298871997,306536546,317876517,325536464,332110991,340627513,349980622,364101071,368517057,376997278,443854286,446371930,523464974,524487383,527189603,527230704,529347278,530428106,532425947,536725050,548177997,548222263]}
{"user_id":7022849,"collect_list(fan_id)":[750355,816774,874545,893323,900171,1078251,1214707,1198226,1440884,1679571,1976626,2086958,2301149,2451589,2472240,2587904,2647419,2648345,2803346,2811090,2862736,3061735,3347954,3431435,3433708,3517024,3990078,4021221,4061133,4591075,4950874,5049792,5529552,5546087,5696883,5960778,6024034,6469041,6607372,6058810,6788547,7046037,7076924,7204671,7459295,7758237,7819070,7971101,7998984,7338789,8267906,8037894,8816024,9390980,9510974,9545706,9646508,9813082,10289431,10361425,10510042,10662003,10761238,10931731,11592923,11891930,11896023,12356762,12402811,12406194,12878163,12919775,13024818,13079438,13594831,14058028,14209163,14257162,14657006,14706513,14940636,15221436,15228354,15814383,15989028,16276705,16289139,16595580,16604049,16731363,16956515,17025927,17323049,17779353,17886289,18294450,18730334,18809863,19336646,19705293,20232680,20537596,20644256,20919651,21421853,21525465,21546742,21657680,21658131,21722512,21925202,22725355,22926624,23316691,23502606,23523195,23554775,22249831,24212807,24550284,24608672,24639130,24762050,24887914,24894184,25122930,25212032,25659239,26550815,26560799,26931635,27202176,27728107,27929985,28085562,29074375,29169425,29277717,29367938,29378787,29458006,29466869,31162006,31801886,31934672,31981153,32083680,32117637,32148102,32625027,32628153,33079963,33104341,31582364,33897245,34070920,34473043,34803393,35061327,36083308,36494365,36823098,36856070,36947605,38789926,38955408,39085204,39091283,39464919,39604586,40674556,41227659,41559145,39648692,42227920,42574974,42619579,43349001,43602715,43778093,44307014,45207119,46586613,46877482,44270700,49743995,50250097,51330248,49889099,51936333,52376370,52446302,52489211,53394195,53899829,54340696,54512583,54675904,54730853,55331051,55543776,55546415,56030248,56308343,56398212,56730136,57788539,60223819,60296743,57925794,62787916,62864829,63251925,64423253,64824534,65659001,65838435,66306712,66784181,66946585,67319820,65598969,68932967,69145413,70392965,70541875,70605916,70838456,68266825,71761727,72453000,73415469,73422231,73812075,74477862,76747252,77056552,77230388,74033861,78111750,78956469,79161167,80264144,80317036,80458942,82418586,83669787,85103786,86449129,87572572,91280921,93102731,93946699,94073577,94125184,94318243,96515103,96737415,96899941,97456262,99308085,99715149,100075902,102205833,102214873,102236716,102462293,102989168,105559585,105818025,106552534,107094302,107676845,107694031,107740627,104752547,110154219,110347779,111698512,117552187,117870698,120063871,123730377,124290165,124792617,126165028,127097788,127421764,128856804,130957064,131522856,133224474,133619494,133743519,134184616,135161664,134138714,136585752,136681760,136987401,138443637,138505802,139198463,139203787,142859559,143217899,143299585,143338579,144529357,144557096,146632549,148184645,150423588,150555600,150672082,150864238,151008464,152995458,154895612,156771984,156905523,157323690,157847134,161468206,162357417,163326723,164027140,165349660,166411122,170548027,170568760,170856296,170908519,170956878,171346587,174026218,174161957,179975255,183587815,191534253,195059003,198884649,201728779,203852157,204014275,204509838,213396181,214171338,214358305,214610734,220628777,222821233,224357754,227170369,228599449,230734938,230956994,232167353,234177086,235661353,245645907,246570501,247940270,248300823,248316048,252947013,258408589,262745799,267582704,268361384,278748439,287372509,298166882,299194639,305000058,314188972,321008483,325016694,325721961,327031896,327684299,332308811,334643105,337193661,339115480,348901920,356078720,378861448,383118761,399017303,400819974,403144872,406727311,407831165,408176470,411170075,412315211,412895087,420342015,426495225,426550772,427873075,430349264,430365151,431638779,433464452,439668394,448165660,459127377,466076719,475689080,480712559,483636572,502944984,510408693,511286634,512568925,515176336,516306019,521385912,518855837,528606316,530508172,539851524,541032735,541365716]}
{"user_id":786161,"collect_list(fan_id)":[992257,2267995,3105949,6220422,6302183,6572609,7244366,9358692,13229745,59989138,80798000,155668250,182524755,455806026,487346459]}
{"user_id":13291741,"collect_list(fan_id)":[1191306,1652133,2279904,2508825,3072244,3107867,3311050,4140972,4508361,6019285,6163874,7375660,10668318,10939970,11334654,11811211,13221751,13287370,13546663,13278710,14484341,14486818,14920750,15906418,15934439,16754032,18022077,20763868,21210027,22007846,22218796,23513638,25343757,25772283,26614212,26637358,27745710,27757681,29345617,29665922,30697171,30703649,31376984,31745810,34420686,34435046,34779640,35732660,36265374,38661030,37331282,40974154,50217560,50667866,51180921,52801076,53160191,55349598,55759615,57608682,58081558,62818780,63626496,64701755,66026701,67598680,69056305,71701833,73451805,78055466,79177412,82410572,82735951,82838342,85821654,88107505,90478625,90964455,92242574,96763828,98004896,99274169,104046076,108359949,111458515,115204778,123088849,133586242,134213133,138227216,138771523,143388012,143528453,146726966,148364222,150773972,152121494,160544343,163087317,164065201,164856977,167970776,174112238,176638767,179086058,181874562,183499988,194261015,196345517,199741207,200910409,203621287,205693683,222066262,225976716,229218851,237892708,238743275,243679948,243721530,245455715,250817211,257117459,261771569,266069771,267143080,273961031,285928328,304760396,328173885,332362655,359131432,360802654,371895115,406533617,411409340,419040214,451471933,452327372,454469634,458724124,472348168,498097908,529734682,533313805,535146864]}
{"user_id":2177239,"collect_list(fan_id)":[1217569,1418896,1632819,1686830,1746707,1855480,2404025,2463733,3686033,3789425,4454933,5826189,8287354,8356614,9225002,10401059,11491838,11886856,12773115,12948728,14294728,16191315,17202116,18032893,18580643,20718566,21801080,22230554,22544521,23653778,23918110,27679874,29778890,31596593,31841683,32231899,32858744,33536098,34855153,48227485,52209248,66187112,68145886,83242963,112852449,122883989,137245405,140786792,141076083,144102374,144833535,156062399,156622353,161339371,162119647,165189952,167549113,173633000,187427108,204931077,205391283,239317534,240294976,242808930,294485245,300124942,304477525,336611887,340485884,357858337,352870725,365888467,398066137,409134508,413287349,429127287,446913737,451036522,459854074,473491133,493906268,517213866,517637410,525079179,533756868,562061085]}
{"user_id":4411590,"collect_list(fan_id)":[1210481,2348392,2604427,3916267,3994582,6379610,6734104,7156380,7570347,10092919,10299235,10669125,11578790,11859511,16844652,17958777,22528264,27955636,30355492,31425982,34106878,34719805,38062028,43634616,48658864,50923318,61229838,75795837,80339491,81015171,82627596,86369622,96054793,99235508,98208722,105339076,106910868,107544724,109496755,110821888,113136741,133129625,148154836,150298660,156134952,158577965,159224661,162349339,164884526,166256143,166830385,170111445,171709061,177534702,182523898,184648608,187511001,194357636,198582324,201343356,206459282,206902110,213267681,213274722,213277633,214274180,223479124,226140331,229754960,236602345,238777030,245034634,246078314,251607253,277134768,284355138,288339848,290642401,295851730,301539846,301600972,308469500,308528189,316095810,317464591,335936716,336630094,346604122,351432537,351476954,352498896,352633153,360767601,382541748,392266375,411077681,414302961,438344774,443309053,446281496,452633715,463433718,482593805,482727989,484121037,487182216,519092745,530620777,530669752,541942003,550621027,565435847,565829647]}
{"user_id":34704846,"collect_list(fan_id)":[1434976,30181968,34432427,63242149,111240839,135585974,254601831,452720939,473155394,533490395]}
{"user_id":152513638,"collect_list(fan_id)":[1438260,3281074,10594870,12902519,29862676,28297980,30774048,31211635,31450208,44682514,46621090,59312437,63578133,66259249,77140731,92693861,97573764,100248255,104839314,116525467,119686775,127076246,129041384,133954427,135410509,143122130,147615142,150394459,156579975,158925536,183511111,186262271,188347765,190036878,192651259,195314204,205568227,208789693,216181552,220479415,233843940,238719716,244844395,254221614,254742005,255844369,289754637,296420172,320623205,349349272,376797930,414393343]}
{"user_id":219492849,"collect_list(fan_id)":[1651313,1981553,2709633,3641966,4490532,7103891,7680892,8621987,12707404,14678848,17269533,28971316,31156741,31439692,34670664,45163627,49119342,60029571,67227614,73306861,73896397,76479523,81400264,82673862,87822349,116571419,128243039,130133413,134714290,146336606,150996088,152676692,154389341,156855174,160584543,161302005,164427677,164639645,164666389,169445271,168691534,174184639,181354246,182704800,184234137,185694908,185820229,185972468,190181754,194412602,199919536,204839028,214390675,214418098,211593752,216367669,216640446,218340034,218387676,221791071,221961365,222324586,223897420,224131190,224891977,225274928,229077630,230217272,231423200,237143657,239660207,240221469,243664684,250699717,260207371,261301075,261888419,263096346,264732994,265795218,266773221,275895381,276441715,278672476,279570564,280607009,285045114,295359766,297500077,298244312,302431502,302520540,304192854,307051791,308944740,327349694,331562274,334479496,339616521,341695439,343694345,345115714,343001608,352510422,358673133,372375817,372642277,388810630,392195778,397064091,401674421,406341039,406988938,411019150,412645346,419863017,424848187,427739115,428011663,432742367,438433838,450543157,450871865,454207585,454840928,458678107,484277242,493438797,495206191,501805292,503677247,507788239,511126430,517390738,520685201,522616494,523695186,528649752,529460218,529513269,555555672]}
{"user_id":223869812,"collect_list(fan_id)":[1758997,73322655,415400336,415404361,426693888,514866375,518677520,550971368]}
{"user_id":196806984,"collect_list(fan_id)":[1882819,22611010,43840765,62122996,73761202,84481254,92629188,101469689,135047584,135121200,144958752,149082727,150458385,151923262,153802363,155117687,165744979,168893411,169553127,173304337,174500423,182728644,183688244,184355800,184749808,184808541,188025512,193661459,197530888,206296012,207105985,209046951,228089992,234975907,254750427,298595439,299341128,300155041,301149142,351347265,358977291,360558624,364585118,374953387,376843464,399607411,401925788,430827162,445810553,450089868,460428432,469185040,494753372,520660469,533132670,553953033,553980514,554340439,555494012,556244638,565522601]}
{"user_id":198126846,"collect_list(fan_id)":[2154231,134396877,144361942,148063095,209187958,228457497,252733470,268989087,316057568,384221176,388441604,414523678,428311814,434316221,454385138,454987534,489233510,494762605,531217034,534520091]}
{"user_id":17502623,"collect_list(fan_id)":[2636828,5791814,6444551,7169301,8088801,12625657,16232804,15442939,17884201,18690492,19809548,20148986,21704406,21826314,22911803,23362173,23556603,24425403,26614769,30057542,30698826,32391986,34428444,38776055,40964743,46569806,49818215,50648233,57574516,60962567,75810465,81440565,99650484,131564546,133991451,142858217,145569325,161679630,167176181,176919958,182181591,194146247,197442074,222109883,226400301,238478385,242151138,306997830,359969191,368280550,369623846,383798793,392525636,450388884,523069093]}
{"user_id":2653811,"collect_list(fan_id)":[3840455]}
{"user_id":206082428,"collect_list(fan_id)":[4093718,9570634,12225217,41113780,72645630,77424010,108887765,122370716,145487092,160891119,173318013,215740354,233096959,256718881,279961299,377031032,555960721]}
{"user_id":133898872,"collect_list(fan_id)":[5271774,9020535,9211375,9398383,10627243,11529214,12792337,14132833,15263611,18656317,18879428,24376959,27113664,28076656,29889584,32281565,33186562,35399351,35855687,36246834,38947943,39465579,44070666,48609228,51228620,52424071,56486284,58258061,58351039,61087237,61756857,64350440,67446329,68762877,78064868,79955457,80315268,80585752,83786902,86086204,93467802,94816907,95325012,95618308,100190219,107159694,113014005,115273511,134008521,136092428,138263471,138412651,139356736,139466775,139726227,140564606,140969396,141394729,146657620,150665236,151010210,153194123,154166974,154452366,155050487,159927248,161183910,167176181,169326179,174618531,178728199,182640021,187711572,188393856,193496774,193685572,200363684,204334066,209107216,217075384,215013104,218150519,219975032,221166245,226304580,229926599,242320976,252128439,264574706,270944011,268669671,275005765,287001227,289337794,289708700,314108439,324731253,330766858,332594133,336122145,349797223,351814904,359835773,365698883,371332399,382887438,393640067,405789972,408278504,426306976,449830838,501695442,508075648,510378804,521295902]}
{"user_id":254810193,"collect_list(fan_id)":[4884199,15342325,26664586,36304364,92612674,97482183,109498707,200016802,270765648,342902852,402816174,443422656,447080688,463787061,490724816,520437765]}
{"user_id":183898492,"collect_list(fan_id)":[5489221,6651517,8240681,16538997,18879428,23958294,40520451,43674131,51807600,68873506,77481661,90193922,100365912,100402648,106150050,128082542,133874643,136199864,140922949,144264389,146040424,152424583,152757500,175559114,178897333,179883953,181048199,185420418,188506937,195474623,196626911,196927690,199761350,201622241,207618163,211267578,214251198,218435570,218451200,225383468,225647074,226897823,234764436,249763218,273453062,284536400,304075166,318222434,321576841,321211272,329908950,371332399,374767890,378105563,381196568,396797390,427321121,450433579,477234480,490750935,506784975,530869050,538399456,539230920,540239489]}
{"user_id":74131901,"collect_list(fan_id)":[6378798,10696566,16886656,18458407,20040142,23385036,28383700,34668674,39281682,44602262,48398339,50035836,50098417,52888657,54372086,64700679,70227997,74348788,75089032,76872766,81984588,84069971,85979852,88052424,88085155,88353741,89232017,89586468,89939022,91986081,92456952,89763898,94925847,95621285,95838814,96754690,100827017,101317990,106679316,107888674,114412658,116743518,117520640,119326033,131979198,134868283,138433110,137428610,140941808,141107476,146339738,146427619,146986125,147567148,148519965,152897768,154899107,156064441,171464145,178177436,185029533,187515788,195387696,219899681,220957810,221887156,238082468,245114325,256894501,259426153,267428311,268935010,270726659,278527279,278618330,306908389,314416157,322279770,333039897,356719403,378603558,432433727,448830553,483600432,531184850]}
{"user_id":91689236,"collect_list(fan_id)":[6548582,534317864,547028224]}
{"user_id":440474627,"collect_list(fan_id)":[7926044,8573352,16268308,25233918,33538253,41340105,56817553,82538138,89772788,115936046,128407487,128976845,137147281,142842805,143257036,155914963,156102520,157967121,158769439,159170989,180602438,182083376,187171301,188335849,191208075,194911649,194970088,204505632,206857711,209145074,211290581,213407309,214074979,214114851,215934824,217208041,217312659,227535511,238705508,241539212,246985827,247438116,249683824,251439005,251827425,259645563,260179614,264916568,265607014,266765812,272737434,273493501,274251607,274408051,275321286,272376798,280248571,290349812,296618134,299556941,308481275,308702101,307425518,313212254,317548663,318129057,323412559,326480396,327581988,328284125,331267558,331993904,332754746,342043578,343766881,344358453,346125577,347403619,349070992,351525421,355599098,355613359,358080031,361504625,365500502,367731085,372145632,372647704,372898812,374188489,374646957,374650202,375739239,373544164,379653048,381412290,378690341,383735669,383964646,384629348,387745343,388260212,397280307,403566014,404576052,406956840,409064423,409246055,410981194,411438675,413812935,416635238,416775518,417327041,417744034,417995242,421130789,422575803,423085494,423582787,425214883,426642159,423324583,430360371,432313149,432385363,434674974,435176365,436340016,437832571,440180075,441881382,444877225,446734639,446881620,447665191,449222879,450800789,451550001,452093095,453010293,453935573,454712474,456319564,459633443,461399833,461473409,466741425,468104303,468153357,468184347,470734543,472243324,472622873,472822308,473460305,473603438,474282800,475132219,477873618,478700895,481170530,481700208,482376561,482480166,486740405,490363828,491047548,499433087,499811629,502006333,502471862,502993482,508073171,508238775,509222491,510797011,511145954,508738739,515123106,519536856,520608937,520721739,521644864,521746326,523625550,523772725,524858933,525722716,526627592,527155785,527282562,527414453,528582314,528988672,529673481,529791672,530131520,530322933,530356091,530770527,530912896,531257479,531420706,531640579,531888432,531902301,533165954,533466680,533478927,533480801,534240464,534284193,534514386,534928714,535045489,535727487,536092499,536716068,536746371,537163834,537367507,537469384,537695687,537777882,538062513,538077042,538080392,538159094,538371960,538386610,538470952,538475566,538520255,538560426,538864819,539844344,540976965,538938143,541482744,547450194,547573947,549724849,547047244,549993898,550628333,550644309,550968074,551683671,552518686,553141551,553157771,554403241,557055817,557565506,560089148,560498677,561874515,562346714,562556026,563822347,565251179]}
{"user_id":206323959,"collect_list(fan_id)":[8970696,10420603,19096615,20436590,23234270,29828941,40466156,50194035,54441503,54773398,55621136,64167193,68744656,71732018,74409346,76633544,92745194,95064298,96222243,103498635,104285637,104762521,114613725,125558993,133168617,138613809,144618437,149168385,153410079,154734264,155735471,160843232,167522400,169619741,171454323,171662425,176212751,176559506,185972645,187974652,193537655,196865510,200929617,201288114,202886209,203644231,207466932,211146371,211616680,215157698,222406749,222412185,226948769,237627318,238371635,251415213,252386104,258316148,259087319,265598323,273337332,276651374,293267140,314779046,315893718,325628927,342560269,359876804,361561718,367107552,368770310,391271421,403359737,544085958,560019809,560121227]}
{"user_id":570954,"collect_list(fan_id)":[11586011,19920017,27405968,46904811,57185962,69966848,84088895,91499409,116775878,144367401,161291475,201734601,204042522,235463992,420610176,446805530,446926651,449437539,546266074,558280784]}
{"user_id":298125630,"collect_list(fan_id)":[12250190,13673425,239403272,251984459,457026988,496749015,521025585,531016017]}
{"user_id":137136717,"collect_list(fan_id)":[13165700,18422196,30004329,37218182,52894416,56307906,64547925,66071207,99507567,104126028,108844879,112401569,113354690,125368404,131031971,132960759,137659459,138041689,138472095,141727626,141897374,142971451,143161265,147725917,150854131,150912751,151145610,152011234,152829669,153076378,153711744,154881716,159341977,160621213,160727261,162077153,162339701,162480110,163310290,167286964,172493146,178813146,181126242,181964959,182307987,184122383,184430647,185009863,185522461,190863297,192753261,193283210,193763946,194608587,201510517,202919801,204754246,207226382,207702400,216158913,218101076,222092082,226240797,226382374,229121591,230372265,231778037,244720602,249212609,254774429,263306491,267908146,269278839,279332621,279387169,281959718,283712681,288720045,291285995,294006351,312656795,314516509,330942482,342930311,353147857,353583844,375829462,378432442,379073962,387409657,397749867,402950203,404995525,406472371,418473173,427033122,439909649,443822951,444053391,446386777,451786624,458369220,463305469,465945857,469908660,471102975,474674839,475706972,477820692,478636877,486894851,488200108,493429648,497573356,509279609,511480098,516410160,518180168,527897836,535990212,558700851,562317895]}
{"user_id":541675811,"collect_list(fan_id)":[16724092,270036516,422779504,472815815,520838016,527539698,538474754]}
{"user_id":167819828,"collect_list(fan_id)":[19578764,24766051,28501083,42728555,92949467,176499638,188422388,199563628,201347207,211569079,243174842,244305469,250723968,273554796,276620714,284521149,286415190,297314390,301014817,305875336,317235445,324701676,340425082,355150926,366699785,373461713,393143747,414572480,419713022,429643076,434230549,439814221,444574198,448371597,465721381,471134207,491384261,499842262,500593797,511241741,511279304,512566332,512582227,512584663,515353855,515899024,521295902,522819437,523117722,523380266,523396280,542059359,548175415,548187693,548192468,553247497,553249696]}
{"user_id":152776558,"collect_list(fan_id)":[30888514,36337190,51070257,63892372,113497134,150768566,228091140,229116989,283010719,305205715,387449426,393671029,441951478,451005411,474987712,519398829]}
{"user_id":230558326,"collect_list(fan_id)":[34511291,46391495,47946309,49725482,67561287,72913732,83829974,136130021,151801284,154118753,178747673,179837120,180370680,182578709,183023537,184534483,189542630,202281488,202876200,203835849,241867182,415395518,476988423,538715290]}
{"user_id":58558029,"collect_list(fan_id)":[45029575,104659756,278187081,295247051,306514951,383653871,396208573,446614881,516872984,529366181]}
{"user_id":213961004,"collect_list(fan_id)":[54493667,59267688,70869146,74961861,78350021,132689440,147132278,157308892,166767780,170809620,181979609,190036516,193292448,222580962,237482723,238661570,238955489,252205119,281599188,314196183,324152030,358890103,380936776,385624482,393879607,394911861,396814674,403001719,417913549,499511699,537646131,537665867]}
{"user_id":113508530,"collect_list(fan_id)":[70282472,76732761,92288862,153748390,231240457,415393851,441757526]}
{"user_id":208495318,"collect_list(fan_id)":[114758816,173273615,445583395,484332474]}
{"user_id":501695442,"collect_list(fan_id)":[207690869,387584748,393633433,396114498,443160239,449193065,478601620,503094502,508452754]}
{"user_id":604293,"collect_list(fan_id)":[415390316,511731075]}
{"user_id":145572461,"collect_list(fan_id)":[436734592,514406840,514947773,533076149,534681645,535679536]}
