{"user_id":1669,"collect_list(fan_id)":[1216,6107,7068,10117,14110,14677,18713,20972,21000,27466,28593,29469,41913,53370,54071,55076,55390,1017,64183,66156,71837,76127,78326,83774,84215,87248,92250,100209,100217,117253,124749,158476,162643,165844,178584,188995,194909,202901,230069,237856,272824,336136,351180,356763,422440,429539,459354,510467,516860,596560,855671,1122996,1260848,1580016,1856322,1952808,3477883,3538019,4080005,4190887,4949103,8403217,8959088,9748170,10507814,10656479,14744626,15758598,17843448,21868689,22117266,22658327,23475806,36786865,40501141,41209326,51750228,62024597,67484703,73443165,120461787,125079345,139323835,145574292,153373208,186608036,192039334,209420561,361754596,386140765,397803951,417077335,498977316,509493818,526642856,535900606,537686471,550728867]}
{"user_id":135556,"collect_list(fan_id)":[1127,4734,6371,99752,105850,184489,209425,233762,292003,307308,330236,472150,505515,546612,817314,678479,1194335,3723936,7554932,7852046,8035590,8154147,12096089,23533070,43695763,109799026,170031386,200593881,224448518,237894970,337242709,415401389,420386758,456468645,460223007]}
{"user_id":203851,"collect_list(fan_id)":[1127,1679,3545,23225,248438,248842,299014,1372563,1666555,2590004,3913466,6179923,13099131,13182048,19493723,20137141,32545367,96073697,204959678,205928132,535685952,544893839]}
{"user_id":209704,"collect_list(fan_id)":[7066,74479,117611,157900,170824,348887,396951,552235,722973,752603,1574536,2428315,2994054,4299061,4392380,4848534,7158357,7440216,9250125,63246586,84027490,142373075,169608076,264879962,375564713,434761869]}
{"user_id":597156,"collect_list(fan_id)":[56925,60993,83962,108635,222841,348887,524212,1168867,1212911,1559000,1952695,2894213,3225075,3663182,4705748,4799554,5746148,5841769,5977653,6523822,6855222,6859016,8741538,9854944,10106737,10656479,11241589,12532459,12968097,14475772,14754107,16324291,17794947,18380710,19435184,19591051,21644169,22689235,26757069,28731861,29910761,33861220,35333394,37707400,46972602,48209532,49541944,52002776,54533456,58637630,71738357,75657647,78399170,83861503,83925345,93480947,122414039,124108320,144489502,147631430,150683196,206664038,248532383,248348802,261286099,269293592,289786494,316288232,324264933,342229337,352299927,368550689,392840160,410237201,478676858,489812092,537853166,538634836,539551238,540978582,541039709,554875829]}
{"user_id":53368685,"collect_list(fan_id)":[3426,60211,91823,114771,118899,212068,251688,276087,307338,214056,363182,387413,392931,393628,407712,412697,415629,417498,429055,468088,507817,508329,528121,533508,569178,603082,623105,671020,543164,703992,725502,783312,785942,814315,675100,903760,951525,957109,986986,1040809,1044529,1098649,1103783,1115534,1129345,1184989,1210907,1219590,1258146,1272328,1272337,1296580,1299576,1369458,1393401,1401275,1429119,1433128,1446934,1460712,1521559,1522710,1568139,1573216,1578704,1582995,1587285,1590029,1621732,1674645,1679834,1688464,1705154,1751149,1756112,1795842,1798380,1799964,1818696,1829026,1838218,1843012,1942731,1983769,1998229,2035049,2036749,2049559,2076534,2080657,2104981,2107720,2108216,2113984,2134327,2152913,2224555,2299922,2309551,2343535,2348562,2355052,2370056,2371630,2382314,2403697,2438714,2451446,2498044,2530651,2549409,2583229,2628774,2703800,2709068,2710780,2720507,2730887,2756962,2765206,2831756,2851021,2910184,2943459,2947502,2949840,2954688,2955304,2965684,2968753,3015962,3110371,3116938,3130663,3197150,3300706,3311016,3372513,3637937,3645595,3798566,3828643,3828757,3841252,3910602,3935059,4088729,4208175,4318289,4549163,4607235,4617556,4858985,5023847,5325315,5335363,5344104,5533344,5568072,5640172,5657758,5717639,5934032,6020669,6036814,6451073,6484390,6528811,6581369,6045036,6057169,6704112,6711224,6717761,6848917,6893661,6931493,7289962,7395618,7700056,7738876,7835643,8313548,8449249,8497696,8529454,9207819,9216244,9344372,9514635,9549471,9915170,9956226,10041244,10233483,10453311,10590570,10730512,11113311,11371875,11396026,11978890,12110648,12120655,12238719,12348867,12356400,12894748,12988738,13025602,13194367,13748006,15196862,16102523,16304656,16854504,17255888,17281668,17465540,16524664,17869448,18084399,18096955,17563281,19043559,19538878,20605416,20772598,21297312,21375482,22166782,22330735,22603604,23810126,24742262,24852689,24979953,25074039,25232484,26386428,28176525,29825515,29845229,30742595,32481033,35099508,36304549,36369035,36456643,39604483,39767352,40071161,40303468,41803319,41959742,44160401,44327118,47049553,49102590,50168142,50374305,50778645,51024458,51167809,51481529,52260177,52346283,53895127,54106586,54257836,54684758,54942631,55268042,56541888,58897074,58948300,59304822,60678939,62401400,63383913,64235443,64641294,64716985,64913820,65858988,66641959,66926215,68900085,69136410,72283267,74285520,78146618,80395560,81551727,82735485,83587686,84124229,85897366,87636322,90263750,96688666,96871857,96978262,97099737,98874494,99311133,100183687,100654689,104364784,106453592,108076137,104689174,110603448,110821057,112543961,112770011,115111158,119735343,119792052,120157773,126616366,127082445,128016202,131540500,132810738,133924541,134492674,135892263,137800089,137826885,138141623,138408959,139839983,140363435,141693674,143789643,146443358,147324076,151852757,152435569,152605915,154730797,154869199,156450398,157020436,158039233,160837616,161048108,162981164,165344121,166148729,166779648,169894441,170085774,171504227,172358793,172861389,176371869,177109005,177588268,178079070,182072247,182935687,183225599,187735890,192744913,195134265,192481618,195441487,199590616,201047616,198248742,201913891,205320584,210131566,210265553,211397871,217810541,218486527,219452467,222309398,223657624,223859834,228270539,229643379,238939122,242828079,243000477,243074869,244474708,248042335,249683824,259405105,263962826,268222387,270745499,272504877,272842685,276855646,283915081,286918778,290972089,293432295,295935787,298465300,298583010,300010233,313267889,322122626,322632244,325756965,326695400,327096574,324850468,336911812,337595681,346435523,352691695,365878326,365951664,367996358,368675315,369965792,372849810,376961297,385959116,386186502,390491670,391434759,387771496,393360556,395697843,396473641,400470297,402672575,405380131,407513076,409803219,410904561,411642257,418597543,418904802,420537696,431548663,432065863,433521745,435803383,444338653,446532612,447896065,448427901,454486481,450993861,461702800,462606015,464364052,465532999,470202050,474761698,477736009,479320784,479482243,481301419,493884568,495143252,496482663,508420327,519066642,527890342,532303341,531728317,547950109,548115831,550951122,552147531]}
{"user_id":156802671,"collect_list(fan_id)":[32669,160111,906194,1197019,2850807,3526973,4172242,7285687,7602877,9225106,10384285,12171479,17303375,17734524,19086506,21094775,21784444,25807445,27244076,27289025,27445852,27662724,29653875,32466236,33259938,37827572,39739968,41953497,45366803,48229913,48312404,49625763,51005137,52536078,53130119,53423525,54626053,59705777,69924082,72328975,76470267,79390141,84495444,97834469,102420122,132132536,135392923,143261302,146106686,153959469,159996874,160400113,180230304,181335353,180856397,193241553,197320466,225134203,228071480,278705209,303858847,313916678,329565611,384238005,394540007,495031232,508272902,517785434]}
{"user_id":245273134,"collect_list(fan_id)":[35615,52344,75580,3085718,5084108,5739213,7716674,11317306,13275890,15807950,16071275,17681565,21357061,26221273,28053081,30911160,33008445,34044331,34186030,45573998,47672252,48702471,49460123,52847199,53959383,74974421,76460444,77080389,77878939,98095762,115500129,133134423,135394574,144689136,151764520,169650034,201414373,204085177,216650223,217729055,219995659,276904485,279011394,281255690,296236693,329641547,365962047,367387176,370020209,403462776,404605995,429911926,495034487]}
{"user_id":265842379,"collect_list(fan_id)":[41683,117483,158669,712820,879841,1718899,2861765,4148624,4392068,6141294,6467091,11159205,18325594,24231606,26963312,84792533,94166172,162162159,176799196,227341280,234877259,260695953,270541180,285128003,315402725,322286570,336100106,354897578,380581780,381534076,416180005,469915860,494416624,500593238,539658125,543606423,543716502,544703143]}
{"user_id":20714639,"collect_list(fan_id)":[106458,277399,499125,1037529,1429180,1985774,3826613,5148159,5235272,5948564,6115205,6151129,8060982,19427509,19515382,19769329,27799515,29437414,32381510,36246785,50340711,51628247,55140445,63090562,68656417,85597857,115567126,138297312,138624263,143893508,145069063,212167300,265661896,345118551,367701360,459333635]}
{"user_id":33515298,"collect_list(fan_id)":[79424,1340748,38171342,373294271]}
{"user_id":178417557,"collect_list(fan_id)":[86383,1119436,1379055,1579847,1637758,1738968,2001378,2242121,2846175,4323530,4957147,5482963,5786133,6059502,10118955,11137388,12010974,17351165,49593597,59387580,59600135,61578759,73285919,86234347,92782805,97709704,115457659,138286702,143081092,163948265,170163005,175952035,180059539,184855032,183539326,191615887,192574364,192801208,196396452,199513352,213989570,215714092,221326890,224375567,229265595,234606871,264874097,268019425,274931603,307863991,331258321,350937953,354830947,401943783,437696414,440187536,449487981,476988423,524217264,546032287]}
{"user_id":267946286,"collect_list(fan_id)":[103932,3005234,3692238,5724843,9152965,11258735,14798584,15016582,15663282,17787121,19473038,20389458,21389235,22636107,25204131,26349382,26645168,29274657,30492490,31928587,33884329,34843123,40489138,44011192,45310939,47560203,51181165,53352162,54894651,55346103,56282622,56585167,56682887,55628240,61693020,63009684,65636895,65747567,66301795,68211504,68796634,72211902,80692159,77625376,81639227,82387764,84349898,85805697,89527618,89947677,90482280,94620647,94763656,92633012,92661240,95922616,96940755,98590995,99048911,99542405,102580015,103151285,106387031,106661843,110160847,112243914,112273601,112801045,113013609,119696641,120160814,121659420,123047002,126386331,126409316,129071686,131236345,132040178,132301772,132422920,132812199,132977220,133142220,133272858,133368148,133485766,133895840,134164771,134320787,134920817,134975213,135246628,136058533,136806147,135762621,137533308,137428286,137455241,139438005,139931091,140800767,140883585,141358718,142455372,143321692,145039453,145720818,145724053,146612995,147114014,147836794,150254218,150476036,150586251,151354965,151444176,153197344,153639298,153946193,155027868,155239529,155775506,155844724,155899128,153978459,153985384,156669905,156934111,157018837,157133317,157164662,158019191,158177802,158302184,158706435,158918094,159306327,159626874,159955181,160729361,161410816,162163543,162305273,162485219,162826237,162881383,163850625,163852742,164006733,165190655,166121022,166230380,166272876,167020085,167050638,167381934,168058358,168893794,169318813,170744387,171565684,171792320,172776693,172834029,173348997,171207329,174764742,174862959,175086521,175466440,175713912,176126040,176210373,176453179,176490001,176770251,177051029,177473648,177482500,177774248,178725815,179465183,179590000,180244361,180261103,180458774,180466647,181012988,181262303,181883941,182539270,182635395,182636746,182740808,183078587,183187501,183777426,183802105,184212062,184233627,184267127,184352547,184930934,185211780,185491588,185873759,186153229,186705102,186724904,186751231,187877260,188297938,189148394,190118608,191291888,191613866,192136053,193866048,194113313,194149033,195105157,195695638,196613894,197231876,197282241,197687601,198036266,198079168,195340816,195352548,198588596,198689930,199012658,199494619,199497691,199695008,202377886,202718285,202810034,202846481,203717304,203991548,204330107,204759504,206333462,208170077,208582208,209450111,209873633,210107450,210503901,211062963,208231344,208278665,211865352,212107841,212808564,212867550,213261878,213344231,213935541,215205163,215411373,216282533,217367029,218950800,220103275,220598226,220601772,217890859,222429827,222879443,222894779,222974144,223176409,223284193,221113933,221114685,224182064,224405453,224490314,225138352,226291699,226461382,226517441,226576994,226739140,223795776,227771144,228854685,228874831,228938677,229896161,230214322,230682021,231913113,232207825,232614846,233035258,233900795,234589308,234590786,235276526,236166017,236247620,237205161,237416887,237935287,238391225,238586139,239533144,239950253,240635826,241691698,242228067,242348599,242985760,243300179,243842992,244757609,240814360,244950723,246635532,247398540,247811736,244866990,249096708,249411222,249485470,249695264,250324273,251035565,251294509,251918922,252002100,252650430,253682711,253936220,254235841,254949932,255047941,255049230,255832864,255870925,256208155,256358677,257280138,258103514,258469645,259115851,260041230,262853543,263723264,263799529,265471283,265616905,266597411,267035852,267560411,267754089,267827987,264837452,268797221,269093699,269621894,269696675,271592852,271986114,272040589,268669947,273523286,273581484,273853936,273958966,274315711,274608334,275279672,275447732,275667693,276650888,277009950,277653215,277985808,278254226,279643335,279761346,280351703,280918191,281131312,281473252,281938285,282205568,282379686,282962792,283325015,284061832,284291695,285128003,285914213,288159243,288348962,289153508,290192453,291216907,293670831,294006394,289531496,294376827,294508935,295395368,295716655,297462298,298377864,298889274,299017073,299765553,301234216,302598939,302808228,298792375,303313896,303330670,303459113,304089205,305414405,305451901,306865555,306999366,307009878,307940248,307958258,308525740,309666209,309967550,310587495,312126247,312365778,312462602,312917559,312967611,312995902,315381510,315871234,316017975,316099913,316600980,317360658,317828137,318259529,319223957,321138887,322744541,324055972,324137285,324821215,325471642,325590259,325714830,326435554,326550360,327374171,327671871,324890373,328979115,329035294,329299035,329597724,330040572,330082278,331619089,332249053,333484158,334663848,334792203,334979124,335965343,336458180,336540990,336612413,336709615,336980616,338577005,338645691,338896449,339018235,339811289,342408286,342513826,342794873,338182051,343055952,343641625,344692360,344718666,345875040,347165821,348168339,349174104,351499550,352702204,347837546,352934188,353993229,356470931,357707884,359172336,359188251,359843998,359928498,362290497,362360640,362995969,363707445,365108634,366250126,367692876,367938938,368472629,369041682,369048379,369220477,369479835,372071712,372319813,372553354,373295337,373757154,375141500,375624863,377111622,377160723,377591227,378408195,379229282,381071543,382084527,382941600,383078809,383330089,383884164,384003461,384456466,384517037,385243802,386474040,386503466,386899289,387049061,388827802,392314376,387760543,392987850,393159168,393528271,394306165,395599996,396433607,396769919,396815103,398269715,398405162,399292617,399343147,399675196,399678300,399952727,401597249,402279593,402370351,402909752,403778558,404138199,405130889,406870839,407209575,407810002,407914606,408232882,403275576,410117152,410135995,410856059,410988363,412349165,412540857,413516780,413736427,414665743,415653176,416673521,419624986,420071867,420338605,420547363,420652961,421794778,421822317,422592130,423462945,424274724,424309922,424360393,424418770,424785477,425683993,425967884,427180756,428116444,428939237,428967708,429798369,429866194,430806320,432022352,432676633,432704227,433153542,433571215,433579647,434194547,434508697,435061848,435228423,435316393,436392911,436663463,437720940,439189004,439455857,440946577,441607087,441626345,441868923,442589247,442632059,442702209,442722476,442756835,444601347,445530696,446657456,447711440,448321538,448635325,450144303,450761082,450813533,447071691,451088141,451369027,452258256,453083082,453233235,453245688,453288839,453424398,453868938,454077835,454324811,454552494,454628395,456048576,456380445,456390100,456418042,457343105,457718706,458239431,458508926,458523165,458642341,459045578,455249003,455358110,460435081,460460117,460623204,460814678,460842834,460984000,461508424,462097385,462602653,463088609,464460261,464663337,464769133,464966682,465311494,465471590,465860565,466266017,466311394,466487293,466588376,466766591,467759119,467813930,468125073,469112554,469115420,469571904,470479705,470990002,472125288,472887935,474407959,474665893,474818387,474821672,474892339,475913963,476185406,476250325,476689860,477789435,478069384,478359155,479021553,479417502,479831005,480541422,481847439,483280810,483613332,483987924,484327042,484843035,484995077,485016807,485482832,485564831,485573300,485592760,486440566,486622153,486794705,487576720,488133121,488762659,489127273,490102078,490758990,491142456,491295293,491588638,491683529,491687440,492260715,492281696,492308026,492414579,492993737,493022095,493311828,493777925,494188600,494553298,494553727,494749529,495096197,496431398,496583400,493521188,497722471,498184773,498378288,498482209,498494505,498629660,498721980,498993965,499048620,499065394,499971819,500502346,500869706,501612225,501984514,501985129,502241002,502637743,502843166,502854872,502873830,502891338,503373008,503907870,504327097,504436565,504730967,505015602,505026977,505183532,506031981,506059599,506199657,506686981,507008152,507454741,507817021,507955295,508170561,508800612,508932097,509292571,509945133,510265981,510908685,510928201,510976138,511022764,511098073,511172116,511436295,511746513,511789268,512519126,512556720,513192007,513673752,514807283,514823520,515024444,515038695,515059615,515813024,515949434,516205667,517367444,517628492,517736097,517872363,518180083,518477283,518498164,519252599,519313475,519339161,519707659,519824674,519931336,520220941,520345645,520628013,520996549,521021926,521302304,521443782,521663921,521722335,521751907,522053252,522121221,522764786,522825825,523063323,523193885,523402572,523464875,523646194,523733738,523920149,524298762,525054415,525080129,525129796,525651990,525774469,525959524,526025642,526493170,524318279,524321479,527365546,526684276,526736744,530140416,531317701,531501364,531988207,532521186,532908809,533311708,533324209,533388152,533982314,534207238,534581092,534945912,536761435,538444995,538973497,539440406,540706659,541267577,541487473,541495485,541882010,542733903,543124718,543634823,543894163,544286049,544385339,544941006,545042056,545364445,545448358,546088902,546288473,546576021,546818633,547076946,547522822,547708004,548124156,548571757,549451272,547060673,550998561,551357055,551482670,553041933,553230830,553439363,553858684,554397453,554403144,554767599,555205428,555429057,555429589,555695927,556257692,556407774,556561428,557240635,557572267,557725330,558050138,558871088,560062223,560137576,560712245,561157318,561812043,562116330,562771121,562777112,565438030,566420934]}
{"user_id":38316494,"collect_list(fan_id)":[164951,382501,506508,533522,550025,588022,1973077,2022420,2942379,5894217,10193372,11545731,25360668,29617520,33370203,69452619,137568191]}
{"user_id":314465230,"collect_list(fan_id)":[173582,207275,415397,5452157,10576400,12827573,16052851,18279461,19416431,20170470,20785470,24545755,33861220,43044414,91447780,107976103,109539050,109788218,118035563,124220085,173859734,204514862,216951758,218006476,232576969,263818400,276009612,302475895,305682037,307195637,308776273,328896885,337020586,355934225,425746822,473427609,476306272,507918979,518026942,526382366,528364358,541017635,552509365,555266255,560339499]}
{"user_id":16742703,"collect_list(fan_id)":[221676,325318,537004,3055099,7684143,9832524,16703287,17972249,18154337,20469314,24284580,29897889,46030579,51401601,120499759,139692152,143878383,175398780,200593881,239967165,298925285,329646708,352101478,488475199,494428500,535653593,543852697]}
{"user_id":174184652,"collect_list(fan_id)":[330815,583148,2027074,2621347,5427680,6330023,7587957,8352463,8951250,10954502,11677737,16291913,17032201,19904090,23817488,24065769,32308128,35303676,39929016,41442033,42547067,44040181,51361526,51983047,56603101,58456203,63686098,67408833,81664368,82810018,86553601,91903594,96155503,98169499,110646167,112921661,131892706,132178115,135218566,137926379,138289808,158692010,179549955,192124736,196292016,203442744,213834509,216670709,221747420,233676889,238999990,245599617,287100276,457372682,466423340,467122657,469258889,495849534,501718619,530294674,532938504,535992322,536810595]}
{"user_id":360316052,"collect_list(fan_id)":[593022,3814903,16947229,41713308,44269107,68090436,68516303,112120645,113929175,114290953,119314824,123615857,128883336,131773476,133480582,136180863,136921305,137242158,137869515,144374904,148908371,147230613,156485655,157704902,160171365,161841220,162253638,165142443,170967150,171750746,172603167,172660620,175451612,177024996,177828772,179840808,180193783,181642627,182449544,184297462,186933820,188062759,191165682,195799625,196442770,198693345,198993497,199212757,199694208,202197232,206310654,207073107,207529271,214979445,218858667,224596241,227922139,228896317,233805133,236640586,238589673,238848966,241401161,244075276,244657330,245021213,249967701,250067491,250416858,253400907,254567518,254812788,258477353,260118387,261201184,262683923,266814190,272421836,274996688,278387928,280673116,281391684,282674317,284669669,285037230,291468517,298934269,299606196,305790442,313659921,314605938,318789498,319837495,323516431,349198936,352359648,360697158,362439415,366081284,366903857,370547406,372401174,375284428,383774808,392424066,400901711,405224475,408575694,410366613,415483395,418989898,425178239,426215392,434309198,433788728,457724410,458373113,462307890,464771167,464782982,466060787,475179784,480099866,480532567,489404031,490571490,491802779,491825772,498720412,500499832,504216793,509312366,512595974,526440504,531023667,535278863,535827126,541488563,543855356,547377981,562161225,562260950]}
{"user_id":267702205,"collect_list(fan_id)":[997740,1775402,8834875,26179550,40972509,50663249,98408417,100741647,159389808,161910115,188393856,214112808,229131494,230894595,250782226,255941203,268954200,286060378,304704514,318660586,333240568,373501900,406278792,426349452,442780844,477915228,479342965,496749124,497255997,506171117,511642131,537723193,562216548]}
{"user_id":136915285,"collect_list(fan_id)":[1191052,66312001,109763815,312432947,404793332]}
{"user_id":165529261,"collect_list(fan_id)":[2612193,3207940,6217040,6607807,6705444,7870830,8492703,11631517,11681283,12068546,13595342,15377034,19671482,20214942,22126867,22277842,22835074,24503112,39131532,51174588,58566637,61464613,61591920,63242464,64120505,64325917,71175064,74942726,75108426,78540721,83816142,85810620,105339825,121683811,125760154,136789529,143765919,155242654,161927432,162328089,164315746,170861496,175441417,186797030,192861298,198163408,198738050,199938097,200354754,209281083,218688995,246978483,266800453,293819387,299817686,332888784,347303165,354040742,364700952,377270893,403859612,408213538,425596927,438753484,447347425,454936410,470559736,497620763,507440045,539955653]}
{"user_id":238062448,"collect_list(fan_id)":[2690087,10132536,14920021,28880962,72615878,87245847,91944020,96434390,96448482,120132307,125744468,132842703,132899210,141871668,154416351,154422339,158398820,168890255,174327251,176153615,176613355,177395099,178878970,178220221,188236786,188756094,198203987,209255480,219239094,222359007,225404866,242420093,251907044,267745617,269694007,283593025,291181169,295921642,296578161,294357118,298892105,299941063,313939817,321934489,345420550,346338829,352227916,354188256,367737341,387273505,407482631,415503356,415611552,471907181,478421831,508739956,516811971,516935078,526573537,542551790,545035264]}
{"user_id":17545876,"collect_list(fan_id)":[3069066,4040270,4089322,4759856,6663575,14903528,15700593,18891008,21412411,45692699,64648712,73635678,87204908,96213203,102223152,106311371,220925480,271042330,316380211,359353566,476733625,511960500,515039297,529960882,529963671,530095079,538405554,538869387]}
{"user_id":32456577,"collect_list(fan_id)":[3843803,7426550,8646142,24926637,25087554,50640745,60941668,74002359,82443866,85518243,102038156,109827778,132107059,142631845,142902245,233044377,243047700,243472242,249339400,379234428,522212405,547380018,559903275]}
{"user_id":163904848,"collect_list(fan_id)":[3979368,13339730,15782871,16142128,36862551,47864024,59904486,61953432,77668508,87278479,89237903,101937866,106924136,104754842,113888778,114028343,118230760,120791655,137264189,137771704,139039785,139041087,139541165,139544429,143975070,147728582,150794700,155345598,156460258,160326564,162436450,164078419,165968624,167207977,167440824,168796982,170090100,173001164,178633202,180303293,180479252,183393683,185407960,186293061,188358639,201203036,201852159,203540901,204432304,207681186,208340221,208443331,212706215,213459363,213569442,217463818,222973733,221066293,225157785,232197974,234782617,236831278,238432039,240696914,244071538,245972430,253234070,255107317,259391511,259429567,265649144,268768917,269498212,272561440,282582819,286499129,286863449,294421290,296309925,299952680,302641547,304528640,304666376,313093545,313599252,320476587,320586955,320801604,321167359,326451584,328248895,337761425,340607251,342266964,346077873,349579771,350496547,350682861,359106659,361134125,363267351,366814570,372928362,373305718,391232767,395993599,398301835,401608573,404495157,416158064,427602215,435347006,435708059,441724140,455546149,456711998,460152008,460249785,460952970,461601397,462470023,462722092,463817781,471840684,477880944,480321662,484765955,486795663,517233630,524284203,526384935,527401341,527433259,535038782,538530664,540522559,541123804,548329884]}
{"user_id":322239294,"collect_list(fan_id)":[4082986,5722895,30511217,42850767,74432757,80414981,105420525,154032439,232041181,266855709,377435900,425967822,506376740,512801992,523543305,547033716]}
{"user_id":15901208,"collect_list(fan_id)":[5765527,10143167,15930827,27783148,42925937,42062969,44507950,46580895,72874778,89707986,95584799,107202248,111609739,113311897,133221392,134035551,137869752,150418286,153720603,205684171,211767064,235674347,239467958,253392837,260499866,288284546,329235478,396099392,415390316,415397361,433370745,476999171,487878125,523263757,552687113]}
{"user_id":24779557,"collect_list(fan_id)":[6039407,8238896,10323555,14370004,15616934,16016494,20241281,20248762,20322104,20929019,21155086,22688249,24514624,25202332,25753144,27113370,27593804,30413411,30893747,32335833,33422521,33605209,34131402,36855753,37708201,38362257,38764097,38868402,40418437,41694177,41713569,48591356,49194883,49625555,50531842,52527854,54093220,54810472,55117806,55850766,56621246,59270551,59786596,59803285,65654745,68764033,69929053,72842620,73209720,74466762,74902308,80765381,84180473,85963165,89401402,89797340,96681921,99150710,102006818,102597892,103286761,103445076,106198528,106372558,112821133,117668716,118944902,123480398,133288211,134695707,135587097,138338966,138439758,140555800,142609264,143215935,145731443,146958150,147246966,150761829,153228099,153448738,154527434,166817730,170344795,182782463,186711166,205901423,207741899,209085794,210413578,218024830,221313259,246241472,266587518,268899026,275823184,301090993,321607279,327765697,347612942,360337066,381370537,390783487,394542147,439451321,467144452,469057298,562033832]}
{"user_id":507669145,"collect_list(fan_id)":[5625571,6641799,6898490,8240808,9403177,10530274,11972177,12686654,13532919,22630258,39487229,59301654,64392301,65444837,75039861,82672031,85138457,95133244,98934987,101357679,126162005,132001397,164818630,171304987,172467035,184248062,193641802,212639727,359498120,417384361,429932636,435464435,520305469,522532754,555790207]}
{"user_id":14214559,"collect_list(fan_id)":[6511619,40155012,42573558,52744406,93710442,105188688,105949727,147570723,200723112,233592990,267452112,370149438,425273851,430771904,433688218,452479083,488577689,496850451,520393574,525423571,554164406]}
{"user_id":180901961,"collect_list(fan_id)":[8757659,70342280,76525368,176284870,184810834,215450939,218287322,221335232,223244838,232877189,236143121,372902589,537590796]}
{"user_id":240373496,"collect_list(fan_id)":[12879854,23853815,90110774,90213067,90439322,102030905,104178142,118262785,134318675,142501820,142556934,145221247,170825012,172779592,177315474,189835327,188935526,205443873,211221000,213526116,294797053,398163056,437866336,459160009,459309636,469126800,481416165,522640854,531331960,533521422,561076096]}
{"user_id":434017409,"collect_list(fan_id)":[12668711,118235259,155298446,216925119,219412173,228656953,266898711,312654297,334003435,371482219,380538510,394774907,409442079,416376421,423622383,443758655,471048033,499591437,499886281,499993139,503788362,515077389,519522473,521260704,521571338,528042466,531563516,538149035,538258803,539743548,541313535,545090377,556276294,556770476,560766443,563212198]}
{"user_id":60457577,"collect_list(fan_id)":[13951085,15920316,18123747,19933829,20226374,28834377,32284297,32370873,35042267,35389724,35521710,36858329,38015884,39534406,40236140,43493525,43708434,45409356,47886907,48385023,49271911,50425034,51645206,52421043,52461673,53296370,53722983,54571150,54598675,56042640,56230802,56297533,57430886,62116088,63635529,63883751,65691814,65849276,69005263,69120413,69717538,81798933,85444447,85983980,87465495,87817058,89152162,89970199,91687319,92539015,94964434,95081478,96382407,97237774,101186860,105840053,107407369,113595548,114458064,120474866,126481417,133403847,144602086,145039398,148373115,152596253,153431408,157020462,158167900,159101920,160232585,164415131,172502686,177787656,184709728,185523642,186198867,195655371,200235451,203756403,205140105,210312757,215027067,221199958,223637172,228290569,241834999,253032681,271636385,316357577,346880701,382603521,419672361,420860999,427912305,445965034,482112443,506940327,517443682,526308853,527828731]}
{"user_id":504312340,"collect_list(fan_id)":[13539138]}
{"user_id":489851173,"collect_list(fan_id)":[16621843,16955708,18018738,18323325,20764437,31056247,31728607,36151561,37185240,94880164,104000859,113910812,137850027,157947100,172903854,179436320,252061381,309222449,365031950,366774719,450745963,460251884,515748361,523635586]}
{"user_id":171900534,"collect_list(fan_id)":[22324789,166717713,314673605,520960209,533242498]}
{"user_id":268747181,"collect_list(fan_id)":[66572902,89865649,142446434,162882130,173913710,195949945,201108155,212005756,220763915,233174419,234471051,309345091,322289036,390898316,438556533,444966286,481401372,514633701]}
{"user_id":508979809,"collect_list(fan_id)":[65885218,162314205,379427787,477436823,509248490]}
{"user_id":263346140,"collect_list(fan_id)":[119548489,159426616,160153014,160382548,192288479,199955391,206852188,224023376,236218212,246725441,253044853,295989497,305883392,321948016,322563253,329540974,336391315,349732916,354690754,360866736,363176864,374602015,380183017,388605522,401523086,401980478,448010777,471908416,486964428,502153777,509781507,515843097]}
{"user_id":307009928,"collect_list(fan_id)":[156496945,161711019,163356284,163923056,164005574,171492554,174210696,175771053,181077491,194092177,194103616,194225164,200946949,201984135,202923446,205934589,207064438,207080309,210168380,212478531,218544333,218967458,221674479,222190606,223966140,230172070,236028777,243232572,244031469,247803405,263978705,265621551,266076828,267568110,268961152,270450694,273897416,275102423,276009870,279344528,282122206,282631355,286901433,286995973,288157405,291766406,295322270,295751677,296082671,304080710,304095710,306076446,306673530,306818148,322090846,323292202,332021179,333332355,335247233,340451052,348232540,354215908,354920968,355763736,356447262,367607266,368647138,371762753,373750843,381681632,382347491,384176473,387219496,394725673,395243062,395845738,404447615,428346806,429514357,435166740,449002609,461828090,470359421,477914761,481798523,483130977,491218992,491537270,494653070,503549917,516641071,516697788,519397528,520439414,523497022,528290985,530060657,532940679,550490225,551168036,555403785]}
{"user_id":454985587,"collect_list(fan_id)":[170339415,207976818,211652141,220678101,240621304,241621942,242457216,244694245,253488504,259773144,261636326,273591108,277648008,277821975,288781523,290771266,293734659,295789338,299501243,305347355,313285484,316108837,316541111,317395329,326461958,332057961,337792080,358244724,360968489,373714729,373856318,380855120,385491301,388249554,392558815,398485498,400330672,406613118,407283877,409523708,420119771,426681789,427162097,432867565,434165271,439426384,440946686,443954425,446251388,449647727,454014681,460231888,461405044,464490601,465175062,466884851,468686109,495505098,495793604,505278798,509178837,512236086,515213627,517008130,518921164,521335177,531244955,531442970,531613197,532966818,543068144,544117681,555666556]}
{"user_id":252579764,"collect_list(fan_id)":[207505126,306939126,345547542,372632492,430427500,549981371]}
{"user_id":36267585,"collect_list(fan_id)":[293715700]}
{"user_id":447623015,"collect_list(fan_id)":[447766400,449487981,506786030]}
{"user_id":516229667,"collect_list(fan_id)":[474632244]}
