{"user_id":36652,"collect_list(fan_id)":[14560,1637963,2137564,9084028,10145689,12680446,22728740,178362494,210940776,375639539,400209956]}
{"user_id":68686,"collect_list(fan_id)":[26995,962082,1533614,1580236,2365957,32754347,195061320,281972409,282816469,394391422,441044288,463219603,490398818]}
{"user_id":1658552,"collect_list(fan_id)":[7405,19862,36008,56286,1007,77440,84817,118044,145741,150219,233410,291281,344564,383463,443320,449834,462944,550919,553242,553256,563286,576924,594914,634804,730256,730657,878776,1614767,1828823,1855807,1976573,2019242,2537659,3660793,5800880,9398454,9855311,10492904,13739484,16891239,18128309,21884603,23090621,23434673,25594866,28468894,55674393,64699865,82081418,165314742,223101732,407016495,471146673]}
{"user_id":1934854,"collect_list(fan_id)":[11092,12709,63385,64236,95308,98365,100653,140594,170240,204882,205446,208245,220601,270885,272087,291725,343524,384655,408576,423958,480293,504803,521849,529401,532213,612556,619769,647279,654356,656615,696163,701469,771529,773614,797663,811435,841603,861416,870629,887599,952918,984807,1003891,829695,1011667,1079519,1104954,1165233,1202107,1252057,1257690,1274613,1307487,1307767,1315943,1327041,1328212,1341780,1371606,1385011,1398018,1437871,1458008,1464684,1536123,1566870,1576456,1598415,1408655,1660192,1708708,1711330,1728747,1771290,1788728,1832273,1627339,1927923,1936614,1964022,1965008,1978211,1989837,2013699,2036186,2151114,2180439,2199479,2299073,2305247,2319188,2326542,2344251,2345724,2382578,2392504,2405821,2463505,2514694,2554922,2661619,2694188,2702631,2815885,2829771,2912630,2963516,2969695,3114608,3289510,3337464,3371852,3375244,3449214,3463700,3478377,3494753,3498477,3531208,3581259,3760118,3860241,3934904,4019739,4068532,4205031,4208539,4219124,4259294,4283679,4291076,4294873,4316762,3924294,4561587,4599830,4795382,4936749,5402099,5444114,5460733,5522951,5566896,5581822,5676484,5748601,5761515,6403296,6596067,6636597,6656285,6747542,7086396,7090320,7093571,7208767,7414537,7540829,7834779,7896547,8322872,8783837,8811059,9006225,9234001,9466964,9663685,9776205,9788296,9904042,10606409,10663967,10843982,12067388,12358492,12736779,12776506,12856320,12915466,13088789,13319340,13369189,13388739,13685908,13873095,14113184,14189574,14225253,15345719,15583783,15721459,16010740,16021392,17085158,17530154,17674905,17702582,18656842,18855868,19286548,19439250,20090437,20092751,20367778,20436889,20600880,20627275,21057045,22008561,21082156,22773792,23373433,24131301,23581430,25121541,25886868,25975239,28208067,29292176,30571397,32223414,34363355,34592336,34957776,34964217,33479713,37801392,38122758,38185343,38425846,39396567,39913220,40037878,40622107,41470540,43167927,43570753,45973444,46916532,49440107,51374129,51771526,51875465,54126894,54288204,55142575,57052161,61939605,62429361,67235867,67624918,68166899,71535697,74957969,76576079,80259187,81007026,83170064,85450063,86592150,87531330,89345892,89626895,90979010,91460141,92808469,96586999,97115945,106111726,106212069,115203194,119660038,123577650,125507776,132580361,133172512,134708938,134748399,136041401,137351130,140208478,140433149,140553973,142560991,143476187,144203065,145065382,145208441,145598886,149099605,152239311,153108692,154047882,154321507,155317302,155688742,155962213,159140487,161238492,162170731,163004164,164010778,166518967,169466679,172326631,172749276,173843200,177909924,180649186,181846881,182144515,183950613,186312809,195854794,199589632,203770946,208475839,208529378,211455123,227163916,232342840,232400431,232779343,233129659,234854381,241209757,242903924,247632706,248021241,260835018,267444189,269765218,276942713,278320765,296753889,301305938,318650613,320045946,322726885,340111360,345407466,375954604,389232943,391651907,392223315,393947938,412971812,415397361,416674231,422860752,423531521,439925688,441993671,464859040,474732203,486225107,525235923,534853192,538658164]}
{"user_id":2582466,"collect_list(fan_id)":[17097,396681,561258,634469,1140711,1679707,1740401,2048242,2162295,2210303,2244678,2806264,3458394,3745689,4095776,4342769,5032572,5066408,5256514,5427379,5722765,5723733,6186561,6250483,6676667,10649260,10701257,11259828,11372271,13158828,19399596,20346966,21494302,24643995,25726007,25829580,34398778,37516902,44128683,44321759,49646600,51232585,57429975,58261522,66858097,71182575,79900309,100146441,117065952,132458544,137909506,144236573,144938594,145256549,150554884,153065408,156036556,156833707,180017738,190944760,192190827,219246451,273806285,280410006,288857891,341721615,350653301,543520145]}
{"user_id":6173398,"collect_list(fan_id)":[23225,23701,217216,363428,864188,1039619,1355799,2845337,4068532,5422242,6629209,6053413,6811312,8055545,9608204,14497872,16501190,20164691,20891390,24567101,29149932,58276378,106625603,127169074,143705339,161099414,162907464,268556178,282186367,298055576,368842573]}
{"user_id":14750356,"collect_list(fan_id)":[13982,109050,169136,323172,389417,500573,769419,812912,965602,1003254,1044779,1133683,1192358,1389484,1835402,2003079,2639038,2734279,2776109,2843266,3106466,3122587,3135033,3181441,3318969,3379715,3383904,3385722,3395980,3504735,3630759,3804217,4232130,4564089,5060614,5228378,5442502,6393256,6457993,6798419,6823911,6896974,8499608,8984582,9118146,11633968,13057497,13511267,13792256,13881908,15029857,17409574,20893298,23236179,23479779,23850987,28584695,29592895,29615528,29862640,36958713,37252216,37630216,38656333,39447905,43556815,54060805,56658916,57114037,64394869,64732344,67240742,74450887,80094413,83382627,96313334,99673202,99676515,100110008,107355228,109349942,116149372,120111605,129630095,131742666,132199959,134534936,135481652,142012678,145982824,152336176,152606282,156213754,158299425,161645169,172612717,185528166,193964089,198570278,198660945,201032767,203044078,207198692,236882133,274237517,277355716,288888251,295785420,304248348,306188180,329818731,339228547,345515959,378864539,390913900,413960739,428440502,439574744,440911676,481886596,509016798,518414912,520808366,526414939,532100412,555087977]}
{"user_id":17712875,"collect_list(fan_id)":[2166,58961,102991,126528,189035,223059,331785,383918,445912,453063,531409,430913,558055,584078,592241,728353,773878,870010,935709,1172439,1225981,1572862,1587855,1660003,1673707,1785652,3073719,3173358,3811522,4361743,4445806,4655134,5239138,5516153,5731492,5919273,6725070,7503037,8311136,8869542,9161382,9315302,12573931,14469234,14755136,16159903,15436127,18443789,18727468,19874820,24220322,26615236,29082785,33193457,36543577,36655474,37310772,48274377,50663913,50773405,51810672,74501388,76092035,80196471,82460453,82666192,88794901,90495698,92458759,99231268,101450824,117706626,132700088,135123031,137500175,138276109,141376623,149292760,153242387,155425044,159958964,164096413,164430265,166435627,167219462,171996123,175358188,182706527,190108665,198300258,204633895,210501763,212076029,217385268,221015636,225121033,237612306,239135258,254210325,254428348,256468545,260203850,261015234,263129993,269079606,271750754,272074675,272789250,278776270,295989763,303156982,312623268,315716919,319937182,321640340,340280649,344614979,353541340,372329253,380224160,381102588,386279331,400427950,414328628,419052206,434552917,435250511,439925688,441625894,450382266,453599250,462986876,463656481,467090378,468417383,469969815,472872950,485154615,493321378,496582275,505935705,506439532,518988741,522089629,529821146,540070611,540741495,541699444,543569850,565820119]}
{"user_id":27426778,"collect_list(fan_id)":[636,90675,325993,424601,1519981,3208290,3969025,4122798,4503200,10323652,10908086,13243977,14289956,17093180,18695556,20518534,21530514,21702745,22044466,29659892,30378226,31178709,31415222,32074904,34492813,35325357,35144251,39452460,40441675,45925996,46106465,48314368,49727140,50859997,51990823,52171060,53150574,58204254,66485493,71162391,72560208,73879989,78244096,79436219,84135913,90765097,91636516,94064847,94846853,95322812,98736941,99154218,100794463,103964332,105201159,109025380,115508914,115701555,126984169,134490058,136105320,138079693,138121604,141017608,142898737,144833278,147457724,148220519,150819579,152577400,156860444,164775381,180018751,185734328,189511330,194776485,205972872,206893151,212983167,218474818,222961354,224771543,225974704,238985901,256344679,265101565,271645860,289041235,296790658,322958962,342371287,355061225,355555244,366201677,366529919,370557426,422501938,458738004,467111027,469189923,470094898,481559389,489081821,525357872,546224117]}
{"user_id":96886165,"collect_list(fan_id)":[22637,23031,145422,234753,235475,263914,410488,770009,1922451,1995025,2197767,3424676,5800841,6735888,8887098,9374041,10773896,16146768,16374238,16738652,18021182,22213129,22579567,22244625,25693605,26686242,28397387,31916601,34380177,34567745,35476988,37756014,63702028,65821214,75514978,86797666,96341014,96605296,124088341,132674066,133252863,137362767,148158870,152838532,161847076,195805747,232530560,262146807,348170454,353653187,379049366,443938726]}
{"user_id":106247308,"collect_list(fan_id)":[10811,80263,58801,208241,237783,422984,628834,1342010,1646998,1723413,2022420,2582540,2807270,2824044,3111875,3156094,3823620,5583189,7017046,7395878,8047462,8967290,10237292,12819062,13749538,13976879,13977227,14850981,15699431,18583631,20393372,24118008,25020457,25167180,26091976,26353882,27389391,27575927,28653476,29209030,30326881,30388544,30413100,32782226,33576181,34668563,35087452,36276849,36723275,37645883,38038784,39584160,41584971,42697012,43658755,44247350,46561292,47608139,50092798,51461369,51534902,52379838,53081263,58200379,58989974,59822127,60233852,61609755,62284175,62412824,63453827,64052803,66300735,66736919,66809365,66934307,67062870,67227436,67774485,68011568,70108492,70243509,71238579,72548125,72710226,72932488,73404075,74624741,75484878,75543676,76013693,76160031,76445253,76971404,78741037,79700793,81067356,81870004,83946596,84267935,84738757,85430645,85529106,85590259,85683588,85817540,86212336,86224117,87322133,87604546,87750157,89251857,91203265,92055964,93066183,93431896,93719462,94297713,94810379,92615906,96979594,98130883,95530866,99490047,100816804,103185542,103616230,104522758,106610715,106648209,106758487,107405383,108206697,112309978,113158893,114141450,115517793,116042411,116084790,117785820,120424885,120494236,121163182,121579881,123839368,124626518,125005316,126791802,131239544,131310173,131588396,131725781,131790353,132201009,127804937,133711655,136584331,137369350,138614357,138751245,139528293,139758166,141839173,142403424,140718507,144247964,144618561,143060887,145234450,146368362,146652556,146974093,147370603,147830860,148069234,150480001,151128324,151165894,152663212,152876672,154201232,155317302,158451833,162048940,162543288,163722571,163817106,165162956,166684279,166935172,167435323,168629603,168801342,170995445,172812428,173274833,174923958,176479954,178843919,179205735,179418206,179739990,181202261,183941088,184198193,185821603,189176279,191651705,195857863,198183354,198292698,204690025,208494848,211237595,213175706,215942862,217581872,218940745,221794011,222277249,226427879,232458096,234945773,238552441,238682081,243891956,245490721,249846331,257056728,257671169,262373264,265621045,267160385,268816458,271078026,282106639,282787401,295774070,296469107,305489890,308126776,311552463,318172287,341283000,341352705,353056659,384501331,443216971,444287414,454877191,450969797,466028583,466301612,471997606,473733959,474118280,480885216,483199343,518437463,520371059,524079904,529028674,532321471,532333631,532393934,535391056,540228695,552687113]}
{"user_id":136449887,"collect_list(fan_id)":[40212,613713,746553,844860,1437905,1841959,1983152,9650668,16845415,20068704,22746749,26196334,27883138,27901687,31121392,32224206,31572632,37359116,42946289,51262863,61434865,70269716,78245611,101302306,113773552,151292310,164989014,168254325,221995429,249790626,255122156,267056945,360368797,371332399,411313704,415397361,427001928,538041597]}
{"user_id":839751,"collect_list(fan_id)":[66533,170550,201028,133453,470204,484428,521823,587196,631263,648794,736136,755560,895084,935130,1095642,1248022,1290012,1481232,1482046,1655647,1660112,1789704,1959686,2181918,2303093,2617672,2704043,2711693,3231805,4006524,4073621,4096488,4351295,4719402,4770191,5103764,5314228,5875968,5977536,7066889,8336956,8673352,9937778,10889495,13161569,13854188,16167531,16305583,19650415,21425939,23954098,24160620,24879110,26522492,26903771,34046726,34183037,41867889,44659646,56084863,56924383,71878248,75612871,97206330,109393668,141227677,156890986,158699840,166699862,173319061,178698234,188155810,190216870,197577692,200995762,210682525,215415833,222874866,233309238,239032749,246003871,250754701,292174950,294138253,295547498,310699150,353075854,378272450,422830055,427612968,456220206,503435435]}
{"user_id":33374011,"collect_list(fan_id)":[113062,264357,393253,648151,690667,1037456,1093088,1346673,1438841,1555846,1583699,1632470,1748465,2123591,2405569,2544645,2574341,2616904,2685343,3551052,4388261,7586463,8709702,8806356,9180394,9405570,9632334,11193038,17574424,19942865,23509820,25272741,29137924,30430631,40422617,40621690,41224726,44109708,45176772,49846581,50563338,52606508,56434706,57366421,66513975,68173157,74440115,75275488,78948616,81646129,84016369,86596118,87893074,100623550,103853051,118176617,122636486,134926343,135394989,145103998,163021342,167210979,172489842,174572551,175325542,185287451,193913277,193967084,210995911,221143847,242379510,243172170,276040731,286629933,291730238,301612478,350482375,366098487,382988926,385449738,413269883,418774955,424537870,437591639,433791721,438973158,440905205,443811891,444234984,445023047,461660985,472427968,487923939,492706409,518637138,538632318,542399982]}
{"user_id":41059486,"collect_list(fan_id)":[92450,3307719,4295665,5745749,12254991,15874361,18686913,19243151,19419030,19699145,25092259,33785936,36136614,40336300,40695630,42150138,45006275,49451072,63736533,66597067,66656001,67050872,73286231,77019568,79132831,82597426,84833910,85320370,87988911,90380556,95011601,95106968,97650961,98233303,103540949,105111686,105558605,113770400,132080112,133898702,138266365,139663099,139820823,138939330,143598404,150655600,151391690,153535496,154584822,155307041,156973614,159279627,160967661,168391757,170989846,180764283,178234074,181791948,183636228,183962926,185420057,196352043,198947927,201220997,208779338,209564453,220004067,228140068,246510110,252736605,252830812,299823591,300911688,324653264,327902236,329317807,343209565,345413773,351357563,357015202,535882423,546886272,549555075]}
{"user_id":48385997,"collect_list(fan_id)":[104242,624041,1326515,1195835,1515877,2141528,2789859,2854613,2867570,3418177,3433496,3507001,3967613,4060267,4378427,4902390,5158418,6197670,6364922,6828026,7523667,8286219,8569057,9104130,9112761,9204379,10143407,10507906,10674393,11005725,12960742,14074074,17302747,17315809,18293439,20541383,21889868,22124289,22302315,22491121,25448613,26889813,27805130,26748290,28533793,29377749,32988706,36732368,37456495,39512110,40530913,40815901,41099225,42159995,48554705,48823178,51326550,52423936,55103164,64485329,69477884,69607919,72356490,78089123,79519003,80468973,83886336,88575832,94938694,96490986,100927716,102598562,104257878,104520669,107730592,108167981,108894448,111198196,112578232,116902824,117406111,121714901,125594835,132560109,135271565,139068983,143025779,147626369,149066629,152439512,155418309,160105483,164477031,165158118,167194274,169879622,171804378,172849557,175294279,176643680,178033406,179396254,179553652,181275405,185125685,185134846,192811383,194241136,194365848,194872875,196851753,199995257,200424910,206453045,213175066,225975916,227714603,228872925,230600635,231327929,236358459,239797987,240521652,240853055,251675793,258895788,271666227,272915617,274956357,279067724,280934341,288927693,290088238,290893877,291066418,291974813,293736255,301547313,301658803,304048178,306429134,312933897,313288033,319693408,319861827,320849476,321419391,329296550,330848732,345226551,350142291,365119639,367353121,370423528,373923624,377510833,380954261,381110664,392190745,394443116,419430833,420018712,418280329,425367279,429809747,433925598,435256050,438043155,440424404,442108491,443369658,447088760,452344522,453149558,459609420,463455172,476045084,483275377,487924413,489236247,490862803,492988648,494412318,495753828,496571777,497681621,498192067,498438657,500903428,507141610,509154189,509201603,514560605,515524620,526755469,527592579,528088390,528613134,529369281,531669002,532071839,532177307,532641887,533076149,533297072,534275372,534566397,534681645,535679536,537262555,537322320,537666578,539384615,539598968,543087896,543356003,543793468,544810556,545937066,546320811,546756767,549098592,549644802,550194083,550339119,550517783,550938086,552071962,549974290,553237194,554149300,554152383,555671165,556868044,557089688,557837191,558297841,559801820,560385873,561638912,562084095,563361731,565462184,565597262,566447445]}
{"user_id":366406819,"collect_list(fan_id)":[124113,254806,338174,353506,391288,502900,599233,849510,916868,968357,1088687,1317264,1195028,1576546,1662805,1711007,1888271,1962652,2036253,2138483,2139888,2145648,2194977,2313403,2319529,2378448,2395326,2403299,2470781,2517906,2637040,2860283,2938515,2950709,2987128,3105336,3127864,3132530,3152676,3183640,3188777,3204907,3314144,3328967,3429960,3487305,3551392,3712652,3754402,3787486,3831321,3838433,4026638,4139350,4178961,4355628,4447615,4450759,4657693,4785748,4802212,4802401,4817323,4383414,4890447,4903524,5061157,5160017,5192165,5204770,5260542,5432362,5438199,4841086,5564173,5596777,5712045,5969541,6006250,6013176,6207755,6210204,6324079,6353840,6448783,6736432,6869624,6926151,7064147,7231311,7330817,6671509,7775576,7903630,7917476,8117985,8214140,8417497,8455418,8543600,8706269,8960204,8985866,9155668,9313198,9457820,9931089,9942098,10399719,10455367,10828524,11012452,11283939,11310299,11319160,11573834,11621456,11699719,11755227,11828801,11941560,11941992,11969845,12075900,12163427,12251723,12308395,12352445,12679525,12709727,12719957,12850913,12865671,12893518,12924056,13059861,13146298,12320834,13311291,13620615,13631780,13960634,14018647,14104459,14356721,14378222,14713787,15376703,15382058,15719180,15763319,15871856,16491616,16871396,17131602,17247765,17334003,17787587,17963165,18058773,18417140,18529632,18589932,18686718,18742643,19100751,19382048,19506958,19512587,19743073,20054479,20056736,20526360,20859740,19830214,19838278,21325105,21549709,21817256,22234048,22856725,23606586,23737045,23805340,24670957,25068250,25432138,25526184,26004844,26234614,27289627,27290835,27561032,26748974,28930528,29078058,29278681,29318941,30557967,31048217,31377323,31393622,31633874,31656540,32884638,32888687,34293196,34449362,34671398,35873082,37250249,39449556,40136312,40261324,40457251,40752343,40761560,40781865,41255345,41333429,41406221,43591589,43686095,44911689,46172796,46812537,46839787,47891736,47896805,48292537,49038934,49491518,49574561,49666930,50167985,51153023,51554136,52189597,52464215,52498492,52696261,53543836,54347013,54741239,54900831,55072902,53577748,55701495,56059674,56621960,57578988,58286813,58859226,58975177,59179539,59805801,60368413,61470210,61663110,61664695,63299741,63374280,63612415,63887975,64723821,65015943,65329470,65644927,66161172,66285763,66555852,66731906,67587925,68158087,69360060,69456266,69979244,70038765,70598767,71246822,72008688,72291780,72307058,73388721,74206073,78784584,79793667,80569106,80694926,82263945,82855818,83682435,84105935,84165000,81166298,81204560,84971761,85949852,86883671,86962263,88635351,90475392,91982129,93592744,95279261,92654513,97263142,97284028,97479539,97813694,98476959,99091560,101615435,104806667,105422771,105945024,106282729,106335837,106449880,106477057,110120240,111556252,112035795,114174197,115254375,116631846,121805734,118634707,123175920,123550469,125743037,132118489,133452715,134744290,136313448,136511655,136763826,138023555,137456967,139529800,139921572,138949827,140989391,143043710,143273973,143836286,144380029,144522044,144744845,144762180,145559341,146048518,146049399,146587827,146867649,147135920,150848089,150917453,152150596,152782106,154899476,155480604,155838464,155927426,156532939,157497061,161798598,162287122,162434834,164964769,163408175,166010482,166744938,166801115,167125777,167670444,168079661,168331894,168931570,170715669,170898464,172801115,172906915,173070056,174693028,175497597,175873513,178279140,179017819,179819708,180444343,180737536,181846119,182124091,182444606,180911707,184429056,185378769,183540430,187011859,187037612,187243888,187329286,187527441,187849802,188080066,186059303,190609014,191605092,193869437,195177794,192484841,198586953,198824199,199267247,199344654,199960627,202513236,202608826,204499950,204601783,205837587,208496833,208541670,209080387,209306690,210698057,222621199,223017686,223073991,224712416,224978420,225862032,226706583,228028096,228954821,230506693,232015809,232033684,232086433,229788750,233366182,233264886,233278695,237242820,241067186,241944041,244021125,245479708,245515480,249657889,249848617,250251197,251652334,253879171,256920683,257967745,258370895,259980340,260445353,267665026,267859320,270646612,270814205,270976758,272452704,273755546,278336868,278339746,278874999,279205855,281308229,284015277,287854104,287990883,292867693,297361850,297380649,298930977,299356605,303432559,305830901,307796106,310573061,312459619,314782703,314985515,317726289,320482888,322805881,323005548,324101432,327178204,331265144,333539346,333901918,333902714,334003379,335504835,335561571,339070590,340110891,346008885,346184465,348069155,348356631,351348841,352296662,354304703,352793993,360449402,360651142,368202561,368844874,370593332,372356506,372759897,372940811,373029975,374025516,379835807,381989068,385237749,391047501,391523533,391862302,392910444,399434171,400758357,397339322,404493122,406164202,406456202,406737697,407688641,409915387,415288093,415458545,417723376,420775756,420906285,424834057,429648215,430899517,434597734,435495488,435717236,441759580,443932819,444890284,444905379,446804136,449147314,450726010,452816621,452842103,453712782,455792952,462128469,464919602,465919574,468571595,471033508,471056563,480367584,481169267,483010878,484947777,485634190,481950448,486202108,490915733,496218745,496921711,497690284,498733269,502494625,501429292,506926459,508038144,508103849,509956383,516148814,516773580,516816271,517776958,522508627,524749349,525079327,526556340,533888186,534203542,535324924,535892195,536434948,537400242,538262797,546022733,546251233,546383455,546702997,547217470,555077742,561457663]}
{"user_id":67903,"collect_list(fan_id)":[245506,188132277]}
{"user_id":432301148,"collect_list(fan_id)":[216355,3746492,7932343,8886614,9694786,24044209,33870239,36925581,49067661,59116069,59963137,67438279,85554766,131654739,134800627,135276571,144179959,225416947,239828900,243395381,318065846,356422697,406373233]}
{"user_id":20031893,"collect_list(fan_id)":[422803,2013868,3331900,5047869,5284713,5554737,5609774,7033094,7332316,7424754,10833325,12065191,12972715,14047712,18400462,18503092,20305711,21038312,22136710,24917746,25615929,26805857,27158824,27269786,28742682,30535618,30876879,31492198,31952917,32209706,32758702,33872029,35608652,36815473,36831691,41914533,44702984,46457119,50019744,50108541,51186866,60762737,69042429,71261757,87211265,88958853,91587791,97396121,107911506,111553201,129440666,135595233,139831736,143459666,143626638,145546342,151108347,154305465,173106258,177272750,182860230,203290608,229709293,264441982,278979663,280363553,280498891,299131147,367638552,389657505,419167161,440822184,451923145,473009672,476901740,511620209,552687113]}
{"user_id":2994070,"collect_list(fan_id)":[538861,1713736,1719381,2432405,2582956,2612881,3327682,6343016,7049452,8786510,10768624,15314898,16889134,17040479,19455382,24357405,32473932,34581063,45634115,45742480,50414249,76626038,83875529,84968170,128888857,153326820,160812480,183498550,189720927,192875945,197356673,233940434,255438222,255603233,275543916,294155199,298983476,332838338,352933620,380712772,383115813,384578771,392881753,393720457,429786847,492110454,508933681,518026942,529127028,532734375,539625101,551658488,551659682]}
{"user_id":56925828,"collect_list(fan_id)":[534711,1173036,1389648,1632046,13861591,26888600,33999790,40043259,42153950,45221624,52451595,57584712,59984327,62941827,67941999,69307404,75353751,75871511,78975132,83916721,98550119,98643467,99378626,120006262,132047828,134359446,138295412,147891804,147967211,153098359,153762570,160217531,170164604,172530493,175906819,176273617,177298145,181838341,184474528,185184461,188516964,194879752,199486042,205781976,208056827,216639201,220631781,220933318,221559829,227542370,231334851,239961754,250211651,255643733,268226619,268880393,269074227,287402002,297409153,300304200,300743452,307894025,318980236,319305640,345502479,347828078,361290310,373469083,413858832,416461170,427530197,428393700,450940817,463796425,466659245,466916782,511250486,518720853,532280206,542064046,550265648]}
{"user_id":134439398,"collect_list(fan_id)":[500198,695740,796220,3751844,5303358,7171675,10432277,11714128,14322419,18289806,19666190,28529872,53641736,61687820,67050255,82571326,85668213,98794086,115506100,131559280,139940963,154640822,170682697,214438067,321023623,362189607,391224795,445815827]}
{"user_id":250438092,"collect_list(fan_id)":[563320,2747262,5656920,6070125,10344619,12463384,13405029,14679706,20257295,25628181,28538193,42223569,75602052,80850878,87689638,99535874,106659702,134650199,145129501,150550122,162078533,163624951,163718625,169060860,173040207,173774608,175934238,181433712,184475483,193425540,194700884,197100713,195321481,199736909,200398915,201184524,203643053,205460557,205903471,215286326,226222513,233217410,244376082,247887109,248769694,249418817,250801612,260207660,261926579,262200862,263749841,271298700,276070520,280265399,290136053,292100543,292131199,293548082,297265331,297832622,299356004,304732918,306830084,310461256,315118414,320358717,321832599,325803195,328576362,329994605,333951151,336132930,339369358,340688450,340923414,346030693,346743452,364232226,367500542,376272130,376880826,378543059,383385767,387153716,389688733,391252568,403031898,406255478,411776743,433720195,433842772,444915646,447373049,447511364,454631925,454808690,455578976,464639735,467228571,471403268,477078203,480431180,480553659,482182875,484185567,491656368,503230350,505189512,510516270,519254162,519564564,527222754,535211908,539458991,547083774,559344471]}
{"user_id":17755664,"collect_list(fan_id)":[680165,2179447,2974150,3431451,3518867,3971211,4027339,4635634,4859531,5161473,5613020,5837456,6689258,6776411,8128512,8354031,8510982,8704326,8861691,9665106,11340834,11353435,12200384,12725555,14748272,16102083,16612239,17729020,18357327,18912987,19723963,20858960,22346852,25856317,25892097,28750622,29306173,30322484,30427327,31019993,32783912,39810604,39947192,40872594,41895065,42629175,45464100,46728537,49379618,49779600,53214122,53224750,57036103,60368857,61563868,62270418,60404309,67446774,75320273,77956186,83843473,85521192,86094915,92463985,93570439,101183102,109929577,112844870,120992138,122244597,135497058,137284227,137633246,137993108,138784800,141804831,153712076,155505911,157650177,165714496,178115987,184803644,189669580,190835348,191514619,191972423,193087179,212723661,230521397,238896293,248722985,255463153,258967325,270357516,274437103,288408126,297300018,311553264,318011452,318787756,319672128,316697912,327618083,328081762,331256801,343199542,357014549,358364970,360254092,373972239,375529877,381294872,382671246,386131008,386787452,398263712,398461709,411885730,425649308,435567930,436179754,438221657,445590284,446064533,452261060,455712213,484884924,488274187,490073554,491802147,491810343,493590562,495195905,495411903,495967947,496837541,501229041,504691310,507617566,508279673,508420639,508654928,520212936,520480302,522090441,528899429,537169416,539274636,539723069,552658421,561072976]}
{"user_id":146625168,"collect_list(fan_id)":[802255,1177791,1996596,2022798,4418900,6225130,6938468,14832143,18920290,40636884,42193128,48021401,50608159,64623970,66739295,67465410,75438337,76209604,86612177,107415367,107571838,122106389,125686707,135413575,143270417,143586169,143969358,147169779,147344400,147436601,151208253,152521728,154367594,156376958,157193612,166618883,168574981,172058031,172937669,174238616,175831656,179746312,180325151,180826350,182828441,182984367,183894259,189505004,189702283,190796391,194697205,205442512,212061389,212708993,215994320,248625791,250502314,254440332,263363921,263940850,265204333,269358383,270777764,280535745,291977278,295327585,298432651,313716864,319755538,327500664,327574088,327934256,347160143,366709279,373452952,382648672,389687365,408944694,420043789,426609939,435970550,447835550,460201930,465843151,477287246,485360003,514702409,545904139,553799084,555418364]}
{"user_id":174895259,"collect_list(fan_id)":[680756,63277178,176861294,353373485,423641210,426540543,462929303,487820666,514056861,518046269,521605780,529771245]}
{"user_id":197575924,"collect_list(fan_id)":[758349,3067885,7742926,20158417,29755067,32605090,39725824,55473197,56227415,59996897,64097389,66821076,75952271,83350326,83482534,91151999,99722331,105342342,107691464,119341095,139487880,144213019,149250711,151638525,152935841,153260299,156480099,159694427,159789374,163711104,165116636,170626164,172889257,174172203,177109005,179589120,181660513,182812373,183025172,184206262,193757732,194659642,195491692,195693291,199263195,198258655,201879689,206653287,212895172,213166474,216172723,217210633,222113885,222587754,224299496,233394731,233776832,238832557,240254854,242348004,246779251,250954254,257094960,266939073,267738317,268293894,269763411,281734892,284207024,304321219,305361971,310540089,323201631,332362588,333768847,334911906,340690469,347072674,351278167,355014371,360953887,370119652,388630599,403896876,417216985,423742266,462306071,476510708,515199024,519112588,523946496,527395516,531191421]}
{"user_id":11643957,"collect_list(fan_id)":[829520,1103415,1569378,1909420,2618914,2656309,2827464,3153619,3514538,3985240,5377374,5439379,5499825,5641280,6003259,6259739,6748497,6941915,7405536,8272193,11755952,12768109,13306354,13863352,14856365,14973568,16180156,17665561,18290782,19757395,25712436,32235806,32598821,33557051,36447629,39470966,49547983,50557300,52596606,55580229,58698948,62205212,62884991,68125658,71231486,81759508,81835110,88721002,93799088,95329905,102743554,121790124,126554368,138287697,143522660,154585755,155478989,163715969,172658095,174771226,199258360,199281342,205603583,224257487,256608312,270130609,331263201,367810320,385785334,408810585,418010049,439198824,461100885,470766546,471207386,475968886,504594693,507834350,514380829,517855270,535085187,540306506]}
{"user_id":23055567,"collect_list(fan_id)":[1121441,3240131,5768648,15273458,18657087,21567246,24009411,26218777,38212611,38582605,38726384,52819619,58902557,63449544,67621598,74074135,97841474,102280507,105510193,107841716,108002168,127092728,136133588,136429081,139772734,147116589,147488736,150884636,155952688,182547038,189911714,197351588,206133227,212611822,219151035,222143140,222679040,236845643,238270603,246066243,248698481,279219753,281287933,292994899,305993887,309142966,350363895,383568544,415395518,432065863,442469275,476999171,513359394,517257288]}
{"user_id":364994243,"collect_list(fan_id)":[1277113,2112779,2927370,6664148,10656479,13960650,14084540,14953241,15742163,18483475,26339723,27158447,28356451,30481827,34106015,34695913,39685404,40360328,53251370,55465831,59104521,60542605,68369164,70894250,71005972,78920215,85563143,92573478,96390653,107708748,110896776,114238541,122138641,124908166,122749570,136244897,139249348,139397589,141137832,141652378,142991458,144078322,153488949,170651962,172405273,176051006,183695387,184813745,186128156,186665667,206903333,215582573,227396443,249683824,250510710,264270363,267219675,268979207,275186982,280147346,306055257,312261022,316869197,325879750,332433912,346951844,354198651,356832957,360476626,368386872,382012727,388788587,392775042,393317747,415387462,415392876,415395518,415398425,415401389,417670815,419988843,423616723,424519612,434229136,439472085,454694482,460263298,461297742,462687611,465149559,467414104,467778231,476987030,483426077,484004358,489339305,495691275,498103558,501981965,502080302,502262019,503387217,504628353,504830944,505484565,509646270,512402333,518671217,524395475,524775429,526652700,527635941,527782894,528926911,531288341,533736974,533853722,534003259,534783830,535222720,535390949,535572327,535617676,536181469,536304962,536321750,536855329,537023654,538042985,540497367,541868179,542319925,543259811,541093326,543897339,544025082,545051466,546211667,546525341,547758508,550016515,552045735,552579111,553320461,554727020,555195573,552788052,556350150,558222436,559534189,560617088,560996749,561655573,562096899,563576942]}
{"user_id":14654573,"collect_list(fan_id)":[2080657,6042386,7768515,13270767,14722448,17545592,18896544,21701806,29176941,36207632,37029057,38522829,39586359,43919144,44070666,51836964,56684842,59071271,80425463,135921414,137365210,141311147,156901077,172100878,220845213,246232518,247252555,278001119,318518701,553582123]}
{"user_id":71427292,"collect_list(fan_id)":[2401259,30296737,33793975,38087740,51222738,69504351,105580884,147860237,155769291,175551679,232112783,249828457,328163558,329611836,400903861,433378787,434167199,452146971,458669955,459331426,467092907,483207845,495302929,544138380,548857626,553110678]}
{"user_id":297947566,"collect_list(fan_id)":[2369389,2886236,3078110,3540983,4353441,4402484,21917412,22607693,43242078,46759173,50099230,55003421,82861969,91612789,93501575,95764377,125433276,138486555,138724649,142350432,145180651,147065290,147922835,149199795,149950050,156213180,164266331,168616965,171283913,176801104,178507279,191322921,199555679,208199748,212874725,215826055,216999328,222107738,223409480,226378275,236311879,247906946,248547880,249785396,254431373,262332889,280919752,297942943,301804138,301858436,308754466,311059094,316622698,372990926,373220649,380803179,426179976,438447259,448055165,462834962,521107806,525861957,528064492,529848793,538378966,561041176]}
{"user_id":83322101,"collect_list(fan_id)":[2844132,5024006,5349892,8176310,10476203,11243134,11782547,15406489,19587722,36855664,40294267,41383936,42249502,57196402,59684958,60283722,67909933,68542699,71074371,77871200,85797146,85869073,89721289,95241566,97411242,101430783,112433510,115047959,131868593,142215919,144374748,146696539,148899951,154941135,155941772,157903942,158783431,158614030,165644488,169543958,173025585,185820309,204712801,209639012,213747777,221873468,232109926,234692576,241072863,242414067,270933307,294347153,310847038,312713949,314071346,328988145,330173226,339867427,352203668,363711778,371193069,392614116,419543954,472304971,473573893,493114176,509098978,557588447,560977387]}
{"user_id":82507125,"collect_list(fan_id)":[3332702,37426616,38969758,41510562,44872255,44872705,49288957,49635588,55886407,68764623,90196998,96527776,100923140,102483121,109546389,140516285,141751719,143602923,152695172,155317302,165213820,167272318,173312845,209366145,217923448,237946000,293451660,306895737,340858948,369350590,402053615,431594817,487091577,548486788,548677589]}
{"user_id":147217813,"collect_list(fan_id)":[3436482,7910112,9851218,14519692,23095205,30389627,51088501,62879312,76060592,78974143,100422022,104976647,107752244,120360779,135195318,144582559,151132545,159423202,160113082,166970719,174640437,230906267,242865567,295091103,307457676,313942774,328809061,382681365,425510328,426833628,538878741]}
{"user_id":7855633,"collect_list(fan_id)":[3741285,38188189,391185639,505102431]}
{"user_id":98455774,"collect_list(fan_id)":[3927788,4734289,5504447,7288533,9232961,17881549,18773007,22052174,31449304,32490517,34431841,36107180,38625660,44644266,52969309,53203559,53741602,54383706,57617644,62976865,64667559,77628995,95733070,97665880,97849365,98682122,99526412,101115176,105384532,109571024,110652334,116743327,118020750,119011866,124786489,128567898,132852146,138250461,137450852,139686373,141241233,145404694,147079672,149080753,157835909,158158067,162462493,162926083,171515592,174232688,174428664,183211752,184195690,188282519,191812885,205627566,216480583,220666514,217945352,228699038,249569682,263005575,299372621,338435274,357120588,366979723,373041518,419062331,440636208,463817318,498276147,499529171,517794596,533235677,547210063]}
{"user_id":396534564,"collect_list(fan_id)":[5399786,35893587,58970054,59642923,64267223,74482333,88292874,103660924,132220476,132966846,136318379,139097884,146561872,183911792,186058038,206868573,235071963,285438517,314634932,391017983,394138011,395409890,397476278,444287414,456705685,473753746,488072366,524353200,554270957]}
{"user_id":282305464,"collect_list(fan_id)":[5705172,35611609,49592847,51622277,55207347,76773859,98436074,100530979,142693578,174336310,176819324,178688431,180062188,194179095,218510176,221210449,222099252,231301372,234294625,235681767,240928032,241370055,245371260,272381442,328674695,348858176,388971937,415359802,420631413,458311364,460495627,470453269,491327841,507052178,510037918,510606200,516071134,526548938,533751053,538037451,539835340,539976615,540615016,545402358]}
{"user_id":45248695,"collect_list(fan_id)":[6248921,19678647,20326432,22817097,23255140,25248209,26254928,29640677,30091415,32523763,43025838,43363533,45056069,50697982,51794636,57264926,64175031,64387919,67964548,71814867,95962617,100130345,108570734,111561337,112311844,114693312,116349678,113686378,121091043,121351787,124460072,130776220,136223267,138073502,139846805,143168734,143207560,143581544,146330998,147385718,148247602,149430728,152126208,154094505,157678719,158403515,164088193,174757623,181329558,189008944,194546003,200351456,201840460,209479912,209818039,211336477,215594562,216317032,219586758,224186663,230160787,247292497,266856514,282864241,290569016,291707719,297095167,308447933,309170783,347403619,371014095,400816824,425302721,434516107,440231829,447863450,448333242,450027294,454974726,461059328,469708662,473959397,483256029,483771328,484806178,486075132,486953720,516153819,525476756,529697711,535765044,536434808,537385146,536550232,539242597,542093482,544435542,550743208,560609713,562480846,564790813]}
{"user_id":64569234,"collect_list(fan_id)":[7980794,10374096,11441185,16394542,17345384,17790978,18698299,18896018,22352868,24779557,26527206,28004500,29813431,30040370,31444277,33108745,35373996,37297659,38551157,38764097,39040621,41713569,43039802,47357009,48227480,51158292,52194490,53246165,54214672,56731457,57505857,59136716,59146469,59270551,61689963,63175914,63559326,64706648,66275932,66796997,71369798,74632995,74995882,75483421,77939632,78640563,80296730,94805428,95382051,96374730,96992839,97210483,100677528,101465196,104875143,107215924,112813263,113199573,132564545,132565616,133465993,138169454,141290478,142057870,171594935,174569003,193423883,201431706,206995000,222337953,226571829,236033952,238244699,254350705,277968567,279665976,280320172,285128003,299761434,313578003,338600263,350950850,362776451,450719000,506586118,523717486,529244388,532295106,547218430,552687113,552758801]}
{"user_id":129030342,"collect_list(fan_id)":[19802855,22592765,30150166,41245581,71960101,138400250,143180112,143883047,147133094,147939041,201679410,258016007,270000220,329914921,404798567]}
{"user_id":121823511,"collect_list(fan_id)":[22151116,37852173,48787468,55747558,61426974,63518714,85457300,87875938,89900756,95668205,99186798,102239994,104441804,110961958,115013342,120405358,131613863,132402253,133572973,134976611,134146307,136675105,137078108,137630796,138692321,138751487,138854582,139836665,139852837,144125105,144991852,145353530,146246997,147497744,151359506,153373952,155234615,155845145,155948352,156387801,156548199,156629946,156789056,160881087,165014633,167677012,168263451,168600906,170508176,170583794,172434109,172930213,176038457,180034096,178219501,182352104,183093633,186932318,187625847,190938941,191227957,191932820,191941380,193147002,193436422,196037807,197283903,197543525,198953710,199817076,199861890,204445834,201303353,207338829,210877629,219904181,224039279,229831232,235431997,238096908,239450096,247614573,263301429,263526515,264386596,264960060,269339398,269826577,275727443,277777071,286262730,298104600,318359714,324250821,325239601,329444561,383807383,437221217,442231429,450426828,454426787,475625891,482008991,492930531,495016360,501680254,538829119]}
{"user_id":275773467,"collect_list(fan_id)":[21225450,25455984,29509328,52873594,60631413,63640991,70252838,72488358,72836048,83394476,86489015,87254523,89254069,92386725,93721960,102285331,109354630,116511394,131652452,139757145,150814802,151028269,158980292,161758519,168682602,178603378,179569335,196959941,216876186,221330160,222519147,222944259,232709235,234284553,244855106,257886080,286891283,323250103,327424327,330833305,334458993,411650760,428616418,445378437]}
{"user_id":158511822,"collect_list(fan_id)":[22946670,43333185,45707802,46553072,54386993,56635150,59348371,79205718,96138222,111185094,126893248,129626760,130848799,132296735,133264705,135461285,136265985,136436929,137830841,138654211,139408894,146276665,146874797,153142575,158127542,158214265,160484744,161424939,165479218,166192507,166952766,171384856,172979057,174679258,175152939,177131688,179785564,181926334,186151248,195212786,196379363,199436428,200733290,215763103,218189126,224509523,228921436,250393679,254093562,258553298,265183333,279056358,289184315,290074075,312591998,314383753,318598179,319930168,325693086,350532867,351099018,355317420,356546464,362480277,372190876,375780307,402535861,409669458,435207304,448803403,465673259,504309674,512166551,526298989,532273897,539546139,541793947,560067229]}
{"user_id":543736770,"collect_list(fan_id)":[38086951,38598398,48559538,59224302,68859733,76127044,76787969,78585073,80397395,94170587,94793544,92615906,120806767,123957827,151546896,164200867,174912376,178466146,214890340,219516050,231089771,245490721,255032072,329051631,347759480,351879924,354537566,356692647,366769452,382705293,387201836,520143065,535605018,543532929,553548543,566395461]}
{"user_id":307908846,"collect_list(fan_id)":[44428868,251391274,278574875,340831837,357706712,484447492,526581706,562260063]}
{"user_id":278152747,"collect_list(fan_id)":[106334681,225943089]}
{"user_id":169940804,"collect_list(fan_id)":[135812712,165207345,172237432,243837183,249144898,320623941,335758208,361202730]}
{"user_id":471916,"collect_list(fan_id)":[187874915,348592561]}
{"user_id":371889403,"collect_list(fan_id)":[186678247,194735200,415392876,524657798]}
{"user_id":74355872,"collect_list(fan_id)":[224299496,282023585]}
{"user_id":458154152,"collect_list(fan_id)":[225098182,406472371,470695905,477564478,493962926,496234788,508532623]}
{"user_id":180469011,"collect_list(fan_id)":[259781148]}
{"user_id":211128084,"collect_list(fan_id)":[342240133]}
{"user_id":389156381,"collect_list(fan_id)":[340882761,372454091,415387462,415390316,415391250,415393851,417283578,477501345,477554958,515934548]}
{"user_id":99615,"collect_list(fan_id)":[347840125]}
{"user_id":179038072,"collect_list(fan_id)":[390109441,446429274,547762269,552395312]}
{"user_id":349486738,"collect_list(fan_id)":[529256328]}
{"user_id":550773166,"collect_list(fan_id)":[552084807]}
