{"user_id":411178,"collect_list(fan_id)":[14696,102991,162446,188021,207817,239475,289079,364025,417456,434106,493313,606046,648794,652167,542784,727795,728316,743787,858597,859018,861832,908071,958415,1143215,1572862,1763532,2124771,2377007,2377352,2503520,2631933,2705950,2780105,2870920,3011123,3069117,3179338,3583213,3591097,3681317,3735091,4156648,4689112,4725474,5057432,5490367,7730668,8363479,9767609,10311266,10896988,10931561,11254483,11955273,12286650,13586604,14331444,14503825,15822345,16517326,16616409,16666429,16843889,17136639,17966432,18250628,18343784,18533293,18738781,18858629,19149691,19177161,19441899,21211328,21350718,22571559,25374105,25678821,26494432,30147369,31761976,33283206,34324705,36007831,38707314,38879220,42403657,46084632,50593647,53028905,53039632,55207707,60859486,61222323,61923564,62114219,65855866,67121427,67975130,73750329,80763066,85017966,86509858,88555450,90720882,90802061,93027854,94077109,100153697,103214055,103811582,121221263,122990809,124449029,124927627,126043828,131563102,134756559,136500594,137383780,137489307,139610530,146885766,147532443,153713801,152103698,160268057,161301605,162823274,162907316,172474349,174213468,175602675,176465736,177206847,193290083,194415544,204319404,213608267,220475566,221165900,227689636,235068006,238025364,238260559,243554503,250723968,251601195,254647738,252251043,264772640,272068450,276797199,277455443,283687342,286627176,290422404,290647663,291317955,303622610,308091274,309633863,323536488,325964484,335764111,342070424,342844240,354865509,355603374,375887709,380044333,381074050,381088753,384458452,402307648,405097053,406779025,415738261,423442926,426509719,427405403,429738414,431695038,439466905,440520951,441571407,466278779,478063511,483526854,486320535,486707280,489140701,489157367,495820196,499382962,506760588,510602145,511146799,523074826,529518505,530286939,540570805,545023529,547096905,548675696,550577355,551445757,551955521,552272450,553135989,557581617]}
{"user_id":605160,"collect_list(fan_id)":[1930,21321,60304,573619,1013952,1094198,1129394,1243648,1244369,1694409,1743240,1890496,2094032,2253786,3024242,3114138,3518296,5580602,11611036,15415792,27999212,49383856,58249290,82269333,94888944,141017438,164638803,179951033,187131133,248895309,274310731,297851783,317600912,334866455,367354739,383798793,403606528,449379717,488885249,523924117,526780056,526849570,533258772,547108149]}
{"user_id":2260709,"collect_list(fan_id)":[1181,19839,23644,25329,35135,39133,39748,42082,49140,50805,54805,60021,60165,63225,64950,66237,70845,85783,96834,100563,104028,105042,107186,108963,139465,166389,191120,207817,216967,232334,245861,261099,291841,316014,215448,346454,361885,382442,396500,402164,407844,413806,422440,429116,450929,474888,479987,483024,487576,488599,494262,500273,518445,556474,564961,582219,589873,622054,625673,628714,642855,652589,697477,793897,840367,887812,912086,965681,966388,976058,1014934,1072520,1086715,1123909,1155932,1160891,1172771,1222212,1242997,1266742,1416863,1495524,1526900,1536659,1616995,1654591,1753818,1794480,1797418,1833099,1889237,2060904,2151388,2207662,2267086,2327328,2393318,2424628,2636009,2660668,2857726,2984449,3050874,3053057,3063672,3176846,3258242,3321247,3425461,3515488,3550953,3581947,3602246,3694560,3696950,3733596,3734085,3844887,4256761,4413712,4567599,4662439,4684671,4719524,4726718,4376856,4854083,5068221,5355169,5553117,5803539,5856226,5900374,6067878,6477392,6692844,7088653,7437033,7438619,7501673,7708756,7714497,7741441,7741740,8199238,8715142,9151931,9677273,9945870,12019473,12476986,12555670,13527097,14039408,14702043,15315121,15878163,16028662,15436127,16588293,16874820,16534000,17578831,18068275,18279461,17542074,18709043,19138639,21434841,22919559,23077730,23397316,23486736,24069929,24122050,24581391,27730497,29686382,32419871,33283615,33312672,34449541,36415806,38238455,41394615,41934901,42854681,44980959,46191064,47155697,47200772,47911295,49493895,50377160,50378434,51220280,52551574,55292469,55649641,57937305,60774316,64326130,71490888,78295066,87228480,94420441,96130818,98108892,102960410,108447954,118441295,125650116,131981427,132459524,140404298,150307817,152401539,159135346,160263027,161004008,161825639,163922747,164408624,164855968,163451508,168361666,174145151,175622471,176006770,176670563,181977361,182616967,184771368,186949367,206507282,207383344,207428497,209220654,222774587,223366129,224942429,224954590,226662308,233431210,241704286,245225939,252731448,254552743,255146541,262722142,260321079,265138297,265463128,267330108,277141381,277665120,285128003,296499162,301065519,336187503,354092140,354967486,357623843,383858137,401320661,401401750,418185255,418189143,435934900,442324831,466740886,469904917,472645127,477339591,484856066,495650077,509514978,511264483,522223624,534567016,535627976,539249446,543862276,550449357,554250993,559233260]}
{"user_id":10621985,"collect_list(fan_id)":[1332,182077,191754,336394,407844,722350,842698,948669,1056068,1365033,1547811,2122912,2264142,3556848,3588343,5220801,5463161,5523601,5901822,6332782,6390032,7396266,11029945,11198294,12462397,12468388,14536632,14577143,14719826,18812347,19788139,21890050,23305766,23533070,24837643,29666214,34637925,42104519,44220173,48233394,50985520,51837526,62393555,63029534,67307630,137525338,142877013,145422426,161823059,222420479,335321041,337957636]}
{"user_id":90646725,"collect_list(fan_id)":[1101,584237,1033884,1040520,1148227,1989615,2574606,10290515,10440980,15302869,15710627,16256586,16951448,18622426,21763956,28434303,40411412,41314902,56383692,91386376,115710481,139291361,140226842,177582096,184768052,198496310,276346734,301699122]}
{"user_id":243963,"collect_list(fan_id)":[90415,145119,157944,184843,186415,776601,778561,1324819,1401515,3647850,4669868,6158804,14265837,14405369,15202231,18533841,19515548,30498880,50134888,164521196,279078612,294311847,386869888,486031847,491923988,519224225,554815736]}
{"user_id":3238991,"collect_list(fan_id)":[88877,167674,250227,269160,326256,344068,386561,419009,433789,516132,524898,539624,548916,565414,566529,603001,699710,757410,856783,1167313,1215714,1260289,1376921,1397646,1414908,1598693,1843963,2101004,2351301,2585621,2685099,3316064,3698728,5389851,5566782,5875512,6652521,6726523,7432088,8541142,8668668,8770407,18087600,18649380,28037397,30049754,31917880,32994448,46134289,54556803,54626390,56055332,57839032,66778009,70016171,82682359,83185383,93192488,100190786,114438819,128610751,150678547,160418647,167431997,175861906,219039365,227775713,235407988,241086801,268117034,275084878,277498304,283289565,290491759,320730266,322940643,428985970,441873898,469645696,498344446,519376473]}
{"user_id":12847163,"collect_list(fan_id)":[119517,345641,351751,580456,972710,1131238,1155227,1198910,1663534,1706502,6191326,6503785,6626035,7297288,7543424,9291903,9664204,12372804,16121724,17255604,18321567,18563989,22736723,23930804,29373731,31372209,35645023,40248135,45924758,48908595,56351467,59370982,65537791,70307316,71694059,73009929,81152229,87851721,89390573,112954408,113123868,118249399,124211800,131669665,133877214,138019699,145124351,149115666,150259084,150492003,159994968,161636760,166851282,167023227,167622640,172393562,173058750,174839298,209370086,216092165,219413349,248870703,266753835,271189377,285607743,330363316,351572511,409337447,453683823,483231115,551826396]}
{"user_id":20170470,"collect_list(fan_id)":[96979,446861,496495,832818,855930,932609,971411,1520912,2316422,2831878,2988735,3777774,4161985,5281491,5685404,5765192,6131863,6284726,6740864,6944948,7360787,8675045,9732187,10274115,10290991,10566594,11263846,11332522,12328988,13539131,14188362,14685475,14727436,15338964,15934873,17239877,20560242,21702416,23029094,23186159,25053353,26938627,27948108,29656684,29721476,31220235,35206178,38073624,44070666,44339575,46799279,47482375,48434183,48581439,50194407,53790916,53831988,55659842,63480884,63983946,72348204,76236216,83476297,84814812,85773596,87523602,87693309,90392429,96021254,99884526,103058867,105568636,112374598,116606402,118506037,136612944,139684120,140790255,145316650,147422474,150889807,154299103,155764962,161836211,167473938,169265622,173859734,175153540,177187202,177883698,184408521,185620948,196876464,209606819,210753080,216124540,214999383,237788897,245008128,248081153,259103667,269132419,281650158,285919315,304728409,343445607,364580350,365207315,369268831,372921168,376051836,386373976,408914355,414531599,417825585,422164447,465189452,464197644,470577411,472885937,474475425,480773796,482422111,501481066,516741498,526965013,545579642]}
{"user_id":44504546,"collect_list(fan_id)":[90975,500717,689333,2361897,2531628,4595408,4626389,6096987,6721869,6846245,6861403,7514049,9233499,9797750,11418800,12885712,13129991,17328570,24014102,27749240,33600868,34192975,36498477,36588088,40781574,54660918,60696864,66905417,98924573,111955261,156766971,159631237,160969442,177091714,209898315,240360084,261554687,273323327,296841702,298041293,301350730,339196055,349881394,355326487,385617381,419136689,425323749,437565655,442748749,458124403,498524099,512304764,520659672,527117704,529892599]}
{"user_id":83664043,"collect_list(fan_id)":[175513,469812,583319,13774981,14750634,17595584,17735808,19494562,21337413,30805721,34060861,41035499,55032163,58460220,83511365,94905465,95797686,135729382,151437749,151438199,153091549,153255698,162321008,163651796,163721792,185914648,205701651,221371376,304225439,312933815,518649946]}
{"user_id":252168745,"collect_list(fan_id)":[177518,1308390,10097357,13322976,16143374,23798332,62886714,63371342,65847488,127278515,141416851,142636216,142990073,144416057,145946520,149548583,156173104,163822429,167321908,169003998,173996641,179439241,184645458,191379961,210501498,213567792,213607193,214312914,224000520,227818543,240116718,241564460,243470463,243573304,240824627,240874713,244905085,251365727,252053759,252506548,260606462,265323514,279384577,281292799,283702678,291397929,296320783,298715604,311723957,326619744,335138989,339339465,345070818,359777861,362665310,367647312,382183371,384719752,385539099,400311948,411253716,419789138,422470170,418292708,468246524,474290830,512210558,530172861,541999508,542121577,547989338,548203084,554058257,557386057,564809657]}
{"user_id":1681032,"collect_list(fan_id)":[223245,242094,308809,430866,617170,664004,917141,972758,1142802,1206356,1316376,1444048,1562967,1597910,2162509,2335578,2625534,2703165,2765832,2892966,3018937,3145872,3463580,3971226,3992054,4959878,7202103,7594231,8213954,11851165,12175019,13774303,17658548,24636671,25455240,26151272,31215374,33978676,34928930,47217411,69129257,97870296,103306515,114505836,139978472,140897033,155770973,167179123,176180464,197246780,201422593,207461211,216728704,274766201,313724203,324292047,354273565,381367166,386434794]}
{"user_id":9790675,"collect_list(fan_id)":[216521,269767,337722,394926,654295,1028088,1290362,1306057,1375421,1453487,1524181,1628133,1966855,2003424,2018525,2019874,2318425,2450348,2454564,3071392,2794402,3361887,3658957,4143771,4324773,4534650,6834639,7130572,11411657,13773160,14108247,14164055,14320174,15631772,16740428,17312702,17490095,19100647,19216499,20557776,22739615,27021840,27965941,29115179,30089353,34742188,36197400,38070193,41944830,49049412,49291313,49786079,53922800,59916811,71066437,89694942,99832506,114072926,130182600,131816869,133172512,133775137,134093150,143208825,145867030,145995990,153369413,161867399,168152301,170514586,174221608,178439006,184438927,189674066,199960368,208336026,210501763,210817672,213668613,222498442,239194886,239896805,247469383,291718048,298297251,301153106,308464943,318728559,329403955,337119454,338795694,350755479,359393627,379750279,402794858,424158046,438107226,472013060,502315057,509482737,520939765,526598314,555632451,563640009]}
{"user_id":67712225,"collect_list(fan_id)":[283372,381170,424917,469690,2188513,2731515,4098813,4533661,5418509,6218860,7603908,9949581,15236381,18355487,19499422,21598221,26353461,26851463,31333028,32490825,35508160,36851363,36878331,38654893,50987638,53145999,53208900,71952482,73297137,84080014,97951312,120959038,132383192,144138279,144732350,147496286,150413804,158586901,162501243,162939474,176113330,177683488,208145851,210480914,226660105,233240438,256194938,268180045,279011394,315629122,326737161,364429257]}
{"user_id":24445780,"collect_list(fan_id)":[480127,624308,4103777,4714113,5309030,9399486,9456037,17536716,20475291,21462595,28148791,28357847,33609618,34367704,38704158,39287832,47799831,49781796,50601803,56842332,58710421,65662658,68798391,73773265,71119690,75851709,79463859,84395424,86633789,91601899,95653279,96760282,99152192,107676964,118376771,122586882,123334221,123626375,126629116,131433910,131669764,133308808,143438765,146093450,148338527,149197077,150414206,150763553,152213796,152672061,154928896,157875341,158558874,158852226,160731577,165487895,167938540,169823221,173356634,173580471,174438461,176076807,177860242,182073232,182412969,187764291,194261354,197944683,199385800,202596312,207920209,218819043,235842939,237793716,239426635,244985576,257056728,259721200,282452212,285515285,291489788,298265488,318805734,324672710,329329764,345163149,347075764,347728043,366473334,369516804,370474496,372104132,377676813,379790812,404421894,426568292,436239557,440257410,444818075,447044195,465222500,476675524,493059376,507362374,515058218,522225450,541820104,547354771,548014179,548679608,560037619]}
{"user_id":533381,"collect_list(fan_id)":[578772,1841815,13701933,226588102,547994617]}
{"user_id":17072044,"collect_list(fan_id)":[649484,2391728,2619206,4002292,7241817,7832552,8353726,11063177,16702645,21311792,23745897,29195063,32181826,32556643,39485931,42796561,51567665,51746532,77674326,84895085,124519706,158926488,259390406,372175614,411042345,455633494,487800542,490135886,507786567,517164176,517862599,547968047,551741672,562320511]}
{"user_id":18346919,"collect_list(fan_id)":[631893,882688,1658492,2052073,4285391,5072639,5303237,8712242,9076349,9296094,9363121,10014094,11324967,12867619,12967839,13785440,20029729,20526587,22102981,24391229,24841747,28991118,35427610,62457006,86130352,88957146,90748953,97710108,99518438,108242354,113111308,136705001,137902142,138162616,141165627,151638216,153737287,178649291,181943281,202045789,218292530,221200810,268698461,290055109,301129938,306893210,317618711,323415266,362935664,382694944,386573667,388079768,391056684,415076149,499673111,519666143,519969429,558285440]}
{"user_id":1082250,"collect_list(fan_id)":[911681,1305379,181529912,287543217,430356287,526633802,565081592]}
{"user_id":31868444,"collect_list(fan_id)":[941512,5652815,9135138,9492086,15570863,18304040,18536358,18549675,18605208,19487068,22820619,23443222,24336122,24917746,25013350,30741523,35083571,37291972,40010284,40866836,48681489,51122712,51228620,51629670,51903660,52596728,53723114,54395418,62309867,63192283,68859894,76139727,79386004,81869803,82188598,82221234,83224357,83399227,85778894,91435623,100012356,108326830,131954355,137932056,138108963,142689093,144082705,146343756,147725095,150406089,152465121,155469646,159354471,165239128,165490695,166040964,190329430,264743483,266252968,277759439,281375405,303021218,322756929,334019610,342765751,407778925,423381915,456875042,506436885,514403342,532325406,548867889]}
{"user_id":218772230,"collect_list(fan_id)":[948354,2137836,3056955,14477326,17391706,21554345,43265166,48660705,49030665,50932660,52612744,56631541,59027965,59914914,65739152,79281337,90735275,102349434,125534713,135918169,137886749,137941722,157650866,161353998,172234126,177641185,179643132,183187926,184871854,196930303,199031051,221450385,221476195,233089878,239797036,267778500,274226788,309336429,313452934,314974579,376469119,399204114,415395518,434463725,454253818,477498472,488220317]}
{"user_id":145960623,"collect_list(fan_id)":[1025339,3173027,19295874,41152814,530552355]}
{"user_id":244631954,"collect_list(fan_id)":[1007566,2796021,3704870,18727468,179452908,249123010,261158277,303367403,355150926,360430063,396994046,402049785,408657058,424314938,426615623,453439060,457691519,496865942,498099338,503636250,515153235,532694365,538153519,538205868,544191300,546762104,551627790,553082023,553909678,555893794]}
{"user_id":80439971,"collect_list(fan_id)":[1198000,2456389,2728727,2938785,4460961,4712290,5097749,5308699,6195971,6881278,6886262,7766655,8047317,8929192,12402126,13773928,14113740,15005865,16307086,15437807,16588241,17528106,18322892,19013041,19196100,19435450,20752008,24503567,25637401,26525139,29554133,34287871,34493769,34856159,34906417,35110113,35205049,35176343,41546700,52065216,61154615,61202552,63076328,64019796,65292045,65546075,68464312,68660612,70214139,87217693,92234634,94255737,94437563,105831617,123286576,127356591,132290644,134913533,135525375,137175101,139740993,144823553,145105612,181858030,192964613,198099256,199686013,205414605,206823253,216356187,218820270,223587124,279229448,289856168,336415584,343135286,345586615,348479581,377492904,387290588,402248433,427608469,440926340,466665584,500605849,540432244,547182195,556402772,564010059]}
{"user_id":3142252,"collect_list(fan_id)":[1583555,2389396,13769647,16142569,19943240,42627733,50025515,96166403,156180717,160117946,170066774,218057329,234429270,298007595,307687565,426639973,438816460,536434885]}
{"user_id":55364052,"collect_list(fan_id)":[1457074,4047774,11398256,11851903,13011402,14826463,15605765,18629448,19855341,25466223,27824920,32751178,38035690,38139835,38582962,40157383,45511840,47547728,49750038,51255688,52185600,52379838,52526390,54891415,55480954,59019072,62460079,62712270,63925767,64702569,64802049,66653326,67846988,65575111,68390386,70588179,72176393,73641568,74957180,83528389,85063194,89315421,91015886,94823790,96028231,97579620,98275236,101636890,101699984,103651097,105595971,107917292,113708164,121039467,121532787,122076362,123527497,131658754,131948549,132579147,134917802,137058908,137176041,138152711,138397079,137441694,143004318,144141001,146617159,146691253,151662851,166504960,166666631,167104163,168067755,174553838,174970810,176609088,177137539,177261773,183958474,188147223,191789627,198229353,198709866,201160094,204767586,205589647,207980021,208950682,209366145,210947608,219052044,221549276,223949619,230159271,232668779,235515358,245410804,247311600,262669926,260357835,265948236,267052857,274342276,278123925,318331811,320362983,337232682,342237158,349992595,363246275,368067648,378275275,382172755,389991060,390441363,393554562,394189546,415628239,439858779,454032969,457948405,477498472,482765280,497716369]}
{"user_id":145892283,"collect_list(fan_id)":[1619562,3886175,6002084,11812004,15078893,18456023,21252019,21543610,32582686,34752008,45430243,46032143,50385542,60539991,76773859,79840426,81807650,82334589,81193010,85220246,93167997,99682438,150461963,151787994,158423133,167522882,168654353,169052746,171203183,174605101,175128871,175563095,178688431,178876443,178888667,179098849,179818124,183838382,183863574,189072305,190026137,194216978,203504897,203931827,209743371,213338994,218237475,219120383,222099252,227088173,230870014,232806147,234122691,234294625,258374199,268476107,269735582,274656047,288623106,292376387,302241527,320168545,326710105,340465795,349102961,353215392,358327307,381857556,398526086,399287676,402168781,423322380,437902609,450034109,470072857,482701387,488596893,499641502,514376967,515541250,544610141,553093572]}
{"user_id":43183364,"collect_list(fan_id)":[1651620,1811522,2126636,7151203,13127164,40871616,59561721,73043054,160150814,264376080,405959905,415395518,520995401,533666706]}
{"user_id":93788629,"collect_list(fan_id)":[2087907,12103614,66595834,84428589,148958557,156224169,187339618,214679226,224830048,237862735,351311493,502107153,542389360,547189123]}
{"user_id":183249683,"collect_list(fan_id)":[3116605,21683186,41521735,43814136,51053708,58907410,66625056,75188570,78520148,83401044,90193732,107542402,126421386,131561457,131795906,134941376,141026194,142537731,140713914,148036724,149169018,156507637,156697471,158027690,158772065,161131102,164201925,167436887,168865002,168875371,171058870,180498141,181835712,183984570,184496931,218225484,219349935,220563107,220939753,230511808,267926991,274094145,280509211,285661918,294344717,355773918,439647774,445376451,462198865]}
{"user_id":42204622,"collect_list(fan_id)":[3187910,6679773,8292574,8394390,9751287,10762816,11712776,13687698,13885085,18196863,19379517,22018719,23110973,28743018,32632838,41758613,44830560,48150752,50572069,52351447,55215641,63576636,63938249,65219341,70839161,88687794,92578780,92681715,93670150,95881514,102278515,104927442,123996637,126033709,131016209,136029051,139636922,147530990,159193378,166312981,174830853,183753178,194828313,227113887,229633756,235840991,236097428,246524271,260810795,394940000,396495597,465579088]}
{"user_id":154567293,"collect_list(fan_id)":[3471059,6020438,11605060,17149907,53024966,56489479,62797822,63727912,64025553,66929046,72706770,74391175,95620955,98940601,99193175,101605656,116746554,128945653,140478656,146163962,151391035,156359937,156791416,159179398,159382620,164515197,164791924,185396238,221265558,250214392,254556859,365933604,374126035,381215608,431639769,460282673,473515326,481599776,494535960,503798452,553793735]}
{"user_id":280370700,"collect_list(fan_id)":[5344132,57548676,99472356,137056110,142738803,153573518,153706422,158652134,165098400,191789662,202948133,210300259,212948882,211567591,220303126,222562925,226753865,227186544,230876511,248768242,250752286,266270803,273619926,308056898,323326948,333078330,344495671,352332715,355831652,376849355,381962509,384788631,389059943,407135760,410063749,436093542,445250917,460868809,486983069,493423539,513103750,521170427,524803313,531455749,540785968,551796459,564089554]}
{"user_id":301049614,"collect_list(fan_id)":[7248975,8819107,8831954,23327748,24791525,25227806,26666307,34503696,37053741,37349493,38516210,47239494,63829205,65083576,67448160,71427152,72613761,77070024,78167990,84622794,93780097,121363771,118666458,132853938,134693600,135106748,135208674,136985820,138587024,139168002,139493625,140836450,142356877,144094049,145790536,146445050,150580763,150957576,151690824,155406091,156587481,161163022,163010619,163600381,164435879,166682683,167786043,174853946,175147115,181119874,182545960,182789122,183592366,186929786,187209862,192734121,194885778,197981088,205912850,209489206,212999176,213413502,213584627,220625694,226758299,233396234,238366901,246292358,247643708,254492094,259149567,260745999,261258461,266032023,279293657,279306188,280773893,281236330,280475169,286420475,286891226,292368689,297653236,315092966,319600148,319632064,324195140,333195205,340250054,345158428,353510974,355574429,361248139,373250432,374864692,376001431,376758396,385387792,392291154,397940827,400034705,402658947,404457446,404887075,415328999,427913787,428624103,435414854,439732618,444837226,458450253,464411713,466919816,467956264,477890233,480719283,483139360,499050733,500546748,503901159,504911453,507677681,514935475,518962853,522756410,529864045,531314587,537034971,538531075,539982840,541079129,545040399,545355178,549654294,552105948,555814167,555950417,565270078,559989812]}
{"user_id":320954431,"collect_list(fan_id)":[7868467,27285947,29178160,33820007,38776828,49580069,50768124,64795666,65625042,66019528,103079380,108090479,115948606,133506834,144583322,144921032,147224645,156223663,162764872,163448660,189132066,198927808,199126737,199347563,199608837,200258748,201476079,204460819,209442765,210504864,212257129,215996795,216437829,218790047,220117649,230370594,231716344,248429208,252940237,259533115,260549749,260923063,265124907,275285913,283479316,283741531,290446237,297142335,299907526,305997254,312807464,313676633,315382540,325774036,326005199,335374351,337387388,344458246,349722881,364603348,367076711,375042007,375253175,382424774,383486356,397733462,399257818,400274868,406059313,410551369,411233550,412855256,414502310,416590067,416824004,420871922,426172638,427206947,428160738,430347988,430552261,439889414,440830811,441208546,441892027,441960315,458473260,458505680,458582518,458737601,461854889,466800231,474956650,478228019,480025785,481804653,483330589,483618460,484338330,484561889,481947907,486122359,486218712,486544237,491208823,494758293,498335619,498767987,506412656,508175384,511648280,512642884,513044077,515569252,515650682,515661383,515850281,517179797,523888282,521926083,524392451,526033902,528403836,531391245,542785807,544628875,545255405,547507918,558875321]}
{"user_id":52744381,"collect_list(fan_id)":[9415424,24774198,26314811,30058545,30855795,33722680,61242993,72710569,77578732,81347245,82405775,82686776,98353065,101194552,103705674,107421171,121776233,140616499,141745503,142992667,151244116,155174577,160603943,162717521,167809843,170434342,216711281,269703350,270769269,278779716,291540442,512525231,513366113]}
{"user_id":136928953,"collect_list(fan_id)":[11027221,26289213,80415319,93300003,133236958,134996209,136087630,138177715,145498584,152339352,155396060,156222065,157641335,158973169,161261617,163608766,168773805,170545920,190972214,196500968,195290910,203540901,213419986,213847160,218634940,220064320,223739187,227326627,247832279,251521320,261844846,271540335,273228644,277295485,279551745,287471522,302470257,309893962,318619998,319498626,383619227,384553360,385234075,394227600,423796399,444725976]}
{"user_id":173161528,"collect_list(fan_id)":[10849205,17255604,21474280,24035529,29644229,39085052,40172163,41840965,50369869,52579893,56294185,58245126,61040671,68770206,70870133,75842199,76158744,82491204,93742405,101301651,105231090,107664650,114125479,119423691,125445772,126201148,133793830,133813229,136509758,145476076,145529154,146587728,150567019,153783066,153890698,156642663,158916153,161047103,161195286,163305597,169344310,169518391,170811960,173351257,174111708,175972188,176115500,179828014,190281323,196188412,197670352,198095166,205108453,210184072,216246389,223956166,228298133,241474876,248800594,255549644,257004429,267269786,272420565,280846107,283501493,286466303,291784490,302194220,338693821,363363215,368271956,405054720,405755973,424182200,429519968,437311798,445071169,449360731,474435953,491836228,496014771,493481201,502174634,517536245,520883973,523936339,531718710,543380982,552687113,553900139]}
{"user_id":45938510,"collect_list(fan_id)":[13574900,22823957,59888215,82762098,92382605,94561636,108348892,117157062,135254572,137531897,140535528,164483214,174454352,178007883,183344311,185767377,219904798,265867730,302776693,404601155,485941963,547371240,552687113]}
{"user_id":101308967,"collect_list(fan_id)":[55792571,82762533,371273880]}
{"user_id":19209275,"collect_list(fan_id)":[71137975,152454167,180993405,415403198,415404361]}
{"user_id":152246959,"collect_list(fan_id)":[81509986,121562488,150630343,180025806,318396085]}
{"user_id":249164703,"collect_list(fan_id)":[142438721,160304323,176281539,177770443,184329712,185259696,186139853,186171782,207334015,218401412,218970687,221535141,228097484,228432992,228921436,228938315,236162737,247839063,250922565,252804627,252833211,254672609,256318620,256995768,260849957,270833184,297156524,301382496,311781895,321913444,358063686,365815298,373054457,408125057,444863157,445091725,449323507,456846704,457297379,522347618,523811968,537494211,545802701,548979862,554633153,554963613]}
{"user_id":157883979,"collect_list(fan_id)":[157313845,191286363,264055324,306194580,326798392,353762997,373354181,392173231,409092098,430334743,436610530,469471774,493022479,522361560,526062922,530392837,533775615]}
{"user_id":444142723,"collect_list(fan_id)":[203217786,317738874]}
{"user_id":449012483,"collect_list(fan_id)":[259612938,333514681,476892840]}
{"user_id":64211668,"collect_list(fan_id)":[499368463]}
