{"user_id":48119,"collect_list(fan_id)":[27460,45999,219789,1206364,2329899,3485339,52174008,250451718,298429805,311982841,414018446,430331769,471094843,477573953,482485610,499807815,544551059]}
{"user_id":74096,"collect_list(fan_id)":[47956]}
{"user_id":436261,"collect_list(fan_id)":[3429,4734,12930,12977,13964,38592,41900,46835,51922,61053,74835,77193,96729,104348,110412,112115,116125,119442,120257,122475,135660,141553,141637,148413,153465,154723,167051,167540,169439,180381,183622,187288,189573,212571,233740,245409,265928,289488,302222,345130,371142,372859,399643,406075,412360,445756,458319,461858,490779,499001,512605,522252,536958,559626,583912,594306,656429,701415,718100,738492,821970,845270,863161,907370,913938,916667,938738,831814,1013801,1081402,1087253,1008377,1317860,1322555,1381612,1430027,1509047,1547291,1552035,1642998,2023810,2038520,2116925,2284663,2367152,2683765,2850016,2852202,2890751,2983732,3415851,3882077,3909777,4035513,4260619,4281182,4451866,4630303,4726857,4924829,5055362,4839359,5532823,5751422,5891374,6496353,7239765,7326906,7738878,7750743,8191404,8875890,8910862,8921485,9259513,10584079,10842990,12089379,12580306,12640487,13958643,14341659,16113421,16142512,16311166,17412762,17784966,22703144,22751904,23273988,26657302,26925953,26752456,43693980,46910380,50192007,60961649,66964643,71276785,72468723,73078788,78645254,78981541,79141213,81357272,82404328,89169275,90681111,99969463,108309701,120187522,132119420,133217116,135574661,142382940,150841272,169374490,175195197,186956878,254785867,261369511,305037494,326753144,353075854,377123400,417425646,446718224,447328883,450895097,507787800,509919793,524229385,529287580,530954602,549309056]}
{"user_id":619245,"collect_list(fan_id)":[8554,79006,138565,202968,277740,319971,319978,405167,874884,1182668,1328428,1353187,1453439,1619966,1976655,2578513,3082593,4325253,7181505,17247874,19299869,22926458,28368050,34277816,50120028,96395474,103729271]}
{"user_id":10331407,"collect_list(fan_id)":[1127,74419,125272,364366,335429,467306,470481,504000,655568,690329,854386,907641,1023576,1044191,1168253,1259329,1277946,1326551,1419102,1522710,1654043,1663072,1893187,2164040,2266709,2427566,2846754,3036568,3075747,3499103,3673749,3776500,5088215,5616684,6860300,7084224,9825812,13665705,18029216,18289806,19346104,19725188,26519287,39876346,42113378,49928053,58539722,65575147,170548832,216864913,235245247,265692075,296607317,355122366,362947934,384129993,430861805,474793835,490873684,495646721,511299478,528693026,530551260]}
{"user_id":11378663,"collect_list(fan_id)":[15592,35374,78029,89890,212257,804887,812176,886426,1022281,1275971,1568476,1651595,2605020,2932026,3173967,3263745,3321782,3379543,4050779,4568055,4650697,5166962,5844565,5939620,6204728,6301524,6603913,6658364,6700537,6709194,6785240,6861673,6924027,6949491,7754047,7776313,8128252,8364186,8936591,9157539,9555242,9555456,10173699,10279353,10484185,10666474,11117781,11135576,11392495,11884057,12294008,13179913,13202465,13255811,13866474,14077305,14095486,14096559,14604647,14733893,14820251,14837184,15316346,15530436,15573367,15921198,16304781,16773803,17185436,17405821,17459282,17534510,17845916,18122628,18408993,18614911,18725268,18944410,19027484,19251274,19443030,19886405,22443514,24869668,25879751,26012663,26279789,25026736,25027626,25027687,27004849,28043134,29314712,29750469,30791459,31028358,32106704,32628383,33056235,34638066,34727837,34769951,33476194,35944964,36299156,37099473,41761656,43434964,43675988,43801525,44110866,44163930,45199616,46741683,48384760,48695867,49715797,50156180,50483556,52790573,54635821,55453831,55529160,55854159,56127928,57022831,57062090,57691335,58251012,59443366,59996738,60206644,63222545,64059675,64139143,65134469,65836359,66035975,76714464,83781988,86701472,87250184,87268893,87328795,96280186,99162977,100000864,102045705,102087374,102827442,104134963,106481343,106748937,112097796,112213398,113710969,119875928,122540128,126206658,130163385,134200772,134372506,134466825,134774713,134789892,137236732,139838306,141508645,141755310,148984230,150578240,153391111,154958527,165006888,168241652,171237980,176005615,179168441,180753808,181729794,182724417,183620634,202353838,208765662,210029597,213186787,214087602,215605207,218000780,230277544,240894007,266611450,275868685,292416541,301524048,326870777,335527002,336161408,339621545,346421951,348976609,357642301,361618565,371775627,395890013,419544935,437805457,449896426,485024738,486948260,490923804,541046995,561656447]}
{"user_id":25772875,"collect_list(fan_id)":[2193,4964,16163,36200,108490,150780,219131,256193,327089,339686,362201,363905,368913,389508,394598,439520,458829,474985,496295,514114,524672,534527,559824,577207,588231,639377,707159,707458,718927,781846,909069,927572,930610,993571,1113199,1138682,1151777,1175650,1009114,1199692,1264806,1393602,1199116,1440791,1586909,1617452,1663812,1734779,1740068,1883942,1925806,2037938,2195252,2303628,2491547,2496245,2714309,2775851,2847527,2860485,2948100,2952424,3609607,3630544,3810866,3813084,3842944,4100793,4437494,4859722,5142663,5183979,5295798,5422337,5586202,5468718,6084472,6120959,6289762,6708391,7090314,7103057,7477721,7575442,7741502,7943684,8686266,8830800,8905916,9425496,9833905,11579453,12019399,12431612,12956144,13713976,14475871,15120217,16239378,16789221,17126473,17928736,18224123,18445432,18467806,18670014,19075298,20017268,20021270,20463809,21019925,21128101,21437090,21792115,22304232,23059463,23834057,24213006,24548663,24797953,25192589,25652238,26229027,27243287,27379660,29315396,30118879,30441205,33133069,34002455,34055729,34755801,35246539,37733306,41469620,42273405,42641942,44104974,44358704,44679580,46340885,46392934,47391884,48917725,49910244,51478900,51979976,52060199,52241261,52716838,53925134,53953757,54284656,53609933,58249057,58705787,58811914,60831929,64560091,64932668,65394027,65601226,68688110,70017524,70451448,71744602,71863238,73878917,74058478,74345416,76796401,77765527,82944173,82972303,87452056,88715395,90285071,90718795,92486635,94976901,95106390,96187020,96340209,96889538,99188285,100833807,101076170,103703427,112741355,115110252,119821857,121204164,118664059,126009350,126130970,128959139,131862888,131888947,132246413,134534515,135612126,135852502,135935421,136520578,137770944,138768219,139929328,140878769,142285397,144021626,147174035,147722955,150302516,150967144,151467972,154492780,156603155,157183391,158326561,164342835,168200396,168629187,175592755,176499638,178406582,178497562,190317286,192157906,197332259,213120558,215395094,220182759,224842599,230123828,233206232,239706034,241653406,243476279,253310746,255486622,256870322,264268451,269328001,272290960,290171553,292571839,294413681,296075580,300823236,303722483,304315450,319754244,322581208,328948424,335643861,337228380,343056688,351006918,351788708,356434560,358971415,378243206,391064620,395849693,397259253,406181898,410532232,419824527,421380594,425818205,426903842,436607212,452747765,453396587,455941324,481196232,487688615,492490566,494192188,504708875,506514615,507317282,516396754,522904943,525989455,530595926,538371960,538975327,539340864,538890880,538894762,543958049]}
{"user_id":38160061,"collect_list(fan_id)":[25339,1793095,1845668,3387291,4498635,8296781,9486581,10377193,11109209,11318246,16606119,18030950,25472200,25051523,27833502,30866013,31198935,32780826,40462250,41325868,45457160,46504335,50919345,53869498,53933512,56877551,66435818,68361913,72177571,81108517,89797942,92025877,96439518,98241834,107857844,113344384,120229144,122712204,124532186,128912055,133196823,133898872,136598752,137211660,140835124,147910006,150420333,151244116,152749034,153090509,160947886,170089633,176798177,185964511,190452868,190762814,194957649,250725916,318837331,324118360,321215843,326626206,356151635,397391225,415389532,415392715,449830838,473899557,476989489,552687113]}
{"user_id":50244876,"collect_list(fan_id)":[7189,573300,577908,1042721,1183928,2316422,2674708,5976355,7912060,9638353,9658791,10602275,11250803,12940977,13139229,14004256,20279139,21323974,23368306,26950881,27738841,27957470,32611448,33344170,35213344,41521184,41712704,42705144,52648050,55534381,59516613,59826139,61934865,62696715,63294255,66330134,68047328,68326179,73129912,76967272,77465652,82176350,83471170,81221500,88035762,92693861,92929989,94196308,98706291,104179650,105321269,106199488,107007240,108369277,110816836,115129039,116576281,121144234,121509288,123404911,132657764,133567269,134088596,134543888,134812168,136098565,138771058,139274057,138935311,142708040,143591175,143732969,146227732,150540696,151038044,153992753,157425465,158918812,162893631,164290074,165429587,168239333,175994767,176030706,176147340,176161979,185895535,183511111,189451757,190404772,190462197,191375473,204551966,204878436,208339404,213683314,216783815,231772571,237194781,239187850,247664751,256966381,266641698,270434135,279978516,289509567,303489725,313799659,325645486,330198088,330276967,336749719,352493962,365452204,366747556,367065759,372344777,378446559,453000467,453803900,461862811,523349505,531998281,553798925]}
{"user_id":1252556,"collect_list(fan_id)":[70476,785656,809744,1104082,1734724,2287113,3203721,4467729,9198101,22360188,54363356,84290679,511334786]}
{"user_id":35704901,"collect_list(fan_id)":[62104,104179,494080,1459601,2127750,3473069,3601355,5621098,7120917,7125766,7805520,8226584,17078725,19503907,30737685,31986626,39062409,40776713,56338688,58981060,64736833,67625351,76395800,102322653,113506584,135749601,144016781,146078155,150690356,193697585,228108753,236341117,250496911,389424986,415387462,415389532,415395518,415396299,415400336,415401389,415404361,417283578,445581631,450075459,495975322,517430725,531390828,542229043,559453784,560280595]}
{"user_id":181130475,"collect_list(fan_id)":[79567,275246,288107,340533,771758,935828,964611,975880,1430516,2189982,3715720,19262697,23516669,25132312,71896230,76688621,77850949,90428214,122065175,168747430,191816324,205097584,267509462,297485121,300748268,301041979,303295848,333409324,341780307,342982926,386009508,390911356,416180005,419117189,425556503,443325071,468964238,483747203,484963242,501539234,509540160,509910300,510547960,515667839,533777994,534315236,535163995,535269984,535626929,541983520,543949725,552283347]}
{"user_id":9574027,"collect_list(fan_id)":[153672,570264,1137230,1530266,2686262,6639763,7102482,8294012,11274784,14787453,19823822,27453952,29683002,42532495,75358925,81648484,86853436,113626352,108768490,166945516,166946800,221408219,276620714,277543900,393046774,421051673,423542002,440311731,455447543,458668207,517489184,527016373,530816539,540310285]}
{"user_id":29479796,"collect_list(fan_id)":[168557,833405,1637504,1778839,2115552,2290770,2684108,2831489,2948987,4081506,4129781,4156898,4167731,4505581,4670214,4743839,4827818,5077652,5244495,5906881,6040341,6150578,6428330,6436790,6516244,6611673,7391103,8392255,8590300,8835852,8918327,8982860,9116275,9155838,9319987,9592198,9710655,10057558,10819511,11173072,11963170,12518393,12723540,12730581,12817114,13458554,14352131,14567562,16324924,16502231,15425679,17136640,17711274,17777779,18288472,18673281,19146000,19220399,19296766,19719905,20386485,20431367,21176649,21854709,21902547,22045561,22506327,23266047,25846060,25052452,27886999,27891009,28925679,28944428,30106279,31387330,31443890,31638862,32337606,32936081,31567661,33793006,34181590,36656993,38768058,39296828,40143825,40210678,41449813,44952500,46532051,47741776,48123176,50972411,51809857,52397514,52427354,55336297,56132885,56824696,58065049,58268369,60087797,60503727,60539991,62362209,63783830,69599610,71336960,71940427,76517450,79397421,81375217,85592623,85625434,86237841,88706869,90453693,91844874,93699403,94011802,95219720,96463014,96578718,97391263,97824334,100550857,103271521,103473358,103615255,104769921,111204237,117766310,120481748,121669905,122030047,122301957,124777619,126565307,128085954,128856569,132070750,133842639,134323001,134347936,137008998,138389323,138497368,139345277,139415565,139578015,140788552,142250412,144978515,145379659,145748193,146305375,146329198,146421059,147915771,150942774,152394313,152604953,152799258,153210894,153749917,154142354,154916703,155003693,156209594,156590989,157832927,159615667,160899234,163691187,165028721,166826176,167522882,170004476,170413848,170627404,171203183,179533958,180020316,180288893,183021344,184064694,186754775,191349746,193274834,196296152,197150678,197701341,197788582,200575175,201032767,202054199,204473786,207520461,209574287,223511283,226380456,227034311,227355719,227522941,228008911,230613122,232672386,232987565,233856614,235963495,236974438,242704074,250762336,251872561,252045307,252827529,253940619,254934908,259085579,267970156,269480321,269625239,272950154,280342777,311355554,317076638,332540854,342263931,345337642,372709308,375040831,379642217,381572158,382241668,382830068,387515437,390195097,414025630,425442871,431872702,464537263,466203134,482792863,498449027,505312612,505665439,509054160,513456090,516037468,522955809,524187326,539142810,538965837,546817162,562951955]}
{"user_id":167377752,"collect_list(fan_id)":[201034,11692186,13597201,17392117,22665246,35506829,35914422,83950414,89871284,89957461,123631526,153506094,155694778,156544997,159529649,162006120,166057533,166424110,166509264,173541909,174772848,181022607,200025955,215735402,227297765,227396482,233206627,235883465,245237807,247365631,284083600,284369798,307213721,311709725,325676111,359977051,383598556,412383618,491802779,500005865]}
{"user_id":3357759,"collect_list(fan_id)":[322480,861312,979431,997114,1400391,1771207,2646289,2877213,3120680,3300970,4622381,4733982,4895470,6557578,7699563,8437209,8485484,10207113,10817205,16062646,17196019,17750592,18725585,19871214,20130195,20137666,20522984,21464280,21565560,24091741,24194460,27213686,32109992,34454951,35901093,36257693,42858666,43168724,45093977,47752079,58098974,58562477,65236101,65916194,70910509,85015681,90268495,98716775,104189851,132199715,134044601,135193506,138563231,153076733,160108365,164306684,181097864,191644846,196104546,276441620,277229392,278431590,281440824,296994414,316825114,332958798,348828083,359739494,368904529,445312519,473959397,500626247,512726922,529744036]}
{"user_id":16256894,"collect_list(fan_id)":[328305,437680,560929,732409,773655,1072445,1227157,1449978,1481244,1482996,2038426,2151763,2158723,2171815,2244422,2308695,2856315,3026078,3245884,3636319,5297977,5625022,5673663,7160127,8714332,11471037,12796432,18600386,19611745,23217769,27643163,31063866,31113325,34132624,34534665,36475167,49674153,55889782,66725029,67171211,80170637,77595258,82514430,95210781,97430282,99217347,110359839,112372878,113329794,120312192,144082393,149410525,153721622,156783558,158277130,164027978,209262149,221063658,238580416,245836787,271909597,365657305,375922159,394803927,454148958,557633830]}
{"user_id":171095779,"collect_list(fan_id)":[336282,361668,605717,951986,1517418,1674488,2246009,2844484,2891776,2904952,4629101,5587176,5719648,6223794,6444873,8059131,8520449,10770115,10887514,12549728,14060275,14136966,16765481,18811743,19963301,23547688,26469283,26914210,35032026,35070494,38346778,46183979,57032570,78033197,78989922,79245833,82908192,88395528,89667226,96439520,133947054,134933116,136406924,152912658,156126159,160154150,177193500,185496009,190912336,192774408,204584399,241680599,265490159,273401416,314563226,334594051,337116718,345229972,348270911,381471948,424512319,488138319,512075793,539198192,539895484]}
{"user_id":144924267,"collect_list(fan_id)":[537837,6193745,8575079,9412098,11324900,14719799,18319410,22374499,26119834,28051519,37531968,50658916,51273393,66618813,69378898,84581493,121814426,126122568,132782874,136503353,136513089,140753418,143832919,144798813,145539282,145687648,152818228,156405950,157324098,159978174,168105695,171381964,174131961,174896797,175876510,178727205,180463890,181122788,180888007,186454265,189176279,194125223,194157113,195796175,198609350,199514698,200128346,200843262,206213026,206727670,210393113,210595115,210660561,212562602,214797641,215840667,221478453,223679186,225257966,227009827,227210852,227448756,229447502,239985177,242727533,246510110,247913052,253614415,257581148,259969513,266451421,271282063,272269185,285232104,292116686,293824549,289607907,296404365,297682768,300597274,300676829,305650975,308990847,321810657,322462014,329072221,338711988,359970331,361996863,367093376,364363025,371400108,398712799,403820351,404685595,412364683,419393983,444583920,451976916,457238424,461061382,462276098,467804662,470996500,473007856,473646814,483941332,489426415,496058825,500117043,501229074,511469376,512136963,521246906,530012994,534967801,558289455,560693386]}
{"user_id":68341904,"collect_list(fan_id)":[567059,982686,1601968,3283167,6916795,18094272,31759389,37230870,40120166,90187347,115811983,132326156,144252048,145304105,146638549,150849944,154277659,157079852,159941927,179821430,184912115,185284460,189604888,193532219,193840124,199193277,199809423,204632506,206187561,210526533,211193948,218619478,219394842,219795300,225040227,226538481,234870687,235611692,239126474,246085099,250096673,251070782,260908392,276819615,277572730,280188275,295066460,301340903,311007509,311488091,313231742,318038604,318122207,318825832,325779473,326824296,332959329,334724891,342514862,346507693,353263750,356958204,364133477,365341302,383185472,384480950,387306532,407497272,418386514,420145323,427064179,431430631,446214763,449262795,450767418,464975422,465368298,467887042,467895188,470427235,473238502,473422275,474169354,477960676,480666234,477398027,483566979,485064707,491816745,512099453,516139924,520616084,521884232,523263048,524652929,550680081,555846339,560982941]}
{"user_id":243710412,"collect_list(fan_id)":[746822,5883769,6063999,8428695,152629731,164969304,177252377,208860182,305875336,318498128,339956717,346078945,357599065,371290667,399946114,442022193,507656976,518395991,525326113,528098186,537266051]}
{"user_id":241292907,"collect_list(fan_id)":[926622,2078653,4683566,4690983,5181425,5334732,8275658,9006032,11880928,19525493,20033119,20274530,24088860,24370473,26085354,27142909,30531940,38361820,46117406,49288000,57788127,67464623,80121211,81386198,85824384,91864081,95328608,105387328,117742394,121283213,134426421,145227417,151408327,151477407,166008290,172941237,178922883,182320216,183854879,184488484,210521831,222064675,232886028,243770373,247955674,252530969,253371201,256475031,259484627,264737907,265041741,268363095,269926400,273893106,279160587,299770875,303368677,306042537,315545686,357393088,365219944,380966718,409671254,416340630,421246818,423188908,426551527,428604605,430996047,449936852,462989612,465589044,473034866,473410024,473486992,475518574,476440509,478498963,480160358,510331647,514850999,517846432,525844868,540970069,545717206,552123816,554016162,562622841]}
{"user_id":262884476,"collect_list(fan_id)":[949916,11273811,24625269,25632417,27512049,31197478,34752008,40462347,41374813,58514008,63951898,72355641,80809061,82565781,88147426,96160681,102377209,101308967,108304757,116706716,118010074,124584762,135184927,137532780,137863891,138628598,140635437,145421113,151603425,154388569,164023026,166306600,171051414,171301021,172906414,173838806,175643293,176532187,179463699,205650024,206861065,208056827,210179047,211901678,213963030,218038109,219789903,222227822,222761755,223497220,224162061,224515371,226146964,239076305,240620800,241287456,243300399,243433676,244628711,262030236,266535551,267034293,271593563,272116777,272963791,277068599,284625998,288281977,304551497,305061466,302979904,309367154,316334208,317995357,323490531,324057299,327996477,335290348,340653668,344145947,352641561,361679090,369648659,369887797,381217647,381450560,383872498,385819738,398124593,402379373,415391250,430190890,438364620,444290721,447743805,449628651,464002071,470308585,484117106,498602918,499234152,514883387,524520533,533239270]}
{"user_id":23964338,"collect_list(fan_id)":[1110078,5814891,6954712,7427671,7677227,7852046,7350726,10577529,10639728,11146813,10502180,11822927,16224117,16845415,16538997,18856022,23896297,24165585,27931617,28083646,31235979,32599842,33133034,34396028,37481821,38767925,41060370,43861259,45498767,45527809,47553434,49748369,50203247,52140013,52379838,53039154,53694598,54566287,55361392,58267078,61484357,64750203,66631396,66979474,69825001,69934554,70092867,70205927,70317376,71446507,74345461,74430273,77805533,78995278,83540692,84616975,88554149,92510023,94146198,94846898,95384500,100364589,101183825,101823663,101904403,104525974,105141022,105219881,107116542,107201680,113513591,113904783,115488555,115500129,116818550,117247138,120897901,122699421,123142693,123366658,123840893,125661422,130055106,131911867,131969458,132318057,133153668,133258269,136171302,137126373,138188823,138441525,138483796,139837297,139877983,140044857,140183704,141267597,140712786,144241379,145938471,146125133,150873085,151027246,150323468,152226433,152760265,153140094,155174577,156392704,159996692,160084628,160768305,166443865,166711788,166856810,169378723,170103775,172049953,172142542,172243918,172327732,173593158,178344406,181099219,181816977,183320386,184051041,186294260,187187199,194777594,194974422,195084687,195740625,196337416,199807507,200121327,205374412,210587644,211184557,211343842,212235972,212299259,212683860,213741709,214336872,215339871,216184650,216257468,217535772,224761715,224968708,225009850,225549709,227253486,235260746,240562087,244287400,246300571,258397444,260481125,260926654,264253111,264909183,266601113,273005884,280656829,303302027,311528168,315359085,315974885,319535182,319932145,320885343,321836536,323714372,324447670,327049479,336483041,337194546,340844426,343060552,347709317,361549994,361675458,361948368,365058661,365178846,366321276,367948276,373621252,391013784,394355904,395825722,392431465,406229477,407478996,409748962,413481962,416390412,432392809,437156491,445064885,461592860,472293810,479668466,480217336,494988331,499684357,505228083,510080244,527483919,541675724,542300611]}
{"user_id":221710180,"collect_list(fan_id)":[1370416,2532993,17957342,20092751,27370907,31779633,34361756,43445310,49536281,49612148,47122925,54455538,55480558,55883399,62900436,71245071,79703234,100358815,112296097,113372068,118387136,132199321,145279401,149310357,151716997,154866822,156656269,157160320,159835093,158649091,167812417,176274172,181598842,191897799,202598902,212387287,218452024,252407966,267975524,278402193,283581217,319005898,329391899,333738596,335776846,340836927,353345497,419930739,444437036,451977545,474943966,502846417]}
{"user_id":26842036,"collect_list(fan_id)":[1526600,2232736,2266633,4901579,15763197,16361572,20232844,22155379,22167838,23008839,27842937,38453381,41484415,44209134,46049194,49727926,56498199,63406723,162131980,243458887,292580113,369388629]}
{"user_id":351282,"collect_list(fan_id)":[1743671,4068532,6487042,30053758,131578198,161130161,187125294,298188215,484998397,528926911,543890484]}
{"user_id":44163918,"collect_list(fan_id)":[2121447,3515447,5055461,6455396,6636333,11725986,12262676,16325360,18379333,19141484,21530955,25086373,30122925,31123173,32415533,33778703,34319167,36632747,40748144,41005621,41161803,44110690,47063063,52410545,52518619,53401232,55359608,57373136,60689950,64595131,65021494,66194166,67253152,68117475,70790721,70991899,71600343,72443425,76294968,77103941,77722109,78531433,79149763,79333058,81099542,83359865,85627721,85959670,88657355,91220796,94372315,97871335,95516709,98294759,101338595,102812703,110593717,123835154,125149067,130146677,133720009,134594874,136786204,137717111,143073805,146539952,152620577,155038194,156089794,157947041,160763706,168865437,169448055,170907943,174894966,176395238,177312709,178626218,184184957,184578389,189788607,193183112,196938342,201649713,209166280,210069774,216639021,236550898,249393498,261281680,272878930,291488050,297704201,300154408,348348011,372917688,477193476,501028035]}
{"user_id":204826905,"collect_list(fan_id)":[1945071,8990193,100508093,154644377,185055943,185634285,232305006,275105075,279914549,287028730,288557019,317907711,338585362,352624526,391715939,402699546,419754343,480212685,513792593,533228730,544500582,559761084]}
{"user_id":226636244,"collect_list(fan_id)":[2690676,3367853,6808054,11524204,12175812,12513948,13884247,24089776,24182881,25681671,26289791,27742492,29431233,30439752,31433722,41069196,45211808,51173996,52450774,53100896,53496306,64789158,65226607,65930609,69881845,73267925,81802504,82213238,88082149,91217063,91856043,93071500,93746166,95648996,96197120,99954491,101770518,103164095,104200882,105754891,107687637,109030821,109505914,109616565,119940815,121127022,122257502,131765602,127756942,132651768,132898237,133354716,134761452,137013992,137075254,139696602,139962522,141698224,141753818,141996635,142516884,143184703,143843196,143083091,147322319,151313981,152422411,152581158,153157952,153902554,152109580,156315075,157111271,157430134,157772882,158401821,158415241,159349605,160362471,162709204,167189774,170044659,170238285,170367930,172139025,173882276,175989385,177633197,179415526,181628950,182729383,186981286,188846879,189750884,191701946,192605830,194588047,197211033,204059160,205159567,205865830,208938378,212441774,212536998,213256435,213752862,214258158,216780980,216994751,217230605,217249094,217542118,217734457,217749117,218659130,220161612,220697007,221272779,224042702,225657457,223783742,227078674,228576946,230343432,234913907,245424854,246948144,249676051,251659950,256705156,256716133,258676148,259837267,262871883,263641115,264503549,266516892,269448647,271318973,272425862,272517024,275202957,275320908,278246928,278367990,286832217,288064317,288423347,290068012,293541404,294970962,297443599,297483932,297683252,299618215,301774460,302599243,298795560,304276330,305193806,310204420,311537449,317274816,320741480,322277803,322305016,327641563,329830225,330248289,330937256,331425512,331677776,333984462,334258086,337357524,339137254,342302979,347054270,360066551,361239979,363493908,369794127,370663288,378543627,381586692,382819824,383365922,392944718,393706161,396685427,396729709,399014833,401905457,402388725,403072380,403975309,405984583,409350878,411662430,412060963,414201788,415129553,414107550,418628614,423913693,424073483,424363796,431519023,435676196,440162073,441313608,441730337,442380306,442589466,444149912,444570304,444923699,447304243,450814996,451894978,452192311,459972499,465291780,465400831,470207000,470613363,472579183,473943388,475583797,476665827,479752021,480760664,482059187,482603180,482895526,484522471,485366114,485442106,486159674,486601609,489601181,490656986,494295580,496935264,497894471,500824642,502427461,505184062,505184870,505934015,512023231,514040210,514463904,514555091,518179996,519330360,520814975,522660744,523139067,525853925,526106080,526450498,526560695,528001199,528802617,529218726,529947028,530714845,533499594,533904529,534947054,535128856,535822316,535949419,537541592,538391181,538869387,539109939,539237212,540104996,541039102,542437478,542470380,542750413,543952811,544002813,544549911,545283738,545603227,546430276,546821782,546855034,547349347,548816455,549029885,547052084,550177414,550506343,550576936,550751990,551189709,551515139,551579329,551911474,552599121,554758540,555272624,555875904,552705962,556106048,556323016,556450810,556760464,556833408,556886024,557068103,557157248,558182147,558253889,558254418,558494344,558516693,558898016,559071845,559170640,559329634,559339439,559340082,559341986,559342799,559343141,559345881,559346234,559348686,559349847,559351983,559352923,559358325,560287649,560424485,560521470,561517677,562941656,563762046,563829270]}
{"user_id":4021437,"collect_list(fan_id)":[3142335,3540286,79726557,488099131,513249133,526633802]}
{"user_id":174030721,"collect_list(fan_id)":[18685568,23311474,29029574,46770498,47123243,50512280,55182300,68088370,69476664,71214997,71334242,74191451,91121545,93309349,94953336,95931011,96837441,105419745,110908825,121569914,135470786,139730308,144769160,146557413,150586176,155575590,158569204,162725131,164923703,167618880,167930541,170609895,172100372,173175776,175261612,175404509,176466902,177674383,196805273,197046336,203175090,206758102,210999514,228444726,229937525,232438209,236092031,236761625,244605712,245096349,245950406,254479719,256953842,267985079,283406229,294924375,299805883,299987131,302644781,304980280,306190268,308567992,314025248,320113505,321599121,326138457,326966738,339220563,375204516,377244378,377269881,380358511,390599139,406068355,406796926,408670281,415388631,415392051,415397361,415398425,415400336,415403198,415404361,417283578,425270389,431833041,428471833,439667511,443739042,447216943,450158795,450432342,468958365,475764074,477498472,482118645,482827211,498066356,504297737,514877347,535993832,548684618,553942027]}
{"user_id":283926364,"collect_list(fan_id)":[20173901,84877720,88815041,91008378,92902867,93127414,101087804,101932766,102978954,107840751,117925877,122523359,122991887,124701635,129425266,131743118,132627697,135400301,139848877,142590400,147301166,147684318,148326403,149461299,152987441,156567521,156758976,161229002,161350115,161885126,162301816,162675669,169164383,171546695,172366362,172935922,174005917,174552951,176519428,177960309,179787777,180434460,181004234,182102151,183605173,186577062,187465496,193215754,193258923,193379302,194555964,195359593,199272159,199977761,201421339,201723766,206547382,210826991,211024419,211791584,212540680,212545531,213891656,214257082,217974649,218861497,218967641,219130794,220484824,224578971,224843095,225732679,226028731,226599225,229048663,232184537,235102353,235126740,235221965,237700340,239505519,240011473,240068033,240087539,240505899,242578421,244296996,240869221,246009038,246263997,247421174,249437119,251376609,251478758,252497939,253551460,256667556,256806844,257992057,260145776,264541057,264695793,265388019,266069985,268225770,270198560,275247379,275935965,276061941,278028696,284372657,280466660,285145020,286482073,286894403,288929506,293027494,293710752,299202462,299457668,301814819,305798385,307048207,308151247,309365546,310635876,311354012,312615767,314509875,314590338,316950595,318838536,319999406,320403566,316778264,321592420,324998363,327453914,328303957,330639453,331486736,331595715,335318849,337160378,339511535,341009741,343812769,349221047,350074567,350882964,351699678,353207712,353291977,353607635,354945052,355305260,356049032,358696446,358802843,361389176,361553540,365239827,370267274,373339158,373762640,378443288,373568698,378822528,381005640,381090344,378620720,383687787,383818657,384862502,385989945,386340944,386448256,386663395,387457228,388229583,390970814,394637739,399283605,400035389,403955429,405316470,406671507,406770317,406947675,406976940,408029326,409141887,410176487,416696716,420088639,420409047,423418799,423880341,424047569,426182931,426203415,427971958,427974978,428661825,430253853,435727812,437573251,438882776,446999037,449202298,449209073,450409014,452950796,454079431,466208249,467794657,471422404,472827643,475652696,477951544,477399565,482187990,482294360,485490206,487748959,490137168,493349436,494204663,494312560,494668025,496543436,498044120,498590374,501107625,503107476,511173508,513433538,518723907,520012623,518902633,525911887,531644250,532114308,533905975,533944716,533956939,537978893,538241053,540451541,541045764,538888041,549144441,555345478]}
{"user_id":40408102,"collect_list(fan_id)":[23845115,115244899,217995554,263526515,277640351,296606288,299882292,329959322,372150976,513397208]}
{"user_id":132056624,"collect_list(fan_id)":[29836431,34164764,46220475,49274176,57329728,64763250,67718915,65596144,70245912,73028369,77874782,78831296,79558671,81962126,83509806,84952047,87444927,89438744,98923754,100616035,105223469,109106282,115730421,116179132,118156170,120421417,121349133,124330617,133185660,133430911,133722890,133856009,136872280,137843833,138662470,138828953,139461943,140432126,142936947,142986903,144317992,146984346,147835339,149419177,151169713,151377401,151672279,156099664,157444852,157545465,158412949,159907248,162923054,163176492,163520495,173149810,174010365,174089107,175332576,177134279,181330586,186012715,188223871,190134289,190300908,191974672,194707281,195375852,197093237,197625757,203638028,211597270,218017609,218555093,224491529,224946155,225297851,226172985,229807970,235465055,233330334,238669893,242762864,243253810,245785964,249847956,252596957,257429360,257871398,261173640,263862211,271068037,271075848,275642800,282483413,285716536,285959297,287283940,300375527,312607931,326852247,329956102,340309251,345179033,348990630,363412408,364291698,380828590,383079969,398036656,405352022,408707117,410596821,421425220,423647604,428952332,448962887,476851990,478776555,478899852,479644282,477330854,492925906,493775009,493549429,498776627,510663511,515873923,534037357,544232230]}
{"user_id":443194153,"collect_list(fan_id)":[29864888,44311038,87893985,137680538,140487289,150889966,159012434,364265923,474021841]}
{"user_id":120273741,"collect_list(fan_id)":[31624249,76490190,113238673,121077931,138072998,150579855,157084070,186432940,415399445,476988423,487766402,534944007,538200031,545353128]}
{"user_id":158692555,"collect_list(fan_id)":[45158486,52046861,60969105,63207224,67871787,92397903,117205909,124808849,127434035,129385557,131325240,133958920,134235236,135515620,136547840,136835168,135748190,137762374,140933505,142222140,147532861,150981691,151154102,155290776,160733755,164311260,164738924,165640742,167520813,167712890,174381706,174938749,175022161,177288389,179092153,179313826,180475429,188679451,190126851,195362946,196485874,200014143,202365922,206688638,207074221,211076121,211959164,215439911,217366285,219247596,225095608,227152136,228903934,230380325,242019629,242052841,248322114,253100759,259306921,262468622,274237779,277795061,307765306,310006787,316143070,318676740,324003270,328102993,328744689,335576810,352645995,353819681,354635134,360045659,375147303,379503993,379603716,383588453,386215855,392593043,394963455,396162404,404968215,409502645,416482246,424340872,426910893,427059678,431348696,436021155,449700834,452034759,454038535,474642865,482856030,493053675,494761385,505612831,509331204,510129431,511585269,518248146,520060757,521326340,530933699,531981564,535476252,539179305,545890027,551250206,551833869,561761207,559995839]}
{"user_id":33298916,"collect_list(fan_id)":[50313124,346497756,434516107,487192952]}
{"user_id":532297882,"collect_list(fan_id)":[51409734,60552547,68906916,95720328,98269352,151325443,182300470,184567705,213405281,275813226,283741380,322721215,332176057,399172365,453588162,501312862,513434137,523494727,532317232,536884974,550093921]}
{"user_id":272362363,"collect_list(fan_id)":[57338462,71963723,95214128,114524233,125317402,126442490,139137673,141694416,154665473,170871802,171954143,189350645,231129555,236663490,246510110,280539252,285984301,334377694,371332399,372671945,415390316,475395826,475595615]}
{"user_id":196311613,"collect_list(fan_id)":[62773618,108434580,138217112,138532801,138897732,154732258,162762270,165093955,171481984,172362632,172639533,176329164,177729879,180800003,181510103,181851820,183165006,188858943,189569706,199874308,202166900,205758776,206168721,210935039,224384750,227769385,228016364,229414740,230978507,232318855,244661558,263063593,266684198,284555203,285713905,302628429,318667896,323695529,328273451,339820671,350903092,354057450,357601744,384770017,395391504,413155906,417583610,420213991,429030410,433500271,437649650,438290642,452969993,463457441,465826233,475210400,493422129,496942818,515538344,546440896]}
{"user_id":456586454,"collect_list(fan_id)":[108863035,157317614,176889676,178107993,204857095,213182988,234388678,259369118,264245707,281327552,291141053,327682213,328387317,335575260,337338259,341791029,376342804,382975610,383547988,383795079,411224004,419217384,422609453,427770543,437185227,439623570,441046656,457698097,467050046,468229981,468454646,475999502,485158970,491052319,491278759,532600253,553316897,556994426,564448093]}
{"user_id":216406859,"collect_list(fan_id)":[133877363,135008469,140561141,143614437,164494501,173629650,176418522,177620585,180737748,183487972,185956948,189547055,205315999,205342073,207246371,219577768,232174300,232318855,235615035,236435374,252029353,269442154,272818336,280598880,284001590,285924078,298822954,318253303,319837542,320561708,354190355,368039512,371267835,391077547,396093344,400257149,421233936,422331917,422395807,434278572,442220174,452715437,462322349,477507627,487820821,506675953,541737966,554048531]}
{"user_id":2618080,"collect_list(fan_id)":[152656627,455887632]}
{"user_id":59265204,"collect_list(fan_id)":[170999004]}
{"user_id":237977365,"collect_list(fan_id)":[216082692]}
{"user_id":100220793,"collect_list(fan_id)":[223746182,260618080]}
{"user_id":417352948,"collect_list(fan_id)":[247927559]}
{"user_id":96770232,"collect_list(fan_id)":[255134086,269724953,376366288,415476682,436444017,471889113,478765211,521875795,522141932,538377684,552498268]}
{"user_id":27522,"collect_list(fan_id)":[313407500,514462172,519054336,544521544,552687113]}
{"user_id":132303776,"collect_list(fan_id)":[329786110]}
{"user_id":346889729,"collect_list(fan_id)":[333652440,510471397]}
{"user_id":223978991,"collect_list(fan_id)":[347675275,551604365]}
{"user_id":418191710,"collect_list(fan_id)":[400452808]}
