{"user_id":27419,"collect_list(fan_id)":[1567,2150,2541,2970,3300,3463,4556,5037,7373,9383,9846,17573,22004,22802,22897,25685,30518,43747,61652,70040,72198,85082,102140,103729,128882,133685,134295,136882,185214,130385,233887,239909,300274,322162,354639,399054,422440,422720,423082,425920,446968,447201,612733,702213,710131,719880,804599,918415,1032797,1046787,1111044,1622246,1862314,1925168,2311895,2670946,3187411,3219203,3910114,4181011,4310576,4604056,4945506,6866116,7236650,7591940,7711201,8524332,8853741,10470833,14388374,14959669,18475149,19119601,22705077,22902862,23533070,25619464,27583813,31255789,31609798,31656402,32885805,34366821,34587765,33508568,39550973,41934272,52629142,65271192,70922560,71079139,78879645,95884146,100187585,109626924,118161509,124518396,124548612,143753213,153831821,172306666,173142100,194335941,255430215,282017297,291831320,321263307,353607142,403563269,416180005,429343496,452787973,469344923,479602226,497978932,520239178,529276371,532979679,549227714]}
{"user_id":285388,"collect_list(fan_id)":[1181,16976,17166,19669,23643,28341,41683,44861,53994,66564,72712,79130,90423,92994,104354,107328,112474,138704,150771,182077,236580,239407,258043,262488,269767,293410,325985,326011,326873,214891,342862,344715,346991,347429,353244,377563,386061,387073,407854,424274,454218,458842,466029,466540,468198,471576,506975,507257,520805,520822,527076,550188,576639,584538,594201,664277,666055,686825,702893,703009,705260,716080,724889,801544,878625,901538,924644,932176,934753,1011808,1013482,1121629,1156363,1168208,1216490,1240975,1252669,1262391,1423303,1473788,1499825,1533613,1569569,1571535,1583249,1600030,1611353,1621375,1408535,1645387,1704515,1705394,1772491,2007439,2172189,2252348,2269340,2282083,2503704,2565315,2568980,2596588,2646378,2750145,2754366,2786815,2477448,2804077,2840927,2877365,2928996,3000964,3140991,3142325,3435850,3466105,3508608,3657047,3663808,3815427,3820896,3826367,3857273,3904314,3942679,4264247,4284473,4454062,4741874,5011291,5084108,5207333,5295649,5426440,5558846,5704847,5882825,5925665,6172043,6224073,6458318,6498020,6785572,6839574,7013278,7230508,7285541,7415707,7979310,8694842,9205867,9484636,9493916,10139841,10352353,10656479,11009637,11626556,11647729,11663936,11790094,11825220,11967909,12206043,12266659,12288912,12530712,12967140,13018031,13707510,13928444,13941044,13978606,14341131,14935311,15049886,15288310,15908268,15961276,15989108,16306452,16427520,16564796,16931260,16963396,17138291,17451163,17484991,17662199,17698128,17897074,18692995,18715263,18775525,19228128,19381804,19909999,20365668,20631158,21124967,21401446,21423383,21595791,21626270,22634283,22727890,23291522,25262264,25628497,25743133,26314811,26394988,26435962,27533205,28731861,29377753,29674660,30691242,30828085,31142850,31216569,31422949,31634592,32008162,32252622,32371031,32632075,32763671,32952639,34177633,35531858,35697835,37308086,37640226,37860682,40824163,41120991,41497440,41544505,42707671,42817407,44081776,44915257,45310658,45817386,47822149,48157524,48749566,49870553,50991104,52853482,53110126,53350256,55827930,56390500,56588615,57127995,57527322,58079890,59028236,60669731,61191854,61390575,61464134,61607941,62930955,64346972,66873468,67579939,68138738,71484155,72009754,74941451,78616406,78955584,80030077,80111903,81056644,86007654,86279218,86587552,86978725,87146429,86820893,94330466,99227272,99350003,101419936,102138973,104837349,105195138,112863509,113847347,115581230,120641551,122504611,124435520,122779893,128918036,132463730,135824771,136877221,138080164,138840258,138873659,138968808,139834801,141221533,142364830,142741509,143868421,144905967,144906555,145286495,148371512,149051412,149256400,149271033,151029803,151757564,153013160,153513722,153701152,154083829,155729406,159320423,160231959,162870118,163591260,165198833,170224974,172532073,174273567,175362792,176456230,178041631,179630471,181246266,182481226,182756438,184060864,186106083,187248162,188086678,188386127,188605550,192819464,193449977,196186916,196756254,197735483,201332868,212080886,213355363,213616202,215469421,216746633,217080104,220090868,222675072,223601348,226747310,228188679,229344646,229881815,230910576,231552289,231625038,233883050,236521569,247835650,247990914,263870788,264191150,268093149,268726332,269231209,271812123,273514169,276068671,284247479,286055716,288847877,291103296,292516338,292680185,297307455,300889186,304157066,308974850,312126422,319328365,323115151,323196260,328336304,328558527,332430977,343778118,348645740,350681291,358272389,358624886,358696761,366023555,368784320,369838609,369993339,379450412,382046696,390779729,391320580,391320693,397901999,398739995,401554389,401915712,402505458,405512647,408113093,403333319,410963507,412445006,417045705,422575791,424636504,428459115,433818746,440159938,446293268,448093135,452142793,455326679,470617677,479605131,479609601,480308741,482735336,488615273,488676307,491589621,497232696,497349073,501829134,502114636,502442104,503271930,504111399,508473682,508961684,511780899,513799465,516777165,518284858,520337382,520660176,526612154,528259363,530865640,533221782,531727706,539281638,539562875,539781821,538914764,542140991,546230088,547460719,551973514,549922476,554443089,555888369,560375543]}
{"user_id":583340,"collect_list(fan_id)":[57306,279545,421349,476166,627065,761190,801614,873678,1083030,1364222,2874659,2970416,6195581,6446190,6948278,8036987,13360340,14535328,33681996,57062574,71472133,158945362,177082498,177350187,239405848,269990529]}
{"user_id":1727841,"collect_list(fan_id)":[41440,42669,45248,63984,70610,140519,146871,221378,225991,275066,281082,296266,319666,328147,371142,380881,401232,425963,432638,441853,467256,515874,539974,541558,559834,561011,644527,666808,759431,790219,909923,918644,952811,970463,1010191,1032075,1060479,1097232,1238720,1243035,1247309,1340464,1348166,1575334,1608463,1713153,1748465,1778166,1802670,1837309,2226102,2457194,2192036,2803658,2942068,2963275,2993707,3081366,3082067,3340053,3452557,3491326,3617676,3756978,3915143,4005290,4702484,5188738,5361858,5672623,6154330,6190125,6798840,7535462,7687258,8571103,8612546,9464421,10218177,10272036,10387365,10777556,10802090,10865019,11733825,14707372,16717926,17047759,17849579,18841243,19609814,19852953,21675604,23485198,32551268,39200034,40578914,41291330,45967694,47853776,52100879,52758534,53593422,65078809,66745265,68889539,99779248,110344952,136936709,137841035,138657632,140399509,145208441,146304221,150540299,156671433,214406163,218341687,218457279,235533730,248159721,248251048,260594237,266688956,271528470,276155422,310210233,323744819,326662444,403562937,410884863,421825726,423853580,519197296,535065436,544128370]}
{"user_id":1986125,"collect_list(fan_id)":[1568,2050,2745,3195,3422,3436,3520,4556,6492,6715,6881,8217,8222,9846,10518,18086,18465,20882,22220,24310,24430,25046,26047,26146,33145,33723,36555,36802,37697,41543,44722,46775,53448,54798,57114,14,17,34,149,197,254,279,59628,60414,62177,64183,64321,66559,66717,77777,79796,80263,80511,82318,96490,96896,97503,100534,104246,118818,138284,139650,143143,145321,149981,150331,151951,154852,162447,164252,164706,170177,172823,196771,196974,198701,198806,199773,216004,216998,217553,219383,228062,245216,257111,259875,262350,323509,323777,325875,327617,337052,350158,366158,368059,371109,378247,416361,420553,422324,433737,440330,455434,455928,457379,463377,475337,478894,494075,497606,504650,513331,531837,547960,575155,583830,586439,594045,597087,608458,632595,640414,650373,672390,687543,730147,737311,764958,768540,785635,794791,811763,818250,857630,865614,877281,896232,896907,898685,900478,961430,961734,964772,969857,984706,989149,1005246,1011808,1012937,1040620,1056640,1091766,1099596,1101932,1109967,1122996,1134675,1135943,1265333,1446185,1472344,1480312,1490853,1494126,1509206,1509950,1541466,1563803,1571473,1572798,1595660,1654626,1697810,1708231,1729121,1730782,1731759,1747189,1752880,1757536,1786187,1857468,1859464,1910986,1938574,1941069,1995245,2027074,2030803,2074351,2083309,2092404,2115272,1876980,2205389,2246508,2333230,2353068,2360042,2368594,2505712,2507094,2523506,2554705,2573951,2578703,2588880,2597886,2604475,2627090,2654098,2657215,2694952,2764738,2775899,2785969,2805564,2812165,2820149,2914568,2928315,3009385,3061808,3071355,3072179,3113962,3142218,3142958,3173613,3202253,3215468,3379762,3432368,3435585,3459115,3516270,3658435,3669825,3683111,3859715,3538429,4072644,4089278,4115031,4181011,4206848,4275319,4329705,4585474,4684012,4704945,4731069,4754727,4779894,4783508,4790817,4375324,4899732,4900763,4948231,5024999,5051584,5125603,5142724,5202179,5262191,5390662,5441578,5465047,5517963,5560652,5688327,5781736,5810255,5810766,5853873,6078794,6115094,6205753,6210999,6324312,6440078,6461601,6581492,6593694,6639857,6650673,6651247,6053606,6745439,6809300,7075750,7157416,7206530,7337161,7364447,7406576,7550241,7566359,7572899,7760507,8027567,7345935,8119461,8355063,8479617,8552913,8579206,8910050,9020887,9100312,9153688,9154716,9210014,9454164,9575058,8732287,9637095,9822647,9914880,10192516,10231159,10245210,10385276,10470036,10508939,10578701,10618145,10732905,11027752,11142127,11310636,11693786,11711604,11733348,12102180,11438099,12560065,12823027,12889287,12942964,13214326,13230019,13329312,13476378,13553656,13636965,14301570,14343493,14471560,14486609,14504777,14663871,15664420,15880725,15915916,16188509,16252473,16264371,16360616,16384430,16663188,16690479,16896291,16937840,17152309,17288287,17848439,18012602,18308143,18319068,18352984,18653342,18679861,19039187,19385871,19520725,19568187,19633046,19711486,19958307,19960274,20018555,20087465,20458730,20854033,21016294,21518132,22110892,22221899,22380508,22417636,22446217,22729496,22732562,22804538,22841249,23506641,23533070,24110525,24203066,24828557,25087554,25425120,25655712,25809161,26100826,26143240,26277006,26377053,26386523,26719660,26738483,27527431,27690724,28210128,28392295,29291238,30572041,31312555,31536652,32017346,32241127,32718288,33095573,34184226,34376209,35501089,35807256,35938823,36101764,37125363,37647927,37700627,38083385,38195743,38585575,39014702,40360328,41406804,41411357,41740551,44904970,45416937,45793003,46687371,47045043,47750050,47854836,49145012,49163489,49637977,49918944,50298521,50536401,50875477,51175819,51299245,51529759,51547763,49897739,54986442,55951303,56545441,56824402,57876782,58259761,58500988,59164960,59166673,60772753,61119686,61227517,61322694,61351294,61573116,62119376,62596200,63583530,64417948,67659831,67815628,68016062,68421006,68454364,69088083,70523572,71317478,71414036,73413602,74245194,75166646,75177853,75300268,75708356,78558920,78930222,79153907,79674081,79978000,80151661,81347245,82193982,82253881,82430692,82772034,83321830,83440223,83492458,83865491,84063120,84115983,84268270,84610164,84926104,85546207,85625356,85724972,86023531,86404556,86600576,86961489,87344751,87550518,87629042,87693090,87802786,88042543,88262293,88914511,89115557,90163178,91593374,92093600,92129570,92187670,93010590,93188255,93805754,95119803,96232919,96824548,98791508,100480916,100772411,101945882,103719595,103959481,104143590,104523572,108714769,113142076,108808827,114752686,116029283,116663568,117203881,117470313,117781410,118536536,113674423,119672484,119715276,120158515,124495229,125201991,125438002,126363739,129455301,130478253,131205020,132231006,127786852,133211157,133250059,133275520,134517736,134783432,135446999,135554479,136537715,136692954,136751441,136944911,137043082,137717968,137898088,138305184,138495805,139526759,139859060,140362106,140428447,141083045,141141193,141364232,141625230,142791454,142918399,143094517,143103013,143550295,144700262,145545496,145996272,146652085,147603300,149113964,149159673,151467456,151538470,151545999,151585597,151734271,151852988,153752588,153931559,154093776,154241883,154471056,154866804,153989387,156530323,156548451,156986795,157663919,159879914,160264904,160384784,160678118,158660433,161621821,162667568,162755363,162850900,163708422,164602488,165455692,165504240,166176435,167066354,168354935,168557207,165879046,169064714,169739170,170147312,170541079,171598619,171855482,172054626,172402607,172744106,172894294,172971357,173299831,175026309,175029974,175181086,175737646,176301377,177157427,179092216,179153992,179368225,180037227,180096421,181416420,181689366,181862976,182919411,183017202,183268481,183424552,183763009,184313484,185117147,185223778,187222157,188092696,188469777,188855048,189116734,189762555,190284449,192165165,192276250,193333559,194387738,196210642,197413970,200469296,200576836,203625823,205099826,205655562,206241575,206625263,207615857,207657990,207720147,208343131,210829532,210846703,211147189,211320388,211794127,212342550,212523106,214551945,215909545,215933632,216314415,216916273,217316142,218921700,220721112,221021217,223101219,223211740,224272610,225125228,225166577,225818028,226120658,226766494,229568569,230558063,231338869,231827429,233157978,234252804,236820864,237135706,237286647,237292597,237381815,239801026,240230657,241054989,242198617,242441498,243083505,243281557,243670158,243953986,245968189,245993396,246321589,247007843,249167522,249666472,250619408,252482237,252994279,254419681,255453588,255795227,256962575,257140604,257240207,258909520,259811537,260126670,260721766,262377379,262669916,263370028,265230693,265692075,266890472,266927735,267459072,268909617,268912740,269590505,270181086,270382942,271094384,268678817,272446272,274637063,277380296,279494346,280639911,281287394,283224325,283776198,285555054,286805865,286957209,290697874,291434783,292095430,292819134,294122130,294403627,295093387,295644805,298057791,294340152,299367555,300319667,301322529,302531686,298718581,304001163,304358149,304643897,305700973,307237725,308358953,311589118,312067117,313946755,317639316,318460439,319261082,323191223,323375875,326708393,327526628,327901334,329490239,331129074,331639485,332544276,332612258,332856659,333040402,333903737,334555354,336625752,339076733,339163229,340701825,342516335,344232047,344936868,346341530,346680817,343014033,348652373,351157101,351626365,351702131,352227376,352986163,353309010,356234071,356449606,356669275,356708297,359222879,359903162,363905832,366991049,367129315,367422795,370296989,371415317,371913899,373377855,368900047,375111089,375695139,373602287,380415523,381148203,382502686,383520740,384950128,386324357,388757140,390590973,391683605,394722915,399464846,403563269,404324839,404369269,405108861,406568020,406579675,406796611,408403945,408542473,410135854,412904874,418550274,420185480,420614633,424519612,424738589,426055107,426326017,426706698,429243532,429736573,431061275,432399370,433000211,434226012,434270889,435647076,435665817,439594603,439914823,439956642,440875209,442015555,443526725,443868364,444419183,442927100,448493654,448691660,449831063,450571650,450829055,452272909,452400179,455219389,455755774,455973106,457524244,459962308,461733477,462459765,459786996,466913881,467674926,468265843,469280198,471957204,472507695,473740244,474714087,475408385,476823794,479292283,480440447,480577873,483403858,483507677,484359944,486146414,486275864,486813807,486839728,486983402,488138900,488172516,489673441,492734490,496236198,496666887,499878119,503407309,503540212,505106250,505484565,506909406,506990764,507046348,505430652,509580022,511058988,512193461,512502902,514592450,514743579,517332340,518770118,519955906,520560391,521379709,522480573,522524481,522596766,522875842,523137072,523931348,525904527,526859199,526866701,527025512,527296914,527933266,528213090,529853933,530337930,530426717,531187687,531828221,531942113,532202145,532450700,532905659,532958116,533005690,533788777,535226880,535445598,536297279,536613700,540145383,540486379,540934264,543165700,545237921,545244773,547939574,548887616,549557315,550692530,551188692,552981549,553873075,554460862,555791345,557574263,557990069,559750861,555931239,560164499,562436910,563392501]}
{"user_id":8580191,"collect_list(fan_id)":[22737,205099,406112,418440,1575058,3439729,3790190,4621942,4793279,5696666,9007000,9160776,18323517,79971417,230429161,233391320,443983225,484961546,505427101,511785197,514214425,522904943,527613481,530078271,534196946,553299549,555494012]}
{"user_id":12410417,"collect_list(fan_id)":[40135,140288,209564,362484,768999,874250,957836,829237,1276182,1342129,1544081,2224555,2324726,2613257,2670170,2848111,2871592,3530716,3616193,3781324,4658460,4680781,4734489,5176639,5344898,6120643,6456566,7087583,10072143,12289267,12307856,13264689,18557109,20763560,21743920,21889699,24967606,25355402,25581879,26531137,26945222,28453586,30834354,32153409,37065898,40784047,49215700,50333037,89590133,137892564,153952267,154247099,156806234,172662875,176405804,178073265,190912924,199948064,220606675,223760778,236471634,255286095,269119822,299205066,309693545,321322616,325803733,365624794,447383856,474126968,504946029,522415016,528398594,530923918,549410864]}
{"user_id":21298164,"collect_list(fan_id)":[13121,43985,46378,48276,140977,262644,298645,382506,510195,527551,561432,603265,676725,891248,967028,979867,1000153,1050068,1255951,1429134,1430293,1499645,1581547,1852632,1629481,2141109,2250238,2369570,2402459,2507010,2688715,3005934,3047269,3052454,3283210,3974086,4520212,4794789,4855269,4915200,5365783,6096523,6117180,6240559,6250660,6367175,7231918,7363246,8518130,8787693,10250387,11411657,16646718,19604809,22739615,23373806,23533070,25894919,32787186,40330968,40708086,47063943,50764592,50883636,51098124,52981033,56817878,60603485,64980097,78373406,82489670,87639020,91651372,112283999,118778387,121869366,147962609,151715397,169139553,230358856,236569735,238226020,257283456,259322286,273475148,352294354,409343456,437982079,438361094,444156101,489066002,541515820]}
{"user_id":22384450,"collect_list(fan_id)":[27420,180336,295531,529250,3640498,4584867,5801031,7167609,7270615,7628049,12727957,23302316,26532035,26576049,27184483,41139389,45000742,48918695,81806629,85342445,84420183,88798097,94953336,125905980,132004472,143555194,159811171,207934638,209059880,233527379,245057783,248401355,307087043,342617579,344706664,555349748,555349837,555350344]}
{"user_id":1077412,"collect_list(fan_id)":[83208,105506,161636,181971,311481,330136,486481,690667,818596,870834,955333,1004554,1863516,1946728,2023956,2287316,2319719,2424584,2522748,3173837,3376743,3611842,3737549,4912204,6412989,11167708,12034023,12531832,14449273,16794155,23420022,23600235,36548937,49090544,52801681,55096757,55497283,71700677,79297090,103510030,167816757,186960300,207505986,223584522,366928192,384758670,510032453,545712887]}
{"user_id":3184869,"collect_list(fan_id)":[115705,708221,1449835,3295028,3616284,8423902,8436102,12719745,16065775,17420815,18527014,27051220,31063201,33125576,33681433,35900618,37933249,39954545,40161489,41378650,42726946,44073391,48025694,50950662,53153494,57368519,59191573,60095852,61836134,64539588,66107007,70216326,71553238,72749081,73568354,78568368,77678772,84203622,89005813,90010078,92348432,94859750,98571601,98944732,99388495,101509653,101617426,104012853,119785107,121368588,126125942,131080085,131598206,137928474,138454388,142394266,146639286,147024177,147388704,153305201,154505056,156856503,158184794,161449897,161802778,164687333,168363989,169020706,171940102,175974506,186595537,198910285,198967351,201843229,204362047,205533822,219284784,220663298,225308811,227520284,228012988,244271085,244946429,245173491,246668902,246825054,248677589,248800594,250563318,251498771,253280213,255251950,265593313,265848068,265925606,272542231,275158508,280930555,281650985,284550438,314018471,328420807,329840165,338852885,339830997,340844026,343151989,356017556,370706799,371918726,375920431,376149000,383028197,408197264,418838841,426436313,435662111,438225607,442120769,438392950,452346560,452549292,464083357,471320398,503553467,506905354,510056368,513501404,522861196,525413602,527362934,539076643,540610230,542002285,545508734,548773283,553557674]}
{"user_id":303139327,"collect_list(fan_id)":[122556,1706864,3917700,6824946,7176836,30517560,34576252,68641393,71149343,96431293,109905467,134800701,140512757,216158633,281474179,328894057,372076403,408661215,462265229]}
{"user_id":494452624,"collect_list(fan_id)":[96502,1575644,2007379,3742219,4027339,6504258,6679814,6896163,7073271,7163442,8254713,8475180,9476015,12078668,14011196,14498141,15055825,15062972,16607673,18598456,19005123,19078175,20224347,21325330,22907112,23956368,26782058,26961392,28843426,29084193,29480897,29862887,30050057,31244441,31945875,33110076,34523672,37708736,37756206,37876103,38043717,39090407,40514535,40789025,41925419,42311460,44644578,46794793,49724835,50987129,53405270,54131573,56296877,56692018,55629932,60368011,66591402,67590805,67801836,68884314,69795977,70455917,72264630,73584045,74305647,74456572,74844752,75872241,76685350,80983647,81893022,82111794,82842733,87103627,89195872,93026244,95674741,97664135,99664255,108680026,108867780,113213869,113395309,115270307,118012802,121319766,122277327,123979414,126333312,133933809,133974010,134807737,135275728,136736285,137075099,137556146,139467407,143589005,144530765,148073585,150784478,152712516,157350938,158265944,159086523,160091703,162409683,170867408,171634050,189579599,191853802,194697794,196408898,198607600,205180377,206485946,207474170,208567753,211475703,208225959,212448909,215442705,215474243,218860125,223668283,232887531,235127223,238489640,238783230,242019443,244003209,248135045,248728984,249639261,254550910,256062599,261242900,268531360,268869216,277410671,283772892,287514010,289738177,293358596,295961974,299367427,301343085,301406490,302389136,305099436,305668820,306762828,302982949,302995385,309662268,310431089,313780384,329875243,334442606,335097875,335458588,341670869,342723632,354663228,354859690,359088980,364601947,369582886,370544747,372116403,384292876,385219109,385616619,383191651,388855211,391736653,402921029,405508741,405979645,406485581,408884632,415250371,419429359,420193347,423527514,424671144,430760210,436735204,442461034,443854286,447240700,447363716,447761009,447800659,448650880,449104319,449869811,447138989,452010155,458599895,459638714,460748509,460778521,462100810,464626948,465431964,467225704,468234542,468762404,468978802,470293606,470430358,471345579,474402090,475006214,479424091,481107553,481500116,482846442,483090543,484170001,484445773,485000996,485425803,485578988,486606686,486950965,487594244,489480369,491535493,491627318,494898671,496257203,496342093,496510573,498263200,499777371,499825429,503008191,503327750,504193945,504485767,504794752,505637556,506412999,508098606,509399977,510894420,510947088,511231375,512484059,516073367,517396954,517621745,519517743,519586492,520071891,520203279,521273066,521903187,523202087,523257087,523320792,523358060,527366303,529368106,529493719,530058550,530730605,530796914,530817335,531101000,531582517,532627466,532747709,533303732,533659441,533798082,533924331,534016125,531693571,531695337,534479316,534868606,534899731,534999557,535523522,536182476,536245996,536321750,536440570,536964401,537367507,537844375,538176063,538343066,539372094,542068774,542927610,543544965,543976251,544450833,544595360,544633351,544909758,546748870,548405726,548939131,551107600,551138740,551672947,553290828,553544774,557689921,558340974,558819827,561700916,563565365,564653247]}
{"user_id":66560,"collect_list(fan_id)":[155327]}
{"user_id":86381114,"collect_list(fan_id)":[206353,569523,712851,903781,1039444,2022420,2235317,3302891,3390428,3443478,5198766,5247476,8953813,9355756,10184977,10332774,12257881,13590591,14315536,22257468,28219544,31781736,53783297,64903744,76220594,106394872,124963594,130961212,157422207,158665852,161969256,177476187,197431054,207340046,270000220,311206647,364471017,461580248,529411616,541943827]}
{"user_id":151715397,"collect_list(fan_id)":[167677,179760,264913,265312,561348,649834,766682,956033,996589,1000621,828967,1021245,1179617,1203606,1509749,1897724,1965791,2058972,2131923,2158185,2235071,2474363,2765965,4053503,4566199,4820544,5032077,5068695,5192917,5932276,7647215,7990358,10466922,12219940,14126645,16200150,17897078,18112425,27388365,27902187,32306574,39004772,51318380,68533541,71106194,71501182,73955048,91597122,127171584,133171809,133297286,152437730,172654863,180664809,183501547,185196344,206845347,210243519,220953033,226714066,234175457,244253444,248765423,271102784,301208051,318725440,385166301,404079685,444347053,451544543,512709405,520459788,525314279,550881486]}
{"user_id":154277360,"collect_list(fan_id)":[200033,843931,1007784,3259537,3161695,5376299,15291497,34838019,88613491,90548279,166449094,322466986]}
{"user_id":97502,"collect_list(fan_id)":[268867,297038,559942,2848040,3038916,5170837,5590028,21083766,23411166,25466475,52891714,186666404,190519564,366368531,393720457,456761189,496141774,535614715,551117194,556037945]}
{"user_id":12484189,"collect_list(fan_id)":[246912,294162,303953,561706,570557,791429,1137196,1343681,1427003,2819019,3893009,5361858,6091349,9147938,12855855,17755643,23757667,31388006,33285846,38319396,38663253,41593621,46945298,49547307,79353111,87570609,138345781,168549058,172421039,330746334,479008075,519152647]}
{"user_id":154841254,"collect_list(fan_id)":[380707,8988522,11357657,28175409,33251134,63882772,113593980,131853927,132770772,133388995,152795641,210795811,227707544,328306961,493865713]}
{"user_id":4753700,"collect_list(fan_id)":[476622,502098,961820,17952880,24950621,43884270,44389137,44525121,55785736,57712298,72798351,82959086,96175044,133815819,186119480,203591088,219784367,244559844,300087927,437463080,442571706]}
{"user_id":355617921,"collect_list(fan_id)":[501017,694422,1143884,2613654,2666698,3296317,3688504,3805280,4360697,4544993,6885859,7720842,7797370,9339636,9544669,12386329,12540524,14520589,16313276,17002218,18899969,20777840,23159546,23878152,24074115,25372882,27495977,29154696,29313299,30698984,32736651,34682152,35064320,35203369,37918698,38822873,45458352,46352772,48311204,48352687,50340920,50681389,51094744,54944007,55129213,59618790,63332383,66861528,70365970,70783702,71957252,72909277,73919461,76161791,77461675,80399373,80456823,84862926,89546727,89722401,93972102,97247028,99273643,99668066,100628556,104559640,109291971,109555643,111011448,118129931,120354692,122262123,126273522,133203948,134827531,136985944,144375253,147295783,150610236,157427550,159633213,161183339,163216399,166756377,169996121,172211765,172861754,176234476,179536990,179560022,180984492,184086736,186936068,187094845,190867727,191068851,195421476,197333508,201970803,212480892,213687324,224661905,226094472,227212790,228809154,233188021,234127348,244269092,247923995,248475265,251074576,254568520,256582525,256631671,257016371,265439044,265565169,267966513,286397302,293410230,289526192,302258247,308968300,309669763,309992998,315291416,317744584,325401163,331469557,334878363,335040218,341915581,343407643,346883886,352548241,352893707,376169557,384480564,385594920,393724953,396948566,401239070,408158696,421921749,432689068,438865520,448633001,449169318,468935762,469347290,481181366,500038653,500853365,509260581,510642271,526829352,527394141,542995198,544025541,544745609,545551824,547018725,547179540,548504472,561860403]}
{"user_id":10445994,"collect_list(fan_id)":[633242,2541110,4546233,7112291,11414250,15981916,17850932,20850048,22869848,23129263,24613132,28700389,28946069,34774253,38984396,43061174,47743783,49732799,52352419,54262818,55813586,61781945,65246795,68118218,70516966,71317157,76910724,81649548,85748735,87219864,94492064,97632081,99506044,102266142,108187137,109267955,118028663,118540011,122363472,134082170,138141987,142191629,140754651,143395241,146035931,150610017,152007322,152444847,157639396,159609324,163460110,163984699,165458385,166103032,168255580,169648192,178008579,179793341,180634085,181853537,182541677,194160517,196694502,200582794,201466140,201477064,202648511,208591656,212787057,220192490,228297957,232953726,236201407,236773409,237323051,237484046,239304725,241321272,242527228,243926885,245153905,246068382,246582178,247319809,247809282,248055560,250098136,250191423,250892654,251033182,251733936,252489183,252757475,253104371,255321633,257004027,257872566,259502051,261509291,262043914,262490148,266278653,266601232,266764730,267921339,270620065,274186020,274200421,275856894,278481289,280828225,281890051,284144753,284183094,284249549,284553237,284709425,285822813,288113281,289247905,290158471,290798396,292600089,292864697,295388176,296055886,296067019,296194708,298350613,298846469,299753204,301105946,301825114,302803783,304967094,307323656,311239377,315946134,318676499,318817999,318834735,318910012,324064705,325433947,326157059,326681361,327267155,328099374,324885735,329500214,330235416,330591771,330812777,331230809,337821618,339346738,339830206,341175778,343832318,345001427,346375852,346643249,349556194,349760638,351562939,356226270,356428592,358346180,358597123,358710871,358730268,360560796,362182364,364188448,365039592,365829524,365985380,368629660,369115496,370922928,371118712,372682094,374390124,374546724,374978817,377286258,381729233,382371562,387562666,388791581,390683069,391180607,391650493,392667449,393392611,393493633,393522069,393928982,395596152,396704906,397086211,392429955,398972444,403229792,403707429,404124938,404658237,405154811,405941539,406160061,407835992,407904850,408714688,410630898,410714705,412214098,413303224,413430019,408793962,408898299,415386388,415731245,421306082,422588145,426138066,426138509,426468268,429570528,431136772,431734850,432806858,432874005,433088542,436187987,436314591,436405008,437539886,438260672,438508199,440961128,442309969,443116093,443541003,443948917,445090309,446417224,446425663,442911647,450909330,451132111,451202406,452568501,452878313,453007255,457828927,458471199,458973792,460477481,460717161,463048662,464919319,466228818,466997230,467362209,468044375,469266658,470370514,471973508,472162672,474158638,475184237,476033451,477757008,479602226,481474931,484068342,484130086,486977456,487557771,487895903,491046970,491560166,496968137,497059755,499535049,500244036,500581394,501018565,501995826,502446030,504489834,504889083,504985715,505976368,506177396,506428320,506518842,506648419,507247877,507408378,507593656,507696704,507765131,507801661,505425209,510283267,510412045,510621591,511268053,511538325,513272729,515044839,516125130,518178908,518449577,518706977,519232332,519544624,521073015,522259900,523142631,523948600,527245984,528076395,528433248,530069666,530274884,530433946,530795512,530814245,530816475,530825598,530828016,530830045,530833289,530835682,530966515,530986571,531517722,531623688,531649287,529129401,531764485,531897485,531935737,532055391,532232513,532419116,532611786,532731384,531708236,531736592,541895023]}
{"user_id":8446833,"collect_list(fan_id)":[831002,15294075,47568232,58820101,86489981,163544613,198169337,266493667,335702374,410023667]}
{"user_id":60266976,"collect_list(fan_id)":[854708,2100977,2729621,4616966,5480206,6129764,6717840,7747460,8118203,10177299,12405262,12894972,16101223,17336105,18632418,20009952,23206978,24899465,23597156,29943482,35886405,38808223,39233532,46354643,49915390,51639510,55644232,57035262,59523128,64310210,65973399,67442377,72472665,76898321,81715453,90772612,98401562,99068006,101548287,107891952,121672160,132165406,138726071,146148393,146502008,149093142,150740830,151188269,152212630,158014846,158140923,169931371,175730072,182951227,204715953,201311586,206743001,207237772,210032523,249261836,250449237,254132555,256407833,258986240,263035572,280239535,288490564,326219475,337512388,345407881,351872000,354442571,371988153,384853597,410229114,414205493,417586537,447546596,454273028,456141281,462462474,498446476,510530229,558331826,561362865]}
{"user_id":34195523,"collect_list(fan_id)":[1108458,50339237,367219986,538375443]}
{"user_id":96993400,"collect_list(fan_id)":[1009862,11084020,11494482,12103368,19875314,20912190,19835728,21915389,22251257,28609359,49878904,67008338,72299247,72755435,73121643,73421608,74251219,80919460,95604098,99054521,166859489,189733866,248986004,309610343,318330979,322285723,390613856,416128603,426182783,481671079,508721911]}
{"user_id":216652837,"collect_list(fan_id)":[1040091,28723206,35905317,67235080,70484575,76121798,82529952,91225169,102113129,105636446,122312767,137138916,141176795,190955187,192295400,197185199,233095504,244841664,261652937,272550865,291828930,316441786,312160629,322831238,328337287,345430870,361331449,371179015,376771325,386991798,392634272,407496548,430273213,460372604,478452235,480946827,488331258,511621947,550381444,552666054,552744779]}
{"user_id":58806974,"collect_list(fan_id)":[1820243,21879665,38139015,47285209,84456637,100657306,521376904]}
{"user_id":192801208,"collect_list(fan_id)":[1848203,43259341,53675899,70252838,94496047,120872727,134945031,143160692,145883808,151636497,159665182,163948265,165436171,168946185,171727636,175748584,180947841,182925141,185282799,195615033,196432566,209756522,209876594,215367765,221701642,238974704,249366814,257411664,294693804,340596630,341305069,359472951,368706216,372639120,389788333,486601601,493589944,551791835]}
{"user_id":474044853,"collect_list(fan_id)":[2102648,2384656,6169259,6443169,9655933,14243042,28161260,36825556,41269924,56296453,78472417,83066222,87464374,105577182,104722594,157946843,189888252,194336214,195342744,202503413,205941479,209529503,210477876,227007573,226888860,230548488,231989308,284645283,285292939,292651411,301423488,330386938,372014803,375271627,385220853,386052220,386752886,393270443,394399422,395154990,397826994,402003291,407367668,421085573,431816062,438306800,438307988,454608729,454833212,460728867,476443769,472911220,477497705,484479233,484864354,487832840,488828836,489836077,492242622,495584107,495616519,496543219,497803504,500873113,509436556,516439005,517678514,519365077,522131862,521904427,525587833,528566811,529235074,531009478,531397455,536139597,536193045,536870365,539498732,539984253,541432243,542180102,543366611,544550725,545018919,547800157,548615150,549472182,550823401]}
{"user_id":4723120,"collect_list(fan_id)":[2724355,173300061,298296093,387426453,424519612]}
{"user_id":38260164,"collect_list(fan_id)":[3385809,3529043,3817086,4194952,4354120,5757166,6678985,7452180,9235320,10458088,10511593,10593049,10928501,11304088,13472640,15963572,16922056,17586861,18485090,19749722,20024613,20700683,20753810,20909987,21059871,21394999,21778254,22578759,22875704,23375568,24835154,27591160,28189040,29284764,30508588,31274413,33515757,33814410,35881094,41619808,41620147,41871467,44362225,44643161,45169074,45462622,46854213,48548773,48673035,50037653,51182080,51625485,54907139,55463435,56479376,57371129,57579195,60259806,61307281,61433648,62954527,67830539,71212017,74324956,75792889,76005538,77495942,80972993,83535227,84140677,81157059,86186751,86918132,87854614,91845267,92679021,93278611,93409847,96697496,96965614,97336033,97368314,97824334,99043087,99264622,100491429,105600387,107914610,117744782,121318196,123189388,126068884,127378292,129633258,131765253,131931775,132263093,133850692,134259304,134388348,134394766,134842630,134959645,134992194,135059489,135242914,136276395,137084080,137257774,137260264,137772052,137868788,138347317,140401949,140567915,140837202,142277303,142995456,143566515,143694168,144028487,146842248,148101371,151063050,151769407,152194912,153166675,153692920,157562348,160191792,160259771,161842738,162304132,164407272,168553547,168611800,171267799,172665157,172735544,177427268,181774989,181805385,182801657,183857401,183992158,185243814,187268712,191478315,191842987,193318287,195799392,198572501,199543332,199610864,200761465,203419817,205841578,205852482,206735509,208616158,209118023,209976495,210835880,210955398,211890025,218722123,220556171,221898846,223050854,226967449,239905275,243169737,248509848,251832386,257105188,256017803,264969149,266630736,267049704,267426642,268077586,269424858,270016837,272786464,275180026,285162937,288393255,295211323,297681755,301095362,311472922,321153828,326038920,324885925,330638503,332328675,343856137,349642323,356977981,371112700,372797133,406053587,407987323,412758362,415242494,417132155,421235784,434427814,454951810,476579194,486907020,499758338,499862679,505516014,507286016,516887140,524792194,527643404,527702819,529392763,532987581,535265506,538210884,544444955,546005953,547216757,547242503,549135614,550878006,551228492,554395339,557112170,557501042,557811152,562833364]}
{"user_id":63654328,"collect_list(fan_id)":[3255803,16742715,18173422,20528953,32669690,37145077,42463307,43678094,53404455,91801075,99101896,112628720,117728902,145132845,147657736,153300045,158070643,160644952,162943544,169596840,175755257,177014927,181232210,221606278,264203199,288895820,295396135,295722607,296298397,385196438,390195838,421795085,424724241,433489892,444558412,458306643,505652829,534045212,540460238]}
{"user_id":229061256,"collect_list(fan_id)":[3718148,12266185,15212398,15795439,16405826,26136114,31634713,50111615,92942155,102252376,103655775,104346021,109601989,142546545,142837459,147173562,147174650,154161948,155273161,165677825,176476374,176952501,182642563,191381928,192160009,205528918,207634890,232461390,297543844,322447009,349966490,368132993,380174602,405421941,454952590,506167636,555558924]}
{"user_id":54696323,"collect_list(fan_id)":[5581581,7194988,7811903,8655312,9144789,15431665,17466395,17614563,29354576,31186613,39081021,65483681,67908684,70350421,80777006,135953941,166617929,170543461,182028643,196767365,205761719,215430504,222878090,268478960,322456845,343804025]}
{"user_id":307377554,"collect_list(fan_id)":[5478272,105105416,150734771,174508298,205980167,344864350,353545422,382871011,417997568,561547462]}
{"user_id":155978095,"collect_list(fan_id)":[6593058,41354643,82820002,192550212,226844325,230697801,290066287,295173166,298365689,311541409,371226770,385676320,513896812,516471813,538404239,560527063]}
{"user_id":181687091,"collect_list(fan_id)":[6113957,6633010,7215711,21331453,23035139,29221429,31672033,33009141,34757038,35187544,36344652,36376683,39820682,43459148,44037588,45462622,50325007,51856909,51933260,52436629,53075833,53561945,57334506,57511024,58938469,59756437,62147751,63476729,64118040,64865243,67119642,70208508,71842798,72236419,72952928,73133751,73194437,76066827,76705874,82828664,85193376,85440926,88694271,89007572,94719220,95958187,97433653,103198761,113459144,113637897,116620651,116641928,116804566,126206206,127065019,127108478,136867302,137006244,135754571,137856530,137468538,139481851,143169007,144085096,144917635,147605987,150472024,152914501,154188276,157477500,160528562,160758711,160815493,165143117,165858846,169650437,170465655,173281966,173350218,174285435,177510841,183049969,189242412,189841564,190062597,192091986,192617258,194900447,196749675,197979024,200695167,202199925,202218616,202666907,203817366,209400673,212429163,214780783,215803191,214982676,226310436,226398374,227148105,232925667,233782848,233867383,248412318,253115229,258806291,264259938,271010579,278177896,283807672,288831487,299915037,302121859,305023859,311986081,314193925,317904249,321055869,321234348,323997441,329560874,333694741,343776876,352129514,352524491,355580337,360619111,416315342,440795223,452722018,493754644,500698575,504186382,520487200,526528214,537215428]}
{"user_id":3913631,"collect_list(fan_id)":[7454518,12132067,14323431,19708105,21719199,23223196,35525436,39634502,52110317,55624996,60215319,61504883,61523971,61873410,64258045,66606225,98799651,115601122,116336462,120285578,132601610,133090699,136101914,136579289,138300707,138746371,150802506,177374086,191932420,210900232,213340524,221419157,253984665,258109009,262972993,290508890,289574883,314973316,337428395,340933359,360386512,374425190,409297936,456991089,464478206,465757478,498380613,505290843,508641273,513824169,522134581,523472428,550634430,555011041,555028021]}
{"user_id":211465036,"collect_list(fan_id)":[8909616,48050280,86890762,203381352,220938788,222811269,234142921,411620796,513676778,539285075]}
{"user_id":372182312,"collect_list(fan_id)":[9352662]}
{"user_id":249356874,"collect_list(fan_id)":[9825874,15548253,19203506,25666726,49787957,86699842,106672481,153753176,156661495,235620605,267664989,285128003,284921670,314961423,323860964,341742670,343771002,386614740,464158555,476987030,488925956,520542635,544440953]}
{"user_id":282902196,"collect_list(fan_id)":[14568553,22534222,32263395,41200225,50984373,56843900,63171858,78512008,78822828,84088205,85293258,94084499,106238791,116159299,123962501,126722824,134648145,137069584,144494760,143069241,155911192,167294965,178209211,184474498,185517130,185827375,195380561,195872931,202513116,204221512,205305143,208506483,213944046,217461477,220945632,222701535,222852953,229571522,234646492,235005031,236453508,245414136,256714557,258322289,259905548,263488896,277903990,278482543,283043853,283804468,302729463,308599429,310839726,312589162,322392563,321218066,326613880,324865726,338853027,345180428,346688137,352774631,367829833,376087154,382737077,391765587,418612381,423569238,425515807,449597537,453717328,457351835,465299928,489894749,495260341,495849534,505136477,510511285,513271690,514001749,525120619,528506137,533002570,535384628,535713273,538042985,540548350,548499564,553797070,559349796]}
{"user_id":142943481,"collect_list(fan_id)":[17669416,54273848,68552145,79268035,87448661,96833943,104499952,106574845,109850076,112869387,114160678,115523824,116008618,116029736,120257609,123093672,128526164,132596112,133921881,134089966,132480272,138128410,138320110,140387851,140758137,146810069,147612243,152201456,153060154,154690262,156824945,163621991,166131518,168636635,175539795,221455355,246173302,252914547,285677746,304469837,320953685,340430040,356173216,364965765,441321531,466778398,471658431,486538988,542072292,555329788]}
{"user_id":43057512,"collect_list(fan_id)":[22304442,32695436,35150404,39745396,43925992,66330134,66916499,68598093,73501045,74259489,78799130,79055452,88504280,89891067,92738458,107007240,107335796,113542356,118914716,132657764,133567269,150540696,156667732,157425465,172814790,176030706,204551966,204878436,217179422,231772571,254716642,270037682,357860588,434307950,461862811]}
{"user_id":328213441,"collect_list(fan_id)":[24930380,30536475,57895534,71035943,101134779,131506999,137537655,162483030,181421444,200171202,248984384,299978100,348894147,372473496,458759532,481460749,495899676,516530737,524571866,527387390,555439003,557551752,557826226]}
{"user_id":368527,"collect_list(fan_id)":[27784792,28223328]}
{"user_id":224791706,"collect_list(fan_id)":[45612746,57181986,124769796,135995891,155788785,167221516,169218860,181519584,183275921,206226576,215408639,222648313,224111588,233007043,241921919,257912233,263069023,263262004,266589360,267118176,276569363,281515338,283626712,288006725,292022849,298041481,302936666,298731491,304177689,313866282,315261491,321001882,330128739,331792291,346575270,348651643,355890711,357940375,352871889,366447594,367778631,368692976,373626054,379595713,381819632,392395473,394528587,397656226,401524201,402329007,405730729,409663372,411159800,414425439,417743734,422062718,423103837,418358914,423687293,434183848,439123403,441789991,447511065,460879716,464101016,472165087,473004636,473653100,476196527,485347740,488419533,489349484,491356027,494206711,494368082,495410085,495983192,500251452,506967206,507131433,507403784,508141675,510431058,515192863,521527993,521574434,521755968,524395125,526736504,531335412,532010848,535503471,536097560,536809044,537767474,566346379]}
{"user_id":44807660,"collect_list(fan_id)":[59354692]}
{"user_id":150580672,"collect_list(fan_id)":[60453769,62376576,67624122,87680943,100350077,107075364,111686407,112459926,119039605,135639138,136674599,141533089,142625701,146036469,152743317,155270251,173352706,178182490,188259969,196156469,197714077,202851327,216594745,216597009,225367716,248422234,262227846,268912503,270982921,281832871,309293651,317618313,319100208,323689463,327272614,330607717,337066314,352947589,363349406,401958492,420232649,445678048,446091395,456265699,470353976,542888050]}
{"user_id":297119873,"collect_list(fan_id)":[64568510,94888944,113612024,145480266,151063867,179452908,215527830,244863186,249072038,250272869,253202687,262170542,269185759,269863367,304795510,306725649,309159088,313707150,331776388,375445493,395077706,420718934,453992679,454716205,468923738,470059784,478084048,483746799,483749056,505385490,520669832,526776626,551062621,553082023,554240963,554246963,559892620,560308162,560975053]}
{"user_id":150689391,"collect_list(fan_id)":[85040706,146242554,162231852,184355351,303468065,439798286]}
{"user_id":307593556,"collect_list(fan_id)":[87172296,90584920,135221891,144850080,153466414,164540699,176863221,177795145,194537108,202683703,204460184,212047081,225567695,238920151,239103879,244018833,261273338,267289115,279407935,280561709,284390685,288889643,302545174,312378303,361280938,389047185,400416094,405489497,408816192,420129377,452052663,461773548,467684014,470141623,489828806,491097125,492244947,496772056,504227939,509225354,524971513,538681863,556001779,556257946,556991512]}
{"user_id":480076235,"collect_list(fan_id)":[91076359,133957867,170349874,180948216,254578726,262696534,278444762,280759088,298237909,301710840,304687439,305093770,306853864,308857090,317991898,319562223,320070487,320697576,339353861,369190239,369878916,370531998,390905223,392664831,400513283,418622045,434678938,437118657,437246452,438515404,439304465,446243900,447436134,456380104,463679924,465330821,465471723,474084323,479246870,495390732,496998240,501114298,504602538,522917792,527550938,530342574,533765825,536274311,536673001,536682858,537652726,539082831,544809891,546698587,547935149,548452941,548766779,547045453,557899067,559369907]}
{"user_id":44764891,"collect_list(fan_id)":[150884704,178150701,376458337,386842619,431433681,539296490,541866667]}
{"user_id":361653068,"collect_list(fan_id)":[153154172,556938180]}
{"user_id":5089318,"collect_list(fan_id)":[184567705]}
{"user_id":329335881,"collect_list(fan_id)":[252091368,270823429,278283356,344405781,385672291,393830012,418072161,546180300,566702551]}
{"user_id":172817701,"collect_list(fan_id)":[259046166,453930410]}
{"user_id":48085317,"collect_list(fan_id)":[321351678]}
{"user_id":63182020,"collect_list(fan_id)":[337879989,495374784,526486347,533450066]}
{"user_id":510860367,"collect_list(fan_id)":[448576734,534473849,535562477]}
