{"user_id":579998,"collect_list(fan_id)":[5047,6400,13653,18763,22729,23137,29412,30634,39963,41300,49063,49371,53378,54741,55897,57038,63032,63491,74319,74991,78077,91453,97679,106253,110820,111485,113305,123561,141436,146663,146871,156723,156799,158162,162473,164038,167158,171352,175168,178424,201610,212543,216328,219266,221101,239973,252839,259262,265264,266149,270067,273323,291894,294579,297770,302373,303164,310899,314351,323862,331317,331937,214522,338729,340769,342444,344180,349295,356988,359841,360513,362129,367202,370022,378917,382280,395069,398152,417270,435045,435632,442378,444105,445083,459701,461617,463784,467661,477689,479985,480949,485506,489450,494988,495282,500544,500686,518107,533305,534261,546339,559763,600030,605346,619255,622386,626268,627802,649598,662040,543866,680756,681806,691371,699194,709015,714200,714868,715875,716511,721328,731929,738977,748472,761171,818488,850880,861666,868279,870282,919590,936195,937319,949686,981230,984772,828930,1022790,1043958,1056068,1091001,1100011,1114022,1152458,1153790,1161662,1232943,1249013,1261452,1268383,1298312,1303886,1310387,1343643,1347145,1348380,1361115,1371803,1397427,1433777,1440720,1482191,1484270,1499047,1507388,1522488,1532338,1553756,1558936,1573122,1594014,1598726,1598844,1601815,1647671,1654039,1655717,1703707,1750558,1752768,1753108,1757653,1834262,1886485,1896206,1937689,2017703,2026961,2088865,2146539,2204341,2209209,2293208,2327327,2335935,2343754,2365957,2386769,2417544,2440897,2519024,2625415,2643629,2660105,2688513,2780418,2783784,2910419,2926365,2933346,2981612,3001379,3081912,3103340,3139336,3182189,3196651,3257201,3261057,3293775,3331546,3415894,3464714,3475033,3531462,3571501,3572725,3589500,3612339,3674672,3695385,3749180,3754629,3798144,3807642,3827113,3856003,3867894,3877949,3933456,3952281,4011107,4015841,4059733,4115594,4169246,4204102,4211333,4260966,4267738,4323970,4345591,4355396,4388381,4484642,4492881,4523544,4598056,4896209,4905003,4953182,5075062,5093835,5203070,5204998,5207333,5255582,5304191,5313955,5341979,5388628,5541302,5543874,5545670,5591518,5617439,5629431,5952204,6024459,6042650,6240693,6311479,6340406,6363836,6405134,6405540,6450426,6526568,6782797,7052935,7195868,7269375,7273659,7449245,7571433,7676716,7885031,7905893,7954668,8081532,8221099,8236434,8308207,8530433,8673092,8723304,8970529,8981759,9182667,9220992,9323720,9632786,9896496,10134791,9609009,10580063,11057617,11159205,11183044,11273342,10490855,11537579,11721350,11771856,11877078,12091230,12182547,12380915,12417158,12551114,12554941,12832936,13058258,13199543,12326400,13337973,13400264,13456491,13469863,13565578,13577876,13751215,14164057,14352624,15382931,16284301,16486603,16745582,16766391,17135575,17350294,17626006,18023935,18599135,18826282,19962007,20034304,20468051,20637980,21328754,21438424,21859510,22352482,22501888,22519535,22659450,22735511,23163070,23300966,23350130,23381799,24244339,24297930,24524121,25266232,25418404,25718245,26148455,27494531,27949154,28008197,28386316,28953770,29009834,29086854,29622818,29685525,29826866,30362485,30571053,31339229,31910461,32782283,32916988,32935904,33337828,33825786,34753389,34879058,36227301,36240965,36635488,37236080,38071503,38314480,39234980,40605098,41066363,41566673,41844827,43640902,43648561,45427281,44269679,47553490,47886907,49389738,50521608,52083879,53027508,54872706,55797301,56115433,56926552,57239963,59164435,61748605,61906642,61948585,62292891,64137444,64354075,64803111,64868938,65245248,65462975,67195287,67275787,68865004,69735676,70469123,72156303,72622259,73228431,73326349,73396753,73438471,74347918,75305226,76246124,77927601,79668754,79789504,80134971,83288702,85419444,85695466,86599379,89253934,90165500,91376587,92235615,93179503,93494239,95322218,95743077,96771539,97092504,97734581,99619088,100228483,102353334,103903548,108281343,110528041,114456209,114613939,116475218,116991456,117584617,119329237,119450341,123281172,128850485,131856201,132902052,133797377,133874886,133990192,134381242,134657952,135493917,135498715,137529119,138162616,138853326,142065460,142997926,144385231,145524463,146743533,146963055,147785592,150597990,150792345,151679967,151949521,152468544,153343872,153380713,153576142,155031192,157891141,159346321,161445814,162019204,162519227,165312611,165954231,166027126,166206602,168945879,174207064,175494794,180291170,181181205,183892302,185566804,186224873,187692952,189245022,191219896,193749665,195013832,198772364,200279432,201627840,203213827,208336026,208664188,208771763,210164240,215275280,219823161,220988093,224236617,225939655,226099565,226481501,229292671,229698577,234591133,239591585,239896805,242169865,246552312,248747118,261663122,263818400,270281035,273407697,275893729,278000954,283929079,292952552,293171296,293680205,293890987,299953869,309497202,311611460,313288226,317491591,319919182,323202828,325581306,349940786,347834195,355650996,366963083,369216703,369654357,371121353,372887377,374983454,384292488,385734168,388241846,395984252,396899796,401504718,403849450,410305505,410620261,411699413,412937708,413085804,414516030,420244807,421464818,424673113,425345026,426938772,431272937,433873523,439914257,447937241,449966228,450432342,452981553,458545116,458622327,461166773,462939398,467683715,474262195,474766935,480106721,487594299,489117354,497529476,497955750,502304295,506264068,509596136,511280816,511499877,512434555,524152610,525923477,531388445,534729110,534763185,541114444,553773467,555447335,555850322,557124343]}
{"user_id":993520,"collect_list(fan_id)":[23498,106350,128698,178327,202495,217216,218136,381882,422018,452163,537094,703989,876255,992653,1021824,1594723,1735423,2303674,2746742,2477717,4756145,4762855,10865710,12545663,12878554,12940607,15452937,23935828,37340046,73206057,131602070,131729803,137383203,161553374,169395734,186905094]}
{"user_id":1850377,"collect_list(fan_id)":[14808,36802,40636,44095,46262,59093,79559,218349,223245,256158,329645,355685,387506,453157,456939,481729,484076,538326,577201,738486,757975,787124,938352,953836,958488,1106806,1235331,1288493,1332514,1366659,1390976,1198334,1439941,1464371,1474168,1567407,1643987,1681224,1750037,1791891,1816915,1626373,1913230,1957642,2121487,2136467,2248860,2262573,2272679,2280294,2618140,2638467,2770277,2772118,2924392,2966653,3416999,3487965,3692670,3807537,4029050,4073901,4138418,4467962,4661126,4672017,5116258,5615900,5747299,6092219,6102252,6166624,6537121,6052535,7181572,7359218,7489351,7563087,7630192,7808583,7969011,8099224,8661018,8673609,8810838,8816409,9097462,9564374,10043602,10108466,10339095,11974949,12139833,12295635,11446240,12902182,13117102,13250756,13794933,13850169,14517972,15104233,15552043,16271467,16288271,16558760,16567315,16731603,17135615,18543354,18766993,18774178,18902888,19180129,19352728,19381137,20322803,20552428,21624467,22390323,22772659,24126122,24226060,26918374,27370076,28740636,28906028,32546415,33355101,33563700,35191465,35857002,36058684,36178673,36386428,37282924,37849483,37873358,38008799,38166801,38818464,41268754,46411347,47394907,48659605,51888042,52667423,54274842,58277125,59014403,59187214,61591994,64556401,64633118,64804019,65775455,70869569,77381896,81249224,85184545,85846962,92177814,98767913,100435219,103547872,108900380,109363789,114023211,114274612,116042066,117292057,121401159,121641171,132406862,133102406,133412471,136874072,141345513,144833951,146787400,151158280,154372623,156096694,156180717,162934451,166029429,166140481,169758848,170166138,178321962,184567690,187532539,189684165,193320231,202695416,206951974,208503375,212307330,220955347,225528731,240670980,248938043,257923474,258268918,259010386,266476398,290978630,302497854,318239557,343504103,346411848,351010355,361933694,398894281,399474573,407710875,414444102,415400336,415401389,437852832,440152400,440557103,440736196,445918146,495849534,500187382,534855888,537242068,538346505,552687113]}
{"user_id":4361661,"collect_list(fan_id)":[1511,117524,201226,338667,368805,574825,615087,715573,736611,738593,789829,801544,825668,1126247,1442071,1509895,1586821,2097805,2380554,2676545,2787865,2476047,2863085,2888020,3287930,3453859,3467734,3500789,3571042,3631664,3862338,4573784,4701770,4709150,4749243,4912208,5232975,5481882,5853568,5912898,6709931,7056776,7477888,8168665,8394316,9409679,10264597,9617222,10689529,10830465,11085911,11533203,11542617,12295030,12484930,12686853,15780501,15941951,16404354,16797572,17093576,17898106,18069207,18385847,18682876,18770857,19080226,20137135,20545567,20716686,22377883,22467924,22591707,24102635,24144505,24873859,25235463,26649565,29772192,30835041,32012261,33769423,34845447,35471990,38038720,38209682,41505047,44423544,47897170,52423301,53075603,54899799,64454885,66783638,69641435,75522664,83471158,84131158,84540978,85177696,94164785,96693636,97285002,101163069,103495863,104330322,105128962,106181899,106299708,112841544,115188443,115793611,116179612,117050994,120147361,120550352,120690971,132692032,132788044,133900194,134505593,134993077,136696844,137759243,137948625,139716024,142703439,143429683,151553916,154310346,155233707,155434874,156631374,161814582,166841832,167523144,168230017,170541051,171072111,178353933,186301317,192347137,204803154,205036864,205396950,212705134,221462666,256192603,259238588,268321876,264782338,269604705,283417982,291909558,316757042,327058452,341326124,400593003,408734990,413872817,420965233,424967531,425994862,452374051,483623804,486536106,508131061,514406840,532306603,532328178,547182592,550969380,554359077]}
{"user_id":30630505,"collect_list(fan_id)":[13485,24882,39497,46295,67680,106647,113497,116710,119161,124836,127052,153506,178105,227136,270292,275859,311305,355658,356079,369690,380510,392109,397142,410555,427590,445999,538475,567033,568156,570356,891638,932421,935709,941206,971520,1086742,1088262,1093027,1096612,1165890,1170613,1194303,1007566,1258648,1271054,1271419,1329120,1342675,1434438,1472976,1541977,1587067,1618637,1630896,1654104,1663923,1690076,1697123,1712140,1748235,1772522,1839546,1981148,1992663,2007285,2081344,2084860,2111775,2124449,2136271,2140206,2152702,2212349,2217631,2230035,2293654,2306933,2391243,2189403,2504273,2561808,2585349,2591538,2602767,2603835,2623985,2657112,2691260,2713563,2735783,2752541,2912019,2951064,3010777,3128016,3155548,3373047,3399600,3524317,3551150,3613665,3702791,3706837,3843560,3979136,4019692,4152182,4241343,4310296,4348195,4491784,4519189,4600315,4906974,5005354,5042760,5057432,5137094,5164499,5185660,5204245,5229140,5255827,5290912,5441461,5459296,5484443,5604734,5655631,5800308,5803008,5862940,5876394,5905676,5479737,6060997,6179084,6250216,6364405,6391441,6452899,6502989,6523496,6740889,6845142,6868511,6918224,6938352,7035833,7085748,7159414,7394694,7430348,7453993,7526723,7567132,7703976,7825116,7945666,7999148,8031909,8231017,8245326,8286183,8339773,8461513,8493403,8583457,8626497,8685584,8694151,8707494,8708741,8861915,9186371,9204164,9325410,9361163,9365509,9596204,9803773,9818527,9846296,10102110,10236796,10385760,10513452,10656165,10755228,10837352,10897658,11271577,11301677,11393722,11492075,11628243,11755921,11760910,11948880,12101144,12110051,12818759,12873485,12874138,13095047,13135095,12336975,13360251,13604373,13653078,13864295,13964929,14028251,14054367,14056615,14072324,14090005,14108252,13261287,14303740,14358216,14386343,14405390,14502656,14529796,15011527,15106436,14291952,15636488,15703226,15703283,15769771,15841958,15859618,15889374,15908081,16038884,16085124,16090001,16185211,16351259,16419504,16469571,16494363,16511033,16635558,16741324,16897099,17065659,17147504,17160393,17261528,17305348,17461755,16538997,17735134,18073713,18133160,18352208,18462332,17559450,18684713,18694454,18708236,18757786,18904765,19282061,19578764,19592071,19667560,19746800,19900911,20044242,20047921,20697085,20698525,20915601,19838800,21340227,21486709,21555575,21568422,21616959,21671734,21911690,22111486,22192293,22306552,22514511,22528841,22566587,22637282,22684873,23116687,23154984,23268736,23276940,23383114,22246069,23776877,23781384,24051821,24106755,24197400,24506440,24595380,24887219,24951671,25232969,25359220,25390830,25470934,25782549,26110792,26187274,26223377,26256358,26575885,26589297,26745163,27583921,27740928,28089093,28210963,28652503,28731116,28832470,28879794,28936190,28960661,28986077,29022583,29142524,29618785,29640026,29662755,29691308,29752442,28263239,30123267,30222366,30276954,30581003,30734463,30796756,31048216,31213628,31328456,31551606,31672963,31692335,31799388,31876828,32224972,32244245,32887780,33213589,31592894,33601415,33627330,33829079,33841045,33916802,34000945,34036262,34263317,34376816,34481725,34568638,34656651,35049390,35258303,35411367,35438231,35588146,35930750,36001490,36166895,36278709,36539073,36699916,37000930,37219337,37264690,37359668,37366195,37739954,38016635,38133277,38669591,38839825,39421050,37339880,39778243,39856464,40114380,40514997,40645926,40713422,40824814,40886626,40975932,41032794,41538140,41607219,41704290,42308984,42324815,42803455,43120158,43825057,43856314,44061938,44403701,44831065,45250473,45289615,45398022,45785262,46108022,46278094,46467121,46612793,47617207,47917342,48324805,49140536,49145012,49385452,49573191,49707014,49910035,50068316,51100127,51258038,51440970,51878441,51891592,52077422,52687972,52877280,53340516,53685265,54253895,54651418,54920009,55275457,55470054,55505578,53586908,55715126,55756081,55900700,56168182,56596623,56934697,57046032,57234311,57858992,58484137,58548481,59064377,59378649,59398147,59536806,60367908,60655215,60714029,60906699,60941724,61380793,61390523,61677737,61923564,62115136,62293491,63401138,63404219,63528725,64052909,64314002,64942517,66375745,66638837,66745314,66916499,68089513,68467039,68770289,68821942,69097156,69760428,69901360,70192449,70215186,70509137,70678528,70709142,70722903,71922966,71934989,73280572,75787245,75891817,76144805,77263513,77444091,77514655,79365216,79733178,79738062,80652247,80750542,80824152,80839628,81078552,81835048,81902784,81947228,83280353,83423225,83790116,83902332,84706941,85144950,85454043,85770950,86284069,87125663,87214349,88181193,89360043,89404514,89615467,91020626,91263360,91936972,92085914,92210254,92523823,92559203,89759718,92891914,93128648,93671576,93896441,93967528,94864235,94894338,94901565,96898092,97210744,98202896,95551562,98302095,98336965,99087381,99222883,99393114,99446361,99566844,102284223,102408972,102762862,103423090,106261578,107169856,107451446,112799365,113921346,114505723,114798707,115731133,116085361,116194871,116460878,116945277,116992796,118949613,119492477,120028242,120133502,121268010,121385848,121715306,122024966,122678905,122879439,123127811,123393655,123406163,123956700,124061464,124352938,124987496,125076572,125265921,129023479,129373913,131493398,131500741,131685976,131737855,132651142,132665768,132787215,132969776,133030357,133055620,133656808,132460666,134368042,134504249,134521882,134560194,134969815,135722655,136061856,136395892,137147701,137986466,138640874,139133781,139486850,139616358,139619884,139756559,139883728,140430686,140784056,140924459,140981396,143097094,143134582,143440080,143450328,143654864,144261922,144780709,144889864,145038389,145289057,146767923,145087179,147490809,147625190,150509818,151096816,151311773,151871316,152585440,152796288,152873202,153142068,153297713,153325759,154390974,154954093,155370343,155417451,154009269,156946925,158506540,159095523,159860093,160126830,160414320,160454512,160546085,161637261,162874411,163067217,163090739,163242851,163292006,163558942,163599598,164316173,164328094,164450262,164856132,165396912,165633468,165687612,165790705,166119085,167730758,168257064,169408045,169837012,169904805,170780091,171744973,172408889,172492154,172668218,172992066,173665557,173739561,173958480,174092744,174143866,174677639,174723504,175338625,175535960,175631148,175700026,176178222,177662981,179275312,179581703,179701753,181062629,181172366,181429643,181780201,182362826,182531058,182828165,183957293,184206007,185074705,185165594,185564110,186331975,186523472,186574767,186848720,186862536,189015260,189066091,189069652,190122173,190207019,190340920,190732392,191411273,194753516,195117320,196236003,196656022,198649150,199332530,199679683,199907917,199923295,200176228,201138593,202383799,204076994,204669545,205702479,206488012,207314076,207783633,208038519,209263837,210283287,211039173,211178174,212665892,213268920,215114129,216082197,216922347,217571042,218027050,218489551,218660016,218882543,219375173,219812739,220410465,220559743,220706890,222345494,222894159,223467509,223587325,224231811,224454642,224783389,225161868,227133551,227770604,227937483,229502361,230224838,231025589,231556438,231623904,233008659,235157486,235652430,235877438,236363239,236759880,233334480,237447603,237852518,241202481,241842903,242517873,242532020,243622848,244436490,244936559,245194332,246004911,246900980,247146998,247247315,248831542,249193134,249491345,249585466,250010929,250091953,250800575,251408990,251462133,252516753,253277076,253602806,255174960,256468545,256526598,257236386,257434618,257647237,259033541,261741080,262036451,262431748,265010777,265527734,265666129,267196120,267215248,267965118,269397261,271839462,272235798,273573280,273846655,273900324,276195094,272383414,277232692,277312823,279723844,279970399,281467204,282795372,283847564,285181695,285423017,287103460,288156998,289278177,290068797,290457559,290886068,291611382,291940701,292488070,292686927,293998288,294033884,295203822,297381201,299888502,301059279,302649592,302802508,303674825,303076985,307797930,308342689,309586956,315470013,318039435,319699338,319929968,320237726,316780604,322380115,322589500,323840105,324229934,326311114,329454645,331299977,331650522,332381638,332815535,333083812,334281132,335632875,336384344,336684534,337741408,337810545,338794266,339617755,339872367,340367678,342861761,343321009,344731928,346045517,349868292,351063194,351716122,351928254,352042819,352723322,355183064,355410057,355866559,356878604,357417704,357422615,357432894,362252131,363616489,364027894,366529618,366594868,367974046,368292841,370944562,372279283,373442604,374113866,375102858,377878410,378054278,378129896,380016072,381662001,381853367,381998379,382899160,382952908,383980209,384417531,384850238,385165162,385275842,385512144,385594920,385894323,383278386,388012314,389281324,389990103,390098563,390221929,390603844,393691809,395034475,396806921,397435688,397463871,402039331,397316018,405068906,406031280,408053834,410605974,411914961,412102636,413497652,414625962,416473620,419395181,419671593,420542932,420863795,422016176,422754391,425443787,425889569,428182188,428854445,429045835,429188324,429711494,430380700,430559642,430975779,431708890,431796807,441025978,441672945,442330540,443678495,450147751,450203646,451209148,452065523,452538020,452592507,453807172,454739283,455818004,456057202,455317300,460461545,460626053,460649280,462465669,463161487,463985376,459838930,459871163,468442559,469492773,470081716,470692503,473859328,474119228,474132374,474162279,475117877,480031646,480408104,486462241,486525549,488256805,488704063,488983391,489653872,491254245,492728900,492882666,493070300,493815059,494408812,494461933,500108338,500414369,505190353,507561909,508564646,509224430,511724994,512197977,512781782,513256627,515799120,520729821,521265338,522024449,522453398,523074826,525332144,527705256,527907756,533434508,541590940,543378384,554436939,556799002,557041792,558071226,558715346,563086662]}
{"user_id":45754728,"collect_list(fan_id)":[3659,323988,1043153,3437425,6917447,14783803,15705680,28644700,37912880,60229172,96432455,115026858,178400708,401906155,440257410]}
{"user_id":49384249,"collect_list(fan_id)":[6371,64430,97888,449252,844607,902749,1431690,1494320,2774692,3408265,3162261,6484390,8099224,10245270,11597962,16702936,18036283,18678565,21098461,24067897,29025942,30327842,31060590,34424849,36596636,41457148,48402397,49335556,56060758,61854879,61912495,64661913,72421059,74957969,75789075,88384806,96975409,137338443,143714401,144492382,151324256,161312918,163289047,217341460,221408561,228327659,264637382,268396551,270172292,276800715,323726562,406081265]}
{"user_id":83356285,"collect_list(fan_id)":[35700,201830,215137,1883822,2026374,3405734,3987105,6736414,10846463,21203359,21661699,24274614,26959867,26981017,33861220,39202694,55660221,60571451,105409626,141266970,141290239,148219528,168274830,199528193,214213844,214215692,215527830,244863186,271352703,309159088,311731361,313707150,321001843,375445493,381332893,416538584,443854286,479268860,483746000,489036221,490998844,512402333,539385990,544447841,561543971]}
{"user_id":184447883,"collect_list(fan_id)":[23311,66718,99376,206704,383760,1823867,1889237,2354977,2436764,2675961,2974504,3601579,4191242,4713885,4383027,5324889,6039685,6108122,6158254,8557700,8606519,8664126,9520196,11295012,12462216,12861420,13232763,13288891,15408221,16233320,18453734,19655669,20169694,20224723,22706473,24875012,27535639,31905246,34340960,43247231,48526040,54942158,58773273,65948788,67967728,69690782,71834193,74366573,75811537,92225247,98680840,99323672,100601891,131038165,136655237,136959017,141445099,152260336,152684950,157895207,159508308,161479156,163273794,166153097,177534702,187281436,191557664,193307450,199531611,201766149,203594481,208512031,219886634,229055360,229077630,233448251,239896805,240221469,240978635,244583093,251990721,266773221,271070818,273534025,288408126,294054079,298188215,299312699,301561537,303380803,317881203,319809155,330274126,348176059,350692179,352510422,354459569,365089200,369906404,376371369,398060682,406341039,408577996,427760173,446287852,450543157,478263277,479263557,514704719,518953065,524921088,526815235,527596873,531957060]}
{"user_id":1852785,"collect_list(fan_id)":[60379,1148721,1957139,2428303,11549360,14650057,18243242,23385417,45816645,49084746,51783047,53789684,58854060,89613831,116612070,148342610,155944276,173943831,181503311,292439965,304088182,305622453,306707698,424654465,560830710]}
{"user_id":362449086,"collect_list(fan_id)":[97314,2684540,14386532,16381969,23698324,31873260,37361116,55486363,68626549,76977050,80023321,83886005,85739871,91218494,96822696,108124819,111945076,114276823,123519066,137986652,139293138,140605875,143170059,145933206,146805923,151446518,154663372,154819121,155429474,155664323,156564539,161054245,161477600,167653143,167892778,177856175,175816324,178780477,179218711,184849899,185407703,187128900,188735029,190125470,192133752,193211002,194805723,195618247,196217991,196348170,202835887,203981417,204432304,210710562,213112042,217422738,221039493,221187526,222832606,222983120,225134608,228476126,230060217,234294625,236985735,238531247,239072186,239151683,240953069,242286964,242564962,245280068,245848459,246080244,247143044,247370225,249133142,250810292,251293548,251711088,251882915,254851162,257946286,260509368,263057779,263414860,264435797,267368857,268372905,268476107,268498153,269445499,270428153,271772514,272262784,272750048,282541260,283258551,286861981,286879932,287451083,291447519,298899177,301985023,304654274,307717994,308662774,308704718,309115433,310715408,310924990,312703601,313045125,313828842,314471517,315166831,315964027,318028374,319533671,320457201,316767607,321909404,322289115,323727859,325263184,325422933,325881785,328162895,329239437,332711756,333672602,334620480,338644616,342433262,342799127,343970936,346722897,347932925,351493794,352124451,352999131,354336850,352804572,361757611,365085766,367522804,371206316,372449045,375481428,375548068,377426255,378561594,383915801,385649805,386850348,388438331,401041239,401569006,402517495,402555490,403726543,404311821,406498773,408747507,403397206,409774827,413668673,413883741,414967692,417494408,418875300,427110203,427252640,428069427,433942123,433986820,434983061,437080151,437996945,439556040,440169860,441671236,442100955,444883900,445162008,447056541,449468304,449871454,450890169,452756641,454076384,454351726,459423234,461469434,464455777,464547339,466070097,466935359,471003761,474166311,474346654,474510880,474711110,478457157,482064318,487732329,489321858,494249477,494367762,495060803,498155861,500236465,500357514,500531664,502204285,501363213,506321534,509764670,510425198,510543922,513847886,517132253,519517216,519642526,519652608,519732844,521138176,521576492,522041059,524001719,524597818,524914752,525667055,526183181,527045355,527096523,527995969,528416977,528575062,529559256,530624016,531781414,532270594,532831055,533504307,533725177,534332095,534670768,535104266,535626929,535717599,536651411,537929928,539129097,539722882,542221967,541112179,543898692,544100259,544517009,546085142,554683804,555162441,555185731,555189312,555233671]}
{"user_id":9293422,"collect_list(fan_id)":[198117,1219711,4804985,4820132,9299515,10884180,12095626,12531945,15132620,16539495,20256796,22582192,32415830,34638426,36178517,35133798,38061181,78104653,78240901,81096622,143508289,184764231,242592362,246344798,250313184,256921891,366592816,416548464,445243699,503864168,513380650,513545349,534419420,536966819,537374477,559993639]}
{"user_id":205924562,"collect_list(fan_id)":[169311,11819116,22385562,22609865,54939713,55423801,117548189,121099758,139439383,146046617,151108090,152799485,172282144,173050573,173916153,182727335,190896165,192193789,195965214,196116909,200102250,201360285,209107802,211689136,213659067,211518277,215398422,221255723,222687075,224735290,225527347,226143860,226183696,229337342,233822263,236897385,240507576,241311054,250219102,257260242,263368353,269903546,273649240,274431232,278204776,282370336,283397148,284337658,294200236,300799936,305601653,324804511,326290642,328567865,330459875,341013130,342738080,346063423,351552520,361182868,367283672,367579135,370408026,380264457,384944301,400469186,440796862,447068976,451391667,459418764,528872481,549378744,560521717,559993551]}
{"user_id":118649194,"collect_list(fan_id)":[223245,236580,314620,401595,730875,758180,947527,1230134,1647134,1795056,2244533,2541954,2947362,3296187,4293804,6855222,7849433,7962553,9022796,13121369,14731770,17085022,19106388,21785874,23098805,30523795,32186743,36630590,41636032,42818253,44315648,46734506,49541944,53384775,54353480,58446591,76392018,83988570,84825931,85531419,88424504,91808730,99018472,101102036,98226508,103221866,105387328,112586831,116254850,117275713,121742139,134887627,140209721,146159013,151303540,158924700,159785020,164367526,176462886,177028393,183130479,190583534,196872742,203273207,203506098,206624532,210242175,240076336,242979148,253668105,261382169,285128003,295938591,297835449,316975547,352384593,369649324,399632923,405603853,418571483,429103073,438254773,447995174,450373622,457906592,460335564,478846375,498559884,508372267,509322855,516502358,518607334,520686379,524933124,530324722,531634712,544284774,546911464,546956765,546966378]}
{"user_id":502630632,"collect_list(fan_id)":[340777,554999,906780,926191,1021598,1228307,3808144,5218783,6036477,14673694,23172577,42414113,64585607,146790295,151823034,154089402,172425271,173754506,299864071,337861710,453880117,472760555,533370846,536476710,539127898]}
{"user_id":48912,"collect_list(fan_id)":[599993,975174,1360494,10113010,443026405,468998450,495498609,553798925,557125174,560598192]}
{"user_id":87875393,"collect_list(fan_id)":[749396,751925,952835,2242462,2964996,3181499,9782677,10670693,13265521,16699938,18418191,20304161,24810216,24935378,59687697,62675790,69363491,80839609,81266769,93278899,101635596,135172590,138093097,197149590,199177108,216886865,242117738,274235586,358142438,378785202,415401389,469258889,476901740,483146679,520341408]}
{"user_id":8473132,"collect_list(fan_id)":[1058052,2612391,5620511,5761458,12310841,23699568,54502400,67231905,67236441,89098234,137652339,180562948,358342452,419580017,498923008,525448885,554745192]}
{"user_id":55709066,"collect_list(fan_id)":[1024714,206588297,555017331]}
{"user_id":2452871,"collect_list(fan_id)":[1528607,10879830,16950406,21283245,73649598,110572396,280276237,285803871,287058196,368811073,453843964,463885132,504080942,515577545,516544654,518845874,525635535,532193373,553392958,559540999]}
{"user_id":17975765,"collect_list(fan_id)":[1688597,8846810,19697024,23093478,34841138,38460109,67255017,151145531,182936907,209169511,212725746,548115059,552687113]}
{"user_id":63199593,"collect_list(fan_id)":[1925264,3687687,17484809,23304739,26289213,49743084,84268270,97653747,120406985,120806767,121702873,125165349,137220764,137898199,138731510,142479353,144258940,144513698,145442229,148117617,157695499,160867507,163785038,167196653,169233876,179774288,180553701,182703092,188370980,188811672,204206331,205913435,223957242,230345107,233115738,236415040,236825002,279198666,281179761,309295822,467367345,502370109,552687113]}
{"user_id":75535764,"collect_list(fan_id)":[2087177,8538046,11032720,17450659,18688619,26067537,30578965,33691321,42856985,44378050,80159028,80300809,81819286,87308358,88103512,89764735,97527043,99349305,105222488,121344304,134754504,134974272,135988246,141366799,151234724,158779641,162735036,164889100,169712192,180228307,180408118,183742964,188378516,190852723,199833891,200578932,207246020,213501997,220908076,223422302,227395666,229461448,241184566,250047900,252074243,253559138,258013588,266776195,287635297,291118463,291571182,348562345,356551793,369259115,368924479,388745515,388767357,427305222,428611632,453029737,531024944,550971368]}
{"user_id":37229770,"collect_list(fan_id)":[2495533,4227284,5772930,5862339,9371966,10210958,11343587,12280895,14323174,15144171,15571637,23518214,26608968,28557856,33989419,37171528,40727758,42029045,55436463,57147483,62033173,62730034,67004036,87046651,91525921,93212305,94312104,96793752,100231283,105364443,117030645,132595222,132985889,133574978,135419673,136654485,145627855,155864851,167323728,170763665,178905302,183949805,193606964,199563126,201959035,215236348,268667445,274587233,281706034,281812986,300511194,301234106,302845555,306708531,308584909,309019007,350462677,353268160,355429784,355827488,359116716,364658843,381892118,382361627,383901626,388820189,402705283,424524054,428182613,435047382,435051110,438915878,450358481,463836822,464792907,465196939,469384429,473679413,473721603,473724582,473724901,479108605,483773417,483919209,484014779,486153447,487843677,490164038,491030340,491751667,493189129,493471532,489966182,500418436,502072589,505803588,512029180,513859576,513883230,516203820,519347750,520199874,523462294,527425097,531755902,534266496,534269139,534271601,534286108,535408327,536370906,553222220,556246528,563249958,564671694]}
{"user_id":53744922,"collect_list(fan_id)":[2598762,6887616,14758940,17971137,20907860,25226834,28031066,30830313,30891593,31728627,34419408,35715553,37144139,38865652,42231650,43454969,43909238,48237301,49733821,51256174,51260612,51762288,57455187,58227896,58618740,61458609,62238935,60380651,64612597,68957647,77992891,80278980,85771274,89614955,93026633,105744425,110355911,116820052,118237587,127826679,132189814,135818875,136699891,144585097,145449336,148175216,150863367,154493985,161687267,164311311,168714953,178825372,182236341,185256934,188478013,192123897,192592042,195823296,203203935,204338046,227029298,227797966,234190471,237861601,239797078,241348097,263939691,278373019,281285554,281338297,283464580,314716865,315852919,334140106,335073594,339049879,416384818,529559151,546194982,550212362,560647748]}
{"user_id":209868197,"collect_list(fan_id)":[2636521,13850169,25289416,36531430,60221743,175811845,415390316,415392051,417283578,481187800]}
{"user_id":256709113,"collect_list(fan_id)":[2546410,7959974,10447104,23428632,44908722,73234209,79950278,84058557,84745878,97949995,110950135,128521750,130732795,133665909,135123512,138426068,139025403,139445993,139585462,139850679,140175778,143180553,144329766,145898503,151491817,155126440,160170937,164354407,164403057,165683047,169878651,174986362,175957722,179350222,180648889,185016000,185494366,188068297,191650971,192381403,192828354,202441025,204710339,205769324,211228533,211658056,213887186,214792203,215303122,218069400,221800035,223395408,224045263,224759918,225177400,226762802,230937925,231599533,233155826,233559045,233933131,236684563,238101260,241075162,244122661,240868305,245292930,245570009,246165940,248149799,248612711,248655533,250271891,251492518,257912428,259768599,259786204,266576450,269969770,271176434,272478809,273114003,274462618,275037836,275201964,278643720,279761648,280006978,283761174,284330246,285627794,287958702,288532626,294817706,296497387,300901832,304666935,305302844,307723071,310425256,311689497,311854447,312902992,315650981,319263862,319292917,322420483,324472486,325667912,327014515,328966137,329913978,332271164,333706895,333934825,335118723,335712969,335952325,336419636,340306025,342005973,346273510,346920403,349082864,354639463,359003203,360285781,360825040,361975256,363094211,364202565,358469688,366367357,367904171,371351291,373688523,375595605,376131485,376743040,376961125,378540283,379055419,379066103,380331814,381385945,385612032,386894435,389264136,393404948,393650979,398499648,399863701,410367187,412550090,412955661,417443575,418036833,419226502,419446831,423550999,426433525,429227008,429809045,431714058,433420509,434507964,434872071,437983810,439955645,440998422,444827974,445020721,446739505,448899000,451156331,451287252,452955403,456572347,457688339,457862123,457870364,461992893,463571727,466507476,467661740,470406007,471090133,471947092,481835969,482103838,483663455,488754736,489383156,489736397,491875034,493462653,493577872,494696618,494716797,498285125,499178976,503737806,505198538,506161303,508296536,508569765,513890681,514554012,514740488,515915995,516159253,516207119,517542107,517908420,517975818,519026757,524386483,525507294,524346867,528635152,530655078,532040187,533816636,535028051,536306903,536630712,540150740,542340287,543470286,544314155,545851195,549859530,552451084,552674906,552687113,553371105,556209024,559690682]}
{"user_id":293102428,"collect_list(fan_id)":[2736818,29185066,76088772,78766956,96930213,110164805,133233650,157277575,162913073,163092040,177752044,183236961,187534124,194227741,194362803,195537679,202297508,202669402,202730789,210536114,211217343,218255547,222650120,222885699,228136044,232423604,233054853,235560847,236327234,238683734,242508608,240826014,248944626,250438063,251309852,253761205,256135270,256266617,261932181,265090578,267321674,267372497,268975912,271190879,271218780,273455352,274590708,274726166,276099420,282883111,284463467,287582747,289823802,293034475,293864362,296914413,300957133,298846043,308407169,309224798,307372811,314307991,317409296,318475674,320005393,320499044,316781977,322301000,322709722,324604098,330473093,331678614,332042525,332719655,333663833,336881153,336922758,337081804,338397255,338826811,340951003,341659802,342032225,348868435,349035282,349085826,351351521,352494440,353712342,353890030,359568318,360398703,361618258,361819253,363268875,358465504,365408586,366622345,376179225,377415616,379569243,379733426,384213538,384761587,385020406,386565994,387411620,390520502,394441952,394712667,396001593,396653262,398893250,400524910,400927004,401575109,402019641,403142149,403577098,409052645,409298246,411821399,412462231,413833950,417765239,419757561,420580912,421282898,425331098,428725116,429450396,430943705,432145555,432606153,434757600,435311533,438206602,439125500,441088708,442718197,445569971,447354186,447926624,452231691,453018899,455668277,455794367,456690409,460280166,460567316,461103139,461356932,463680427,465895102,466128978,467531738,468320630,468887533,470336533,473248725,475190233,478683138,479289493,480983110,484007572,484805547,486474660,488822711,489131635,490305661,495882516,497522444,498371158,498867401,499490179,501557854,505081527,510549833,512373863,516204057,516868350,520140850,520839847,521008657,521232838,521860028,522063890,525607286,526109143,530914071,530929922,532662947,531722866,535400781,537025318,539587974,541706773,546008209,546020108,546936278,546993423,548686850,549562348,549693568,550054667,553209072,554225112,555089914,555435173,556749285,557305699,557519326,558946701,558974707,559901623,560044474,562024211]}
{"user_id":70073107,"collect_list(fan_id)":[3035286,4360474,11461156,12095706,19695934,21205884,22756556,25337550,27031501,29070488,33703425,36712265,43573627,48111561,48876442,49643889,54098551,54636368,55927015,59777574,60021669,60943724,64738004,66291238,70223927,89378342,89749315,112139787,116655619,124749505,128106018,128723555,134221530,136510111,141139467,143542071,143869414,146308941,151524004,151686162,151923749,153083262,153952347,155184569,157088701,158986436,159564946,159916977,164366260,167058918,168188817,165879249,170995611,177088672,181909041,181954759,182287997,182803117,184552062,184894885,186369969,186691606,187848097,188579844,188617308,188792059,194134408,196444997,197153635,197193426,197519624,197617271,199116138,199494097,200850474,201180392,202972342,205128566,208549016,208685016,209845504,212623258,215473204,216629198,220176444,220525153,224208097,226191650,226351398,226911908,227270264,227418916,226865148,231136100,234971815,236068268,236245658,239346528,239408206,241801904,250277063,251508321,253802963,267657062,268963684,269817888,270335024,271390486,272192617,274030262,274807500,274872118,276433009,276878532,280922571,281432599,282183193,283227460,285962400,287013471,288593809,290145885,292440841,293570503,293804276,296404877,298701486,300941439,301014817,301413804,301772953,307156700,312282703,320632860,320959682,324292445,328073525,329707911,334336566,335038136,336030419,336040650,337461204,338035862,343344298,344522715,346349810,346678593,347281605,347345403,347773268,349751882,349808781,354446783,354710197,356449038,356654656,359169021,359267284,360674960,360827838,362421151,363032817,366298003,370365520,371023239,371345069,372460233,373206377,373666957,374952056,379487422,379556716,381610672,381678053,384684165,385470369,386426019,387395478,389379169,396518947,400539155,400607632,400703190,401190661,402488511,402831930,403112091,403174364,403846698,404188745,404283535,404430701,404895037,405166047,406240352,408005030,408325166,408392647,411633873,411836210,414671595,414844924,415025941,417583653,418261737,424883140,425445097,427438127,427740551,428226103,423354948,428695372,428709804,428926239,432103657,432700542,433180715,434337280,434418357,434560320,435260990,435947556,439220293,440403375,440560367,444300650,445031505,446317892,448110432,448720084,448834053,449055899,449859188,450697520,452030115,453020266,453909495,454134027,454975074,455034156,455552651,457387080,458125146,458173816,458397896,458894834,459664617,460149516,460444823,465717917,465956213,466834569,467591796,467644044,468318532,471288877,473326243,473330527,473561765,473713027,473983707,474146493,475981922,475986373,476026377,476646985,477119438,477921287,479712935,479727780,480836963,482184818,482678842,483045637,483264535,483516416,485054691,485349128,486399830,487807565,488186084,488809935,490076018,492129613,492512261,494070696,495220068,495577184,495981050,496011252,496056401,496632498,496649327,497021059,493555353,497980014,498023911,498314829,500261917,501492194,503738020,503839250,504864109,505048689,505101976,505120998,505500028,506090292,506672035,507076441,507568120,507964442,508154892,508433049,508532651,508579339,508897981,509078325,510458443,511013056,511174517,511765041,512263204,513462530,513579082,514291324,514700853,514912335,514983061,515003335,515226024,516521120,517504491,517857058,518060078,518241348,518413665,520022722,520339099,520643160,520698191,521232411,521514442,521523626,521706014,522892017,523311001,523359476,523360985,523455987,523513323,521981802,524762770,524833302,525043373,525158603,525205608,525311908,525510278,525526683,525768966,526060137,526068007,526371828,526592133,524309996,527462109,527491774,527498875,527543445,527556959,527626112,527782580,527782712,528140055,528157923,528324761,528413048,528424740,528571441,528762555,528885664,528962242,529407866,529537428,529775678,530059570,530383878,532313277,531728234,539639693,546467421,550558935,550562471,552675429,553879451,553897686,557636144,560265917,561578819,562105275,563307789,564450756]}
{"user_id":172403167,"collect_list(fan_id)":[4600119,10227451,14716680,28918763,29270315,39140456,61563785,66575688,67750196,69151979,72310116,74255707,79516877,87666473,93040183,102005407,118355786,126326009,128836101,133690981,134840277,139667278,140153930,144549389,145736576,148148950,148970256,156377970,167299477,173423277,174423907,176568516,179818124,182105786,188518707,190611649,191564136,192568042,193460750,195643993,197579979,199863665,200723981,202878872,206429996,209811763,210019798,210585524,213476934,216057072,217317759,218868320,221804295,222479355,221100244,224837596,226431316,226814732,234255444,235118537,236082624,238118667,241207621,242289935,244075447,245359740,246738678,250531493,256993389,259478542,264124267,265323095,268921511,269127759,269364961,271519034,277475972,297310384,309756824,322526822,324292239,327751540,343473531,346107471,349791275,351102740,358650405,382498488,392185604,394717646,431535244,445742368,453128110,480201770,495113700,498688948,500549992,521192115,552687113]}
{"user_id":387193221,"collect_list(fan_id)":[4675371,8809518,10955183,18302692,20034729,20405162,21260693,22818085,23302635,28154973,28823564,30580464,32467091,32507373,32624831,34610381,34627068,34861682,36087733,36185232,38075130,38395508,38420996,39858604,40559008,41268053,42191878,45126076,49629196,50297145,51864336,51909072,52422633,52808560,53266926,63640922,67112200,67937959,67949502,70948982,71749833,77877026,77883004,77983203,80744790,82788671,83370738,86223299,87097774,93061997,93417682,93746876,97286834,101079508,103863148,104125292,106746120,110284132,115226737,116107760,117814902,119589091,120825578,123518416,125013946,122746798,131573767,133537620,133809232,136642001,137152381,137376181,139113592,140063040,140471138,140997005,142978600,144059353,144651144,145421399,145584939,150845406,151713835,152967356,153773129,155862300,155928368,155979965,162639618,162693445,164496919,166856561,167721673,172278479,178119454,180976734,181222504,182651719,183194493,185718460,200496712,204647022,206229514,219196548,223562050,226654886,233930976,237241730,242077958,248544391,253521578,258332908,265426054,265501510,272166540,273907971,274772116,283087682,291942889,292598725,293045818,293821895,294955596,302077054,309375096,309881252,316170701,322250363,323731762,326340577,332859299,333656040,336464696,345489611,345763457,347176800,348499319,349885681,350534098,352866409,359171990,362253018,374221225,376854843,383508296,386399683,395111602,396036542,398184947,400443279,407120147,407592034,417587337,419353464,430206005,433229965,450598958,451067219,454480129,455758980,456473369,458975589,462370310,465639190,467284848,470959747,473670457,477671136,478736581,478950313,479276100,481126329,482127092,483997158,490102151,492697885,497204632,498188116,508108581,509983594,513635729,515134024,517402387,521254056,524671712,527782547,527834922,530375447,534288092,536794810,537191809,540176018,540978199,541077490,542477244,543259828,553730925]}
{"user_id":541773348,"collect_list(fan_id)":[6340554,13490982,15619191,126150296,145202655,153828872,155828445,161466220,161647954,161763315,174744102,174843757,175270696,179573947,180727169,181796102,210176660,243838658,250043644,267011272,268621329,287998344,296989465,303883675,321098134,357817410,372866865,382447110,382548695,385166807,418715345,423375711,430943528,449219107,449441032,458385874,467399721,480864435,483801480,489327836,501477929,502286306,502559440,502746940,506937155,508067210,512090660,517386444,521468749,528265640,532282844,533377592,542155206,543320345,560224434,561434496]}
{"user_id":34888275,"collect_list(fan_id)":[6828859,22707276,139833349,384156221,442378509,501658520,539342811]}
{"user_id":169647412,"collect_list(fan_id)":[8861023,15869072,50668233,66499335,69894810,127276687,145567610,151536113,156935611,156253275,183055749,195752995,198113782,200743160,201960328,208694104,210487763,222259875,224915790,226303814,232792822,234433981,235737188,252298688,282619758,299312703,345001595,389385646,396904486,404471656,481150074,527920888,540000099,546211683,550995106,551251740,553124437,553966703,555015306,557315370,564483750]}
{"user_id":199404541,"collect_list(fan_id)":[10821685,415403198]}
{"user_id":370494189,"collect_list(fan_id)":[11665949,17687368,19886316,30732733,70485091,97779335,111889314,116725547,147768021,175951850,190152971,196836602,198170111,218108961,250358384,286703847,298296093,318739864,327399436,344505694,349351931,351213462,354689703,358262099,358263986,358265231,358267733,358270669,359025354,359393454,368046637,369351361,369612677,369891198,370125886,370597397,370638897,368986384,379738656,385857452,397080510,418022537,419304114,419724146,428980309,445557716,452412822,453937352,474111897,500699344,507709746,515202603,533304058,534857076,539507908,546266120,547735272,550047683,551236577,553066325,554945756]}
{"user_id":124733152,"collect_list(fan_id)":[14939030,23408043,23663217,24458346,25213536,29179719,36063249,39183929,40145285,44272973,48044932,50500491,51189099,51369331,51864962,56475158,58435758,59822794,59925090,60202201,60229360,60573011,63273514,68495921,69110189,72162368,73400070,74080998,76248971,76328508,76424521,76455059,77398614,78660262,79713649,81554909,83414880,83434829,81164386,85717035,87266510,87718183,89550366,90874316,95334411,96975409,99138057,99195366,101740327,104023862,104114737,105880385,106749100,107565550,109441103,112120311,113207367,116589579,117891823,121073228,122230393,123174901,126464645,122775844,131546482,132341605,134730178,135348979,135578858,135991842,136248989,136412858,136894924,137723345,137833445,137855743,138041162,139013439,139122657,139526950,139701363,140205833,140336109,140632305,142285444,142826251,142896776,143413905,143630565,143889564,143965497,144204979,144332727,144797603,144817551,145001335,145069924,147598019,150126347,150398505,150908044,152686914,152817402,153357511,154144123,154269397,154671641,157009156,157392955,157613116,157769107,158947551,159787548,160670761,161446604,161641405,163468987,163983747,164508058,165043259,165463968,165757902,165926825,166144485,168563095,168762403,168977060,170300019,170501828,171356578,171430093,171430782,171914122,172520360,173402151,175185256,175925774,176185774,176723621,182017044,182729902,182867609,183279710,183366455,183580304,184655860,185267549,186895231,187116823,189187080,190639675,191805668,192078588,192531076,192755221,194081046,194639220,194765666,195962128,196404046,197569949,195326142,199577619,200366084,200556574,202372825,202468028,203728759,204614501,205826572,208167504,210157827,210921587,210981199,211137990,212352840,213573464,213665194,214204764,214696948,214899313,216277585,217285719,220882453,221321396,223404460,221118890,225476749,226231940,227405478,227891711,228866227,230431540,232795010,235470283,236409446,239342744,241935919,243526860,245277363,246303766,249819150,251381144,252469559,252525794,254438152,255133004,255150454,256286039,256641780,257799568,258325456,261122545,263070221,265601662,268384509,268917044,271645414,271671379,268615157,272548134,275606969,276035129,276715309,276968368,279518781,281092390,281484627,283131808,283440744,283753777,285375497,287162303,287365362,287727334,294580544,294908359,295344464,295504402,300559883,300815541,302936092,304405598,305587672,307802667,307864513,310933165,313572282,319499708,319559725,320955614,321011885,323845365,324360441,324365867,328463688,329563473,330339612,330416642,338849228,338164999,344137351,350785872,356858646,352851416,360146316,361488341,361538032,358553809,366642900,367830952,368060191,370309568,373270308,368903329,374101457,377424327,377723296,381897709,383844918,390368592,408414269,420674485,430625116,431550947,441097178,443462265,443874211,445190633,448123095,455650089,459600457,460861608,462033825,476890504,476970303,492181551,494632683,503424983,505582238,525385908,525411973,527617035,531165368,535669379,538441719,544128814,550267355,559267103]}
{"user_id":34228368,"collect_list(fan_id)":[20099967,87466034,362190719,415400336]}
{"user_id":229800185,"collect_list(fan_id)":[20377090,30123215,136234739,137186037,149121836,166230626,168546301,196517254,212138492,357829995,434049397,469307234,538689875,558951564]}
{"user_id":185414420,"collect_list(fan_id)":[23782532,24467899,41885651,44311038,51042712,57808147,58417209,59410452,69666594,72642973,84215863,95598760,95611459,134097605,134109048,137966625,137441753,138981841,141751758,142597831,146505369,151713163,152378842,156988515,157254034,158493097,162683483,168306423,169187644,171821682,173827466,176457277,176841090,178592925,184728131,189722219,190085467,195443933,198814400,199542997,213053812,219694502,221284110,224136216,248000234,253969485,254962860,256172068,256196806,256816513,270401009,275131285,284420156,292017067,319420749,344096865,372554158,385272195,397628764,406650018,448938704,454453962,472085106,472678199,478359887,491925531,496895542,506634851,560753824]}
{"user_id":176372523,"collect_list(fan_id)":[26330496,32342485,91219169,106912961,133102735,136564265,139696816,145477960,153832942,160158418,161037738,164038374,176317757,179217106,179644505,181200578,185804216,186160847,193167781,194911902,206431914,220405110,243475257,250542428,252346413,260662297,335368341,454884499,552687113]}
{"user_id":104026487,"collect_list(fan_id)":[30650031,44203271,46312761,50582541,61117884,64134512,65038115,67243301,82488120,98464910,99301747,102698582,103446195,112939609,119638136,121129458,132052646,133228225,133853308,133944848,138192163,139989185,145320787,146402586,146674925,150553764,150791701,153834960,154682492,157761125,157849970,162609227,162917747,164868221,166732939,173052657,178189230,184809371,186119780,199478434,205565224,210817975,219824259,220811927,222223532,223193334,239142348,245874580,252985681,253308808,258025448,262957074,273365672,277632935,283302333,284741288,285128003,287447395,291807170,297959506,301614226,310696746,319186131,322634487,324849077,329682432,333863470,346036808,355725606,386745927,404943338,411256275,411557719,414920373,417215160,421248900,421926540,439923032,448661120,449799296,463102845,469474155,473959397,480027999,484514988,490621999,511219948,508673821,516969821,524632767,525011190,526564141,530262914,531517815,531618782,534240388,535667543,537547861,539233214,541632261,542407215,541136841,545252697,545741301,546929689,547821315,549736304,550544551,554080979,556241316,559120486,559574558,561314284,562463304,563088671,564432630,564483309,565438248,559993545]}
{"user_id":121062582,"collect_list(fan_id)":[30034875,41758446,46607330,85694498,146558686,225696500,226637870,256804053,280213700,294972877,318183930,320402601,330973341,482893039,498391480]}
{"user_id":176151530,"collect_list(fan_id)":[30919139]}
{"user_id":159529756,"collect_list(fan_id)":[31932659,187295817,320813900,363305144,467976907,474130041,515697308]}
{"user_id":416376431,"collect_list(fan_id)":[40393841,49915351,58544709,66215058,66312552,74235549,76977883,80860160,87622038,89194959,99660381,107390096,120215321,131341590,131986870,132260396,132596174,135721779,136571971,142530516,144100250,144883663,147954968,151665748,152839053,157547808,159243101,162026926,163459737,164815146,165725727,170469939,170589047,171080839,175134637,175264687,176465477,179563244,179644588,180509939,181756470,182066668,186741741,190541763,190901595,215512249,219063559,220553478,230379654,237836100,239930415,248498913,249636069,259550885,262550075,267439831,269088333,269938446,278800587,286734619,289761889,292355993,301629866,305993990,308077291,315978635,341766901,348006950,348066099,366170922,368533120,371459422,372204782,401270679,403980315,407421413,421456833,431535397,449096473,455831840,481462732,494540131,495027919,515228456,520320715,526379038,533390689,562757511]}
{"user_id":277544358,"collect_list(fan_id)":[49909101,81273306,91410228,96257833,161241949,182101271,186061716,210184513,220390163,220392036,230128567,235769569,245285531,245862215,246626396,250661652,253282474,258537720,259393506,268765858,268619693,275230382,278182400,278410791,279915851,283192656,287043035,287390992,288475830,294184396,323282197,329163238,335307242,339869951,350540656,371244294,372194498,372627913,382942787,404005646,413866926,416870825,425966116,444185292,451153750,481658435,518964070,533792446,544128466,555028100]}
{"user_id":384034566,"collect_list(fan_id)":[51417572,65140870,321764979,469802273,495929674,537934092]}
{"user_id":112458818,"collect_list(fan_id)":[53759514,54481651,120794189,122663960,126953142,151066445,174161957,180614758,195222867,220064320,222366131,223596816,231072802,243577784,276167405,287402932,360387936,375835312,384250657,430018983,444540276,450660992,451330135,469258889,501572712,514251985,516394155,543935026,552687113,557201567]}
{"user_id":45729271,"collect_list(fan_id)":[69787320,82451363,98955230,119393882,145522028,157187238,201684429,319217444,379866930,473155394,497526474,500038653,559227448]}
{"user_id":441670230,"collect_list(fan_id)":[69859597,136782940,137627051,140500595,152082648,162803908,169398967,177016597,179407182,183106668,205753441,259545118,266077455,301336888,330147164,334670699,343210672,362600261,441639758,503847298,508593257,531533547,556316876]}
{"user_id":46589998,"collect_list(fan_id)":[80050483,473403084]}
{"user_id":112555041,"collect_list(fan_id)":[82313543,236626025,239425151,353210710,375445493,386842619,410196076,441537806,470622736,515109994,535824583,545966778,547899349,548182653,555993412]}
{"user_id":164889932,"collect_list(fan_id)":[82407551,90961980,159789674,161440312,213664216,229284390,237519797,331454251,383059416,483749056,490343013,504021554]}
{"user_id":363914293,"collect_list(fan_id)":[106492742,113762822,142594697,177312709,212397301,221927783,224490265,230711917,238114407,238859107,238884246,248382900,260376451,274077498,278136339,288822108,295771889,295906998,305858182,337278815,337857498,342575197,358268645,422414262,431991566,439449350,462160811,470752451,483056689,520547208,551685447]}
{"user_id":21874000,"collect_list(fan_id)":[208628769,415398425]}
{"user_id":245224369,"collect_list(fan_id)":[334456610,351169689,444140109]}
{"user_id":192118551,"collect_list(fan_id)":[357940447,383820768,530053307]}
{"user_id":72257206,"collect_list(fan_id)":[435993758,553692933]}
{"user_id":470483656,"collect_list(fan_id)":[436958200,463607509]}
{"user_id":512161249,"collect_list(fan_id)":[520630279,523641799,548494244]}
{"user_id":231716677,"collect_list(fan_id)":[539151208,550932521]}
