{"user_id":25554,"collect_list(fan_id)":[3646,6492,12200,15736,65867,91855,104085,125162,133754,190715,225617,295612,295613,363714,390483,407854,446968,453427,463646,506685,539230,588136,653080,683819,725138,728625,762243,990516,1108276,1199913,1210131,1282318,1319113,2251367,2662951,3210947,3680892,4068532,5147827,6927331,13133957,14680751,15569895,16677607,17708263,20043101,20137141,26519832,29325207,35513639,36069524,36805882,40982362,46680672,56677202,63301166,66530486,135658413,170888427,189422239,191420097,193407597,193862708,223668283,225121033,228747220,266257573,279147345,331816239,362951976,386007343,386842619,389994795,412025641,452926361,455620378,479740898,494149935,496934336,504202567,505915477,511094532,512254923,513258473,517862679,531558832,535826914,549370089,551129664,554450479,556071974]}
{"user_id":51269,"collect_list(fan_id)":[5349,9429,38042,51302,75842,100339,160144,232965,247057,297992,400347,733312,790046,862821,911038,922028,1565488,1808605,1926608,2007438,2255567,2580915,3221465,3233114,3509647,3647496,5417054,6373875,17267972,18759265,23483407,24088363,33911911,34706590,88511081,94694198,113207084,147732909,176485781,180611816,181267748,291576253,358738890,385177090,398052204,428933078,492465724,503515662,542244236,559231869]}
{"user_id":6842801,"collect_list(fan_id)":[40620,63709,368424,368993,576511,907574,1964406,2251951,2638683,2819956,2978221,3004851,3072289,4133039,5013605,5075084,5447825,5524838,5857235,5963854,6510497,14215828,15277075,15900015,18002469,19400496,23264734,23878369,30116057,30378000,33722680,35827504,37561131,43365666,56102197,73480023,71137975,132067830,132379021,146573032,163997053,198305459,209681123,229953004,266903883,267253306,278921873,318485206,340682306,341085492,345168497,478405564,479364502,499120336,514646332,516003751]}
{"user_id":25094850,"collect_list(fan_id)":[53027,995150,1299472,3822057,15890346,16307487,19235311,37618344,47054395,47896318,64411280,71119690,74042852,79979822,81309911,82789419,86633789,110629206,126687337,127449626,132168413,135069150,135454155,139005319,139640500,140159667,144224691,144996687,146093450,146405262,150662318,150692076,150735542,151007348,153253845,159223089,159600120,162596744,163108154,168394776,170421162,172997215,174840518,193334139,202030387,205485464,254238279,257056728,257954427,301346827,308874977,309869045,315571454,316278934,325349114,326259564,330030840,347990793,350514686,365090034,367081632,400575885,414625459,425413536,435179609,498358169,519588363,541741746,556776056]}
{"user_id":55699584,"collect_list(fan_id)":[969,420627,522996,746595,1453657,1865264,2543043,4487606,5523496,5731541,6698526,21875582,22042764,27057641,27373713,28492491,31343248,31571585,38279242,49919560,50152800,55437043,55483242,56115665,58750597,59713753,61683792,87081404,95509669,98553137,108228628,120443609,123722017,127436599,127697392,135581025,136013322,136373459,138710474,142688691,145212890,163839121,168466664,169495497,175239807,175541038,177562681,178039959,179354408,184044824,186340508,189353958,190944703,197632460,198194517,199787089,205838689,207415018,213475755,214259412,226113165,228458531,231625677,240662697,242114274,243595135,249043458,249129764,249572702,257253861,260597241,262863778,266145589,272144475,279622642,282231949,295721938,295756951,300239094,302680079,309461481,320244005,320327767,322304919,323671611,329037071,329543031,330610093,331492865,335489374,336092208,345650849,362944676,367280842,369500889,372454670,374130872,377469823,380277666,396045451,397246416,405077280,410108464,411198297,414028841,425509150,428921205,435840683,436248353,433799919,443452734,446386446,456508524,456821268,461895284,461949112,464728076,477416338,503917827,507896336,514222256,518111776,531195751,531406670,536190175,542215233,543252097,557746529]}
{"user_id":62930805,"collect_list(fan_id)":[31885,211569079,523611484]}
{"user_id":65389519,"collect_list(fan_id)":[39497,194865,273188,674871,966387,2883614,3214880,4012006,5601020,5913718,6466054,6486580,6754210,6870678,8333803,8788976,10044298,11253104,11884242,13026708,13801319,14226441,18533841,17553376,20557863,20641921,21221908,21235414,21676275,22250445,24403617,25547296,26456683,27396971,27617384,30415065,30842990,31573210,35002069,33487694,39577629,39902742,40683871,43387598,45322877,47809519,47941986,53281851,53942457,55517895,55851695,56625863,56782544,57429657,61738257,63757733,66077497,68340613,68348071,69536151,70125953,71193431,73413719,75635723,76522721,78011314,78709306,78927459,86015677,89230406,92769622,92859689,93636422,97049159,99158668,103688428,103778287,104439705,116682229,120877972,122888294,125367048,126778712,127913751,131930384,132365483,135250752,135692187,136201852,136239880,137757759,140817674,142118992,142554166,143878028,147035755,148410310,150987310,151346686,151442122,153588404,153601561,154814489,155533946,156435057,157526240,159545568,159938549,160627433,160732970,162916179,163240832,163360957,166882901,166930122,168394236,170485589,170511541,173721388,173803112,174316396,175968836,176079586,180794857,182838150,182868010,184692694,187760578,188493966,191244337,191748333,192018472,188942692,192474539,198156782,198885717,199081361,205111170,205310043,207860579,208010595,208860182,210566865,215964967,218841223,220271829,221319513,222312775,225165870,226515328,228132151,228701331,230720143,231445035,232456618,232546243,234719868,236793963,241515773,243174842,243238577,245011238,245912121,251699848,254202355,255247601,258015793,255993121,264132291,265630421,268185699,269077579,269965833,271702655,275136450,276043766,281895161,283532588,284419367,285181596,286615176,289036578,295230998,295462035,296157474,297834423,300975388,301155023,301935748,303711042,304486175,304920234,306622306,306822195,310052793,311001553,311813928,311845988,313405138,315861258,319638676,316701477,325916683,329406064,329568280,329875243,331308661,337088846,337157377,338314695,340037614,343505891,345990684,346093711,343038047,350864429,355304201,360162783,363977843,364009918,364532366,364725735,366574809,366751893,372297065,373081664,373750100,376733100,378198203,383693668,386494607,386567717,393492966,395058630,396089197,398609898,398698004,398926198,400786269,403473440,404126562,404481876,405780719,406654664,407999695,408250423,409003657,409371864,410690463,413367518,408848505,422630640,426961987,428052212,423362556,429786989,433081642,433486675,433725190,434316541,434404611,437036919,442786890,443880688,444327454,445566015,446634568,447049048,449139983,449616890,450315994,453009946,453466263,454486872,455479133,455547935,458990274,460465266,460820665,462997430,464862637,468320751,464317902,471578731,471755894,472045095,472391652,472778893,477987023,478622140,478826387,481789175,483196315,483477953,484260850,487078452,487899009,489059990,489216688,499682163,499805473,497394391,502086627,502270978,503124420,504556659,505037310,505703468,506487035,506548719,511088048,512400049,512402333,512566332,513826122,514609700,514873136,514983596,519205479,519531485,519819514,520902105,521166716,522169469,523822585,524904481,524944851,525804420,526351287,526393447,529792936,534955552,535405158,537986802,538295768,540765410,540884238,541950417,542457437,549698075,559892654,560766465,561411822,561734750,564115610]}
{"user_id":170769337,"collect_list(fan_id)":[9660,463513,1310251,1641675,2199127,2356390,2357501,2423316,2613961,2931394,3081020,3171483,3232202,3438269,3451959,3537596,4154762,4322168,4765017,4894364,5133471,5276394,5364501,5418531,5830493,6401358,7452664,7593105,7935945,8167840,8205265,8659957,8891237,9666065,10014803,10136391,10149351,12007049,12060350,12600220,12619224,12633282,15937311,16402862,17257297,19174193,19461123,20102351,20362249,21319394,21828216,23350918,24052029,24170207,26648050,27343468,27505177,28744241,29236433,31268654,31879464,34819175,36523887,36889614,44404040,45484103,51129961,52454637,53027009,56545182,62761498,65529946,68203060,70373362,71375510,76701269,79058895,83784908,87716298,89904612,92794305,95825674,96618873,98641649,100205276,100332259,105535929,107543125,110828869,113005036,115241286,116757052,120321930,120814597,123303171,125441516,131551390,131892955,132399390,134474509,134691299,135402523,137056335,137068928,137367210,138923260,140690597,142962544,144068289,147385056,151409635,151669376,152601486,156144330,158675564,158795267,163506278,164286706,165237524,167696486,171680598,176816364,177534702,182437702,182683634,189877811,190305199,192249336,201100674,202031242,203993996,205518116,211745099,216317795,218085207,219309290,219363033,219987747,221394875,227789824,237648194,239105920,243678837,244056637,244380150,248476529,252005796,252528176,255052652,256510475,266324568,266798409,269387567,270246739,274296751,283808852,289319897,290526235,299595485,300461416,301193488,309467402,310291912,310827558,313495421,321258997,330771656,335409098,335577146,341212629,348282656,355715821,355734202,362117624,362755273,371334819,371891817,374156585,379350254,380607021,381459043,395185058,401295862,405370777,410669453,412828442,416471515,422339416,422701560,425858551,428711965,429523993,435109775,447811366,449067362,451974140,457304012,460868925,464962974,467848959,469808491,470133733,472077935,476198217,479330242,479961296,477326028,487847032,491149768,492872136,495359544,501887161,509188595,524937164,525734337,526159771,526229660,527547269,530133415,533354779,536563177,538724312,540763029,545091950,546094630,549336323,556554167,556574383,556831536,556832711,556836805,556837221,556837845]}
{"user_id":290810682,"collect_list(fan_id)":[18585,38854,89227,269919,328199,360320,402781,418691,458916,482391,487179,494541,555289,784632,887904,1021778,1305473,1431383,1658984,1743209,2031029,2162881,2164395,2591846,2625297,2780412,3026445,4558323,4725549,4790618,5114481,5404836,6933205,7491785,8366852,8841477,12015549,12050415,12891725,13479746,15265817,18011282,19200177,21529150,22747511,23785998,24815198,27787569,37055827,46084632,46777907,51138301,53843530,55880902,75612871,95735140,121528696,121562040,121696042,124721928,135816906,137856373,138086534,138565447,154916753,158983242,163264269,171328800,211306251,215458489,225708640,242977016,282266375,322318108,327557036,337843774,373405365,413989636,432006079,443555161,469688163,473504630,500644440,509514978,513916145,514971452,519552195,521471049,527789041,529059796,532813502,537621389,540338767]}
{"user_id":6092516,"collect_list(fan_id)":[107151,1053682,1854478,2014786,2113599,2814835,4654241,7878409,8971635,10245823,10323927,10602275,11887177,14155663,16921002,26453622,39222715,45739793,50901990,104300984,154712119,165987202,169065557,208044138,209338325,254867984,332923049,334092472,366675936,368532630,511769282,532488843,560948203]}
{"user_id":15688854,"collect_list(fan_id)":[95541,127874,2750639,8153726,16942270,20625483,33486850,35516186,76431944,165083976,332080646,363245166,532161440]}
{"user_id":250224611,"collect_list(fan_id)":[126944,5551961,6417822,7819046,7872111,8376157,10232939,16800905,27626310,29591150,32673782,35016910,35885094,38808772,40959741,41518832,45250678,46735944,53180421,54283165,66909925,88842030,94622041,97145719,102645048,103182031,110218161,120046849,120074797,121258474,118687292,129628641,131157809,132191997,134009309,134848231,149215127,157799882,160516143,170553061,171444481,177716650,177950944,193023922,211117430,223792219,231058411,238225386,255837938,266337053,305044142,312627367,334333805,346524468,367337397,384788151,400904882,404166186,407988910,428888265,448594382,465830957,508948961,528794610,561657523]}
{"user_id":456509690,"collect_list(fan_id)":[87648,815672,1343210,1665171,1970064,2417544,4117250,4687740,6440603,6053012,8421439,8428288,18497335,24054089,26966318,27596176,39465579,45061218,51516710,65030336,71473149,80826431,84563380,99631252,102714672,108588702,111214969,113237699,108732154,116608791,132776398,139064811,150662318,152268692,152837951,159202633,170817192,171525051,171890324,175411146,175838907,181912883,196084210,202967963,204017110,210761802,211669136,213844797,214085298,215601626,218676221,226030739,227747116,239078850,239896805,242290851,242345017,247790554,264922493,267530306,283731833,283978271,292984638,298337544,307823462,308185389,313714282,314083843,315003138,319361981,320534492,321303031,321685693,329097689,336770821,343304739,345672142,346779629,346973829,368541652,371018164,372288703,381196568,382233475,387095340,391183963,395130894,401167912,404051180,415388631,415390316,415393851,415396299,415401389,416050864,416432870,418105082,421248599,435183333,444393650,476901740,476922109,482979694,484356047,486303256,487584003,499421648,502097205,506132986,506538624,507952813,513501650,529421993,530265052,530689587,531031383,533769865,534479377,536349234,538965895,545360374,546448529,554377204,562497437]}
{"user_id":8522255,"collect_list(fan_id)":[199673,235241,812324,1289718,1320996,1522219,1636544,1678967,3587814,3765028,3914179,4161838,4269232,4274276,5102835,6145853,6181905,6253526,6375324,6400996,7305357,7319544,7682927,7338196,8335968,8706341,8968565,9143247,9551144,11365963,11537310,12943234,15144171,15625373,16218016,17512975,17737147,19457102,19600950,20877231,21754315,21908417,22324103,23734867,24314280,24540797,24958666,26248093,26374008,26656143,28533625,29217878,30148587,31011237,31789701,32306149,33860103,34819081,35372923,36504047,37878259,38447848,38559587,40942118,41243649,44310593,44848290,47427055,47592805,48575324,49551891,49637720,52769004,54517686,55859341,60775830,61118331,62233247,71380270,74772696,75903046,78891800,79423956,83072083,85073099,86032263,89668382,89911019,90442682,90777147,93022472,104025547,114998770,124907445,125162634,132963850,134788302,138558804,138811395,139727041,145506099,148334820,151547873,154706343,161160235,169972484,176273888,177353769,181752398,184649610,185049229,188095086,193669907,195040119,196983610,199048964,199847239,212574983,230623817,231170530,229830559,240771410,243343089,244502395,248243883,250293201,255099187,259495052,268740115,274536658,275382505,286948177,292747090,293768645,296415568,301718185,302076644,302893213,309460367,319324527,316743841,324160736,324762315,324917184,336843589,337832455,345996433,347400807,347957922,357936646,367883294,393821544,394702532,399780433,402926035,415676550,418435732,418725629,434557099,437420256,440550001,444708509,457077753,473454904,475219311,479605501,480613598,489051789,493118052,504598682,501415693,515149290,516827597,522675635,527570178,530668542,546692636]}
{"user_id":228076729,"collect_list(fan_id)":[154901,308347,330122,406112,411650,334738,476622,479281,521499,565530,788540,895182,991518,1059728,1162131,1294941,1298052,2385921,2867283,3228055,3586546,3759914,3945178,4636930,4661559,5145321,5338462,5623116,5943199,5967961,7433151,7572871,7654011,7898949,8553089,9021905,9864472,9886754,10112609,11133131,11233592,15401693,15669384,15851592,16866498,16901736,16973525,17642251,17826601,18237673,21464254,21695854,21736487,22474528,22691037,23045104,24631021,27213185,29497435,31239498,31539388,31622444,31871448,32969636,33642486,33958957,34757457,40746457,41115882,43185186,45071544,45346191,46764781,49640230,49678038,55110639,55480152,56615723,57108561,58834135,60453014,65457389,66342762,70058550,71218895,72281548,72538892,72594458,76802675,80776185,84214840,87761473,92521165,95540762,103367781,103544598,105298994,106439946,106790052,107081407,107345930,111223745,119822926,118740779,123109957,123223731,124514551,131891524,132888851,135622027,136939708,138184810,138503563,139720416,140458221,141453609,143116572,143427055,144077714,145551874,147851622,151501485,150332691,153464909,157844017,166966840,173459649,176250045,176455481,177025432,180748911,182276921,183955249,184011288,186032161,190655837,192705667,195821694,196672257,199457856,199955616,203989512,212662697,215124432,220239652,220819765,228259010,229010229,229520830,229610813,232134263,234406196,240008083,240468844,244390862,244534279,252619806,253281708,255811833,258183410,268768698,269122449,275844972,275862013,277554256,278476501,278792974,282808856,283937115,297386627,297419443,301918483,311973820,341670039,342324917,348049131,357747892,359384869,359516890,359887903,362090137,368499699,369551510,381720930,391405168,395258352,395408470,398207850,404586146,407517323,410450967,416180005,416765209,420913733,423109728,425446175,427923969,437463080,440348501,444851489,445795500,448573375,454955820,456566243,455365952,463860204,464534404,467005382,478758234,486016164,497883338,499669690,500213632,504127939,509706411,510915686,515036458,522550271,529799076,531637515,531819278,532374437,533891313,536731606,541350454,541757441,546072454,554275133,555109115,556025453,561600803,561623968]}
{"user_id":256860934,"collect_list(fan_id)":[196722,429037,518052,1148699,2223739,2873649,4195044,7587757,7597848,8732031,8741538,9947441,10479795,11486591,13851587,14573498,17139980,17885560,20954920,21053434,19855503,22009716,25066916,26548454,26576925,26925705,29807222,31223071,31760532,34606702,37753995,39043401,39389159,40483177,40959754,41517979,42368032,47639099,47746926,48369016,48549838,49378981,49466737,55090975,59343666,59553460,58013056,61083736,63727350,68034407,71618990,77002939,77966644,78791024,81790035,82610248,89428764,98644234,105299051,108113720,118438590,120710706,121507999,121555987,129093093,132083562,137483594,137608970,144582492,147519298,157242492,183946411,187791725,191389952,197419320,199404673,205937565,214129852,218025998,226136051,228226045,237655675,269626668,272917625,296948009,319255964,332062070,366391880,377773312,386299104,396896851,418130752,426486188,439682148,445028055,504581769,510722893,515484048,561795162]}
{"user_id":347463595,"collect_list(fan_id)":[178220,1449156,1804672,1895751,3178606,5524600,7960707,9118441,9311514,10630998,11108675,13147718,13490007,13686610,18588294,18829815,20676166,21617635,21619871,23047622,27361010,36067910,38771180,43434189,47411374,49722862,55769304,61502424,64329322,68101724,73404451,79422633,82595024,84482604,98125045,106221972,106466277,108427775,112197999,125411068,126676299,127710020,136103883,138391692,138874678,140953362,143419261,143743336,143951422,144925167,147164728,147811249,150453269,151096719,152155560,153181682,156569678,163985942,174247289,175534632,197088052,198047985,202905891,203376432,205444511,221227863,224018837,225794718,237329986,254551005,274536358,306595104,310672362,321418014,335152217,348380705,355231712,379858926,404902510,418255738,429665333,432875860,436164175,437945607,486234434,495486522,508193358,509279907,519594875,521180217,532710683,532863382,535738053,548042357]}
{"user_id":31824270,"collect_list(fan_id)":[398278,12439883,16951478,18533841,26918970,39094973,42608264,42939413,57217036,179323551,222030927,231044651,274139082,313269403,326054689,367083463,369070891,382216385,394942274,408511500,418382964,432961616,436759174,438614354,440450341,473959397,480307585,499140213,509683887,527943367,535606114,545257221,557850427,559437834,561227040,561630765]}
{"user_id":506003082,"collect_list(fan_id)":[347306,700325,6637200,31663305,92693861,94592059,144362200,146415631,211321322,223019128,223674631,261588307,297062021,321685693,334841739,346889729,381196568,421315410,477436823,488184543,500307966,504481792,506105083,507036873,508618832,508939419,509028382,509393436,510322797,510323128,510323541,510323775,510324562,510325936,511192331,508718759,508718817,512868106,515683517,512140188,515929174,518082342,564113356]}
{"user_id":900082,"collect_list(fan_id)":[637073,856628,2643072,8759078,96080105,102718601,388546346,439416673,473708732,496802274,520334019,528923220,546388946,554937429]}
{"user_id":170520722,"collect_list(fan_id)":[575762,1641418,5265882,5652680,8831147,9652334,11917888,18377892,20773830,21877512,22003639,29092940,31624249,32433525,42135562,44311038,54862264,55939899,58417209,60836327,68678671,77210409,77292955,77585468,79463859,79944685,89467415,90010378,89763180,92809958,93376442,93387254,97764053,98220490,98259618,102129922,103136689,106103152,107417111,111213916,113545084,114489311,114775895,119602473,120176673,120507816,131746289,134224584,136649533,137484548,137585342,137890388,138622616,137441753,140209798,140785886,142230477,142597831,144181131,145280053,146926453,152405594,153245715,154334660,154871398,165336698,166899429,167545038,169817601,170132628,173827466,176841090,185324431,186160179,193909347,198959572,201121144,202245821,202252300,203082904,204086746,204537935,206270622,213439826,216840864,217414428,218627623,222849630,227888434,227894633,239803818,267904522,282263633,285032710,293556468,303864752,315087583,320905993,321287641,331190771,345924066,348441959,350352326,352564620,357325287,358283443,369474176,381298046,389992984,394081333,396665252,410963507,417350723,423057393,425437990,427393660,461399911,469151693,469954266,495727560,515283725,517003660,521731609,533763294,535500043,538340115,560772963,560913613,565568527]}
{"user_id":208647804,"collect_list(fan_id)":[626555,17762534,19141908,20915344,45288158,97883531,223914342,321208025,490664813]}
{"user_id":16250377,"collect_list(fan_id)":[712396,1815495,2414648,4238797,4678394,7348697,11688935,11871845,12298723,22298078,26030108,26256358,35676302,37296985,38140853,40516439,57912812,67542472,84837803,130192362,150294219,183603800,183693945,190356028,253049361,332474132,419127072,554879036,555722893,556121817,565620477]}
{"user_id":154375677,"collect_list(fan_id)":[775957,1795036,3306323,3363732,15812527,30039646,38171080,43035992,44352514,51431614,52091096,56286626,58940557,66914661,68787155,86125444,95867589,102323362,123893167,124969253,136486212,137163216,140784935,145983109,152275796,158582443,160213726,166536487,170899715,176699657,176940395,178120008,184038625,187663777,197400900,200204928,200438659,202695963,205691724,230076438,242877122,275147633,290796353,314863206,326868157,340850116,341605572,375208233,386047544,394171988,410354155,456233794,474791274,489290679,490973547]}
{"user_id":314307371,"collect_list(fan_id)":[747480,4546990,6676947,43138005,46107077,50137353,67147575,67566744,71947805,87676223,94551111,102131832,113237699,138673336,144384952,144772087,152560267,159343792,167774232,170163005,174659151,185284689,215265429,217431996,217822611,246969526,290350326,294900915,301769116,331590122,415388631,417458508,439024855,441059940,444580823,496456076]}
{"user_id":146223567,"collect_list(fan_id)":[967532,1229064,2054180,2592516,21785805,40248206,73365684,122552653,183986473,193408068,211870401,322769372,323059189,519980005]}
{"user_id":344933051,"collect_list(fan_id)":[969068,1338033,2684214,2910713,4235375,4476732,4665296,6142711,6246203,6485960,7287257,8140572,8606868,9015798,11802827,12291550,16813978,17077546,18342680,18529584,20516382,21281701,21284478,22805345,24263846,25389074,26329196,27176827,27540673,27628815,29333353,29755078,31608789,32729490,33860360,37319592,40746281,41393390,41760572,44648874,46116061,46579325,49755318,52905040,53057831,53870276,54768554,56602094,58418942,63471310,63661994,66089426,66142511,66246791,66415751,68607258,68805069,69789569,70710520,74963049,75446837,76013202,77472659,78130312,81702223,83821663,85196247,87979554,88481566,90163688,91511382,92151003,92225867,92301903,94659726,95239096,96431377,96801558,97495137,99164120,99459112,101470500,103680656,105601603,106103869,106739303,106792606,106806602,104692523,109251329,110610288,112650040,114214417,116757052,113691824,124309213,125457594,131970530,132782452,133024684,134464057,135325777,136186268,136304833,136612172,137233243,140668765,138952972,146803606,146995792,147332915,150441561,151818519,152740114,154112416,155629917,156192007,156716101,156718918,156928161,157390407,158375572,162033989,162916305,165375633,170371371,171820793,173481769,174907722,174923802,175775768,177326338,178091536,179912379,180160472,181108597,182677301,183904556,183990041,186625914,187070101,187453194,188563412,188650947,190156538,191444071,197857155,200497339,201063187,203729527,203983625,205792366,206074952,207690835,209716671,209787139,211042705,211694872,215661353,216333348,217548359,218585836,221326890,221903832,222024347,224925784,226953536,227275352,230845121,231276703,232243916,233780097,235648150,241452729,245443989,247564657,249016498,249570759,251344815,251549369,252347009,254186775,255062967,255064089,255910177,257310118,263478010,263645287,264669803,269453233,269971415,270089547,271972647,274584348,277390373,279098635,276522936,281233785,281355670,284962676,291443860,291936972,293097028,293415627,296798088,299546724,303955179,304478443,305290215,309820746,309988881,311833496,313601236,315525080,317123184,319234611,321676715,322455776,323404302,324049192,325305829,339774710,340580891,341240398,342580507,343772637,344728904,345583603,346581450,348874398,349523382,351216363,352662866,356673725,356845248,358310078,366378383,367513719,368194013,364352122,371266268,371737600,372840056,374181077,379947643,383782548,385237955,389498501,391053842,397438096,400093846,400398560,400798071,402911763,405159489,407776347,408060862,414513267,416827731,422239176,424189587,427607822,428015823,429835625,434508650,436946630,437240736,440143953,441426471,441853894,441977079,442570400,443590534,445649107,448343328,448343617,449801976,451555455,452834501,459208396,461040579,463721968,464463280,467221203,475576702,475711551,477483849,478522825,480605137,482320504,487560146,491388401,492672438,493054750,493725214,495288168,495484056,496201230,503548024,504857032,505475756,506819846,506974892,511099213,511325086,512028576,515630071,517968404,518700327,520210277,521407063,523484279,525437545,526495897,534037576,539610132,546364983,546910075,547271730,550704777,550874466,553478903]}
{"user_id":3619807,"collect_list(fan_id)":[1173877,3314333,3324416,3700753,6234321,9074875,10491853,18550427,26133302,33612384,54406853,59566217,96876372,152832417,196459941,353205444,364001644,454893768,468009530,493424518,515613285,524607595,533840902]}
{"user_id":223780319,"collect_list(fan_id)":[1051448,1909039,2504385,5823821,7123275,7227940,8496043,8883880,11202947,12344486,13339834,14840376,16409186,18059698,23005739,27336650,28769331,31325952,38593092,39477661,39756191,44775426,45458352,49409782,49568922,52612233,54215050,55690338,58432054,59975672,64336845,65535006,66392999,68781224,69038781,70924301,72576563,79830850,86673832,87296729,87925817,88887720,88925133,92902420,93500405,97435379,98429883,99421279,100774880,101730165,102025474,102857943,108565062,108613788,109352645,111647712,113986728,120111867,124000849,127411973,127938208,130848752,131648988,131894233,132422688,133625643,133875739,134668618,135539706,136623754,138688271,139792977,140412191,141205687,142475841,143378062,144938011,145329105,147474350,148175719,148224217,149616518,153231702,153910695,154041405,154569364,155844966,159751774,159887309,161174125,162297088,163047060,167704518,168609365,168648064,168858528,169290535,169731848,170934472,171149212,173185846,173565203,173730407,173890785,174306789,175650290,175659111,176126040,176881942,178897858,179966674,180372022,178233495,181633209,182815658,187595741,187727661,188837158,191419745,191763357,193735228,193808257,193808989,194185597,194902252,199417114,200053063,201023099,202575105,204197069,204201927,204431295,204450682,205925637,207242268,210810595,211938693,213251683,216007737,217081957,214942133,218744663,218902825,219523227,221423411,221846839,222860814,223285423,224348245,224350220,226039179,228809412,229993048,230697706,236223167,237622113,242442761,243112590,247219724,247259691,249777186,249777356,251306466,262975094,263228207,267793278,268546427,273524118,272303207,281120567,282213433,289441207,295793080,308243777,310967819,311878714,312493658,314158695,315552415,327192507,330219711,337495389,338027285,339388607,340024651,347446979,350719853,351681358,351853015,360767245,393460605,397175499,402848964,426910122,439365238,450675214,453912210,454043844,459112287,469118039,469323201,476691784,483878161,492848507,496785677,501132903,523082377]}
{"user_id":60083994,"collect_list(fan_id)":[1231488,3588162,5661276,6534721,8084388,15113666,17819275,18082992,19368580,22843094,26738224,28788343,39391975,56866434,57359530,59249118,73592684,86011375,110385816,144129363,180447223,197514064,200739261,205830134,229500509,251360696,298013972,331454251,333225705,364876885,396196568,400217382,410292313,422449276,422462540,422678549,438697398,449955351,465443858,492114545,501045170,506125708,531382577,539924621,563792455,559994870]}
{"user_id":32582185,"collect_list(fan_id)":[1428947,3525245,8608422,9863076,12095379,13620991,16270143,16482902,21096682,21571288,22647021,30273704,37253721,48175090,50012286,52101698,52460454,55319191,57032760,63253647,67763717,68191928,76378214,77021614,80178629,85577922,88688317,93156258,94378381,98918743,106827478,117461487,122491433,129752029,133340677,133391119,133870959,133890267,135122441,135190721,135339054,136187651,141390896,143388014,144298226,146965027,147782976,151680760,160587452,165695789,171405683,171611454,178092441,178783592,182685647,185524594,192451977,196065659,196389569,200101123,211102612,218767138,220187297,224032455,233394098,235170691,246280020,262308773,288592029,337888509,343476126,354856364,381157978,382525292,415408083,434917282,441660651,448198141,451617977,479067418,489736051,492612772,490068647,502112894,511022764,511280816,511286535,529187203,531384620,535645163,538377684,542076571,542157095,550030235]}
{"user_id":180255698,"collect_list(fan_id)":[1735646,85752583,156033189,161942524,162210157,192983007,225023155,327696315,332683850,348694893,370424172,421294926,447982938,450562907,453803875,472888663,475513425,476605757,479096952,488167021,538763622,541759983,542683364,554402619]}
{"user_id":11952349,"collect_list(fan_id)":[2607724,2740250,6188709,6810733,9812153,13034937,14487391,16355392,19247235,20227383,21931863,24273507,29217029,34693647,37021368,39526707,63793050,71233035,91081190,98828838,131571929,144056938,145190731,146876568,242943966,359632588,375659328]}
{"user_id":5343029,"collect_list(fan_id)":[3102706]}
{"user_id":245727167,"collect_list(fan_id)":[3956050,5296200,23052504,24138108,23588681,33702624,36466115,38791483,60724580,77354142,93555947,136644725,151722461,161506335,181701116,192348285,212294742,238887574,245280517,248379667,281394562,281512814,294070280,303416828,312419780,320679061,327980413,350303035,352442116,354561868,362705844,403340515,422142583,428111104,454516443,472926981,520160394,529439220,541106836,550899107,553150577,561965360]}
{"user_id":6760781,"collect_list(fan_id)":[4650106,7568711,12209208,15735718,16115692,20412812,27489280,88039125,90674326,167608309,358547274,404229484,494713400,563448165]}
{"user_id":320943351,"collect_list(fan_id)":[5297772,7130979,7610454,9375549,30064083,39571719,60407445,71255859,74236137,94280235,96996012,111691133,120684903,122275746,132159560,133213606,135439612,135896167,138454563,139022928,144391235,152378997,172139025,178637423,179565518,185877091,187339630,190430637,200340046,207788754,209588871,213208521,214799172,218879293,232063351,238362838,252033214,280220194,281988243,297665300,302063125,305245425,327322704,328942719,333686527,338736124,339620806,342095450,362334308,373492595,379142598,384868136,387687950,394211528,396745666,397668659,401844012,409301361,410751624,414276674,422781148,423050162,423873587,424439944,425760131,428600253,440354705,446021683,447379889,447770090,452070685,454868760,456285679,458052172,458216497,461654441,462641477,464761471,471244252,474180866,478724463,479322390,481520679,483283560,486741433,486974924,487916412,491206651,491264318,496815531,499460951,507671918,510230400,511805684,513044372,513107842,514972131,520993609,523736008,521988621,525257013,527871565,528139904,532955124,535443186,536404828,539289703,541257585,544923281,546279357,547534897,549255393,551520471,554293559,564478310]}
{"user_id":156396734,"collect_list(fan_id)":[6043472,15704953,21066360,24067931,27821239,33121293,51939607,57392439,59667303,63350350,74917655,88346719,93119155,94357535,97880892,98870171,104235733,108872925,118587215,132645489,133847115,136666047,136937324,137295850,139648740,140272194,140634638,141231259,142292427,142841715,142845841,140741661,145901261,148273554,152174967,153820379,154743819,155467633,155546662,160565347,161082122,162852970,163127729,163206145,164826475,165345196,168431214,168652295,169605500,169987609,168743947,174248110,175043341,175467449,173592479,177515158,178805517,184146428,186756272,186940680,194146824,194351061,194364135,195453366,197472987,200642716,201071530,201485113,203458799,203761037,203822655,205604526,212388823,212758848,214426793,218422999,218824893,219407742,219654714,220711682,222485296,226531673,227869260,231080501,232950434,234509895,236595260,237874993,238943416,240256443,240538545,242893599,247787275,250092449,251260074,257627147,258611869,259952164,261810302,262608589,264582662,264583067,266358464,267220347,267468419,269829956,270539865,270671132,272405840,275633827,277536564,282956368,284369056,288492523,290679940,294622360,299135767,300126634,301581247,301772875,308919547,316184565,316854195,319413244,321894085,322051431,322219317,335613684,337247085,343414665,344962219,346747843,350171674,352636152,356741323,362741904,363326432,363707802,364907201,371247849,372738004,368927385,375569466,376072276,381272137,382486523,383488816,395204486,398737986,403675062,404320875,410347251,417432038,419667264,421098577,421640023,418349212,425406850,429084070,429401016,441536354,445656474,446523505,448457297,465094075,473393579,475699583,481092112,484859796,488547042,491844144,493043453,496161961,499184263,499659932,516231911,518519908,526115117,527811664,529209083,542213079,547171901]}
{"user_id":533838929,"collect_list(fan_id)":[5685268,8036635,12136033,34811313,52775255,96392991,133152701,141251180,156448151,159426616,159545860,164866707,168396263,176494373,184121532,187359544,191060486,193286861,197553077,199358052,201621958,203062629,210110419,217641603,224925438,225587536,228436460,235242388,236396984,237439932,242876917,245862972,250490628,251001746,257608237,258667704,259103379,263113611,264729576,270862627,273863862,274382672,280137066,286924328,297944950,299981390,302009719,303816708,308546180,311350249,322994453,326084207,330352992,330671778,331985966,332114863,332164390,328720118,334285318,340953206,342845779,342891915,344182907,348421029,350881626,351528536,354913808,362764461,362771954,363144207,363707166,363895818,366283935,367879812,375591100,377764787,378018434,378388440,380214361,392703078,392968575,393106885,394142549,395803733,398544148,408465563,409541147,410637542,413841280,415218838,417176885,420075648,427137352,432081189,433493473,434163072,436540419,437876889,437880042,439661178,438352228,444029663,444366361,446074427,446255632,446380675,447666520,447775262,452169241,453084129,459226156,460455215,461532712,461941141,462437703,465391332,467619459,468932103,471491603,476751736,479652528,480473503,482854654,483373839,484012666,484172486,485559966,481983823,486072878,487262294,487641672,488952353,486018561,490187493,492395320,493577023,494910265,495691889,497828715,498705891,500653497,502398983,509588554,510718119,512833378,514226544,515531483,516039083,516456559,516466224,516947160,517487203,517559387,517799884,518079514,518128806,518137619,515772092,520935313,523205014,523409411,523674769,524049175,524827754,525178687,524317073,526789420,526840998,529674503,530855752,531363852,531392313,531443586,531920830,532394637,532427073,533443589,533548136,533962544,534182659,534229290,534617093,534876653,535148680,535406587,535466625,534123960,538219442,540799908,541474415,541951916,542244273,542820104,544015414,544181780,545802291,545902672,545909068,545954721,545995056,546400684,546544042,547689260,547766303,547974324,547980852,548801463,548821090,550560339,550642694,551245538,551471040,551564764,552877568,552983954,553328830,553548543,553790429,553918406,553974668,554944793,556574121,558920960,559279552,559341729,560126888,560934023,561317573]}
{"user_id":138209568,"collect_list(fan_id)":[7640138,8649101,9309048,14826512,15799363,17733694,18013461,27492146,51829297,53022678,58528853,63501105,66174333,88613491,100548886,140342563,153639206,167151041,185944388,251490555,261775103,358104930,367400698,375886336]}
{"user_id":156561682,"collect_list(fan_id)":[7464933,17263833,44024875,44832979,65763655,79873636,86483402,89530861,98142172,100619589,102793409,103815120,103874995,104186353,111385294,118591853,127367730,131549554,133478997,134109010,134303667,134339406,135896248,136633344,137849019,141396668,143319136,143670728,144567153,144823722,148944863,151740234,151780959,153423351,155257273,155352145,156355195,156380534,156412476,157713343,159516738,159921869,159950787,161919139,162494451,165600993,166657605,169457747,170259555,174449289,175007448,176103867,176642931,179697006,180805240,182065806,184456948,184616085,189947690,190111520,190399387,190982078,193471854,194588047,194884981,199713488,199831504,205984145,210807642,211348900,215213660,215674248,215886396,216290408,217444604,220010995,221264738,222550596,230134621,234760651,236321198,239287294,240165775,241013236,241056437,243312320,243926862,246117665,246805510,247420727,249058250,250603209,253413735,255097173,258490886,260952759,268405707,270887000,271022837,274545274,275012549,276064505,276495819,281733492,282001352,285312105,286946178,290999542,293536807,293913987,293943834,294077397,294498535,295516054,296386712,299839932,303526785,303605260,305576998,308150003,308428090,316593786,318919568,326972083,328271204,332128051,335528130,337725302,342276789,344097600,344575116,348105715,354593266,357876906,360127888,360372586,372832095,374218236,375200277,378955405,379259588,382780422,382821112,383183028,383661242,383922630,387335670,387933731,391315011,395278207,396941600,397701971,402063785,409443918,415028433,415103226,416515884,420493439,421723845,422613851,426843194,426850901,439676230,446511467,448348439,462613341,469002426,470431577,473359427,475343531,476081750,476943850,483819097,483875955,491552645,492321210,494278013,503448414,506651645,507139433,510544434,516242901,517562102,520355859,522592559,524882727,525183328,525447348,526308952,527110377,528617350,532826129,534691251,534910634,535581327,537738627,538484487,540019178,548573462,551938389]}
{"user_id":140164318,"collect_list(fan_id)":[8152284,10066959,16635287,25408628,25477513,32355526,56777868,64115666,65134621,76716106,83897266,94127713,94284385,101488970,124465222,133080855,134503684,143660111,148076501,151738843,154788393,163647278,165597542,177902128,183767259,187220341,189439941,192539538,217114494,226755974,235477742,238835767,279978141,295108286,376526900,402931193,408312214,425593311,431667375,447350610,455455851,455470102,464195564,487076375,494360852,519750136,532215087,541451378,550651845,560308408]}
{"user_id":161891254,"collect_list(fan_id)":[10745601,17011132,59271377,62905078,73396504,88418319,98138759,105736213,108304757,114514643,118134921,123118168,123269284,125397590,130773650,131785355,134075812,134533415,137828062,138720697,140418540,144361468,144592389,145164286,151122841,151169565,158926006,164227762,165761896,171795030,178642660,181716734,183806125,185987630,189176279,191381208,193194540,193319409,195360820,195477558,198938250,202091418,206943790,217703739,215015432,220087869,238473872,243059331,246150028,247755927,254642812,261205648,263381067,267327022,268165754,280064909,298381404,301767540,307208320,327322858,333107451,343016618,374291453,379960063,392139253,405253125,412965003,477406903,532154632,552687113]}
{"user_id":234727882,"collect_list(fan_id)":[13124510,30753169,33240600,64250087,74494995,95511358,111389153,139622064,169692407,180455812,191017205,218034664,241378211,244142155,276029752,372097810,454290309,454546715]}
{"user_id":341911892,"collect_list(fan_id)":[15477134,59800980,122560472,153537049,158451976,171925826,181396984,187119606,190945599,218884397,234298881,239266869,237031249,246508966,247237959,248408482,269973798,290143309,293009988,295487195,303440438,304621134,305771463,314217609,320504531,321062661,321344064,329117466,339033175,339131509,343187959,347267675,348378181,378213426,393858351,401878776,403532919,415013853,424400751,435373300,437187052,437873485,447590697,450723630,453242688,455550144,458162489,462620500,488552895,491719133,492041701,493197867,496291233,496463051,496718455,500408564,503610879,510995106,514838878,517684318,518026599,515783805,520553070,520697575,520885232,518816649,527008195,527830453,527896754,530318115,530625677,531898332,536442547,540056588,544472081,551597842,551774267,551797833,552277638,552539825,553509862,553953099,553993495,554314500,555274687,555710060,556495237,556572730,556624856,556892798,557045100,558077235,558154926,558252535,558681778,555934951,560110881,560393985,560408740,561764149]}
{"user_id":277624579,"collect_list(fan_id)":[16579158,46924962,135754940,137873757,151219234,164817281,168957766,169932318,171888563,180931157,181758853,209833270,210749088,255106396,260644489,264270199,269962847,277848712,291429775,304947362,327492756,344478255,352736712,358128385,366397509,372795614,375333390,375828145,383183282,391031571,405775915,419473371,424015766,424999371,429301028,431943318,444444172,448592277,471610187,475198341,477485209,482735301,482807306,483501224,491765405,492882259,493333103,499947401,504206820,506759147,510581701,511773774,517127432,530364954,549262467,551515699,556494371]}
{"user_id":180826007,"collect_list(fan_id)":[19273342,144510061,167173226,177770443,182085433,187837660,196305177,209908681,213868067,215198204,217070580,217296720,222506377,223050215,226000688,229046542,226897628,234817633,236984962,238384014,238664591,243357263,244947129,245603619,258425802,256024210,261755455,266316466,266585952,270337017,271140571,271662969,272639445,273831129,276351261,279450058,279859134,300337619,302545368,303501945,306589445,307556127,307436188,313790098,314989204,323641404,324803217,325007722,333554295,334392742,334849222,341740096,350415051,363138479,365815298,378010171,392556730,396309522,423953826,443104035,467688789,483456405,487314094,493018686,515749334,527663809,537329073,536518501,540780275]}
{"user_id":280954841,"collect_list(fan_id)":[20802848,96617512,124975749,146393457,151645535,179312274,191197184,195474623,198169512,216301888,221646175,255413678,255764420,276168644,298546603,304951626,316252445,362707853,377212311,391187896,433715912,440536075,473262676,485822166,519112795,531024944,531448127]}
{"user_id":196427435,"collect_list(fan_id)":[29515216,292146122,308343832]}
{"user_id":1382427,"collect_list(fan_id)":[40603841,61082402,416653701,479364502]}
{"user_id":341783423,"collect_list(fan_id)":[51566877,60709624,67940967,68146693,141140855,142263831,156523960,159781500,167348726,196272082,196425809,199218215,204087099,205798188,209744455,215088099,216019572,225367751,226839251,246648916,256126333,263674778,263995295,273045510,282364006,289193032,284945215,293665736,298763438,307006098,307153334,307284804,318249112,325962631,331059853,333878138,338234092,341078220,342576397,342874674,344387959,345470851,345836074,346843953,346851378,355619094,352859381,359549461,366063907,369373189,370144639,376215389,377477469,373596066,379226013,380673732,382041905,383507404,383519784,388506275,391666266,387766858,393700056,395200361,398851544,400710229,402950394,403587709,405267274,407157127,410210121,411696714,413482440,418485439,419317517,421352614,427902376,428057452,428276748,429529228,436348211,436496779,439338672,442562909,444052175,445098992,445449430,447820354,447958296,451489825,451863855,455100767,455149993,456625315,457738648,462150479,462686159,463944656,465203937,466855743,467054110,472648027,476486354,476546120,479155008,479826370,480778335,481641533,485213763,485679904,487652780,488707310,490690834,490895580,490040262,494302519,494635319,495040927,496356337,500263423,503565713,503843073,503887716,505162403,505513619,505849807,507185626,507348271,507349229,507472829,507478372,509093868,509520698,510228989,510885806,514144395,514664339,514901543,515545727,515676289,517068977,517165829,517960280,520216831,520644420,521393443,522493153,523867652,524000825,524716749,525682746,526489810,526606921,524340924,527017303,527473765,528140556,528606934,529157914,531779890,532240884,532282709,532663354,533969454,531724774,535418478,536950561,537136193,537706279,537923221,538032055,539153723,539332677,539614363,539997782,540449035,541360072,541596390,542868959,543057658,543260475,543559358,543603594,544511342,544707186,545847838,547959792,547963853,548649764,550746604,555384638,561707536,563077390,559997958]}
{"user_id":374851577,"collect_list(fan_id)":[57161215,224979636,454672683]}
{"user_id":142216958,"collect_list(fan_id)":[61574366,87673753,94065508,134328016,150964452,152680052,159046103,159680397,163746782,181800993,195158715,208969088,226943069,252076049,276730435,284086201,284663656,287328775,296298397,299417731,310021722,330503611,333937112,352619061,358272443,365130456,390186084,420463877,422891173,428563596,450660984,465996530,473469414,488617028,488775211,489339197,516078519,517673191,515718829,527831331,527832106,533798999,538772559,540022363,545892634,546810460,549989185,550560786,550609407,551431954,555399921,558710583,561761207]}
{"user_id":227273945,"collect_list(fan_id)":[64474499,110127515,123398519,191680980,202299731,213441725,226862651,239138002,291402969,444131227,547439544,548197057,552175155,553143266,553728735,555877484]}
{"user_id":142477503,"collect_list(fan_id)":[69464215,123272205,144130040,151821641,165717652,172555514,194626074,210194548,255695557,276324519,354122924,387732793,412897844,415309095,418068151,425476507,432869128,473953297,474095883,480744195,477326206,483838329,491333751,533729051,549178800,549253831,549307478,555071539,556157584,560870651,564634269,559956294]}
{"user_id":482835084,"collect_list(fan_id)":[72375775,184727797,189134011,206745482,208317349,208619715,211692452,223113316,230117211,231533640,232591028,236275257,236826907,238978156,239807799,240047554,240348415,237091024,246342206,247145921,247418817,248698868,250216178,250232432,250300302,253651944,254585807,256182100,259787661,261573145,261915417,265454571,266225642,266986643,268090186,268438403,269325633,269363561,269997424,270173454,271215893,273531173,275165378,278311918,278434577,278856404,281316032,281861725,283438613,283763300,285883828,288262751,288431452,289638846,290501906,291245284,292009944,292180655,292361554,295796878,296210118,297924630,294306997,299722377,302304855,302684095,298826503,303685257,304740963,305212479,306312931,306739260,310209184,310251881,310883681,312404193,312702028,314882531,316500547,317230965,317595139,320406981,320716441,322845519,325210288,328941212,333568571,334120698,334364995,334702095,341253920,341635127,342404568,342571676,343254641,347645359,352572364,354900200,355051953,356125975,356152858,356704336,359154045,364852563,366079973,368422467,368704434,369083484,372310075,373277193,375501357,376959899,379926140,381202615,384777928,386751310,387698134,389616846,391475455,391902138,392095763,392806917,393902687,401202962,404581736,409487926,416113936,416882899,418233219,418248679,419530419,420225228,420883891,424155629,425356688,425868608,429383254,429574565,430047478,430813450,431015269,432134346,440035113,442115259,444261889,445890580,446246741,442889207,447300304,448361610,450337151,450350937,451749026,451842490,451963399,452938113,453186809,453590494,453623316,455793128,458747163,458780339,460219886,461185637,461616060,462195354,462353240,463610248,465285095,465307320,466207532,466413753,466814723,466936091,467607915,468213751,468259542,468441416,469794008,471342478,473627154,473782798,475526748,476322840,476804016,477211887,478407502,479448661,479772486,480246100,480347667,482705848,482807769,483031536,483139263,484869880,485778646,487180014,487916652,488801179,490580003,492506393,492616859,495794498,496852558,497004949,498284065,499637947,500053229,500183890,500864991,497362575,501668147,502057266,502081670,502663372,502805083,503291547,503453619,503639387,503720278,506358416,506485881,506758425,507229059,507790982,507861182,508921777,509545506,510974778,514473755,514745370,515229736,516314605,516640661,516737310,516850984,517286053,518944118,519266042,519418997,520262870,520376215,520423125,520486695,520486903,520552823,520994687,522174704,522298996,522776298,523959047,525309983,525426600,525660815,525746650,526501391,526773643,527374516,527639409,528869242,529361173,529477646,529775743,530148840,530500195,531147158,531870828,532058784,534147425,534268346,534930839,535084223,535261447,536208733,536284530,536343095,536940639,537358262,538172739,538557774,539032092,539282869,539603653,540458364,542097378,542368512,543548816,545436214,545482365,545609227,546371140,546794311,547715172,548199349,548635271,549488270,551290349,552125320,552672720,553008359,553043947,553616061,554470513,555424607,557162140,559756525,561109770,561315114,561919247,563753972]}
{"user_id":157172914,"collect_list(fan_id)":[102513271,108810875,497184654]}
{"user_id":138147206,"collect_list(fan_id)":[126496060,132632856,312723890,324176691,332425998,421717109]}
{"user_id":43343667,"collect_list(fan_id)":[133096012,360219755]}
{"user_id":153658043,"collect_list(fan_id)":[140039765,151739861,154202408,170891493,170983407,179904728,182374477,183988909,187109299,188634311,193077255,193894331,198955467,202305209,207300408,209365150,210668112,219986666,237135617,238562607,242097448,243178755,243468820,248071614,259334553,259802252,260831253,262552527,270248178,277370568,305847803,309758210,314671423,333380115,334071650,349767441,354943362,362029413,365328548,387274131,403880770,433378966,439575389,443642739,444305537,459203467,464988246,468231332,499414046,501979335,504494845,506218603,524546881,532465991]}
{"user_id":223589976,"collect_list(fan_id)":[146147242,151696115,449344467]}
{"user_id":340199396,"collect_list(fan_id)":[264439707,292007692,333696919,368441511,415388631,415392876,415397361,415403198,419538148,468925333,475433345,510498692,514818916,540676331,543789485,551925053,551925541]}
{"user_id":538091028,"collect_list(fan_id)":[305239352,313783275,468847192,474159874,492435868,493807574,500693102,528739175,533676895,533934681,535273642,535328401,536718913,541201772,542007736,542660165,544457700,544732148,547612319,549165098,550923699,551040471,559548833,560350546]}
{"user_id":6287512,"collect_list(fan_id)":[434662445,475736331]}
{"user_id":500805589,"collect_list(fan_id)":[554288881]}
