{"user_id":34109,"collect_list(fan_id)":[1593,34016,40804,54590,76344,86808,90254,102206,138410,140615,191013,197425,200431,245777,359249,382739,399295,407854,421130,466012,540643,653496,661545,667426,691323,819199,998365,1120677,1124861,1387726,1392733,1400187,1473788,1580835,1716557,1733044,1855807,2139209,1876021,2455811,2826630,2932949,2987548,3322212,3389355,4764809,6475462,6537110,6594082,7599352,7969011,8186002,10066959,10374871,10969034,12614484,13084630,13941044,14906185,18327277,20038134,20668482,26358158,26430342,28731861,31094800,32273050,36539780,37779722,42458262,57266130,57612693,58051681,58463720,58534931,64884274,77624222,90772811,91813009,99009126,99165547,103090276,124356224,125053707,132251879,136121894,138873659,140048790,141969019,145556364,147509971,151889302,160483997,163554748,168982984,172831666,174029365,182878574,219936377,253674117,257985112,273315715,289433858,295020771,305735752,322052892,332859174,345564242,445794905,447943348,452935113,467932922,480559636,526884616,530959136,535450464,540899394,555212979,559643192]}
{"user_id":142653,"collect_list(fan_id)":[7063,4421920,9398454,13061619,447942140,485098841]}
{"user_id":160414,"collect_list(fan_id)":[49241,84433,119493,194770,198798,261402,281096,355330,424780,495935,726354,727713,810477,933935,1762202,2155529,2608011,3269674,3429247,3522691,3854560,4068212,4122919,4253762,8499502,10081421,10414950,15161922,16663402,17360242,16536655,40709461,78742787,87521762,87877574,111112344,112585438,117048366,120835749,139213292,142278761,146732517,158922465,159061006,160365740,176961512,200866112,227735878,227746367,231477933,253922065,257281779,266887715,300609743,328550248,341588520,344585038,345817566,406387686,415131025,427702802,442745040,463039297,469271414,470477114,479583851,483022320,545741301,563839935]}
{"user_id":861926,"collect_list(fan_id)":[40515,46195,61764,70608,80804,94334,102633,107452,119553,140271,150994,154254,175895,180405,194135,219827,227114,237513,245028,261203,261451,272646,284000,308499,320315,320628,325829,327471,343925,348394,350441,359267,360518,361052,386269,410964,420666,470528,475130,480137,486156,488528,528745,570954,574457,578995,605033,610747,611439,659327,690895,703022,739070,766390,787099,863307,877210,878084,920524,933366,956331,1011349,1021172,1177110,1178602,1267773,1353636,1377662,1415799,1518031,1593257,1614864,1655701,1665193,1686574,1691903,1728384,1732323,1769014,1850004,1861306,1866110,1873974,1943573,1954054,2008687,2048874,2071701,2161188,2226770,2280865,2325147,2357970,2421083,2446377,2190770,2190805,2498467,2576780,2677718,2689507,2747521,2476030,2835040,2863208,2875190,2912420,2952758,2993639,3120680,3154625,2801296,3301555,3392260,3482456,3501708,3552390,3594174,3599048,3678260,3896619,3946980,3955497,3993943,4075395,4079137,4092584,4101808,4406221,4432531,4480298,4546696,4678620,4715695,4717962,4733388,4749976,4756807,4806133,4909752,5082860,5091954,5094889,5116045,5137697,5229948,5238049,5330740,5535404,5583886,5591564,5605762,5626186,5627582,5665578,5902848,5471495,5479302,6573711,6577342,6596104,6740733,6829709,6830853,7007207,7050533,7063945,7065730,7134780,7145678,7236844,7405017,7744142,7746821,7850955,7901266,8012895,8022724,7345624,8284678,8349947,8725810,8966383,9021417,9048040,9056830,9114873,9121979,9274859,9298223,9326340,9333412,9671565,9804105,9844971,9845403,10200666,10219427,10329683,10453789,10629143,10754833,10873211,10909449,10950002,11116623,11974586,12057028,12199084,12309630,12345577,12410975,12866280,12877671,12943641,13045997,13099935,13122107,13135523,13429597,13584280,13739305,14040327,14812674,15641688,15752740,15802052,16357052,17048474,17366363,17371928,17508622,17590231,17731013,17880835,18057268,18110084,18550622,18857114,19013517,19177161,19245370,19505694,19888250,20190715,20388488,20611714,19844911,22208461,22304167,22466632,22637770,23927426,24109110,24969413,26126738,26264078,26439525,27175949,27969779,28079721,28105676,28348044,30075924,30433272,30481768,31046956,32620133,34257087,34662049,36381212,36719386,38773655,40070324,40722247,41060695,41164356,41527360,41818506,42283063,43361535,43522461,43709041,42049648,44468262,44878691,46178570,47507224,47577975,48192072,48308445,49049412,50769850,50873509,50973105,50999905,51351858,52116228,52533078,52867629,53108826,53182900,55019347,55455612,60032473,57930412,57932479,63299421,63542113,64471277,66210960,67762987,67893109,68239855,68357726,69436437,69597772,70071908,71676410,71734102,72498848,73739470,74157228,74017613,78808012,78836988,79371892,80974057,82559723,83260670,84291766,84823620,86157309,87310394,87498960,87892329,91686419,93709202,94800065,94943816,96336442,97528932,98027458,98273327,99450228,103243576,104244668,105918444,105960820,107773708,108475077,109034607,110766071,114051321,114464425,117681166,121178031,121330448,123613517,124267411,124588696,124904241,125228986,126395877,127350829,132389000,132851174,133772261,135412311,137198949,138351913,138366636,139024301,141167679,141544132,142001307,143521684,143599489,144114495,144882147,146117481,146992144,150597226,151484944,151517926,152282628,152533353,152792290,153345716,153565131,157312516,157451458,159579241,159959752,160057646,161582218,161616836,162520928,160960954,164696771,165339343,163413019,165935799,166091788,166866259,167754363,168880051,169106587,169439545,172780569,172865632,174456196,175439110,176374289,178408860,178728848,178805196,179696015,183809448,185753836,183527606,189942146,191544930,194001370,196924048,199443430,199905035,200118214,200933198,201023007,201526164,202409154,204484815,205020814,208426695,209654947,208252147,213679378,215238724,216746633,218912471,221400474,221996524,230009436,230303950,230903368,231594350,232486298,232873218,235888966,238660367,238763669,239916812,240454874,245415373,249308160,250161753,251596067,251623904,251762513,254017504,257652305,257990892,260017175,262563417,265638633,266257573,267118089,267655591,267762526,268474344,269462077,269926400,272270833,280119220,280360820,282062018,285183335,287836057,292379992,292878176,305607335,306430407,310194891,311607621,311990869,317314037,319608423,324577715,325797741,330729124,330808955,333010808,351935973,367931859,374923604,375325824,377999764,378863816,383444887,384250131,392805595,399305230,403849450,404669515,411469455,416350072,418458214,419766078,426806823,423368407,429671469,432849128,434440038,434682392,438544350,438459664,447262504,452905555,455121088,457906592,467547954,467704036,470905521,470920825,470942129,471045564,471565879,474498779,481207725,485040373,488417592,489001444,491550134,496506083,496777077,498394398,498622182,498777866,501060677,505693382,508782473,509473604,517693529,518272942,526395402,526766322,528222644,528431951,529587640,533788791,534397725,537271917,539242597,540427837,541535173,542717651,542917765,543166024,543367847,541132163,545316206,545825057,546141449,547526061,549023975,552496482,555791183,555981667,556589609,556946592,557506784,559555704,562235901,562240545]}
{"user_id":4257853,"collect_list(fan_id)":[4201,19678,59530,196214,323557,458842,1524181,1995927,2163623,2404728,2730012,3130554,3175098,3308542,3316204,4178301,4281939,4424480,4615946,5052112,5251324,5361858,6093988,7304618,7457882,7955155,9161382,9440204,10349857,10428637,11524865,13417807,15584116,17154989,17287191,17615087,18478192,19312974,19611355,20323191,24499411,34089946,37642733,37764334,44932650,46782047,51030167,64893198,70547539,70713711,71411329,80016736,82134876,82670966,91160162,91527844,95629909,104632003,109177540,115528309,124143111,131659814,127818398,133871581,136191116,145480266,156121861,160973233,184962612,198923426,213970278,223434224,236231592,237077607,252619806,253735275,256689434,264760183,285462851,291515977,296826601,314694761,321023623,358074409,372314014,400162749,416411622,429962718,436610530,437660401,439939604,438480513,457546762,465065129,472919809,477437010,480297049,497038828,504445660,515855313,516773580,524420754,527165624,528058790,528666054,534224992,542778203,545028823,546954239]}
{"user_id":18119558,"collect_list(fan_id)":[4734,153121,333447,831972,1470095,1403662,2089624,3601624,5334358,5983506,9070533,14576917,15925409,18715199,24627257,30520539,35001745,37869047,45471502,45937072,51831112,66910381,77622855,98028175,105814006,107159694,124962511,127098708,136236403,155402823,169032883,174104862,177220614,182482849,248494851,392121001,463781643,528058565]}
{"user_id":26506849,"collect_list(fan_id)":[26039,26258,60690,109371,114759,167527,170767,177786,180346,206941,213642,375556,380438,424042,433756,456458,482503,485844,532213,622495,683169,827936,911919,961171,1074566,1093925,1114112,1163783,1230134,1435927,1453770,1491362,1491803,1406174,1706154,1900062,1947345,2366385,2401520,2802991,2842285,3146821,3181441,3181666,3340533,3389305,3437425,3817369,4104644,4126030,4324590,4325475,4486207,4716442,4725333,4811201,4902706,4946026,5027209,5085851,5495577,5536467,5650054,6014788,6257856,6699683,7134780,7633432,8337135,8467220,8681270,8892777,8926494,9444494,9753517,9874281,9897761,10190008,10425829,10463590,10517943,10624124,10923578,11176474,12120215,12304044,12932781,13121728,13739342,14094741,14231198,15083520,15766588,16446225,17047911,17323940,17621237,17975484,18172835,18811743,20048086,20067090,20348868,20500799,21050853,21318230,22634266,23100321,23398777,24207758,25169094,25367700,25573881,25846829,26534224,26667987,27287208,27961644,28095066,30518999,31275887,31556234,31848995,32320182,33351342,33971578,34071975,35289607,37056084,38894173,39353394,43302877,43812494,46435748,46942039,47508258,47897170,48912194,49033330,49549230,50340216,50443207,50895340,51754511,52093664,52854958,55760458,55881122,56377219,57649362,57861498,58299938,62791747,63572733,66185328,69398142,70641501,74806279,75316990,79166188,81552574,84122417,85204018,85671724,87358070,91028624,92041824,92463817,93270692,97718512,97845089,99265593,99461240,101500312,102804626,102846731,114430478,117227114,118446868,120211991,121340152,123891587,125965920,129535162,131350469,131642475,132551385,132701616,135173840,135756938,138025601,142048327,142302155,140713524,143697466,143892336,144081511,151246582,152010098,156585419,159947851,160516542,165925812,176462880,182029474,182804056,183655395,192234620,194265543,194361227,203791878,208287955,215357615,216023865,222666342,223273134,229754703,232488044,247273545,258062813,258553298,271747929,279364043,280998131,300817240,305612853,313318299,315059166,318421455,338578168,393949887,400183977,424294307,478573493,484889405,486370651,489363166,492422125,505639558,509879459,522162632,533151915,533975730,543253005]}
{"user_id":42621949,"collect_list(fan_id)":[25018,57313,383022,444127,629332,850158,1321769,5449337,9631066,11158600,11852848,13133957,14584968,20092383,24642594,42745928,42824838,49056619,49917422,65271192,72488466,78218146,127440173,135045851,138556071,203145480,433383242]}
{"user_id":54944054,"collect_list(fan_id)":[14195,50478,58801,176557,411650,736131,958622,1265968,2622997,2982753,3111875,3640956,3687687,3776500,4019395,4047774,4341695,4757674,4832316,5368856,5483705,5493791,5883524,5956804,6035074,6442437,6690325,6885707,7108516,7209553,7642427,7912060,8272181,8312128,8479950,8859527,9154716,10478087,10527644,11226080,11500809,11799630,11821124,12091707,12386139,12333240,14232016,14859978,16123215,17630781,17916861,17929538,18078135,18230872,18806031,19100502,19177161,19685596,20289349,22320206,22342685,22368186,22726050,23092836,23395493,24218240,24375897,25939325,28653476,29678558,31164166,31247047,31812140,32287193,33887279,33895796,36828501,37271199,37889605,37941250,38546715,39720194,39927077,39937946,40156559,40552492,40616850,41041630,41216805,41811995,39625626,43323931,44738240,44960849,45739793,46166014,46589998,47812324,48702471,50040006,50368582,52687075,52867989,53068143,53416310,53859714,54597491,55799415,56023193,56192602,56595220,56842705,57722054,59386490,59685904,60680434,60687475,60789999,61271677,62185741,62528800,64162743,66185099,67561502,68016170,68066442,68533069,68778556,69641435,70236509,70889493,72611275,73405675,73816953,75491392,76073971,76534495,76776541,78699794,78990014,79978410,81280559,81988019,83332124,85350146,86522230,84432181,86875690,86937823,87193321,88253635,90002052,90612169,90837920,91031126,91888816,93122459,94049542,96439520,99009126,99215575,99233477,99384725,99730060,100480916,103942863,104338018,105202455,106668525,107235453,109374277,109546389,110127329,112197999,114915648,116389454,116807549,118957635,120638896,120872727,121314290,124098111,128698481,129291532,131274862,131545495,132077104,132983790,134709337,134917802,135003348,135727393,137067801,138335988,139485078,141626515,141784840,141839173,147529451,152616880,152962355,153043191,153253845,153453478,154121310,155035074,155237765,155732201,156314149,157321575,158322220,158684395,158751708,159077400,160328700,160832691,164883521,166845468,168191006,169025833,169740758,169827887,171479925,172945947,176314099,176314254,178301731,178544377,182526337,184724096,184753020,186330772,191446445,192684435,199527825,210410530,214720544,218676022,218873098,219573054,221663240,224485280,226917820,231183981,239847862,242773712,245755478,258691405,259969513,260004424,274108863,275816125,276963435,277676881,279186958,279206580,280693219,290225375,293643267,300906650,317898359,318077912,320736660,321355305,324724928,326382537,329469310,332099110,337307778,344265260,347990793,350798968,354376602,359507228,359543554,379516582,381487824,386974454,391667061,394728538,411005172,411765218,415388631,415398425,440066334,452857678,454859697,458090710,463858606,470265666,476567029,476995973,477081659,501427779,510040227,515498821,515790556,523739916,533540163,553780735,553981983]}
{"user_id":63029534,"collect_list(fan_id)":[33178,92994,101372,125645,165203,191337,235764,358972,645473,693343,967637,979744,1056068,1228057,1532338,1971446,1988524,2765496,3541845,6173722,6319898,6743552,7864664,8854323,13877185,16155773,18049684,18379820,18533841,19086257,19598336,21307506,21539068,21890050,24358499,24952619,34056347,34682457,38818464,44224329,45425931,52449840,55537819,56481150,66275769,68734815,73749232,75665284,87369432,93903103,134677419,168893672,184629697,196099182,226400639,249093726,275360413,305636073,315007950,402149287,403713690,423367580,523692356]}
{"user_id":76067341,"collect_list(fan_id)":[1570,102284,190505,197328,327458,362371,374817,474583,1003317,1125073,1182112,1204901,1287507,1436785,1526186,2366975,2508475,2918797,3468715,4050999,5349153,8946865,9161820,10078067,11463922,11657245,14336497,20356685,23973959,28471527,35602370,51368631,66176132,70130381,76737469,78894863,85128366,97137989,104192240,114689410,139591486,145907251,175392121,196440546,244918970,250678623,252746806,342886345,389992984,415943097,429925045,434687342,467336710,468256086,475748615,481301419,488075392,518483253,515758455,525299467,538885418]}
{"user_id":178358997,"collect_list(fan_id)":[16748,601788,729525,1275930,1537924,1776586,3558794,7652757,8573456,13684497,16378973,21806142,22462204,24521721,26052837,26919498,27957466,30864142,32354911,33170958,40090450,43669729,44997840,50531285,59104521,68948856,76663132,82865530,84178680,84867304,89243832,89462283,91710379,100102451,100128745,106136068,111750628,140053128,148907700,151643585,168972548,170170924,187534308,201787036,203924028,207092325,222258397,235162659,243249971,240785062,263850911,269409160,276217713,303535000,318219870,325224658,331966871,385272481,414905639,419898281,423223055,424497665,431759805,467447955,474834819,494440296,509128911,510382117,511587661,545485247,550603546]}
{"user_id":265142106,"collect_list(fan_id)":[12856,395774,446985,688625,990414,1415920,1485748,1586588,1593897,1403731,1853890,1927428,2609819,2658702,2817631,2881870,3196839,3607778,4470670,6095558,6651140,6768669,7300296,7773191,8464594,8596396,9088233,9343876,9375148,10748105,10498626,12003699,13677289,14771843,16582664,17694886,19239488,20336924,20420260,21102051,22097303,22660211,23835012,24253611,24858616,28367913,28444203,28492212,29075406,29753047,30177089,30751624,30882903,31246437,32167106,32462633,34326369,34425401,37907633,38701983,39684817,45148620,46428309,47386257,47802307,51046562,49878365,52712806,53359559,56029817,56283838,59399958,62423603,63451488,66674666,67178833,68184075,68722222,78462225,84229505,87045132,87689502,88283708,91877143,96722505,96994386,105007139,105349286,131008526,131519799,134832793,135466920,136369472,137708751,138842441,143738608,144816904,146858264,147007107,151506407,154482040,157420704,167356008,178091956,182176636,186246593,192964762,193223789,207802217,221125636,225309227,229137888,233105169,236706342,239562820,242037902,254827903,256798414,281205283,290076926,290592773,291798400,293207250,297504572,307715827,322372617,322459367,335536323,352114422,359273855,367787134,369734787,404691335,415996051,419181934,476987030,479884614,496463678,500421852,522761661,524876741,530792575,535406249,539251960,555793265,556661096]}
{"user_id":282798485,"collect_list(fan_id)":[28047,55047,1784178,19940358,29096259,37360162,38354236,49725355,56213307,61854879,70608009,81902776,108626291,115887426,143037392,159779383,170807336,174402749,176117893,177192266,177402682,178538647,181590532,192246712,192729660,194333879,194544902,198651102,201266804,205466830,208752417,214177734,215875562,219348569,219653084,220473392,227874199,231884738,232753225,237456392,237758291,238914523,239915981,237062681,241448351,241680737,245810455,251880508,252905937,255187158,255275339,256800238,259142124,269150418,269667977,269797230,270449378,271757816,272752529,277137005,279127142,280550922,282541260,285666151,287098697,289252923,295788875,297981851,299269532,305234612,305240820,303021033,311825173,311987635,318030540,323244066,323519609,326818219,328619623,331186143,333053966,337030951,338624752,351411625,358066116,371521589,374976450,379180282,383401422,383731587,385349418,388046875,400791792,401312952,401812739,406997906,408131120,417855432,419663723,420187266,423106476,424113030,424740973,428070309,432341919,433483391,439072891,445338053,448265640,448517785,451874939,453818205,456955463,473039963,482701566,484588843,500573019,503210014,503513631,517896311,521750771,525460195,533617824,534907717,545928167,551796557,549910213,554845638]}
{"user_id":549262301,"collect_list(fan_id)":[6616,53708,2043166,13517165,13953014,35121365,54786657,63153863,86840288,97586725,99691473,102850378,121424881,132112543,137067801,139137673,140044621,145477753,150885475,151305862,161974811,162855206,168394776,174567221,177531887,216235360,218584500,220196527,244070265,250875461,258600196,270000220,291307284,292994899,304194916,327152253,386611424,389333545,390129455,424041609,427566081,435044082,444353239,446110772,468054085,468879056,472127300,485979322,520962523,522192702,533344679,535653090,536101124,536320299,536627181,540234144,543306973,548761991,548888579,549071414,549186847,560757740,562279030]}
{"user_id":894731,"collect_list(fan_id)":[71462,488710,1116479,1180243,1305750,1392882,1636667,1899494,3516817,4544839,8009750,9826846,16638738,17286636,17687821,21753607,32185390,50676415,79732766,96571144,119932004,147730620,301681319,393143747,544086512,544096225]}
{"user_id":3412835,"collect_list(fan_id)":[71358,316014,1217754,1340507,1492625,1642949,2042185,2912114,3145705,3462305,3531297,4068532,4123707,4915050,5697790,8866790,9346446,11547703,14618697,18318280,19013041,25289766,26418902,28405519,31898478,54676132,56132473,62375376,71602430,87369432,90483557,94518647,120244965,124511284,134917802,146095883,155694067,167332097,173934876,193131081,203556345,211141022,211470479,222448798,241648895,270759950,284491764,429358322]}
{"user_id":74634237,"collect_list(fan_id)":[105815,354757,535379,1188885,1886279,2137495,2195559,2354958,2385320,2471690,2656726,2728761,3004132,3336849,3634766,4617849,4677986,5253076,5373355,5583612,5587013,6034870,6128620,6420207,6921617,7153000,7207029,7214470,7331034,7466427,7734950,7902025,8077156,8339264,8576664,8627905,9009394,9017697,9289664,9322383,9688277,9689907,10038810,10418805,10615899,11068100,11112301,11357800,11551319,11685855,11931161,12159501,12598307,12626083,13672585,13891958,15142616,16945047,17017752,17102924,17746864,18683852,18691025,18897683,19090110,19181859,20166918,20764042,22576403,22918564,23838656,23884680,24058000,24859188,24967609,25063727,25120215,25131494,25300549,25792434,26607877,26720351,26860231,27112912,27295849,28695699,29902655,30531564,30541712,30819525,31918245,32285242,33594846,34391314,35047866,36568338,37696623,38241729,40459319,41470143,42096628,42233198,44023549,44181723,44322927,44687197,49263017,52332718,52755523,53085448,53273054,57683440,59269794,61324356,62187384,63669797,63829928,63975600,64249486,66056800,66200256,66407715,66422403,67119718,68537724,69326723,70240278,70530236,72320338,76208188,77845816,78742996,79379412,86485652,87330674,90174710,92685171,93844012,94162280,95714075,95775260,96757119,96833247,97843236,100884016,101716654,106811225,107760287,108831221,113963053,116025495,117607837,119023676,121548426,124214487,122757852,136187289,136892870,138912695,139316522,141690406,144318495,144976843,145402441,145455493,146238269,147185197,150416515,150599396,151697439,152058765,152735618,159282513,161823654,163056223,168085192,169091006,172900498,175412143,175415186,176106046,177512156,180767151,182980308,187179981,187890635,186091542,189848532,191449823,191474871,196780045,197169865,198605052,202335233,207328064,209406573,211188209,213660522,216117149,219967840,220614595,223505044,228087677,232368444,236692488,242327336,244428471,244574716,253652541,256301108,256897923,257204988,259659849,281229816,290279627,291476262,292356608,303629467,303654590,309952387,310608319,316058003,321981714,329270892,334737643,342242333,345526068,349939593,357120384,358153608,370627427,376753663,395117377,399580674,402096535,403089273,410861596,417245762,418549517,428385491,461606621,468494918,472004470,483628106,483629628,504530725,509934338,513292945,516896681,526225139,544248254,546791499]}
{"user_id":109332031,"collect_list(fan_id)":[144540,481729,6800768,9905767,11145395,15728802,17058116,17253071,18435566,18914163,20348251,20654191,20855183,21792871,27542291,28066595,31291128,31432831,34676743,35123058,35420248,37223600,38077471,38532040,40309342,40960282,42652461,47598513,48910885,49062894,49076404,50315573,50511173,51588883,54165693,55226197,56016638,56823458,57059973,58322283,58475596,58683016,59556342,62851909,64737564,65707455,66687083,67444280,68032359,68117518,69440717,69765889,69840407,70224257,71113688,72915822,73125431,74240009,76670401,77689837,81760054,82825399,84889677,84896436,85379163,85512853,88226704,89547638,90497779,90721067,89756269,93752907,95342619,97743000,99633863,99865902,101496425,101813831,102202539,103774450,105405753,107510670,107991324,109722144,112142219,112268293,113020605,113593091,114989643,115063699,115289751,116500000,119672516,121398072,118663348,125802894,125837888,131913083,132234626,132981871,133168714,134180941,134387722,136774997,137277655,137709630,137983533,139916318,140642071,141476837,145485372,150271350,150498615,151110279,151632057,152777722,153007212,153250947,153512011,154697453,155624433,156902453,157405910,158464654,158916153,159181318,161469051,162988991,163446565,166708320,169183041,170779305,171647055,173153247,175625750,180129905,178209212,182270603,182727368,184246432,185787228,185882505,186331066,187894859,191757843,192293445,188946512,192586371,194716069,194812327,202108136,205249705,207340884,209306282,209633146,212318338,215233471,217641854,219217061,222226341,223162472,226289472,226923530,226847039,235111770,235601579,236582832,237102877,244174399,246384143,246841345,247160296,249933215,248330057,248403831,255549644,256965364,268370895,271074308,271088564,274771339,275573617,278786732,281921877,282568312,283594065,285678370,286911562,287622188,289335540,293916163,296991104,298265488,301445466,302354054,304961422,306567494,310381218,315004264,319953004,320971404,321351762,322098641,322952543,324236841,325282947,327380138,332927177,333122096,335268643,336053971,336927029,343712917,350753242,351216743,368613399,373670794,376816756,380238424,389053378,394994306,398060985,398084899,400584935,404252390,408100703,414220224,416503742,449108370,461463964,475059337,524913044,540064315,547525679,559989664]}
{"user_id":165532461,"collect_list(fan_id)":[142698,167268,171714,416504,624413,626910,1188352,1322944,1363717,1464283,1493274,3814445,4166942,4590271,7871239,9105294,12059130,13030624,15239165,21023753,21777145,24591331,25608476,27515548,29757225,30156848,31031494,34188652,39083914,48197474,50012166,50907570,51274238,52820831,54626972,55691481,56794316,57045985,60685211,63324657,63886506,70130819,70347289,71491220,71491309,73208002,79719935,79727391,84629155,85015925,87832358,90553556,93237617,93491477,94480412,95116852,96504950,99340523,106517831,107753061,112991502,124679823,126144810,131878153,134613121,136682087,139581873,139906654,142235602,145244388,145742735,145788086,147611738,149206883,150944022,151051753,153048689,155303894,155762639,157469150,161404801,164570062,165159647,167047350,167831689,168432754,170356909,181859413,183699542,186329529,190031713,191310674,191576965,197527360,199366651,200166379,204753229,204963207,211451782,212272796,211543625,217361727,218818437,218973630,220389198,222666852,223972701,223989940,224015696,225200943,226493688,230061652,230360426,230614539,231132393,231490591,233721727,241956107,245507525,247442860,250572817,252394007,252622597,252937507,255033911,252312627,261278379,261842099,269060697,271199023,272894688,273436965,278209516,280063825,281944543,282367133,288008584,289716159,296543525,298472750,299488097,314327899,321277422,321488262,322075089,325312747,325339715,326340374,332941241,347338568,347713546,350849332,351166372,359038793,361246020,370270809,373019279,378933323,381188875,388019641,395982954,404933546,405097701,415367731,417091285,414176883,432023181,432630083,443477311,445361520,449007677,451138201,453203552,465880923,472282392,477261119,482347223,484420699,485950182,490834246,493469768,499291366,500424613,505355129,510145184,510699014,513193402,513995057,516578118,518014587,526750682,533768829,544676059,550762024,552235130,555094629]}
{"user_id":251944855,"collect_list(fan_id)":[153210,764510,4620149,5744906,45264069,58303812,59567949,69357567,75013591,80640665,111666659,134041336,141775614,143365940,156908204,172370076,176806925,182061162,184021854,200139743,202512623,216812280,228026542,228409672,229795327,249938497,256457749,262449433,271657971,283794860,338419116,343793547,369893283,385586050,392421514,408197264,419496208,425997853,442791697,505548831,526498999,536418160]}
{"user_id":790149,"collect_list(fan_id)":[272792,302096,330446,346972,373203,452066,431687,601738,670996,889509,972493,1052258,1137230,1152116,1153573,1009318,1358185,1424484,1498147,1795056,1845497,1947761,2074785,2260759,2264412,2413318,2419705,2559728,2607825,2735868,2774413,2782577,2871330,2949016,3030734,3117892,3128081,3493281,3582474,3602466,3862156,4088841,4088950,4279355,4622759,4669868,4785439,5430941,5544533,5960227,5975547,6607779,6683931,6738695,6766652,7067036,7817774,8963844,9034239,9170441,9581990,9633796,9705565,9615758,10581681,11688646,13029289,13389675,13801319,13883142,13929777,14184390,14213309,14667670,15023916,15581016,15759866,15941052,17302601,17310622,18303397,18482662,19155236,19528207,20371901,20456440,22876509,23289744,26457214,28620157,29444019,29761574,30585583,30760522,31465318,31528283,32072319,32169788,32201579,32420596,33136814,33419614,33729237,33989168,33493752,35196591,35790248,37119667,37253063,38047500,39413914,39458018,40492126,40680706,41494178,41864025,43338708,43773634,44185617,44608222,45430143,46589882,47042375,49049412,49360370,49419943,49867597,50646644,50951768,53028891,53942457,54414585,55185931,55884936,55935161,56770839,57076966,57314033,58656385,58821434,59186451,59550865,60367585,62684379,62954592,63269900,64540728,64726375,65146361,65812823,65944247,66907439,67144807,69722915,69841069,70226978,70425926,70443146,70670583,71088509,71437861,72976172,75490592,76421586,77202992,77920907,78351827,79882156,80030860,80246720,81396316,81522569,82839745,83122673,83610738,84083026,84525528,86968063,87346817,88477068,89965150,90335715,90850231,90900696,93069897,94748675,98607889,99372174,99475542,99949035,102454756,101301697,104785504,106946044,108439938,109623667,109789584,112701905,112905840,113800423,117712156,124988908,126030993,127697266,131606221,131830605,133490297,133869995,134329274,134541302,134658755,135362002,135705327,135726681,134133765,136050992,136201852,136920524,137354303,138462410,138687665,139323461,142547921,143013746,143133337,144011834,145398859,145779361,146359712,146883909,147051980,147100933,147288299,147482503,148503029,149080292,149514343,151970909,151990355,152223342,152346308,153057330,153259704,157189740,157798973,158699840,158769038,158916536,158935177,159372900,160105390,161610067,161885731,162397560,162747380,162773687,163240832,165344324,166314645,167870667,168152301,169490999,170577509,168739334,171663930,171799535,171996123,172929844,173205708,173264232,173380807,175864729,177113998,177315474,177321485,177730509,178723020,178759665,179146195,180089356,180591747,180982379,181509048,181581495,183326344,187462842,188306461,188454515,188493966,190108665,190352079,191971619,192458375,193110155,193570270,193755866,194564723,194968369,195745426,197121906,197324808,198502274,200799029,202805407,203740591,205266830,206910340,207174836,207480375,208310305,208336026,208407670,208894307,210146788,210418514,210545192,211665131,212265255,213825573,214474683,215217381,215291732,215295500,215298621,216881635,217288205,219972222,222980971,227322773,228738314,229455345,229948797,230651009,230788524,233018341,233252034,234899575,236161366,239866702,240536242,241393759,242169324,242762982,243732420,244687929,244886514,245595404,245640141,246453321,247312118,248012859,248927239,249623163,249759483,249977321,250468544,251574326,251662015,254445427,254675025,256126458,256691192,257099979,257366935,261325135,261340120,262667246,265064686,266386572,266498326,267843281,268262324,270040785,270190396,271109189,271654024,271702655,272996774,273125023,273475148,274148235,275661562,276631160,277049875,279976955,280278208,280734730,281886732,283167056,283501658,284130394,285571383,285707023,286109673,286705716,287075123,287307548,288018462,288081940,288498991,289963403,290060390,290236441,292120340,292368160,293039029,293715700,293919932,294715048,294738974,295097524,296190106,296514734,296917929,297495465,297738746,297753637,297756011,298417782,298871817,299246632,299988331,301018278,303556992,304068368,304557327,306992113,307126958,308747742,310252518,311928424,312037245,307385163,313515713,313590354,313774055,314189976,314381928,312195367,316977097,317809503,318098689,318726063,318748637,320477964,320808253,321745485,321980284,322387204,322414297,322770639,323722071,324243433,324966576,325328427,325437862,325627146,326193992,328473155,328917624,329555834,330034238,330133350,330982237,331981495,332468772,334659181,334910361,336251998,333157607,339310575,339383045,339804956,340287597,342746989,342844240,338148309,343337073,344378081,345544185,346151485,346499707,346688234,346775669,346910344,347619314,347946357,350196782,350675721,351701284,351951177,352093235,352479588,352563574,352733963,347792773,354719215,355476874,356711752,356994433,357234053,357678070,352797457,359081373,359559179,359718879,360698127,358435221,365245054,365483089,365671385,366511005,367946930,369269601,370382321,370731201,372258453,372419231,373697469,375909479,376677621,378120504,378369266,379905203,380101925,380616998,380773501,381460171,382166454,382687620,382763567,382884142,383069961,378631137,378713472,383892350,384156930,384552042,387149418,387272798,387587413,387711309,388033424,388318591,389160654,390621431,390742743,391234637,391420280,392301413,387841342,394922065,396370324,397501091,397507864,398276280,398918508,399591136,399957794,401064627,403001202,405194030,405779281,406248255,407208387,408383038,408558389,410614856,410995811,411312299,411885982,412087390,412503836,412859870,412892723,408895371,414230511,414333791,415384350,415431723,415441839,415459836,415905807,416472163,416525835,417017140,417061838,417465472,417749728,418508925,419323014,419820471,420197191,420643732,420977984,422978797,423046945,424087875,424831239,427243501,427713155,428604605,429124654,429687523,430356287,430468990,431904031,431934915,432571934,432682744,432838903,433056903,433138681,433451255,434157957,434404611,434933613,435055023,435698441,436331147,436410038,436710118,436864847,437617568,437891168,438337269,438811885,440058212,440497942,441518917,441929240,443532526,443618162,444091317,444117375,444574981,444690242,445730990,446176705,446360252,446927236,448255154,448512688,448579076,449182219,449698647,449809760,450303521,451712258,451744757,452263547,452596648,452704190,453068839,453187658,453245778,454031529,455498538,456185340,456807444,456893318,457168222,457777100,457998863,458031582,458211889,458969264,459467039,460147486,460200231,460241775,462793037,463241139,463895071,464406693,465416353,466824924,467390440,469269794,469493707,469594816,469825177,470365666,470399067,471326913,472045095,472804641,474049754,474204681,475412256,476892698,476934862,477677370,479213673,479683059,480395687,481135291,481554556,477306051,482035300,483151820,483609467,483780270,485892931,486200329,486231262,486929860,487336058,487498631,488510800,488622222,488766083,488860600,488950540,488973960,485986125,486006088,490175671,490984612,491548927,493143402,493182261,493360020,493790574,493815474,494445766,495202514,495821494,495955253,496144066,497894299,498888250,499425498,499638452,499643353,499805292,499805473,499870077,500015038,500304488,500733664,501106853,501617599,504061212,505585712,506043352,507157718,507582579,507622431,505397073,508865634,509290427,509546688,509788823,509819757,510244106,510295470,510470160,510486071,511162819,511302118,512068583,512822226,513521753,513602559,514387491,514617342,515698057,515966450,516054732,516123756,516889076,517111745,517573244,517693777,517709082,518138190,518473975,519663560,520142744,520525795,520563693,521348097,518813626,522022693,522096929,522704929,522803369,523365926,523472428,523782977,525188746,525722369,525759979,525772913,526068789,526505673,526547732,527525272,527767099,527923906,528008198,528305129,528743253,529586736,530277299,530338248,530370511,530855396,531040213,531109470,529067700,531972760,532038210,532071772,532597802,532726682,532822312,533346505,533375922,533540928,533548872,533854220,533900100,533964422,534549299,534549358,534549852,534550177,534550216,534550600,534570287,535139050,535198408,535213924,535241254,535488047,535912625,535918620,536050544,536093232,536641850,537013800,537141189,537172348,537264759,537986802,538537448,538714822,538778731,536544365,539371651,539883682,540082337,540324686,540345432,540653844,540792537,541037692,541045789,541379793,542658860,543380168,544077607,544702118,547080656,547760014,547900203,549398045,549706279,549716946,547065869,553702370,554436939,560679548,561258252]}
{"user_id":9813032,"collect_list(fan_id)":[382073,493313,840500,2821610,3831760,4474906,10681009,10691659,15416393,18415763,25866866,29236360,39607994,43900291,47221071,49260118,55412906,91160517,134487588,135595173,152218479,169915660,187224138,190189300,246157171,261950570,286768927,338324331,355851641,361579890,386742755,388937319,399616535,439476339,451855723,482300422,508136799,513136968,530517224,549196122,550838117,558555826,559437834,560985985,561016433]}
{"user_id":44224866,"collect_list(fan_id)":[378398,2838228,3221512,3409209,3157247,4280893,4445038,4492763,5044628,5825064,6477154,9827447,10963899,11155543,11512801,12296591,12885515,13010539,13698950,15523183,16082913,17247558,17366425,19540060,20431725,22633135,22863861,26168995,26986420,32758340,42847490,45264872,63090104,65485500,70744922,73471975,91073746,93413535,103390968,110624043,120695782,125833845,133453833,137924473,139256798,139591117,141054679,141148209,143075219,151341534,153780618,153971431,173163678,173755107,176528883,184232258,189956816,190934473,202333699,202782100,202788751,218968036,232706325,241104765,252401961,254195927,264559381,273806256,275032395,275827489,281892214,287175763,287945930,297679207,300165047,314597852,323249956,325838150,327419094,336992220,341407612,341546301,343339164,346176138,346785681,348273201,351659309,352282017,357305496,364281469,374842499,381534076,397797385,409473271,414423618,417996739,438232519,433830852,464482831,469856015,480415029,480733775,487200642,487999036,493755753,502282098,508788244,512568568,514136680,515215466,517743288,521040550,522174584,523024308,523444443,526443806,526539480,528164502,529783752,530544640,532235679,533750549,531734917,534653814,544062283,549596915,550658517,550965465,552080249,554732645,555151342,556422790,556445748,556695169,560908727,561072165,565123097]}
{"user_id":386067380,"collect_list(fan_id)":[425208,1701310,2337712,3782410,7027356,8670003,12963309,13148682,18604926,21194366,30638084,31915272,35863448,38975434,39399089,52918544,73163933,104182690,123751485,136012219,136116644,138816315,150870051,153505134,171814458,221166594,225742757,229022852,232706689,251833719,254649935,255513596,266031055,281911984,285361926,291589782,293104931,295731162,297674857,311882039,356367621,369324077,374805644,376136118,393717686,415399445,421188949,438175959,476987030,477501345,480944744,490263363,491498814,493647039,513545349,514027557,536398017,540904941]}
{"user_id":137656,"collect_list(fan_id)":[620809,735697,15265136,43046002,240608044,400517743,461055941,466724071,470037499,527732952]}
{"user_id":71121465,"collect_list(fan_id)":[610747,1033094,1311548,1403645,3773947,3847130,5849387,7249254,7352866,9193262,10828645,11301378,15656105,16185670,16208219,17159715,17933774,19283541,23694628,25065917,25409325,27356352,28510886,31886652,33275577,35911542,36543577,37033619,37792265,37340347,40429566,42266476,42086540,44810333,44899615,45053708,47882308,48014341,49023180,50476217,53239059,53892690,55278550,59117028,60253175,63480805,64503844,65399558,67008053,67401043,68027731,68104134,68162467,68801752,70384745,71401641,73961446,74783439,75229478,76300250,73983119,78893277,80126943,80958016,81511867,83533365,83641927,84155159,87145750,87233800,88462960,89617730,89930652,90655532,91545598,92682555,92882819,94275253,94559138,96308901,97236973,97362292,97631109,97775341,98348647,98361982,98796372,99144597,100614012,102155509,103632692,103798080,106275320,106388141,106676102,108167027,109115691,109721475,113258670,115880542,117450993,120357586,121976167,122251973,123769921,124929600,126005764,126295773,127982697,132068145,132286558,132883837,133520250,133894951,134431659,135098885,135307235,134116180,136118853,137163253,138371203,138378862,139053840,139504875,140227524,140605903,141196400,141902819,143730390,145348027,146375149,147374144,148107824,148565622,149061474,149427822,151975643,152011082,152134577,152428931,155947378,158553302,159046998,160850910,161856191,164260059,165195325,165714249,167856665,170074239,168723985,171387180,174436833,176093389,178015097,178338990,179207557,182089096,185207408,186183315,188336997,191227957,195227586,196581342,196713564,197539165,201047968,205476243,205896397,213449217,216106618,217171935,219627818,224658821,227022551,229719275,226825942,226900279,233953382,235965105,237905555,244960718,247318829,248062156,248590441,251905320,248399672,255763148,257868029,259173355,264431682,268579288,269814310,271544009,276392285,277127805,277548273,279301622,280888711,282847046,283992858,280474354,288900646,288954194,289904114,290284794,290403665,292336946,295345172,297721367,301117545,304812622,305727724,306001719,309660948,311336877,316922853,322522815,324577888,325101134,330845392,335511528,336174951,339313060,344942264,343025597,360400881,361808404,362708387,366258519,371158051,371886293,375855124,377087736,381555622,382032011,383363820,386270543,390337341,395904996,399507582,405132954,405705252,409057022,410079985,410237201,408844643,414535376,415540881,422752667,434343959,446654504,448890919,452843222,459100888,459286192,461207864,461528863,472664089,477235716,477785309,479289976,481597798,484167263,484827318,487401997,490571962,491835819,498760146,499990097,501284788,501920185,516091683,518272732,523030249,523577619,524227408,524671957,525744355,529497611,529853831,533439746,534416129,546634830,547449875,551051508,552902035,553345416,554952569,555473622,556124052,556662754,557751116,559715013,563924688]}
{"user_id":12741366,"collect_list(fan_id)":[827405,938498,1918046,2713171,3101733,3652146,3663553,3757662,4173877,4253906,4299979,4476174,4828086,5353106,5465974,5566691,5643035,5782182,5912749,6037797,6228206,6573372,6642164,7145015,7896060,8088230,8823642,8898447,10272172,11041785,11061600,12665717,13340765,13557155,13989675,14209093,14411361,15078647,16250688,16476900,16734322,16794986,17079530,17170203,17585419,18315009,18883940,19106988,20150538,20291525,21403127,22582743,23042324,23106692,23790882,23867576,24018764,24180237,24227456,24590529,24697334,25246278,25817370,27717497,27977365,28522356,29332065,29846824,30127492,30637072,31869461,33248296,33401828,33872596,33485723,35371990,35802897,35991521,37304013,38221024,38785956,39206606,39530141,39570300,37310198,40974148,43217351,43236087,43572381,44603781,45247587,49265157,49288634,50476894,51242882,51887003,52108388,52566964,53473970,53484283,53745674,53911026,54472834,55181946,55303123,55403945,53629094,62442565,63637183,65750925,68525886,68571248,70645684,73383725,75872522,76618051,77410046,79164483,81710064,82378621,82615773,82709702,84684064,85861453,87232861,87740216,88815343,89535937,89822450,90086812,90339306,91227461,91845302,93687546,96126029,96175641,98849737,100135321,100141221,102757898,111398831,112497464,116344080,117746772,118559992,119210918,119777068,120536797,121036770,122404143,124978031,124988434,126637034,132152905,132616641,133492212,134608357,136863312,137246687,137944185,138520533,137453748,139635075,139818303,140680702,143898598,144597774,144923307,145755347,146005337,146979977,147028032,147749626,148513788,152397975,152493274,153332454,154062059,154111995,155020928,153971061,156500084,157543028,160211064,160468709,162682574,163177666,164061053,166426624,170584836,171422381,172692214,173426690,175774107,178535125,182878574,183649889,184904708,188251071,188637094,190104532,192540415,197471798,206873489,211280711,214528217,219402199,220669137,222586724,232065059,238979190,239457206,241289810,243757346,245093927,246712813,248648654,264355945,266448273,270180263,271728451,272171260,274951639,276164651,281797986,282796471,284131380,291804241,291836722,303121564,305523176,329392718,344070918,346759986,383835946,401303273,409175474,418637284,428357667,428787059,430190505,432602672,446775229,454104108,460013157,478427862,485018582,489110207,506803948,510237294,526556387,526762981,526763654,526873494,535685800,535890950,537144406,537165830,541787408,542443563,545263544,552658901,558716692]}
{"user_id":226110634,"collect_list(fan_id)":[683851,1307235,12388370,21683941,42603077,86175808,89798958,123522088,134632614,138523446,149982218,152692444,153878659,163570834,167005830,168096196,176616677,176692157,177647191,177865326,178102372,179339844,179713865,183936462,192587332,196994719,197411402,200050366,201040693,204919181,207522195,208311018,210045485,210289217,211174448,213847160,215335383,215418088,215819913,216101495,218607800,218807905,221415542,221457529,221987310,222647121,222840340,223293822,225148200,228454339,228703899,229936485,231284179,232869192,233834431,235439576,235821037,236972087,236998606,237218443,238222899,241171531,242697042,243643560,245076690,246098724,246497379,247612271,247627382,248225317,248608173,249760566,249782215,250528233,251888684,252773186,253480589,254418133,254503569,255088155,255318095,252339932,258646996,259645011,259760510,261822545,262793487,263015545,263029765,264067221,264414277,264547637,264550730,260273399,267484611,264787854,269675452,271631938,272350141,277466725,277600563,278071224,278323477,279750664,281701175,281876033,283303478,283702383,285176611,286703916,287498800,289121824,294166193,289590454,296792939,297728544,302092351,302525212,302890060,305307516,308802303,309491390,315886320,316083463,318944819,319580514,319702481,322697787,324637850,326427270,329690231,331611325,332100249,332283734,332326636,332640308,338267381,341352806,341737294,344684114,347268757,347277347,351035287,354339121,355072961,355192919,360635428,360963172,366063181,367104304,367592548,380416925,382124013,384598313,385887879,386822376,390127553,390460425,390499249,391110758,394058535,395599349,399862960,400396566,404122811,410433661,412296783,416878782,417539690,418783561,420452392,420647168,421398976,424803025,425197903,428900901,430168142,434805791,440834801,441166354,444637857,449132293,452053901,453618607,455095680,458637194,455312603,463213474,464509471,467230255,471076923,473764728,479586352,482088166,482193746,483890763,485564231,494730149,529494768,532964442,534954638,539794837,540642896,553881757,556687371,561948916]}
{"user_id":378325,"collect_list(fan_id)":[889804,1310930,2413963,2615863,2947354,4440056,5631450,9118694,13150269,19246204,21229011,22841039,29026732,41803569,467123285,514947773,520201375]}
{"user_id":1096190,"collect_list(fan_id)":[962905,1968884,4220305,5062756,94170000,135363269,162719428,383794171,389404634]}
{"user_id":13671756,"collect_list(fan_id)":[1035693,1436510,2328312,2925716,4455610,10944529,17739980,18415925,19137346,23622482,32787572,70240694,76726977,112820128,136703065,138873659,176414189,328051176,415396299,477501345,536728251,560998704]}
{"user_id":57809451,"collect_list(fan_id)":[1285964,1630996,6616159,7040744,10599252,11251719,12171365,12231882,17436903,18471868,21376341,21088052,25173718,27572445,29454362,30825951,32121670,33700333,33754918,55217999,60248982,60829038,91010681,100034249,105543708,137058729,146040767,147947989,150757209,158117991,160955175,164329736,165928405,184472054,187103159,188285739,196221475,214190666,214882559,215505754,216269567,234850288,244029873,260058817,268030977,277541869,304988508,307464250,341784551,344084415,354210330,380936760,448412205,469355059,477142200,479585813,515963242,517024854,538106005]}
{"user_id":260011279,"collect_list(fan_id)":[1254658,1687214,2487316,23029427,49512302,95353918,121199675,160040903,236489316,383184732,564407054]}
{"user_id":166410697,"collect_list(fan_id)":[1544403,5127568,5368806,6817124,8869542,10698731,17362220,21732622,39040561,89871630,96108105,102183067,103033154,120868413,125007110,132007029,140244360,143041724,143530936,144081511,145496737,154585381,158920558,162626453,164187502,167729788,171901381,171920840,175508641,179454999,182278621,190083268,188935876,194265815,216482466,219340315,225218917,225612770,234294767,247560901,252401949,254185879,289110561,326010449,329315807,329662133,338500035,367483814,386953430,387779224,441828501,491830047,546759143,547189123]}
{"user_id":254786922,"collect_list(fan_id)":[1656245,13055558,14895312,17522269,20101149,22596853,23981713,33351526,36712148,39771282,39783393,50380972,52443067,58451944,69368199,91761194,93384775,145518794,164262954,178587994,185486789,187722329,223683813,234427241,254779687,267814732,277499192,286831598,289082231,309639541,309791230,334372759,345221055,360567104,414534790,494610318,517287311]}
{"user_id":36933406,"collect_list(fan_id)":[1887909,12794309,14547302,14656924,17763014,18207438,19531659,20476863,22304641,24503248,24593962,25886989,26821265,26922832,26992687,28441681,29621213,31077310,32607877,35528138,36189652,37107462,39288141,42452345,43499762,48537690,49784566,50501763,51107353,51741822,52663511,55227788,55285107,56301589,56866187,59621863,60373860,72012645,100755214,106126838,106792578,110579153,112019012,118999850,122309075,124068278,130903439,131946749,144368006,145200948,145939519,150612430,153028251,156312909,166264048,214334846,250326820,256605018,269404515,297170725,304262933,325699544,327165034,352427399,357441504,367854825,485455949,503377791,516410160,521913342,532568904,546602956]}
{"user_id":21082845,"collect_list(fan_id)":[2247173,2734279,6733633,8473393,8802274,13062998,14824681,15256794,14280636,16210194,17280757,18084725,21375685,34540380,38600641,39870329,40326596,48890464,51244328,67417784,120644511,121098521,152527194,152572163,166440426,177744315,186210321,191233769,192483010,219366271,225740508,282935016,287914944,293693157,300274853,305863428,315499079,339773355,354103662,402864496,415026283,415391250,424813194,436005495,547662962,552687113]}
{"user_id":125075648,"collect_list(fan_id)":[2219260,10741134,26776134,42722006,80358711,97551155,111862767,119529404,131909999,136853429,165778064,171321588,179726649,184049071,193535865,204624792,208169323,213611369,242748477,339369307,358042394,388093481,393621189,457352089,470772722,523953838]}
{"user_id":156073141,"collect_list(fan_id)":[3123794,10141207,32514594,36101764,90277152,91225169,179630803,395209395,407362246,429337366,456453934,493555353,510538284,547681528,553180024,554481049,557146125,557289529]}
{"user_id":147342274,"collect_list(fan_id)":[3814848,5786133,9544789,14874333,16034876,22407516,29573102,52009117,65808772,83123648,84844253,88383195,93540044,94916661,120941374,122728368,132731754,134404303,135381520,137358436,142743591,144568099,145466793,147087933,147932756,147979233,148934499,149053058,151187516,150309822,153587608,154531327,156019984,157800473,158091403,158948984,160342354,162601937,164820965,165243572,179134821,183562735,184871854,185503084,186445454,191418938,191607361,192510343,199088338,200442044,206982496,213820432,214890340,215326539,216261960,218312497,218605464,220721318,222247507,226454294,227416059,228357229,229740002,251951063,255716735,257272101,277959140,282987452,299505778,301929761,309735801,310645541,312308927,319780276,323411584,344901368,355609407,357126034,386262437,389628195,431598924,436378369,444655734,461067981,462529648,495855343,512627972]}
{"user_id":176093142,"collect_list(fan_id)":[3753903,22428042,30799275,32401408,39393259,47099111,51970288,64394805,96404082,97696649,114516478,125814191,125864760,132895145,153009660,154543750,158865455,168269259,170450832,174328367,177259632,180413866,183736016,186115427,187193071,195734282,196576770,212612583,220491504,224364805,229024279,231358353,232895345,234266601,234267621,235862484,241397876,244647301,244982325,262962002,392480573,397872906,414304501,448623981,452641800,456084397,477254013,482775677,485059697,526378292,534060372]}
{"user_id":46970917,"collect_list(fan_id)":[5924472,11960867,21746339,22270737,22802680,33728030,33879552,46603901,55927838,64864014,71956705,73045744,88662465,88817160,90197855,89718711,99631252,104220125,113489637,114658133,121317683,135313708,139776210,142079688,150349174,158479253,159043147,196163725,221397988,239407853,255454514,335336604,344054683,355306588]}
{"user_id":156241172,"collect_list(fan_id)":[5715538,138573887,557885315]}
{"user_id":20529154,"collect_list(fan_id)":[6463405,26333818,59538825,66897553,72410874,75082529,77857785,82834730,91653553,134891841,157129560,162777389,207957715,275568163,277683819,291411315,396299919,446094388,490364242,500012509]}
{"user_id":30204904,"collect_list(fan_id)":[7571919,17398098,18720646,27002497,35892381,79902831,103714895,143624539,144209977,176251354,179500246,197218993,200844267,206474096,288101907,290160529,330262225,330556127,333344454,339473828,364127500,463198930,471157955,472333617,480317064,481989152,507230228,513160762,526211446,534294042,538372921,538776502,539313503,540112688,552841901,560001200]}
{"user_id":11902830,"collect_list(fan_id)":[8889798,10026193,13536120,13723141,26720966,71338623,77447327,77884718,85521487,94763934,132903611,179013942,179150298,198783834,201975386,205519438,209308504,258613893,290109153,324521336,364851635,386366163,422239838,476756431,544216071,546360560,547091083]}
{"user_id":65607694,"collect_list(fan_id)":[9549937,11489177,24140171,24781873,48543063,54263991,79197091,120625075,137256844,143469629,237427905,405525809,446669815,500080571,534761242]}
{"user_id":438367489,"collect_list(fan_id)":[10465777,71497697,83187528,96217691,98997154,113794680,114415769,134601765,161834206,169377477,171045286,193204430,214960163,221638322,222007475,236684067,283206653,286550143,306031621,307002113,327913688,330277991,351148636,366081743,373148220,390770284,393232728,394934853,397830608,417997920,427842034,446857264,450053755,451138748,451744996,454052612,455082050,455088011,466137166,485181304,488021298,504510881,509445003,519265250,533201979]}
{"user_id":306414866,"collect_list(fan_id)":[12350638,59816955,62525672,65687321,68205924,70870133,73916453,89426766,96099229,104213171,105545593,111056143,108796947,120077941,132448432,136375003,141023038,141711894,145996083,146383123,147013049,153191589,153509012,153589065,160586893,161651382,162142399,162355866,165268035,166410895,174396016,178145092,182901654,184827928,188273472,189089199,190299202,191894680,195103325,196898179,206192178,207018640,207693969,207811744,218711604,223478871,237592172,237596354,250464523,250929308,253443291,254355065,256036454,267862127,271722798,272007645,274350660,283933712,285259213,289030630,292442195,295325447,298455716,299645350,299949987,312459570,314794551,319937942,320569554,327110992,328653944,333898647,336699294,339218728,340478848,340819555,341248870,342055738,342427957,343475063,347198134,347852824,353935379,357951851,359199604,362189768,366328422,371097687,371863619,374786814,375514717,376513076,376601153,377975123,378307895,381021544,383004114,386273014,392000632,392455680,397768811,400206505,403020339,403068230,410397436,410520622,411909567,411915975,412051286,417905060,423646888,425190919,425382616,423348893,431118408,433203914,435079639,437611723,440132756,440821459,447857588,449008982,456361516,458254182,469316688,470231816,471632383,474251807,474364124,472927797,477448217,481729813,477364424,482172640,482641702,482854332,484957701,487039744,490810945,492305890,495501291,496937782,497564402,497691266,498860357,499758704,499894006,504089026,506945607,506953252,507306839,507971648,509326158,510104696,510200308,510555093,510668809,513403907,514857883,516848273,516900549,519315607,523156853,525190208,525283733,526660193,528142283,528818347,530693016,533244041,533669299,533853596,535302163,535551825,537024974,542935574,545470397,545787322,548407742,550218879,553637458,559089590,559436767,559610386,561632472,564066645]}
{"user_id":177236557,"collect_list(fan_id)":[18292869,25730875,47037817,50587047,56406642,89962074,96435776,107916598,112957742,116213496,132565939,135678171,139668030,144190677,155451647,165504762,167716216,171155153,177716257,194184257,203692143,209441578,210744260,215505754,215915487,216269567,221335120,233741457,234698823,241464325,252075614,248372823,255530393,257832368,276997147,286194151,287417238,318110943,326087464,336174080,369190010,388557303,397718000,447211910,452693263,463373522,464900314,465868221,485439096,493094770,508342213,534927653,554565079,557105510,559391869]}
{"user_id":40276820,"collect_list(fan_id)":[19007678,30697647,82715804,118891448,128471988,142149720,193504350,213908238,290944255,524316025]}
{"user_id":59698844,"collect_list(fan_id)":[20142945,25928074,41648519,85421683,169235168,299952438,300470848,388326344,471370406,558082663]}
{"user_id":66610159,"collect_list(fan_id)":[20051386,22168090,81870703]}
{"user_id":120622786,"collect_list(fan_id)":[20620642,67663714,82178577,90006976,94592474,103978459,107184068,120625743,133540670,134667408,138262121,169214759,170594926,177902733,183054519,186712205,243292164,275631777,277732462,321337986,327835339,330695911,340484139,347016391,365007971,365182281,373849295,376563750,385121180,391619139,405400830,442559015,452517061,455647720,461602607,464720226,464332655,475606958,489475392,500625039,500815016,527065205,546793646,553071398,553273982,553318387,553513170,553640267,559892620,561516733,562481328]}
{"user_id":176730623,"collect_list(fan_id)":[22295911,96699760,141715829,168733372,176483060,466143948,514566538]}
{"user_id":324631354,"collect_list(fan_id)":[24293060,153190666,162926673,186706553,224141634,247635932,256183032,258646450,359720453,382981501,398646181,403739139,430087479,440613494,473301052,538556472,552889187,553908031]}
{"user_id":538098829,"collect_list(fan_id)":[39576950,410927627,425303988,457218269,473785697,514763130,521465923]}
{"user_id":191137169,"collect_list(fan_id)":[46556935,102638195,139457665,155096295,158523287,171608061,176311071,184294745,191586894,201303859,209540949,209658556,214101609,217462165,220286592,224478323,224605290,229368774,239370410,255008109,258241967,258259926,259103743,286124582,295154443,295636469,296427333,301637612,302941055,310782640,373354020,435597362,450027294,455576303,505391165,524437978]}
{"user_id":505221775,"collect_list(fan_id)":[49518449,276392285]}
{"user_id":509892132,"collect_list(fan_id)":[54672101,108348892,124347380,151234724,159324057,216746633,228967016,231521707,345742393,351758703,400893216,448314353,450143305,460735535,462050263,509025839,509509541,510371023,512247320,525882283]}
{"user_id":222761898,"collect_list(fan_id)":[69460024,79473566,95392537,152440983,184193041,192650339,193034120,198012335,217214725,223828971,226181008,223781230,228495509,229434884,236957474,240625211,245923318,253385345,254449885,265761208,267334856,267832689,270000220,277575977,284250526,315512106,321664207,337213868,365928688,380739560,385029503,383258441,389590790,395706350,434166766,439589043,442830647,443867003,444776648,445791973,445812756,445885749,446725936,449120233,450490395,450794170,447148461,451233587,452594447,456538044,456540144,458238621,469901100,486103568,488651310,497101356,500145238,505201842,501378204,509503596,512783842,519172254,531499730,534682189,545966136,553096631,565075062]}
{"user_id":418518884,"collect_list(fan_id)":[95471627,167208554,320587295,350221920,554595822]}
{"user_id":216600405,"collect_list(fan_id)":[99430258,179363493,180517677,204793797,233858082,235547449,252555252,253034418,253933776,253940058,255741876,265599617,265966788,270744817,275704174,277231622,282891194,285020314,286969176,293791666,302754973,310477130,317804079,340204965,341697309,345611476,362442510,366684505,366825759,377111516,386318595,386842619,464763965,466391550,501503539,502426384,518525924,539474165,548126079,551008264,549919505,554545912,561067452,561297864,565620224]}
{"user_id":26516202,"collect_list(fan_id)":[101817806,140781536,510038631,545993793]}
{"user_id":152243730,"collect_list(fan_id)":[103024808,119642078,135528901,154177251,154450370,180761651,184261240,188619219,194908319,199115904,207372932,209226005,216539946,219044989,221537761,229468315,230957552,231778011,254563659,275624367,277167229,277381311,287799604,288192425,292930302,302683876,305981125,314831756,336129635,336738829,376297934,389633257,391529490,391622254,392208948,413887241,415819379,454706574,492877334,504236061,504314777,511176774,516002857,530853977,542144851]}
{"user_id":33146166,"collect_list(fan_id)":[110806862,175945807]}
{"user_id":135602428,"collect_list(fan_id)":[123800346,220057969,279219753,415404361]}
{"user_id":289806808,"collect_list(fan_id)":[138529328,166789302,181196453,361242487]}
{"user_id":180187722,"collect_list(fan_id)":[138972244,214434743,311721714,333979469,390521528,404166186,454372063,468765552,486953720,506186936,514748289,525732277,535851031,540680179,558657268]}
{"user_id":125011479,"collect_list(fan_id)":[156572762,254815845]}
{"user_id":294107186,"collect_list(fan_id)":[172779497,186930238,210528728,224122854,228575342,231432505,232172969,237438124,243802776,266748844,296112759,303716516,307273190,307283864,318282653,320548912,327373520,332765452,337148735,343737165,344345987,345409460,367873070,374544426,374920876,375388755,377566766,381652421,382317986,402952641,403937921,414277214,422837086,426430250,429028389,429226999,450280350,454852174,457712776,458859114,460769050,464268097,471796660,485395320,489306718,491756236,505700558,515207980,515818378,521806140,523804244,534143322,537852986,538429651,538904804,549499932,556345315,557632195,557996144]}
{"user_id":231291332,"collect_list(fan_id)":[201927534,335541737,505442126]}
{"user_id":271868161,"collect_list(fan_id)":[284250013,301104142,355458258,418732952,524602694,524312062,532795524,540227080,545832046]}
{"user_id":23843283,"collect_list(fan_id)":[481301419]}
{"user_id":371054646,"collect_list(fan_id)":[549706663]}
