{"user_id":28738,"collect_list(fan_id)":[1207,2498,7615,11366,14693,15337,21224,21630,35896,39060,40840,41944,42316,50000,55774,56297,59932,69091,81401,90813,110585,113519,113926,135800,135984,149384,219266,228345,263626,214703,350772,357979,361151,367123,407657,413716,470666,527592,530717,548042,552472,573300,615860,616561,691732,712046,719506,764905,819525,855272,887016,931279,1023179,1057712,1057723,1129246,1144680,1148274,1186526,1271811,1275827,1363137,1658106,1751747,1775096,1930609,1936806,2248796,2381674,2531859,2814557,3191399,3233516,3687913,3989687,4510967,5055950,5106956,5339126,5545090,5746148,5911876,6806616,7057075,7115282,7945104,8219833,8801806,9381541,9722691,10325420,11923224,13139229,13575753,13740816,14680940,15613091,16244142,16289321,16691196,16773540,17205192,17527267,18726547,19888344,20532118,20533417,19836095,21647890,23725883,25446179,25806450,26276102,27087983,27903995,26757069,31297212,31453335,34179400,35030487,36959709,37220775,43867339,47364271,47886897,49398548,49544385,49578715,52405113,52447069,54485469,55603348,59756553,63198040,72838080,81047216,84601588,95091923,105181299,117640762,137952802,184424585,188776013,212300513,215205586,236165285,237503916,239307585,244114922,278032138,302475895,318317773,322108764,329025010,398296220,467591796,469258889,524353662,529458236,545154337,545492882]}
{"user_id":164382,"collect_list(fan_id)":[49593,54710,58961,70524,148833,175717,396500,426960,517869,524317,532766,605388,1339003,1993699,3172131,3340933,3380597,3381173,3567067,4246272,3929549,5361858,6243878,6454816,7668201,8988540,9471392,9696335,16615956,31451020,32771924,41360682,47045930,50429731,51229046,51972260,76953352,79260707,87131357,119674245,139680982,155082391,156877790,224596316,225121033,237880956,239896805,249592726,255174960,259543041,270210832,285128003,374573120,381534076,394240345,398045282,415316927,451894978,485098841,489058205,490319215,507337788,529350339,531578862,535368119,541979632,548526307,552102873,556354919,564660448]}
{"user_id":443488,"collect_list(fan_id)":[10776,64868,88462,89472,92450,58801,135690,269458,283525,286089,406893,418440,335300,480730,574189,583631,590402,611582,614428,649858,667616,696651,708402,724116,733561,779933,963352,832818,1026373,1053214,1053347,1078665,1140787,1244373,1197786,1486310,1506296,1571298,1703882,1833350,2017266,2022420,1880542,2216604,2268335,2415495,2519515,2546984,2649700,2867849,2870405,2870537,2962950,2796348,3197313,3289510,3331002,3354901,3430584,3654159,3834096,4197943,4202086,4271411,4325226,4480904,4762459,5746793,6462876,8232370,8988553,10481168,10872671,10877453,11119664,11122318,11211770,15785690,17078764,19110331,19727050,21729093,23423162,27136765,30836549,34010879,36103361,36594591,41409632,42660838,44250726,48518915,49049412,49837348,47122493,50490429,55207589,55700156,56192602,61544508,62396233,67929028,69726325,70119074,71511660,74846281,75913745,76372071,83805463,85155473,86164328,94616887,98020674,99290921,99372174,105335398,111361424,132159316,127758409,134708938,135074907,139311285,139784504,141782684,149051412,150732556,152256248,152778170,155317302,165488710,173938125,174525171,196195341,200986026,202426882,207677609,207878085,214128147,216350390,218915497,235803421,235968651,245721207,249440856,254238279,268553107,268689438,279717998,319903770,328335619,329513396,338388729,354095750,423457568,432224411,451894978,460015163,460027083,460817341,479594043,487722421,496364184,502975426,508610751,526988148,531391360,534429158,536308805,539340864,540287838,540529374,542697861,544844432,545634497]}
{"user_id":1852609,"collect_list(fan_id)":[8764,180732,429186,559781,721224,956256,1522687,1943718,1949444,2044498,2202270,2240240,2335576,2375690,2583786,2845945,3072413,3441233,3529994,4062377,4360890,5183171,6039186,7119927,7544756,7597714,7853569,9147293,10025242,10559333,10693311,11361387,13213348,13709303,17591541,18252110,17548776,19245370,20601334,20817548,22254903,23721726,25955469,28412787,29626485,32038824,33928352,36148472,40782858,41364627,43553105,47088719,50598152,52206364,62887698,64532930,71112901,86378008,87807204,99241235,100128411,108462567,112083635,134022290,137604201,141889589,144274879,146154952,147101293,147412023,148960349,151863867,152712696,162790547,171930345,187653812,189633317,193792375,194348240,195144397,197324481,216703776,225002238,226318221,246211175,247364180,250468494,256619005,257315609,261858785,278233635,280288860,285464997,287406005,292910170,296189145,297149601,313914036,317734152,319028519,321807094,333534478,337473077,346136692,347735873,349723148,361635608,358538424,387620488,395176214,396648341,397990262,404867961,406774507,410782209,425992926,426402907,428616083,435163391,435330729,446113887,461149401,466247902,471434236,476483265,481492770,495248727,499061651,499897874,511072588,516831602,518906925,521038650,525932146,526375352,529397435,529901160,536908032,540001796,545967138,546634661,553456162,554146381,554207680,560812920]}
{"user_id":2576081,"collect_list(fan_id)":[45610,68686,93310,172095,417044,750927,1018164,1161093,1446711,1597755,3423757,4284686,4305367,5302667,5528330,7295902,8461422,8464505,8467901,8836312,9732935,10282147,11198294,11698365,11718333,11866041,12735345,12820529,12331096,13708253,14128717,14680940,15938564,17125460,18106497,18371629,22416576,27163684,27467515,27618808,31813164,34256420,35087452,37282924,39907404,45471502,45478127,47122493,52446649,53808365,53847371,54694174,55456284,55830927,56132473,57560758,62676017,63319312,65502777,66510176,66987846,70964260,72355641,71121288,79785798,81946749,85638281,86551590,86735054,87369432,90272882,91447780,93685375,94489514,104462041,118607027,119486303,122447965,129291532,132389000,133747857,134289110,135673973,136131767,136266978,137801920,137938278,143579418,144135398,147036614,156528115,156240084,162598402,171925577,185223778,206966481,218676022,222672598,223019128,227268345,247204930,300322911,321834367,329445960,388947557,415393851,415398425,415401389,418365859,476901740]}
{"user_id":9204076,"collect_list(fan_id)":[636,366547,527330,2045563,3058457,3128081,3787359,7437120,9752176,11727961,15544588,16509676,16742904,17017276,28662994,38036647,69897073,84792533,99393310,133478834,160808184,169519333,180037266,199166556,278849758,355654976,413681022,450388884,482413775,486240227,495498609]}
{"user_id":16821001,"collect_list(fan_id)":[20876,23019,25648,35586,100363,122958,354639,381278,400177,467650,497243,571210,607886,730835,747180,1383211,1527677,1550500,1556996,1574215,1971830,2109947,2123266,2309210,2753271,3269839,3273635,3574172,4570055,4890243,4952368,5501695,5954837,6516615,6526161,6585241,6789390,6797692,8945367,8980332,9057812,11789325,11841493,12132883,12501247,12938784,18585220,20696644,22386901,22841039,23188690,25279329,37622182,41111877,48126211,49598486,52294195,54345917,59367549,63523983,76993877,90422915,92332452,99861931,103592633,112685164,137423493,140065063,152189309,162963204,168233386,182246912,185117510,188665295,217087499,285296777,314269883]}
{"user_id":46463493,"collect_list(fan_id)":[4212,68268,153506,160700,243040,263417,346274,374644,492338,561927,714790,722754,801544,852727,1031338,1072770,1166343,1257534,1295450,1447901,1455420,1470326,1502793,1570591,1855807,1973423,2125174,2139685,2279509,2313849,2407401,2464183,2474363,2190063,2598422,2621569,2913876,3142101,3152995,3311893,3340933,3554183,3700753,3783799,4216495,4246272,4252792,3931813,4445806,4666454,4759730,5025447,5162473,5209371,5238141,5287804,5670430,5914166,6028569,6099042,6248248,6307475,6338350,6367175,6385732,6504818,6629478,7072399,7098919,7443075,7848629,7902513,7347172,8096743,8241289,8994521,9061211,9435688,9461941,9692876,9795189,10764022,10872120,11173972,11641360,11750803,12266659,13290437,13474139,13557846,14128807,14491884,14515741,14969260,15184056,15283774,16715556,16730026,17830136,18660691,19055928,19328813,20893298,23654445,23796027,23865250,24704037,26412537,26651049,27353207,28475078,28731861,28907857,30053758,30647649,30700821,32653414,32742565,32945033,33521491,36079012,36292954,37154374,35157935,37322889,41107911,41424230,42629888,43745096,44723459,46623904,52661039,55109496,55642160,55674437,59109339,59854840,66462480,66753969,67494924,68108698,68878454,69996430,71625647,74498501,74637875,74778349,77973002,79260707,79472282,80824695,81136680,85153209,85868235,84446431,87229091,90954116,91042205,91261715,96482234,96647107,96823325,98189339,103002006,106450538,112423650,108803678,117808233,121780090,122329601,125882969,133356463,135614194,138574828,139407964,142138989,142369369,144592902,144593354,145992647,146505740,147292007,151000852,152736500,152759164,155311385,158758780,161103612,161122363,161192374,161656873,162066143,163119947,163954884,164617025,164761357,170948074,171249563,171763570,172589565,172671433,173758763,173767126,177265912,178715506,181585622,188386127,188925602,193332770,198844135,199476716,205099064,208031468,208336026,209221322,212652075,221600157,224144526,227998377,229610892,229751565,231248229,233537472,235903258,247839287,247967716,252478540,252746806,253395255,254426033,254445989,256468545,257778780,259117024,259670739,263593289,263698975,266818496,267866421,268726332,268834293,275498698,281398883,286185424,287372509,288847877,288929886,289942188,291461896,292369850,294856042,296408430,296799824,302491346,306674043,306888558,308596646,310385528,316281645,317029577,318714230,322532597,323839036,324132527,325652346,325781625,326200660,328816184,329486633,329679771,332800718,336839865,338564240,342535723,338061434,344624949,345430541,350680777,351841032,353370341,361588264,361772296,362373606,365510356,365559120,365675396,366537840,370115462,368887687,376244817,381534076,381749455,384867668,389992984,391944663,393081868,393370031,394198072,408048564,412445006,414083410,418622057,419588551,421404056,422047267,422726294,422867628,424087875,425885623,426830795,429671469,432211489,435617373,446582927,446962277,449026935,449156152,450873248,451139354,451894978,453728243,455080463,456254494,456283001,458395732,462510250,462950982,459810289,465690429,466250059,469331875,470298929,473245285,475368038,475768623,477752048,480500816,485625680,487498631,488728235,492381551,495963983,497529186,499433261,502134763,506361803,508630135,511974442,517024854,517173491,517795274,519223234,521011876,521080483,521690358,522136401,522139142,522307821,527798582,528000305,528652392,528890934,528958408,529010762,529169699,529817757,535718467,536825041,538323107,538869387,539260814,540643265,541143169,544027812,543855736,548192468,547025982,553351679,560270638,563218019,564551876,564773951]}
{"user_id":91257846,"collect_list(fan_id)":[14195,69693,81784,3423757,3710394,4170572,5236431,7235114,7973572,11198686,10502180,11939085,12402940,15923095,16479124,17339856,18037007,19321027,20289349,21249553,21718972,24678087,27467515,30366429,30620640,33938601,35813303,38491555,39720194,40981497,42575654,43622798,44051369,44247350,45400324,46589998,47812324,47122493,50570832,51806221,52648091,53114616,56425249,56886316,58984158,59349512,60680434,64113909,64222166,65652581,71602430,78092386,81946749,87615416,87822623,88253635,89446009,86795857,94049542,96515142,97210288,110127329,112132630,112221730,115129039,116389454,119486303,122326016,129291532,136656787,137067801,137803621,141839173,144093245,146548621,146652556,150832302,152560267,153253845,153453478,154531023,159562148,159855022,167825684,173182499,179772217,180318104,180661522,184871854,187108293,196573500,205188095,222525036,250726120,267611642,275374106,384873668,395075345,453646752,496288491,513545349]}
{"user_id":160586398,"collect_list(fan_id)":[5680,73111,131787,232996,363901,380438,397293,542784,693984,943173,1347003,1475192,2384368,3487442,3502157,4474906,5506759,6128485,6182261,6488162,7615442,8175535,8442899,9036736,10910553,11349156,15584602,17218011,19684134,21123615,26521812,26692054,27786698,29885899,33392116,34273444,34324705,47425873,50169467,54131787,57923915,66144661,67052641,70660563,73653919,119488172,135013108,140654713,144630396,152063575,152759164,154794381,166714110,170841157,175517037,179568480,181913925,205221723,205990489,213211682,255812748,266545410,292283754,299587621,308167745,313456091,325119511,342751883,344246073,347734810,359363392,378541766,381510838,419813095,434752405,450900471,469258889,470698590,490668155,498396538,499785769,501485195,504537820,509898399,530088981,538813373,560796403]}
{"user_id":192490133,"collect_list(fan_id)":[22935]}
{"user_id":258297546,"collect_list(fan_id)":[13887,327075,807793,1073020,2415932,3429954,3453170,14098940,15707553,21008195,21672040,24720791,41800570,46744454,47819374,50871324,70961822,82895464,83497391,85892008,91092917,107170606,107967964,121997196,132102469,142375483,144841917,145896432,147526859,148082758,148913006,152789411,160419980,171754076,181104555,182246543,186745727,186052187,191647684,195244525,204901422,209537723,219463512,229434884,232091556,232575040,237694510,239047136,247970688,251763885,268542660,270298105,270879947,277536169,290324576,291316474,315357288,315617152,319677403,321373164,328478619,340738650,341338778,351231869,357700158,352896552,369539018,372761889,375764500,379708760,382485087,386070033,388591796,391048108,391359202,393596440,405478576,406253751,408302663,412470093,421627896,425518577,425723079,428152592,429320518,431859402,432621153,439081988,445545251,445672504,447052742,451547010,453852365,458243539,459577339,466144768,466524544,471549911,472018508,473169860,476351722,478160070,482255511,489278258,490288610,497602236,501740483,503168253,506803916,507360082,509899487,513997945,518338198,521659185,523989104,526811142,528507608,530984134,532158828,534776542,534807935,534945212,539542275,540351785,547697318,547780642,550020128,554011043,556329819,558153904,560341541,562120235,562158369,562252198,562733475]}
{"user_id":21571,"collect_list(fan_id)":[80451,90807,58175,1286484,2760234,4740533,7730494,10211276,12094315,14967725,15109651,16412676,16524270,22898306,49561905,60238772,67288779,90687602,98633085,100816492,134633475,140101641,147455605,152788765,158422046,175109409,225152580,253230347,269852409,278775947,281336369,349638150,454118813,457341991,471619034,487177553,492957156,515585153,553084011,554692498,564251898]}
{"user_id":668515,"collect_list(fan_id)":[118021,122822,260904,515833,568036,607613,794959,981765,1144415,1247788,1435703,1403666,1673459,1687453,2913584,3036696,3037229,6449372,6741906,9287194,25769712,47168730,50852575,67639547,97073239,131274212,135250416,165620365,204230123,208432761,268622779]}
{"user_id":9862463,"collect_list(fan_id)":[85414,656287,915751,1517781,1755006,2065990,2431162,2725751,2830446,3326032,4722689,5300246,6618595,7950010,7958751,8402793,8543652,9402519,9416624,10004881,10066959,10839368,11088243,11322419,13365559,13372753,14351066,14615532,15345173,16097296,17181705,18198831,19004153,19174884,19749660,20699543,20876073,21039897,21622943,22144818,23094085,24392197,25644767,27084707,27547019,30279825,30530582,31848487,38712755,40325064,50891512,51605464,53291108,56365884,58146196,58894555,68346145,68570538,75766928,85367330,85632374,87580365,98569627,103443867,116707912,121924280,125576519,131820328,137668755,139497227,142733907,146884140,148585830,147212120,154934676,196570418,209521831,218831392,222894662,225143383,236529750,341421254,346172167,347302682,392314748,423006250,431161493,431411679,436421511,523591504,532034389,556959528]}
{"user_id":30291751,"collect_list(fan_id)":[89476,479684,1098848,1173729,1510924,4933604,7119149,16945149,101148996,102859213,156814211,175861271]}
{"user_id":31022467,"collect_list(fan_id)":[78656,84300,281954,468720,648014,1027085,1134612,1165090,1175786,1344477,1394804,1720859,4949834,7757321,9349050,10356990,11117152,11532954,15310177,16395103,16727372,16845994,20600166,22706904,23533531,26789932,32690588,33527778,34230282,34487955,37642875,41094401,45115427,50587047,51841885,53202676,54188897,54560437,55347716,55586140,55862295,56690594,57323642,57388187,58780230,59001109,60257697,62949212,65701233,65944247,68161524,84802747,84516929,90360281,96318140,97799373,99461547,107074918,112262863,129112251,132508351,132909974,133321909,134277505,134539490,135066603,135077299,135175815,135325299,136682335,137049812,137385681,139668123,138928058,144697547,145299782,145575303,147291006,147186110,150954905,151906270,156301656,156372489,157309027,157557270,157716367,159264729,160073718,161107581,161472222,162388988,164443144,164823498,168261330,171072824,168733032,171347126,171809483,173257751,175962953,176015704,179319956,180769513,181985809,182067603,182921909,184951729,184975124,186015102,186282218,187919623,188145496,190285140,190560230,193562966,195759027,196604572,198892409,199750474,200810406,203688193,204401187,208651310,208711681,208803319,209755397,208240991,212762650,217648888,217743599,220064766,220509810,220887329,222420103,223623044,225390282,227215651,227995947,229604941,229968791,231183401,231263166,232297513,232321727,233470261,235812084,236394232,236778155,237415137,237982151,238270603,237061050,240978635,242402091,244104400,245963960,247274365,248143249,251341852,258683291,259746212,261283267,263055306,263832812,264677540,265249245,270131160,271015719,271197683,271330703,271558973,272756261,272773301,275857070,277586487,281687242,282656424,284210685,284354610,284354693,284789108,293485564,293566182,297544339,300065508,302865450,306684190,308570692,311267441,307517870,315849890,317715274,319230981,319620532,322274230,324262617,324718315,326528185,328168015,328271416,330992506,331009572,331447273,332341356,333011893,336850633,341018197,344777308,346359535,347065999,347180765,352130088,356275434,362917100,367163524,369954288,369991620,375163241,377160761,383508476,384696693,384772648,385539662,386603932,387224052,390673230,391409659,392271872,393988282,392424464,397833991,403050133,405515639,406503677,416672671,416982741,418703731,422271062,423051800,423289669,429006038,431701960,432166451,432341238,433699005,435059138,435666342,438731815,439595516,441092159,441868238,450145440,455920296,458650551,458733301,460612080,461789449,463907860,467191358,473959397,475496750,481835969,483550645,487686590,492632627,493023879,493076156,494995478,498074140,500644440,504504879,504995645,509773307,510708599,510828520,511447128,511453602,511650368,513072978,516003321,520253556,520371104,521572181,518899672,524056376,525217732,525279343,525808109,534812891,534995199,537378731,538231332,539953157,541990134,542730227,548726443,561225967]}
{"user_id":71685768,"collect_list(fan_id)":[59975,980645,9300466,9864041,19214054,34341757,35243987,44456823,54153446,56245121,57440874,72755458,75330445,178402046,438221657]}
{"user_id":487293453,"collect_list(fan_id)":[64951,1273224,1416387,1500252,2167938,2201497,2500952,2981285,5018613,6321819,12849857,23852141,25417646,28926905,34040315,34109349,37614977,38586294,47716690,49917583,57788719,78379513,78919779,82571061,87983449,96165393,108460394,124100740,134483921,135910207,137409808,137445288,142705742,143548100,144463536,183253385,193822318,209948557,215639914,274122606,275034343,278016284,278837625,293224673,323700700,331569289,332400313,344720091,359089561,361483763,367135370,368590310,378482523,383312044,400452808,401574029,440311540,441105214,444539239,445391967,452803183,453606339,458609001,475786790,475868774,477854150,487800499,491241167,494102949,518187171,518254456,519984099,523350242,525164546,525345116,525994655,527783086,528873180,529918694,532166902,537810788,545566298,557854206,555926132,563095723,565661121]}
{"user_id":18203202,"collect_list(fan_id)":[192229,1183759,1235977,2638760,3142687,4397232,4901579,5403606,6094032,6356512,8806592,27467515,31506940,39407235,53523636,57165771,62836647,100829984,125951890,144005113,144710548,178044294,288170926,349912083,522711585]}
{"user_id":55475736,"collect_list(fan_id)":[204246,639756,839565,926566,2816400,2820149,3171632,3670487,3781732,5536349,7058942,10412147,19934570,20175707,23163070,27020452,35538511,37758751,38574683,39876346,45561993,49848562,52052548,56084820,64539588,63112360,66079438,66663800,65595317,69872216,72347775,76037295,77123915,78280800,82178818,84355788,87842277,93123094,94956178,95599807,99446331,98242927,103183310,105786360,113356344,113765859,114144736,124760903,125376958,125468955,126512929,128293063,133242197,134599139,134761888,140477838,141806406,150266884,150842877,153677520,157695031,159044642,160585551,162472369,164705267,166301900,166928417,173313328,174060806,174553358,175829672,179012792,183955689,186268694,190458206,191615887,193023118,196939494,208231473,211717724,212899306,213368054,218961425,224394356,227017987,235173881,242921304,248565346,254659153,269216183,272690108,278338456,280554987,280408129,287108597,294176961,318259407,323697639,342997811,360608343,369595417,377584235,395659382,436150407,450195056,450829822,477366411,529158250,552687113,558143854]}
{"user_id":218091600,"collect_list(fan_id)":[167108,317799,332720,431301,677246,1184203,1200738,1208931,1253731,1440040,1586963,1695846,1802615,1992822,2028652,3139658,3605548,3607792,5150346,8270339,8039145,10908625,12093674,12560124,14471560,19038888,21146393,23358411,24347121,24537285,26368855,34268056,35036848,35226335,44142979,45912543,49403731,49831127,49856878,52612744,52721020,55494898,56636646,61381700,62924437,72507169,74249181,78961214,81367876,82678676,84770796,86708611,94721287,95498376,99925605,101108715,98241834,106394548,110881087,121213779,122605737,122685267,123390398,123629256,123944486,125397205,126522081,133551998,134909040,137482564,137797803,139775060,141602985,144513698,144522601,146223529,150265675,150835423,152326642,155277564,156564423,158247918,159989413,163687478,164820965,165021773,166950296,171509844,176250369,176716424,180425389,183330810,183385883,185222447,186314606,190762814,194483865,195947948,205188095,205312551,205330455,206487266,207795106,204900222,211694387,212694300,230885066,237294725,237757067,244962256,247633967,250235208,251284269,253962374,256047194,275457505,279978516,287018057,289205783,295376641,299845043,318837331,326929753,332243407,338978240,378101411,382169047,387996793,389760671,394291951,395980354,410171565,410293021,428368550,455777119,463474643,466399091,476987030,508474315,537092948]}
{"user_id":202495,"collect_list(fan_id)":[251463,1855080,3044263,3500263,4150363,8110731,18868932,22116773,137500175,222343960,262366643,440318141]}
{"user_id":19364457,"collect_list(fan_id)":[246481,513017,622682,1004554,1149659,1252503,1401146,1874804,2771814,2870611,3135248,3326369,3397269,4068532,5211709,5304516,5318916,5791684,5831143,6110042,6706194,7602793,7772370,8496975,9073671,9170626,9685479,9764906,10182710,9625512,11553171,11814709,12049453,13005921,14232016,14931579,17929538,20003628,22231607,23485379,24613730,25666726,26459331,31572632,33850151,36736993,36873034,37928012,39660732,43225330,44642738,46086944,46091952,50873509,52046675,52946542,56132473,56192602,56923383,58710704,64235926,64949425,65770443,66185099,66961010,66979748,72285140,79109652,79618677,83829974,85370197,85515543,88377952,89668292,100931381,101624740,102314860,103514461,112944591,115144651,121133736,121776233,122326016,122712204,132983790,134974272,135058568,135662515,136653281,139512995,140588261,146174614,147820718,151172973,151801284,152560267,153194123,153624739,156581400,160947886,168747430,180062188,202334127,204179226,205991727,206487266,218676022,230637355,253512962,269746164,552687113]}
{"user_id":132762443,"collect_list(fan_id)":[214239,577409,1378725,2425627,4015173,4310347,4681879,4853750,7019854,7437271,8838805,9535372,10373057,10443119,12574472,14095201,14437034,14644223,15861540,18434088,22367805,22637770,23966475,24097601,29706987,31786019,36217497,37598339,38316339,42737044,50211561,51357648,53115774,53608562,56844014,64887182,67691317,77330574,96445849,114153656,123279331,136872143,138257353,143415729,147496076,147760319,154247506,194458539,207266093,214583556,222377852,231382237,257771908,269115090,276234108,277670319,328949731,343194981,378191129,390552387,452117756,499404740]}
{"user_id":26973232,"collect_list(fan_id)":[337069,1044191,1372984,1423291,1895759,5781736,14471560,16596856,72515914,225625592,511299478,538433420]}
{"user_id":413252140,"collect_list(fan_id)":[376364,151732009,205905669,544700708]}
{"user_id":77652508,"collect_list(fan_id)":[508655,857371,1026866,1307623,9365022,11016208,31790994,39900958,51038951,61232797,84944589,85540380,86070930,89963446,94272283,94275581,96016117,105524940,107096717,107911578,108616931,120281481,122205506,123986763,131499805,133302670,146724572,154778637,155260947,156517395,158505352,167187766,169805042,177626565,182880115,186303489,188986448,201362773,204859630,212303991,217614836,222155859,224686355,225819194,227107789,234706349,245745863,261498170,264343223,274497771,275226248,290670496,294982383,301934336,321662831,324073344,345811321,353916124,355147255,356650100,381626353,413716988,413910937,440516196,449060504,467358378,498635632,522998006,539910774,542669658,544157857,545154337,560913371]}
{"user_id":33444208,"collect_list(fan_id)":[676627,2088985,2712023,4614683,4635766,5313102,5486715,5709852,6026824,8358169,8388029,10666360,13964396,15382584,15664862,17526354,18538842,21382157,21578378,27493845,31628748,31963828,31579488,36052287,40548337,43679926,45050095,47822389,53525651,54401738,55069666,57558416,59789539,60813479,62342435,65676076,71011075,76325940,94333237,95711307,95837097,96323113,101183565,103247679,105876180,111166458,125153415,125450536,131893315,133231665,135401542,140949954,145504726,154095625,167853168,173772797,178840012,181700079,184900420,185180895,185294549,188868947,193639799,195599047,200172683,201666440,208114845,220942453,217951247,222188364,222262224,240615785,266605463,271984335,317824420,330476965,333079955,345793428,366682931,398972289,480541137,520993508,531157371,531302757,539585799,541517465,544349013]}
{"user_id":53654225,"collect_list(fan_id)":[995143,1457738,2498345,2915709,3228224,4565006,6462101,8364742,16693035,17803351,18698588,19805867,24865588,26052837,28042229,30030985,31232243,38119364,38128520,39609939,43891944,46669144,52618876,54657217,55904636,57433919,57474752,57735018,59236746,64052513,65009456,65849942,76393736,78955584,79865528,82320014,83837859,84009998,87247522,87475330,87835108,88186411,90186022,93043971,95029681,95396260,95412293,95594902,107302685,118384483,119230717,121736187,122697632,124128964,131853478,134189311,135508085,136162548,137218073,138502293,138711735,140609210,142970457,144194245,144686062,144969145,145076778,145384946,145738151,145827696,150511828,152785243,153550845,154946636,157707814,158457177,158540451,159994085,161427529,164636772,164704724,168128540,168483091,170428454,170709914,173156543,173503861,174625179,175374230,176524626,178007799,178665200,182854022,183955424,197405861,195303354,198498032,208175410,209410117,216017731,216889541,218529796,219879116,221203828,222518819,223026026,223038386,226099310,227855250,228651793,231460645,233487881,235319925,240891201,242945192,243129798,251001761,252095493,259507096,259899040,271585118,273901659,279274182,287292810,291592012,294176025,295755996,295915521,299405790,313591557,341883198,363313621,364039194,369543208,375354304,384089609,403630627,408318121,414496875,421758367,426047524,428494320,437357359,445362811,449608630,449836758,451257038,455255292,462228773,471706993,475275763,484746275,493396530,495164270,505675789,512788994,518692399,521611586,529468968,530372469,529091443,539390148,543578832,547298134,553701134,556356389]}
{"user_id":74545361,"collect_list(fan_id)":[955284,4871408,21719134,62908945,68710742,97498382,133541366,145527776,212848169,232937532,237300350,296005759,416180005,500499832,547711928]}
{"user_id":222331220,"collect_list(fan_id)":[866205,8282734,19555208,33020390,34443008,99648013,101653102,240586222,282985475,347958487,369316901,395943884,392420776,448732600,471299967,525621550,530752997,550040576,551284169,551290579]}
{"user_id":133697026,"collect_list(fan_id)":[1047049,3113765,7460015,8900049,14968907,18029463,25515943,29677718,38729356,39479489,40982859,55910882,65860613,85296871,151188997,153111392,175503258,206358464,233943061,256525527,259119229,289502563,330341117,330912951,391895374,463745668,469835383,474250926,475975026,512032415,528218641]}
{"user_id":151492903,"collect_list(fan_id)":[1151586,2389576,7871011,9193262,11990653,12805982,13075294,16925811,17748037,21393847,26986178,30628917,32019610,33760078,36909943,43802179,47132863,54484837,54637736,57082173,58083069,61612356,63883990,71701783,83894109,89141835,91119815,92682606,92962318,94476190,104274145,109565206,111243415,112747306,126483117,134472073,140661211,140954933,146829195,152452825,158159433,172832119,181494923,198313111,199422904,208956103,276193806,290366392,375440776,439721577,478321450,508452754,509380658]}
{"user_id":94834302,"collect_list(fan_id)":[1370416,5368806,11349296,16633974,37355476,39664655,77499900,78229088,78302010,85822026,88218790,110636925,110761478,117260024,134431341,138230280,141368439,162462329,164795902,173374498,179105208,184156909,188237972,206387160,207105624,207693969,221358002,227527673,228043356,228408246,229255957,230621230,231494309,232544390,234992666,235493706,241561858,248295865,249857495,254766736,255035378,295725668,296200442,298324441,300602238,307563572,317457690,333456285,339397203,346546749,382708783,401904309,418848779,450734190,454016164,473148105,488892839,552687113]}
{"user_id":79212513,"collect_list(fan_id)":[1539000,5253102,11698083,19519884,35591826,50375264,70216326,86542258,87032579,94847925,100352807,101122739,104509125,109269357,112350426,114939572,118604620,120618858,131497024,134605763,135620009,138112689,142894602,166609547,178418705,212444220,214605379,220399098,237515214,241725903,253338030,298448648,304718811,321209461,327705062,328721133,375484969,490178950,533761778]}
{"user_id":191483864,"collect_list(fan_id)":[2532195,63287325,173300684,201361623,206261272,226354858,231459872,243452153,254151068,293213737,297785945,340839178,345501422,349368819,396450094,424095815,444647159]}
{"user_id":136006228,"collect_list(fan_id)":[4626624,9288302,18570648,22598911,27576174,28091746,40863784,43565067,45297938,47812324,50015282,55061176,56858192,57760238,65020824,65130357,65840096,69415787,69474229,69681487,73508906,82309642,96388049,102296661,107873344,108609661,114658133,125112992,126597764,135116605,136199864,136273823,139493455,140207652,140616499,143162363,143192251,145225236,148148490,153529988,166337267,172566045,174231120,177451709,177913645,194135145,194823152,201308002,207928099,209659030,216405108,230239316,263229965,284605566,321320308,358467156,376982364,382679859,415392051,415400336,437427389,443121106,453990860,463493832,508354144,546271252,549902770,562261902]}
{"user_id":267784188,"collect_list(fan_id)":[4455974,4695132,8274289,9646126,11021129,14181691,14718494,17574811,24274685,25089243,25410458,27241164,28523564,29005770,34079367,34277461,39245925,45045488,49576637,56545163,58325124,59019650,59657571,59751418,64659054,67351849,71611291,78636869,82602875,86125799,86395900,87699091,88775218,89479105,96119030,99299533,99845125,103710242,110809862,112118305,121129559,123088771,125468515,126927714,131528460,132662726,132968054,133739030,134386002,137938011,138582951,138746694,139900100,141236847,153623793,155271937,159476470,163559054,165044394,166507105,166525138,169588945,169817261,179011871,184304509,186627601,194768529,196236578,198681445,217432593,224032290,224593168,225961817,230988714,238523613,251410084,254777400,259076559,276395712,287548786,305883695,315292648,322854703,334579458,367776107,372344783,377919786,380449907,393688147,394113503,402146368,404853334,409882866,409984169,425133694,436382371,448351989,458657294,470127555,471436683,474947722,477544047,488237125,515604711,523378937,525546048,555601834]}
{"user_id":141152297,"collect_list(fan_id)":[5375343,13741187,37689480,50587047,56518278,62887220,68273485,78505944,78742415,81732584,84172597,91039402,102060753,102799328,103721534,108860007,132237908,139063793,142782337,146727058,148159423,150564139,154690193,159843236,167462460,167526272,168341928,168682123,171298469,172561985,173577629,173964906,175189434,177494948,182925064,183739061,186451139,194816386,199612415,200731897,201727519,213347437,215292012,218225913,227146644,237522894,237093999,241012115,245942255,246287372,256192674,261068280,261262446,261676804,267170687,272892605,276889023,294219969,299559541,300987489,316203307,319080706,320733599,321659283,322630320,323052243,324719624,329406681,329460968,337413486,340096490,340492981,341770735,344498564,348231585,351741743,362138936,362483155,358487908,364549349,365088742,371812443,396095026,398117575,400310378,403926626,408939175,415229830,416355210,416569611,421449360,422451151,423866572,424706026,427211491,431082047,442009279,452634693,453063779,474166810,483549738,488662063,490787262,493022479,500056427,506606113,507441817,517695779,518661846,536641166,537379262,543015397,543785951,551284169,551285604,560201651,564765189]}
{"user_id":13184380,"collect_list(fan_id)":[6372705,18020104,20288466,28592194,44174966,83832433,100766419,115707019,116168511,140660505,146608560,154338314,161345554,203642739,259180913,264015587,320444552,520866062]}
{"user_id":172541035,"collect_list(fan_id)":[7161285,27379338,38944582,64516173,84088205,88050159,90349784,141599012,149203831,149304738,150447137,170411163,193098974,210247401,212193979,222838952,235293310,243195539,273621187,308637563,333329703,335643861,345420226,346802156,392276630,399250985,412453357,428864959,448882342,452898862,453191189,472766980,536802503,541852757,545853246,552687113]}
{"user_id":77392696,"collect_list(fan_id)":[9851280,12930454,28534664,139301023,140100100,147026601,167782882,182321615,186045709,194685348,203615820,211848286,231195651,250191304,354091238,398187541,438197493,446892086,487805466,508097876,515795259,547449242]}
{"user_id":176091020,"collect_list(fan_id)":[9621758,43115768,49848562,82766262,90660018,98581572,107225934,140503541,148128222,152470984,161722624,172578492,179438492,179890265,180827070,183392918,187802894,194082945,206245112,223412018,230217268,246252646,250760513,266416404,271413599,278341169,292169402,328222102,341293035,343037492,389766966,485436126,565221886]}
{"user_id":56195654,"collect_list(fan_id)":[12747308,13945162,27992968,29037803,53309615,68112185,79924794,85515664,89817236,92514369,93262256,96697895,102755661,128343279,129315429,172288843,177278737,178346564,188035267,212860437,261268475,271963318,298129737,306336894,309624115,395242475,398780344,406275088,407775260,469744593,489982524,536622585,554052134,559436356]}
{"user_id":131666746,"collect_list(fan_id)":[16078444,26686843,99209277,507087298,564816386]}
{"user_id":7843191,"collect_list(fan_id)":[19857675,155384401,403829051]}
{"user_id":392840754,"collect_list(fan_id)":[22145795,108436438,151461800,192753208,250977620,267306819,361217043,386897011,417089655,518125397,530580516,535734607]}
{"user_id":50281123,"collect_list(fan_id)":[24216145,29816510,54172814,251298403,306409211,354350645,388758424,406940010,436021155,494364582,503973686,539127380,549618340,557926646]}
{"user_id":1471914,"collect_list(fan_id)":[26636455,226356662,331989758,427914159,429916026,467397518,483010709,495849534,525808109,528269307,529525841,531389968,532155284]}
{"user_id":36396163,"collect_list(fan_id)":[26334456,58991460,141791618,199657744,259466142,265222044,415390316,534995994]}
{"user_id":116795739,"collect_list(fan_id)":[25608293,54886601,66239065,72977932,123596904,159541031,160509779,164060696,181862348,190883804,198870850,246308167,277329261,294257928,304488384,347522185,357792195,372211742,373707559,374074426,380297412,395701187,406359845,441681960,443915529,491114438,494599119,498437168,503958483,508076730,510471133,523592514,535902501,536856495,542453687,551108528,551109533,552157285,549948573,555645416,556137439,556145456,556613724,556614940,556659556,556760554,556944826,557027208,557225562,557277131,557335095,557410240,557494490,557628713,557713089,557906480,557907843,557908745,557909796,557910481,557911345,558036202,558036925,558075341,558319326,558368935,558388623,558389887]}
{"user_id":112754805,"collect_list(fan_id)":[28968809,119799820,431719570]}
{"user_id":338532150,"collect_list(fan_id)":[30351584,31182879,40313140,41898919,50231292,62879901,63499083,65365439,68638774,69940082,70202545,71170326,74938457,79862498,85956533,87277966,88174584,91939555,92288105,94447112,95829361,101741460,105369613,105839639,110964967,112335654,113142165,113195432,115244546,118950976,121523974,123718750,126283478,126924073,127991227,133177370,133454987,134070390,135676198,134144266,135940285,136058153,136943528,137114316,137474566,138803654,140037454,140230520,140812277,140831617,141846050,142707152,144392785,145895118,147255409,147885679,148880382,152421414,156836159,158388543,158499712,160739290,161010766,161231260,161757243,163569732,165719986,166353532,171117543,172926917,174803220,175405648,175706709,178176683,178778510,182176713,190035715,194950190,196464964,197034790,197035875,199539041,200749262,202905084,203137367,205209974,206315538,207744675,210138700,213770121,214064528,214695521,216395431,222407756,222892103,223281188,226111523,227542382,230099754,230689091,232880696,234623695,234856762,236802075,233315951,241488442,244054853,248138723,249576125,256621772,258481036,263320897,265225947,265316407,268048965,277262882,278049535,279866227,280452004,285417983,287500012,291250736,291714831,293647541,297814904,300992129,302023654,298834698,304585838,306372985,307734685,308997366,321399209,323487460,325131231,329581170,333688961,334744936,337476863,347995377,369511395,379127141,379292924,386560317,386729707,387261560,396865129,404591229,427851435,432964285,433922153,437246865,442110045,442955989,449340351,452468339,454227524,461584906,463545873,471273604,472568233,485705245,490174138,495840317,500072074,500368312,515524551,516704471,520529263,520947466,523784043,526722116,532165277,534395328,539294640,539434665,542632792,547517577,547800605,549245617,549532126,554830571,561254453,562624546,563165648]}
{"user_id":39724828,"collect_list(fan_id)":[38490493,169553875,425731559]}
{"user_id":77654326,"collect_list(fan_id)":[41495643,477882135]}
{"user_id":171687256,"collect_list(fan_id)":[65475863,169485832,316119733]}
{"user_id":34245391,"collect_list(fan_id)":[88267920]}
{"user_id":237892795,"collect_list(fan_id)":[155118695,422476911,547397040]}
{"user_id":557736034,"collect_list(fan_id)":[162758238,255692790,261064873,285866002,293944248,322752481,415202296,436430327,498850279,517513229,536776709,553723344,557738383,558345568]}
{"user_id":318747662,"collect_list(fan_id)":[163449972,187526476,197424506,233172385,331364807,392311769,431554522,518237423,519928934,524141556]}
{"user_id":1974614,"collect_list(fan_id)":[173595075,191286363,473155394,474262195,530113701]}
{"user_id":181836646,"collect_list(fan_id)":[177338268,196702650,198727527,224285832,264259528,270343599,281747479,285128003,290793964,327328425,331542949,350035100,374381669,380462351,415091576,415747335,415837540,445347555,522466030,531299035,538972944,539129660,539927337,559165192,561558417]}
{"user_id":445254128,"collect_list(fan_id)":[385965243]}
{"user_id":217465027,"collect_list(fan_id)":[399123555]}
{"user_id":44297653,"collect_list(fan_id)":[416180005]}
