{"user_id":40398,"collect_list(fan_id)":[38442,57207,129603,155982,377096,495999,1995313,2023759,3713702,4087854,7589281,26437839,38581167,45319894,96828375,135447535,202614487,221227497,418377246,529093279]}
{"user_id":2967482,"collect_list(fan_id)":[5868,18239,24080,26258,62828,67816,80126,90506,100783,100800,128362,186486,191414,133083,261498,268839,317799,375671,520804,584390,636457,727102,1005246,1179781,1354660,1457368,1849457,1978938,1994091,2035845,2068659,2077183,2352937,2860311,3068108,3352109,3555935,5346657,5759642,5836580,5844867,6098448,7721995,10323854,13612658,15350088,15887253,16055247,18012751,18097926,24801639,26059894,31806001,32409010,39040704,39483339,40981497,57864192,58278822,76485649,87130861,98312255,135852020,136545603,138208070,150466188,156906376,229847617,256966868,329014137,353547923,358624886,470478972,505478589,522250584,546818594,552687113]}
{"user_id":3062604,"collect_list(fan_id)":[36432,403905,642723,956223,1028631,2751368,3832317,4054041,3928608,6824923,7008148,7845571,12356786,16419253,32228425,33933249,43555086,104054597,137320816,145008108,156246689,163017128,205221723,210327946,225107476,277940505,310493557,341453884,404068524]}
{"user_id":3169179,"collect_list(fan_id)":[28057,147257,902873,910062,1039237,1901463,5094272,6345793,7513049,14816870,15040018]}
{"user_id":3888366,"collect_list(fan_id)":[20959,22072,23311,35755,66191,73717,115692,190020,389236,493082,952159,1147863,1693641,1767217,2230929,2361021,2593043,2934686,3119954,77357969,96217691,109892479,190788792,227677693,333281650,354087200]}
{"user_id":4656597,"collect_list(fan_id)":[2736,5923,9535,9713,10120,11637,22508,34777,39905,42188,42931,47717,48399,63587,64328,71197,73217,75792,76738,76778,82473,94521,103043,118039,118762,125645,126123,136063,155111,162696,164709,192333,200571,204140,210406,212100,222404,228370,231289,238130,284697,287740,314762,332121,338675,348957,356057,362212,365135,408118,408176,422729,436450,449081,450092,457310,463486,465219,469493,473616,493198,508942,515770,547151,562197,566661,600735,605914,617721,619083,620479,680419,685977,687602,708628,716402,748552,798957,850270,915439,919574,938269,970144,987432,996378,998888,828700,1033457,1037761,1053045,1073436,1096236,1102019,1112228,1116546,1184948,1201895,1210326,1254434,1267407,1278500,1336126,1339056,1340073,1340437,1198641,1465748,1471043,1471067,1494318,1505709,1542305,1574616,1582487,1594072,1602713,1618526,1638891,1655431,1659085,1665306,1676038,1712999,1734035,1762950,1796901,1802244,1808336,1838190,1860625,1869042,1889152,1913468,1914340,1994066,2004317,2091392,2102726,2232816,2263005,2313001,2390077,2403240,2424081,2450680,2460616,2501372,2504948,2548202,2575455,2635933,2811059,2841239,2973320,2993520,3060334,3062851,3073185,3106921,3166956,3196983,3305115,3360123,3452681,3503007,3516867,3158622,3163691,3697049,3725058,3742627,3765194,3883348,3887844,4129587,4142441,4194999,4214785,4271445,4325137,4332186,4342526,4409820,4497876,4499625,4512842,4575571,4713142,4757945,4761350,4818906,5122131,5155685,5297542,5350771,5446757,5526497,5634858,5647361,5694873,5856094,5894380,5903377,6005960,6406822,6412350,6476825,6628474,6817014,6841656,6847874,6918389,7088167,7492709,7543910,7772019,7879642,7912625,8180368,8465975,8037547,8794583,8807616,9146063,9300828,9395715,9780664,9821054,10077374,10245134,10372857,10824016,10915525,10919190,11619260,11965997,12120655,12284737,12346707,12716371,12829734,12893561,13201501,13386385,13437128,13528117,13529268,13615709,13672645,13682867,14035146,14077246,14217087,14319710,14546711,14586509,14724056,14726873,14881834,15033686,15331508,15806452,15811582,15870196,16155773,16232708,17414806,17426424,17793535,18073669,18098292,18170992,18195663,18323573,18420296,18533841,18547766,18571384,18698973,18884848,19043559,19288695,19649910,19665235,19778624,19951433,20264374,20449040,20449907,20508750,20639934,20653827,20739526,20852980,21356972,21516285,22209823,22210442,22291333,22396745,22708542,22876052,23330445,23353089,23401192,23896819,23912435,24075450,24117940,24358499,24377855,24539388,24761460,25249327,25379435,26054180,26134670,27009644,28178066,28843989,29118659,29821445,30372606,31128933,31335705,31448362,31554205,29878245,31921997,32424280,33713453,33763473,33924778,33944762,34682457,34964793,36047847,37175785,38327529,39399021,39917655,40360328,41762528,42243529,42379656,42910019,43276195,44056921,44082344,44087465,44826239,45425931,47220277,48162985,48385406,48799868,48912981,49583354,49685222,50357372,51341361,51655055,51908156,52143233,53115716,53200258,54016548,54435842,54549269,54586621,55810388,56564291,56568360,55631548,58335693,59521216,60473765,60649224,63508899,63819415,63097022,65687352,68933648,69983899,70950775,71008667,71014951,72046319,72632608,73800613,74807464,76344076,78969418,81712678,82030403,82328787,82353096,82424025,83255179,84323220,85811130,86482674,87742785,87932873,88569314,89210517,89489653,90851164,92095542,93665985,95939886,96537342,97453774,101212032,103478937,103540185,103919395,105622583,106502267,112339452,113407120,114439609,114915136,115562208,115763469,122687184,122869778,123080210,123299403,123500181,128143242,129756058,132035827,134040009,134488838,134798581,134949334,135804661,136967756,137378134,138588553,138765319,139279426,139927994,138957574,140797251,144569815,144678840,145606537,146153874,146186631,146267850,146549816,146618970,146679380,147138056,147348776,147646645,147774140,148062846,148175954,150564861,150612345,150713604,150933923,151601953,151814742,152025158,152990405,153269917,153792448,152088836,154072359,154274673,154351599,156548632,156693233,156705223,156778986,157099796,157662830,157721186,158016258,158081090,158303004,159966644,160481942,161837736,162051351,163154360,163291269,163692325,164281985,166268029,168525705,168573938,168863409,171149528,173233605,174438395,175121176,175154955,175589495,175937127,175982485,178286045,179021542,179430071,180015311,180556660,181083873,181749831,181779998,182157431,183055990,183396805,183906539,184122861,184476328,184537678,185055611,185992153,186294979,187261248,187301423,188184413,188742627,188743220,188886751,189136486,189160649,189208007,189876441,190348626,190784485,195023749,195448221,195551257,198178166,199371401,199872584,200120033,200572870,200872009,201729642,202516653,206042347,206275403,206469456,207489554,207578405,207931586,208108003,208455792,208493822,209659930,209953737,209976219,210349116,210671657,210695574,210706435,210900232,211289100,212594100,212782222,214574178,214742573,215487626,215501096,215999458,216186489,218457794,218738263,219419055,220680001,221318040,221470471,221746330,222029448,222641690,223714169,224236617,225478439,226004271,227432867,227469676,229063563,232217466,232368233,233665911,234454842,235127223,237360099,239123776,239689746,240892370,241398001,242206593,243101786,245426151,245575084,246513350,247183950,249123010,250214003,250705327,250740939,251169310,252222149,252984977,254777490,254985636,255004543,255722279,255879883,256101766,256371789,256555692,257076049,258816223,261222348,261482506,261590812,262649786,263126282,263666350,264627387,265247502,266084004,267694968,269011949,269185759,269875207,269970193,271786101,268631608,272809816,274806798,276754349,276763829,278555286,278767093,278846123,279023389,280941673,282180351,282345105,282397696,284673418,285128003,285228296,285816418,286721912,289269330,291326860,291363823,292119839,292668813,294158443,294557085,295480695,295801526,296285815,297123814,298057756,299284881,300883727,305028975,305392125,306345341,306498199,306641158,307097345,302971923,307930165,309159088,309835430,310419335,310731598,310831720,310944929,314559290,315413876,316038577,316477512,317144327,317714068,318011648,318291383,318352205,318491815,318902828,320745528,321528346,322090153,323046467,324465646,325272656,325435033,325855979,326662444,327176005,327451536,324856846,324866431,328931977,329662994,330519139,331436212,331547668,332135806,332219155,333553620,334260149,334288735,334886726,335196125,335422930,337846042,338953300,339586392,340106711,340903327,345202607,345562145,347888365,347932040,349216375,351006750,352031753,353896758,354144540,354222545,356065045,356529681,359821590,360854672,361794755,363249508,363400834,363996457,364539115,364677059,366360209,366504170,366549761,366785113,367830215,367933101,368411690,368445439,369216703,369789339,372520714,373094917,374122940,374646030,377034380,377170703,377889899,380490673,381668253,383016189,385242270,385260847,385564705,385797007,388267110,390013035,390260962,390982121,391437725,393924985,394883167,395797780,397668493,398109511,398918508,400258036,400357952,400427341,401439059,403048294,403773860,404960249,405193529,405687093,406564585,406840390,407060098,408669018,408733606,409757063,410413538,411577558,411657832,411800010,414965297,415453079,415881869,417531891,418852453,419111121,419261545,420996316,421234656,421655884,424268907,425132729,425221760,425241584,425726124,425937447,428738623,429920794,431681474,431932736,433116774,434531608,436534353,438306698,439133832,439814221,441588514,442326788,442442539,445776410,446952636,447893158,449336697,450037377,451546765,454985095,456244603,457046654,457432791,457450891,457813185,457847212,458687397,460462677,460782650,461640977,462462474,463226044,463906212,466311702,466584112,466718013,467263856,467910108,469124605,469763894,469987675,470952904,470961348,471635724,472379439,468750305,473168077,473959397,474337070,474836765,474920272,475809445,477180324,477532381,477540265,477749873,478115236,479005633,481081101,482862788,483749056,484961546,485231872,485486799,487371339,488018524,488334891,489191818,489684553,489705564,489892530,490190012,490752672,492141878,493466114,493936393,494076985,494664096,494698890,494807058,494837216,495565854,496011383,496068512,496530458,498758803,499078635,499110400,499219664,499484972,499934196,501522220,502228562,502285517,502539481,502563672,503948527,504063986,504180854,504463329,504584828,505159616,505484565,505642613,506030908,506796488,506944313,507205630,508262808,505385490,508864059,509255747,510329520,510605245,510926736,511828454,513628138,513711559,513923581,514406019,515713200,515919664,516292055,516700693,516788811,517314222,517721403,518479887,518641358,519077396,520234636,520509616,520788846,521246534,521647158,521996689,522120049,522377939,522416913,523547157,523901565,523960108,525038381,525387002,525822886,525932262,526466155,526499071,526875442,527298397,527527429,527729039,527967653,528080215,528347361,528725093,528815816,529302741,529468536,529845585,529985460,530178297,530286366,530790391,530972073,531457274,531501851,531544127,532736698,534295829,534748790,534912084,535157940,535311485,535551549,536747179,537007682,538196240,538406520,538579915,538771061,539723053,542383327,542560795,542665250,542878844,543269216,543510415,543763505,544203095,544872011,545480937,545536969,545576783,545672946,545943118,547615009,547694294,547782641,550685664,551536389,552189958,552255362,552554525,553008020,553714305,554150770,554532206,554790341,554985640,555837662,552701981,556165492,556850840,557629888,558238936,558283137,558377935,559776991,555929517,562130376,562763545]}
{"user_id":5567322,"collect_list(fan_id)":[6371,67816,58801,151146,420927,475624,546612,1401754,1475301,1744738,2022420,2178141,2393318,2975738,4421920,6947099,8154147,11828824,22235993,22292922,22355383,30774349,31299767,40981497,77543845,285128003,329128199,437691023,462462474,512067800,531406035]}
{"user_id":8169293,"collect_list(fan_id)":[17404,19325,90675,218869,306707,348105,373260,377898,433431,438821,465507,479525,497340,554616,577882,593640,824391,886747,887406,929401,959269,1142911,1009066,1374971,1427683,1507710,1521651,1661617,1664970,1713101,1818217,1853009,1885967,2050080,2116014,2282061,2320527,2339479,2410605,2500839,2585017,2650416,2781134,2880023,2994054,3012827,3167757,3379710,3524603,3526125,3605455,3630185,3715900,3723680,3733861,3544431,3953311,4253400,4475395,4646589,4744607,5134045,5888050,5904160,6239354,6268283,6442432,6618915,6627149,6700093,6738874,6740190,6882610,6886151,7059850,7208776,7223933,7663196,7677109,7718383,7984469,8171892,8251340,9512496,9705054,10329969,10767104,10807026,11224855,11586568,11629572,11799118,12042257,12260255,12366287,12368302,12599085,12734962,12924760,12964147,13326107,13627993,13798385,14648040,14698313,14749791,14788007,15156959,15219930,15480066,15802496,15839538,17160858,17206308,17809402,17857853,17946132,18910746,19089507,19269280,19516882,19613731,19641410,20260249,20338547,20609759,20615087,20712784,20824523,21359696,21391370,21730548,21777853,22036535,22447894,22572100,22695116,23240497,23632094,23884247,23957351,24892747,26871044,27445947,27839282,28653018,28974401,29192129,29906565,29932517,30057893,31653214,34052261,34113271,35219929,35636759,35958251,37933151,38097919,38146026,39688053,39710586,40099665,40772203,41134470,41583969,42455999,42476363,42714442,42961072,44176753,44662218,45389144,45666649,47287502,47663633,50533887,51200563,52139948,52316623,53243576,54214572,54356111,56357668,56448451,56590564,56717047,59033215,60038123,62340057,63212152,64477180,64962791,65114531,65864536,66373989,66742640,66817211,67879557,69748174,72594718,72769460,73395123,79346599,81278620,82236322,85257566,85378260,85896302,86318255,87613274,89528014,89683796,90989243,94373843,94499008,94610941,95734453,96193168,97235771,98344213,98640711,98964991,100308820,101847020,102346232,102844355,105528041,106691994,107998245,108903649,110314571,110405196,115485468,116353158,117511929,121562950,124982846,125684162,126133149,128160208,132390625,132575691,134349263,135430910,135904127,137256344,137888575,138472612,137456555,139407127,140243166,140964127,141028348,142612129,143115267,145347041,147471758,150273876,151513207,151790523,152577046,152912616,153926419,156009902,156311853,156757975,167185487,168693336,172994067,179945996,180803706,182007687,188137602,189119595,193382504,193402619,200336505,202024454,205523313,205895404,223842251,227222406,232016877,244083809,255962705,258136835,272167574,276647059,280603003,285315629,289877962,295261559,303361932,308626022,319294321,322640351,323712719,328648934,337122457,340344549,349335620,372183485,376417373,386870821,383213214,395780682,417995163,424541087,435402221,439337143,454031529,460879482,463853331,476397253,479511404,500646341,505500546,507892224,516371409,541742037,549895845,559328928]}
{"user_id":118564448,"collect_list(fan_id)":[28190,139514,280487,305876,435148,476040,744510,911377,913362,918873,920334,1289783,1319712,1606030,1766209,2015370,2019259,2180181,2364526,2771783,2777236,2942429,3202815,3221431,3158946,3701520,3913159,3944030,4184965,4432794,4454080,4750907,4826366,5039728,5187705,5223941,5419012,5486527,6104630,6388941,6489678,7046986,7323920,7713976,8156775,8372281,8770712,8983693,9298644,9791285,9827364,10135303,10245150,10374261,11451079,11868250,12016654,12559004,14560853,15797158,16006445,16046783,16147267,17645385,17749102,18088442,18878096,19190003,19600394,20099458,19851304,21238875,21440500,22054489,22126062,22326118,22390713,22581788,25226895,25632072,28880254,31222328,33122824,33864753,35857956,35919813,37622076,38090344,38411710,40636424,41200565,41365564,42575294,42705059,44412982,46144200,50049273,50263366,50318823,50542287,49885127,53042868,54693875,54984977,61214317,63345514,64597098,65503372,65718475,68425793,68641036,68764467,68945034,72755184,76739619,78607464,81442634,82549270,85449329,89805276,90247234,92520956,94074298,95460556,102048555,108214889,111575550,118109485,118117617,120111372,121067609,121810774,123389211,127952804,133133932,134472756,136115490,136145177,136456766,136885663,137698493,139114966,140426310,144948590,147644670,148314048,150349089,153103537,154867517,155451781,156302989,156903827,160392971,160448590,160535274,163040912,170721988,175523869,181624410,182425948,182499435,184168345,184379965,189027600,192950958,194618611,195537594,197359629,199070226,200611622,201696089,206307846,207165700,211593752,218450532,227589790,229336673,232187501,232541740,234795827,235829089,236693384,233290953,241955662,242723137,245187750,247910319,248861096,249837922,257702689,260528450,265276548,271599101,271889356,293694636,302197041,310791464,312098440,312101637,316589313,321411696,323525900,334328796,336035300,336919101,338974944,339307394,343313983,348170765,354048920,363966198,369377010,401141737,412085894,422566797,423098742,431315034,432531197,445681699,457547469,468517768,470766957,473412475,476988423,488561495,485922152,490200098,495870503,496482663,532756739,533643958,534206048,534803817,537346785,537623043,539192532,540113802,541574136,543558158,561308828,563962988,565928511]}
{"user_id":139367257,"collect_list(fan_id)":[8060,36802,89308,201821,396401,466012,536799,759614,785825,2039859,2462033,3121416,3363056,5715710,5734782,5824077,6610603,8312768,8455203,9704485,10146401,11695218,16571709,17546261,19211117,21626856,27168513,29133650,31777991,33644043,35049828,40438961,42586840,53015035,53164057,53872184,54343596,67086894,68074326,72179382,83183315,89041616,92390108,95504540,96125228,110663771,144577372,148046256,158875328,161625525,189495131,209919593,213888705,216525702,220153940,221082341,226604726,239896805,241477695,244182704,264467256,268401075,269688952,278672218,320351814,332020779,358805172,386305882,402736771,425615055,449113160,454877287,461961821,501046280,504873983,527702071,549671603]}
{"user_id":455234786,"collect_list(fan_id)":[215,700325,16477078,68152839,120066641,138930562,145730162,183929295,195847304,207235100,231417474,260258019,300919659,313010493,313431180,314904411,321303031,327344176,336457372,345567673,367026417,370448252,372046354,387962491,395003997,398745229,399035392,399160813,400368132,403985191,404282505,408525033,416891090,420782002,421315410,422373411,422933027,443597468,443784411,446047716,447766047,447766400,448637130,448934416,449489145,450143305,450261664,450660992,451172724,451330135,451483507,453830683,455421864,456595170,456601278,459613792,460109167,462287395,464903941,466584754,466913567,467987601,468191951,464302166,477113856,477854150,479796179,482255000,488911258,491861052,492202836,498325308,500006755,501486166,506950103,507601570,509614874,509923454,510371023,511464345,514690096,515509618,516262851,516967232,518419682,519128552,519989656,526306264,527762396,534595824,535638965,536639071,539317683,540268492,553911934,563189598]}
{"user_id":296895,"collect_list(fan_id)":[113070,346444,1256892,3414825,3866691,4092441,4490387,6903827,9245722,11047034,24609750,29676039,34748279,121384089,131649752,164607378,183816097,341106394,376833978,384324585,408100655,473959397,475997079,538884146]}
{"user_id":1642697,"collect_list(fan_id)":[72625,151555,217924,274545,287417,325528,416853,507817,662682,1058304,1186850,1204383,1251417,1397481,1423990,2750145,5228515,5379200,5446168,5953590,6004839,6128485,7514891,8853741,13658721,13941044,14585539,17219044,22377928,26142638,39793510,43527878,49547307,53250904,55735837,56090325,57251664,71134491,89417132,98312259,104051627,132362414,138028953,151627114,153712076,163815114,170231695,182481226,190455707,191023402,286453269,352481918,364380436,438030761,491167809,509950243,519308856]}
{"user_id":130581382,"collect_list(fan_id)":[61969,487511,533681,1994946,2150238,2259530,2541332,4067205,6895168,7544759,23667335,58678823,58851008,71228860,72720036,94093194,125504825,133726759,134714901,150948171,155965148,166295856,182254093,182375121,186214989,205210518,215762369,215858380,216250841,217143642,229473290,231973188,235114203,243683371,248886156,252826539,258543049,265000067,264816948,286541456,299603298,319905620,333255734,344709195,346087597,352190154,357771608,364964335,392693648,404946019,405854864,406596144,414237835,415459976,433726032,435306712,450875722,458772512,471086953,492352305,495931622,503266759,504431146,510292348,512866821,513826966,526256237,526555071,556100218]}
{"user_id":836209,"collect_list(fan_id)":[134294,467922,666850,1354813,37517185,39291929,45304748,58175954,151088119,173047729,181789299,221361159,232085118,251025310,275885794,430798667,473606879,525023310]}
{"user_id":4551647,"collect_list(fan_id)":[199834,691581,2096483,2208192,2531898,2820149,3227983,3746576,3871058,7085883,7207258,7411516,8362577,8823653,9364483,9461171,10209317,10465211,10824786,12927451,12929145,13005717,13890536,14069767,14792194,17781341,18214851,18355487,19887873,20467198,21324744,21760951,23724319,30163368,33344170,33602737,33640428,35967377,36644934,37406611,37318325,39722048,47264082,53637098,54521386,55376082,62187242,68971492,70700813,78259678,79425457,89141835,97077219,98031235,109086164,112628586,113800623,113802039,114733017,120618487,121353413,132064972,133974994,141231684,142519376,144353857,144548090,145642246,151763967,153395698,203102086,223146218,302413233,319942653,322645672,334741113,380231347,443901247,444866153,509448261,552184583,552687113]}
{"user_id":5099393,"collect_list(fan_id)":[270753,1325592,4828636,11287008,524572687,524906696]}
{"user_id":75693426,"collect_list(fan_id)":[224409,3678762,3870256,5339126,7732545,9653753,16055884,28910026,48021371,61876840,91870415,118605473,180675174,193559452,194947298,252686197,317587734,477752048,477978872]}
{"user_id":128293063,"collect_list(fan_id)":[289804,2223310,2440768,2648491,2820051,5479648,12624724,23725883,41688426,50336841,50531952,60032932,70920714,89944507,90086045,95755700,108304757,108888830,109175014,112906536,114656631,118995240,119010467,120896875,133704402,135626539,147135149,151977811,155412814,155662378,159844629,169401111,169799600,174072023,176053311,176481860,191958295,196972514,198907317,200380273,201620791,208023534,210624830,221863969,228207985,236707785,251673847,252568815,254659153,263936125,271699287,277585812,291410031,297228340,300852237,300953698,323981273,339225085,341878551,351216743,386783628,389156381,402005902,437982194,446237562,458398977,522269587,529552908,550543559]}
{"user_id":363294220,"collect_list(fan_id)":[399339,246434039,513630888,553584107]}
{"user_id":475421504,"collect_list(fan_id)":[374563,574473,1942619,4695765,10078067,12398599,16793804,20169694,24216678,40560021,55004207,65924134,134634480,141652125,146506152,150102976,168781972,171686893,195726757,224850596,240984368,275591344,285128003,297449911,300441593,324689173,338388729,366956042,378770411,381489626,387661858,408113093,416180005,428624107,445456943,450508131,451263337,454393800,469620543,474818461,483339986,485836957,489697889,502207183,505484565,512650778,516062188,516953503,528349046,528480371,534878176,537600056,539383580,542966095,546552655,556144117,559749389,564197613]}
{"user_id":93069073,"collect_list(fan_id)":[530507,4898639,5280191,22734386,31805800,39903724,79140681,95491693,105981390,120808922,134097638,170429455,236842161,291566246,336695197,353176622,358624896,379961369,409487843,425107544,428532999,456198443,467981631,479964907,484754018,532682341,535867186,538529992,541029168,544359306,545730009,552652335,559892620,563154776,564551529]}
{"user_id":345894629,"collect_list(fan_id)":[645478,661237,843719,1853304,2212349,2803799,5941141,6361331,7958383,10340530,15120662,23566362,27586279,33954949,55152912,126901297,134170481,164975143,167172308,179166454,228007903,266353075,271434673,313298089,338370688,349456822,365744914,371869355,377347694,387592969,438604752,468162681,496997515,526624693,536245584]}
{"user_id":160585551,"collect_list(fan_id)":[725788,8105473,80287701,87077859,91598818,113602664,127937541,133504444,145119895,147901973,152588362,154542571,162979957,167778667,170338718,172864436,174358212,178202932,179472545,195449889,200823743,203666319,204497364,209967244,212868471,213196002,221743391,224515243,227808281,231875509,232067413,245739782,258289186,258857499,262822358,270030213,271337046,277547423,331248886,335953445,336540571,364622972,385267796,387368869,395157632,402219928,404524336,412217044,489334870,497671847,505918149,512189166,514227390,515557134,564764052]}
{"user_id":276073231,"collect_list(fan_id)":[925366,935489,1124318,1828208,2516219,3197687,3286166,3466782,4340513,4812503,4872994,5639695,5717608,6433514,7923495,7993892,8033463,8117384,8144481,9312683,10966027,11082309,12644890,13475505,14475660,14661854,14793358,15935098,16868268,17045552,17329977,17470360,18184283,18755872,19509788,19786080,20873139,22316333,22724973,23384795,24045351,23583594,26077940,26486976,26617232,26801964,27074490,28026995,30351220,30397204,31373272,31508786,33367096,31585620,35399029,39014469,41495807,43316809,44681102,45482338,45517434,46800751,48094567,52530544,55905421,58212172,58502120,63398273,64507707,65388753,68925664,69166242,69759139,72096057,75664442,77687131,79013316,82370055,86710318,87330269,92458623,93164596,93721651,97066681,97988709,98596723,101153974,101442451,101642208,101931964,102662674,103988060,107566737,109822982,126800689,133178893,134567042,134978574,136268150,136926663,138234597,141425298,144101009,145395192,147618687,151019952,151478176,151683085,151821191,153802549,157532708,159775808,160706640,161603767,161976996,161983657,162635858,162875150,164733442,169978277,170439181,171993594,173077911,173378477,175592966,176784412,177824537,178892298,179762599,179786510,190858700,190858945,191033100,192040561,194790428,195773275,196814481,197901044,198231422,198318335,198779063,199820502,202199244,204023056,206897679,207486840,207709849,208677147,211841550,212417550,212868390,216359290,217056098,219642359,221321784,222419619,223518667,228411476,231376393,235779325,240084824,241351051,243442300,245937882,250773784,253073728,256955239,260141119,264743826,267986523,271793319,272760683,273485016,274071513,280251801,281144823,286195872,288142515,294081096,295575987,295880558,296086990,297933507,303983996,310256396,311505846,311534133,314783783,315642987,320409838,320969974,338376072,338567811,338994573,342009439,343005519,349926881,357954572,359928230,360591513,363265163,365728607,366044767,372404164,373319567,373621161,384086260,393173444,394330130,395602083,395902687,397494442,399339915,406524086,407040512,409598208,410803757,411391846,413924593,416471333,417966734,424863652,425065080,428296233,431407600,434777294,435134801,437799967,440118140,443727743,444871610,446989286,447508306,450478565,456065075,465997082,478097873,488996971,496878569,498979199,500245462,507111018,512389311,513359269,514465102,517503431,517997171,521520296,527359731,546456725]}
{"user_id":22355383,"collect_list(fan_id)":[1053291,1189842,1766614,2797361,3703998,3851998,4235777,4604056,5891801,7028001,7825236,8795055,9227358,8735866,9818300,10027602,10151090,10375047,10505846,10656479,11759851,12571285,12835095,13264293,14364951,14866192,15188410,15347123,16126072,16674963,16717568,17702953,18691800,18759265,19177161,19196493,19767943,18640324,19932473,21437658,21660184,21906295,22394073,22776002,23118845,23770362,23787701,24470523,24949653,26172278,27222556,28146215,29010891,31360031,32109039,33861220,34185547,35529244,37125680,37302698,39183367,39245216,39297997,39398985,40179664,40469362,43876934,48901724,51102568,54326728,56886268,57807452,58451207,60708689,60923300,63820234,64508195,64639992,64730522,67699334,68433632,69108151,71089946,73308083,75435054,78547320,81265164,81507933,81971375,82315668,82594576,83077580,84361508,84647437,85406370,89574182,89672104,90374552,90594528,91007080,92438898,94031327,95437435,92619838,98138437,100637984,100756595,101898889,102899301,106478705,107969892,109009055,111640500,112803124,114464425,124808881,134235359,135803541,135934822,138218094,137470537,139514817,139544035,140324613,141599114,144027601,144934701,145447652,146527674,147476192,148888616,148905310,147196638,151282218,150316283,152891915,153367140,157858537,158569089,158994276,161479156,164698957,166940872,167771269,170047597,173577141,175302126,177034094,178028561,175832464,181410081,181747129,181977212,182394958,184675446,185179773,187759895,189394121,189487576,193326053,194566098,195633510,202857031,214144450,214209068,214300370,217769968,218075694,228137591,234141795,244121098,246272392,250856980,250924633,253493903,255133734,256619215,258593061,259821525,263408798,269551038,271978568,277284786,277422639,282445732,294430468,295308898,307185209,315691220,316403949,320772981,323417028,325658328,332361284,333863178,334161332,335258719,341025369,342588678,353110954,366882112,369676859,372778567,375440776,377057112,390333722,410063749,414721385,416987439,422361276,429737778,433373195,435009795,447942140,455254720,468862221,469007202,491714702,495802886,505976323,507871528,510932666,521252287,534387847,539700967,545468940,546128657,547768209,548906836]}
{"user_id":29320147,"collect_list(fan_id)":[1017910,4736837,4895273,5798037,7136659,10510658,12424356,13166625,18498601,21828216,23915291,27302302,33519768,34819175,36154933,37209571,49358860,60401654,63600281,64685769,68316441,75625782,83490561,90381376,93406291,95558272,110882938,121707376,123269062,123282000,135093907,135787303,138020717,155968158,161049144,167730758,175015664,182742680,183205589,187183003,187865590,189535460,202392406,205518116,206485946,206990991,207949101,220675534,221531103,224133757,229409012,231189697,237634002,256510475,256894661,257636456,262195221,263823687,264932715,268533011,277249002,284241225,284811836,289784926,293118225,295081048,297200573,315023702,330815671,337069687,337482040,333252654,341358405,355715821,361182635,369044967,370060682,377880421,385434501,394028499,405339503,411202478,419188915,419968351,428711965,431669695,449472602,454421394,455848865,461768167,462154572,470151057,478427494,479330242,482549714,483746799,498677941,500388318,504808903,510482666,515605280,516952900,520209105,520253556,522067661,522783067,523449437,523605739,526159771,527900015,527975707,529472505,535878833,541851175,541101258,545931265,554979846,557938656,561108733,566681094]}
{"user_id":90585229,"collect_list(fan_id)":[1095399,11424721,12975557,16502580,20526726,22153907,22286595,27714849,32634194,41622842,44124111,49187602,51118289,52168555,57181459,68484559,68637607,83510887,84064279,88206677,93610385,113506584,126399145,134323001,138562206,141759732,151234724,152285899,153381564,160378632,167184387,175354385,223951053,234144026,256744115,325492648,333049446,347727467,356582685,473638968,514667133]}
{"user_id":138841035,"collect_list(fan_id)":[1113378,5521855,17291861,47651131,98575200,143076715,152384894,157234215,159165172,170317766,171121674,189360532,193380859,200456357,210121041,223399501,224508032,231909434,233869732,242507638,243009632,243296570,246587342,253975381,257902577,273504211,309005486,437164348,541224664,559324700]}
{"user_id":52526564,"collect_list(fan_id)":[1379147,60514463,96253072,415387462,415400336,533318742,540931544,546932443]}
{"user_id":198102380,"collect_list(fan_id)":[1554396,6778932,6803033,10656479,12793919,21937705,23315738,29403497,31996402,43786491,48325162,53727327,62628479,66640612,70808963,75349612,80773227,81713817,85671031,86181404,87490342,88371240,90285839,94936519,106941779,107406686,110768981,118378628,120349232,126013945,126367124,127354635,130147009,131504745,127745010,133182528,133746447,134024333,135103359,136092055,136863113,136995488,137285496,138328073,140656219,141875283,144390398,145275530,145675995,146770196,149233294,152137533,152554457,154240784,154557911,155282353,155632301,157058223,157548037,161324668,161969051,164001982,165593234,165719932,166139160,167438371,167737774,169132832,173023604,173843077,174401344,175256927,173617696,177565624,180117191,181917813,182449544,185912861,186881422,193900208,194127431,194299227,195007429,195169341,198965438,200063474,201441041,202936195,203540901,204432304,204994048,205015462,210097669,210739817,213336025,214860605,216153520,216301500,216613899,216878172,217497704,218605709,219653700,221039961,223317411,223675934,227768468,228485772,228812914,230614143,230862315,231416766,231960528,233909699,234345857,234408859,235006881,235077853,235444613,236181324,236404397,236703326,236888046,237003049,237201803,237760928,238813652,243003735,248574812,248794227,252536364,253051280,253128640,255493470,257189356,259039384,261364204,264230260,265128920,266789315,268480663,268551654,270780185,271819328,272561440,272562501,272826405,272901476,273232791,276794757,276923888,277789880,277915452,279305861,281489286,282307035,282339976,283034722,287068654,287163433,287320223,288862978,291657292,296190291,304302599,308941154,309249011,310031407,311689246,311712031,313040726,313147986,316047500,318826952,320041437,321130058,321615884,323533243,325272548,325408391,325966971,326338116,328845575,328945378,331970257,333936479,334984698,340433408,340465795,340941821,350477957,351626623,352561814,352922747,354029490,358804556,371032492,371159846,373121733,379148732,382462074,388378103,389550770,397880923,400431325,402064901,403753553,405666909,406142991,409095205,413348198,415534917,414046014,420362244,425364695,426017035,431522357,432796327,433960882,436298429,438183437,440805234,448267418,447070987,451282528,462165912,464919890,467745887,468065160,469935480,477703938,479212157,481964747,491935090,494444380,495953308,501212348,504211327,510976944,513103409,517523995,519487742,524542405,524904573,526119066,526242277,531430711,534838686,542380539,549666212,551506727,551922097,556122130]}
{"user_id":236164606,"collect_list(fan_id)":[1543697,16042263,137603392,245648712,555628894]}
{"user_id":38888555,"collect_list(fan_id)":[1783690,2684836,6087004,6787728,7466085,12877168,19956851,21195522,23795364,24511999,24799415,31293472,33372467,55770757,63964266,90573769,91713946,96226224,111401007,130549919,135870036,192006006,199269114,207501070,212300560,221358309,221496231,235965350,319292257,322755321,341355471,344730655,466964270,498282028,506694375]}
{"user_id":272787573,"collect_list(fan_id)":[1932037,3350481,6206052,10673562,14066522,18845601,30710109,42922925,43140660,103411463,133928023,140098196,152530424,158518212,166035900,179841355,185803417,193034383,198921456,199585135,204453814,208398148,213784045,225613069,238002613,333737652,376937842,397371156,425205986,473147810,486259572,506694375,516821729,522503892]}
{"user_id":14578294,"collect_list(fan_id)":[2343225,2860188,4728028,4846070,5523211,6064040,6611673,6904484,7211169,7357879,8092740,8526240,9463042,10326450,10643935,11841295,11910326,12985524,13572344,15564840,15609912,15661709,15763576,16084947,15420617,17835841,18553044,18859421,19377425,20847894,22415876,22489232,22829443,23477837,23977246,24229515,25287415,25551632,26179045,27353334,27444052,30074771,31317107,31547173,31646351,32043375,32363293,32949243,34638066,38888887,41374050,46306830,47694580,50155057,50712815,51889198,52599196,53019373,53060502,53362783,54654272,55124393,56050890,58601455,58929112,60091111,61235833,62362061,63872937,64242348,64254039,67121685,71736636,78741881,79321118,82298463,82757008,84391606,84952190,89588363,91939177,89720209,93792173,94020601,98514770,98924822,99408471,103310436,103412109,103864805,104016050,105986679,106162443,107908036,108531652,111021809,117797415,118099570,120476194,120890424,123832508,124715601,124991069,129538544,129877028,131676772,132037850,132058653,132228584,132825385,133510166,133929339,133981467,134028635,134452994,134899763,134994381,136041791,136385119,136745769,137006738,137064852,137189617,138822147,139330919,139799859,138952680,142831573,143382032,143461364,144260697,146099522,146263284,146665761,150740686,150831922,151366490,151539472,150303605,152468696,153338329,154736823,154772723,154961952,156138371,156769815,157269543,158080786,158108252,158184174,158251427,159370094,160499460,161038957,161120251,161154569,161505284,165149736,165386694,169950152,170059499,171335114,172483856,172602154,173736132,174798690,175906063,177644136,179004194,179526283,180202837,180684974,182808952,184419591,185624731,187219761,187387985,187879809,188679996,189920968,199333467,203611022,204397487,205300514,205395642,205570952,206115633,206682867,206954674,207681432,210078875,212047875,213466830,213573670,215289415,218567245,218811197,219590267,220652186,223245843,225325550,226569151,228792589,228872888,229721096,230067844,230987996,234975186,235735199,237319311,240218134,244877422,248551705,249061121,249379656,256516905,257073756,258800041,260877797,262398448,264823523,269111762,269753919,278623620,278859596,279163863,281946178,284268991,288730803,284916400,290630261,292211366,294452252,295640088,299050329,303585495,306889921,311513992,311684998,312238515,316863221,318130495,321689717,329367828,332755854,340410162,344347002,350167229,352658265,352952718,355813488,364638583,365391507,366356826,367207974,368819065,372688415,377272284,387989016,399324784,400414658,402602902,406745633,407177386,407816715,412027427,417797512,414043280,421690353,423686763,425708582,430668514,433587048,445184213,445327513,446749247,448147569,451296153,452137466,458233724,462989573,464933839,467612326,464229098,468870777,470003628,471548254,475313512,477054167,480992024,493733135,494922667,499357768,507865635,509419667,509544347,509817563,514839483,515050111,517554856,522602874,524298149,525032385,526927186,529656369,529795242,535515181,536750008,538981464,539586192,547643857,547714037,550635870,553145716,559321256]}
{"user_id":30583016,"collect_list(fan_id)":[2835029,11051546,31803297,36056096,40217469,95881514,183903803,275944228,432999038,445223503,491259791]}
{"user_id":137322589,"collect_list(fan_id)":[3079533,4032366,13560293,17865576,22400548,24070439,24727187,34683674,44335885,45732262,72913732,77238151,84970417,85597704,86197640,87765773,90437901,91168587,96345430,102273673,103524483,122293267,128866709,131797610,137404808,140210078,142301894,144432534,144949224,146847286,150426780,153453478,153949809,154307385,159380710,162035676,166185626,169392388,172081598,173022397,174530620,175185570,177796467,178758174,183949655,185328738,186154332,189181608,192801208,195237734,195249960,195742494,196229289,204326645,205080746,206588688,209353354,212983892,214205983,216028709,219550582,222409803,225123122,226761342,233233252,243389401,245960383,246510110,247046507,259095574,264875450,270273987,280298123,293410172,310966267,313445087,317460423,320473695,320834271,320844873,322132305,322366020,337088201,338569103,340766814,350828528,358080768,371011434,373626242,382449004,423484697,423815051,461926002,473220821,479809033,560037619]}
{"user_id":22651568,"collect_list(fan_id)":[3400224,7795088,15761583,21631774,26801989,31042105,46410869,47097315,56814433,57673868,59419780,68797211,73355033,74657967,82448869,85476708,96100277,120433638,131539414,135415025,154663897,163669135,166050337,170580019,171420366,179348535,196109011,208859235,223426307,246969526,263955261,319546181,434612358,488162448,552687113]}
{"user_id":171593806,"collect_list(fan_id)":[3276909,29698429,33474881,57680924,58918840,66456831,111676229,124206260,134281055,135523102,148373817,152529282,156936218,158354596,158692441,159201912,164421467,165337117,165701714,168201750,168796685,170738305,175817604,179817351,179983294,182542938,183010189,186930938,191128363,191936607,196936343,198713593,205449330,208470499,208966541,209236029,212101279,216412593,217341491,218288347,220312316,221797900,224515244,229934357,230935271,233516924,234091395,236001348,237940573,238673507,241163545,242085300,245414261,252858863,253748660,256250336,265289709,265770214,267564087,269975164,269979134,273748092,278455214,281203695,287232049,289379159,284949756,293354599,296789893,299537424,304783655,308162048,310006763,312149495,314811475,320391783,320550973,322562992,324495819,327275114,327986804,331454251,340538136,341419138,343298760,346497589,348008692,348307984,352612186,354439743,356097822,364202032,364219875,370005068,371841977,380656885,390204921,401064469,403772575,404486241,405746586,408881033,420805640,422714325,423698521,426433473,426473549,426797111,432704611,435933773,437949291,438117934,441064421,442750869,443481850,456953784,458977269,459558975,460382227,466346539,467666147,468799321,473560721,476572009,476747411,479265576,487668449,494822643,495551277,495820944,497088458,498289673,499878475,502911594,507478181,512399227,513000850,513684250,513973025,515069343,516098220,516727461,516739771,517044608,519196502,521461066,524193526,524990789,526429068,526582230,527704519,528150881,530253346,531130611,531646605,534788475,539961773,540440298,543564858,544720682,551426080,551829993,554463798,554574220,554839838,555350970,556290673,557036879,557540563,557898920,562417447]}
{"user_id":275063516,"collect_list(fan_id)":[4554700,10628237,32108189,38212611,95973220,99171877,109430722,164682867,209201201,211206059,222463837,236845643,253335306,261108156,261405688,268264110,285254025,287811066,304717818,309452581,326632508,330322926,359442099,364437077,374943976,383104476,386801876,403824784,438446299,445358117,447724039,467091626,475197375,472919754,497667096,498341253,505625573,515014895,524823815,531655510,533843355,536531919,550354001,561979669,563181135,564069276]}
{"user_id":4166878,"collect_list(fan_id)":[6414857,47762664,349681686,393939411,469191493,486972589,491268110,518430357,528279673]}
{"user_id":122770934,"collect_list(fan_id)":[7613330,12175857,30606012,63363724,74585938,78705969,77606789,86370463,87523921,89711181,103179018,108625412,125043437,131795417,133362692,143978025,144085212,152419016,166431202,186761158,194597164,215212081,223406847,229967998,246640612,254484425,258388662,262592224,280839381,300654185,305205693,317967313,323573884,334413343,352657507,369329107]}
{"user_id":234996666,"collect_list(fan_id)":[7862477,133802061,147110615,152604527,162744062,163798008,166793856,185520124,187631172,188476408,224290240,225704490,227185583,276793668,281621936,282046975,359149323,372993816,383485423,383593741,564297537,565719567]}
{"user_id":126212258,"collect_list(fan_id)":[9046451,56780184,518616346]}
{"user_id":102994068,"collect_list(fan_id)":[10368978,21783840,25556499,36552377,108427432,150250337,199893108,314858489,360784808,444419932]}
{"user_id":3837916,"collect_list(fan_id)":[10588610,48812299]}
{"user_id":375153598,"collect_list(fan_id)":[12207024,116003718,523097943,530168391]}
{"user_id":81134285,"collect_list(fan_id)":[13400887,43007954,51800434,54776973,58954611,65909894,80751177,96575132,99299557,117293607,140842937,141037207,142123902,144479458,164141505,169747312,183022432,183884835,190840096,203357170,209162712,217853899,229650657,236615507,249022947,250742378,256602183,269403535,271746675,275956624,286055716,289116241,290937486,296834374,299126582,300941165,301574525,305760756,307914996,322996352,330626514,334611919,335712392,340996139,341978502,338167983,345561014,354611280,359631075,363683136,368401007,372169359,374463065,376089936,377910340,385869276,387377588,398065172,404446879,405906883,407908817,432432697,433625544,434184285,434724365,436766274,437829334,437930798,446121271,449952714,457243811,464719089,466474460,473335550,476057759,482383263,483403022,485016096,491129846,492413631,492886226,497666170,497405587,508639403,512899855,514038213,514342959,517077965,519212651,523238426,523350211,525487466,527930121,529511266,530964368,531144153,535036324,535265363,536199011,534111560,537249499,538704614,539274281,539911013,546974271,553708010,553833596,557037473,559351271,563143934]}
{"user_id":146995680,"collect_list(fan_id)":[17535900,21486603,28511784,32259158,33402681,36522035,36871567,38186813,63846804,70038628,76362556,99649835,110509280,111601575,113600551,118494483,123494921,133794978,133850692,139455743,140299187,140940219,143787030,145606128,151882177,152021454,157359245,160603086,163452519,168980908,170557914,175954007,176136308,176850570,180545308,181253587,181656031,185759790,190549989,192778368,195721999,201047673,210844880,219096593,219931195,224377172,232903772,232997102,237696276,239812965,239943613,245013508,245185599,246672700,254151256,259614473,263066449,269107330,269716501,271644331,272240196,277045830,278823870,281712903,285430366,296624757,301876008,310349783,318737743,323663082,324994354,336432168,337114610,347010622,353629746,357005432,362720290,363590726,363929434,370306140,373418878,373626486,409232035,423623369,427813490,429609178,435897030,442823032,445236315,454007265,454147797,460810598,465297853,500673511,510969998,535997587,544829047,546125546,547046575,554164594]}
{"user_id":477621726,"collect_list(fan_id)":[34366850,41826820,152997821,154059523,177275753,185731843,210388282,211705113,218113016,218206868,239126918,239841837,254223076,254259074,257837164,261400694,272649113,285772347,286230802,284962309,308882884,311208911,314755896,318146922,319995251,327997931,345527428,343013846,349637176,351329582,351349346,352639063,358829479,362507613,368151427,370119434,379972952,383633492,385454497,387197740,393248368,394607685,399889762,402110229,404244069,404364878,406463684,415017872,415133776,416702173,417074993,417412128,417503961,421101540,429306209,433256285,433385213,434285079,439363919,439903905,444389087,444697797,444709756,445769827,446194135,447825477,448097009,447168997,451070836,452069583,454482990,454882516,454950925,458002689,460015894,460887684,460895908,462691343,463795626,467129008,467900900,468178679,469166043,469256420,469549925,469816696,473685878,476533020,476999042,477224018,477453248,478086025,478478091,479255942,479881680,480631627,481000971,481507240,485160930,485588261,486349879,486827737,486870259,488509368,489377208,490617443,490775644,490998744,491198011,491804490,493431738,494461714,494713233,494819778,495051330,495817988,496002301,496133745,496618785,496940507,497106212,497439350,499525809,500389109,503003727,503263212,503620476,504814390,506416547,508333280,508560266,505394819,509721818,511463709,512014983,512700473,513604325,513924343,515188227,516044492,516552962,516594491,516713976,517264505,518081472,518444646,518773044,519317799,521055110,521413855,522629092,523439678,523907474,523986478,524193749,524392828,524844828,525168564,525890732,524303760,527902528,528406905,528564005,528981028,529672032,530297754,530662117,531128812,531494938,532171177,532192250,532949190,533718636,533984944,534406758,536235229,538016194,538428631,539459717,539665579,541703444,544936738,545195056,546340698,546980359,547384616,549385075,549527245,551046790,552403012,553117720,553801799,553864180,554429528,554813926]}
{"user_id":14937012,"collect_list(fan_id)":[35921064,45300505,58294460,100404625,178052799,254153310,314302234,333708394,389570883,389828458,512585499]}
{"user_id":333504336,"collect_list(fan_id)":[40391644,53732224,96114052,134929328,142392134,162764029,169913581,216655584,289912254,304821225,385515644,385648882,524301179]}
{"user_id":300643768,"collect_list(fan_id)":[43845155,76457266,88822700,97812391,115996244,136449506,137467790,144390184,145840218,156985624,167344437,170469939,172617887,175320188,176764523,180161249,186234192,186710867,187736386,193991286,220939765,226749843,232892918,281495473,321185396,322398835,373245956,375406403,379397920,483680061,488515525,488797734,520364104,547720192,554284748,559000362,559178743,564170809]}
{"user_id":306022875,"collect_list(fan_id)":[78496739,98286037,161127517,169799267,171876624,174995203,210493240,225122421,255766632,252263681,256348784,278608855,293851666,306500970,321781848,333600176,334645910,339427602,347493108,351088630,356915616,358140014,369206556,370722042,380349073,378714288,416096958,431545391,451364832,455713829,471587507,473100375,472990908,489640116,516890958,531592346,539912500,564006293]}
{"user_id":78919939,"collect_list(fan_id)":[132752454,170113072,415401389,502697517]}
{"user_id":351295332,"collect_list(fan_id)":[138927181,180719962,224949976,228365046,235912630,268814004,274833912,290812853,296627670,333131922,356695948,374449346,395068602,442000828,541272921,542208523,555876471,556167020,556294010,559457799]}
{"user_id":356436584,"collect_list(fan_id)":[150301019,211312617,214156256,249003045,262256369,266564781,278915421,295902269,296651303,304943351,312378303,343565227,346026044,352370529,361810675,369764412,383811172,397121786,418277249,431345656,437955562,440570307,466405078,472431217,485064019,496626543,498011512,503708491,507105390,532498464]}
{"user_id":547280692,"collect_list(fan_id)":[150314445,410906550,555418364]}
{"user_id":225190300,"collect_list(fan_id)":[155939931,156570842,157375395,171138739,200460498,218209701,222932799,223104483,269469447,277115846,284371055,297230005,313255773,323168887,427761098,540889752]}
{"user_id":362149619,"collect_list(fan_id)":[188182379,461882017]}
{"user_id":24863,"collect_list(fan_id)":[254939650,306910400,355049874,373452132,379839923,382321613,394425078,407779848,420436252,425397500,431746270,432901897,514897337]}
{"user_id":62001364,"collect_list(fan_id)":[535851031]}
