{"user_id":1775481,"collect_list(fan_id)":[38333,94018,302122,336987,369464,463405,497990,879242,1327460,1380312,1660587,1830805,1859392,1862722,1982457,2307771,3279473,3357939,3864568,4327786,4488378,5110528,5133801,5162050,5781362,5882825,6502021,7037056,7141780,8178569,8297584,10760770,11435541,19561772,20641362,27793512,27915848,28221343,28716852,33602737,35856762,39685404,42474964,42626300,44858233,46756122,48098776,50768979,53248543,57475152,55623794,58666385,59691111,69749268,70004222,70538779,82608223,83335064,89447785,99029139,103364982,104186182,107942044,112404764,113566185,121667969,118641414,137560145,137860658,141326177,144145465,146688654,153744742,156067790,158089927,159901513,159947851,162505155,162670673,169284147,169421167,170651962,175109409,180155612,195387696,202760740,205364763,209038303,228342776,233868074,243006299,246752416,248238969,255719162,259630351,259816513,265324579,280263116,285194610,301918483,306115027,315584770,319812374,398360553,415432824,430750568]}
{"user_id":5865215,"collect_list(fan_id)":[3672,4162,5402,5535,6371,12773,14105,19430,24224,42159,51630,52595,56352,1073,117328,148758,148841,276198,294968,354103,354346,393900,417900,444104,455547,467342,472588,491922,523878,540115,572226,574291,575703,580263,591399,685046,766924,775454,782971,784912,844792,917461,937510,960008,1039054,1108346,1160686,1193928,1235736,1245670,1282058,1394747,1196320,1426744,1442423,1484460,1634376,1665306,1678205,1680631,1797394,1848729,1911508,1953837,1980384,1987810,1993636,2073641,2078106,2292527,2376327,2490329,2539850,2569658,2598104,2664066,2785885,2853599,2973212,3027987,3246553,3413722,3514538,4124371,4290774,4407395,4708683,4957113,5021288,5180795,5343809,5354041,5408306,4846693,5640547,5713280,6082120,6254817,6332152,6385008,6764510,6859946,7075050,7112925,7214263,6676801,7620110,7768404,7841652,7885616,7929562,8119407,8228165,8379723,8890597,9724008,9853904,10785233,11332859,11449487,12658471,12689476,13392228,13969822,14229327,15077137,15138774,16257045,16596211,16695702,18686155,19583109,20259461,21037296,21315418,24524881,25490460,27920466,30917247,31377150,31595666,32044898,32641557,33936269,35407314,35688858,36815852,36887393,37683681,37888842,38210292,38930562,39318485,37310772,40886009,41075891,42425437,42500110,42925727,45666582,45705829,48021401,49289055,50266504,51059881,51117867,51887696,52420634,52866554,53505723,53687922,55052165,55651934,56197424,59241971,59521635,59743672,60030883,60344440,60959826,60422829,64884274,66485006,66952417,68743959,70157295,70680402,71484155,74961433,75504498,77536172,78369640,79513184,80156987,80272973,81819286,82268077,82549980,81166011,84792533,85726376,86281284,84511708,86842679,90947917,97631800,106173709,112655128,112952719,108790638,115607903,115759740,116863923,120903775,134328939,134364225,134482877,134949334,134989668,135816229,136642798,138312466,138472983,139710816,139973246,141803445,143494410,147746455,147767052,148106174,150448739,150517022,150614176,150988288,151292116,152048864,152217579,158439416,159035994,161637871,162359429,164433031,167586287,172463787,173932424,173951045,174390122,174846386,175491974,176644194,176840581,179663255,183308273,183891719,184850539,184986411,187442035,192437829,194935494,197150339,199378729,200931583,201775775,202042231,202182665,203235516,203860430,205364660,205936855,207734296,211261134,215119710,216896356,221158190,222450990,223695969,228331971,230151616,238170092,239880056,243606743,243624877,245162751,246718496,256670327,262158295,264845678,274053412,275749247,277176117,283128671,283966768,284787751,280429757,286804617,288691701,284913299,290754306,291642767,293736559,296032194,297297691,299219015,299666830,299915872,302564740,302656443,302865450,302940418,303412447,305555397,306145567,309267489,309675052,315983275,317041211,320724929,321947093,322726885,324028816,327010550,327584966,329160716,332908114,336746238,346687603,347779664,357883427,367676364,368415694,369070125,372153556,372349554,386852856,390073482,397554792,410401614,420911128,426224881,432950283,434289627,444983302,445045318,454552936,471123747,475208903,475569830,480307585,484400069,486634252,492419880,500385943,501444914,508820685,509109325,521810695,525007555,526541600,564301319]}
{"user_id":7500556,"collect_list(fan_id)":[2813,8109,56945,77485,87558,106430,184952,211462,218135,219882,268335,309633,337430,355922,419129,472891,500900,526033,619255,627443,659931,716966,726645,748887,811574,1033877,1056610,1160142,1179176,1236301,1241360,1277893,1340822,1355091,1364643,1399322,1500299,1544283,1727982,1882001,1983535,1988749,2061437,2271221,2353526,2396953,2436100,2622358,2655494,2765080,2877365,2947701,2968028,3343053,3628183,3731477,4051144,4171983,4310576,3928781,4530781,5307572,5352441,5371565,5433333,5708252,5934874,6034097,6222037,6284431,6321425,6467091,7145132,7938450,8176943,8597209,8606519,8748918,9082140,9172209,9229341,9628733,10507901,10672443,11658219,12314968,12866549,13047227,13676071,14488597,15163621,16668090,17035363,17281668,18142572,19127658,19143250,19634667,20223460,20473997,20603682,21017648,21470720,22054489,22566367,22683606,25081122,26025548,27093235,27789258,28197437,29409630,30112060,32392880,32462633,33832407,34421592,36738465,40207802,40625969,43709041,43738002,44500392,46847855,49125029,49238244,52189107,55747090,59815403,63928102,63993649,64314576,66065638,68968438,69199497,74171964,75651040,76493649,77538271,77853783,79977773,81274235,81347245,81228918,81249413,88293012,95613265,95682204,96111243,102114274,132956821,134409686,135457336,136122052,138038021,143571840,155386350,158206276,168512882,171300471,172346833,179472297,193302570,195940305,196556099,205696644,206752156,212257184,213659634,222310913,230594990,231518897,237034565,244901569,259357286,259468201,264426311,286880298,286882287,301651353,305526303,308434019,316147274,323340945,327812521,333130121,344232047,350681291,360528022,367579006,374690478,378617296,413569211,416180005,437103518,469640206,475402893,477984539,488319880,491279780,509746375,512508345,516783749,520500760,529026325,526679289,529762695,537055039,547490628]}
{"user_id":15698513,"collect_list(fan_id)":[56078,113070,398392,2547986,9180798,11373687,13328824,13742703,16782557,21571296,22084403,22496005,22527088,25034884,27089983,40801033,41718495,58614120,62669552,73300948,153762344,170671147,222787432,456584025,516305844]}
{"user_id":82812063,"collect_list(fan_id)":[12825,14662841,53321058,66910381,262380382,275382505,352249680,415392051,415403198,476901740,476989489,536061200]}
{"user_id":135414509,"collect_list(fan_id)":[53718,90782,109004,341403,425861,609244,1353092,2002416,2581973,3359252,5457708,6315940,7477169,8534829,12426054,12319689,13373616,15983776,16740862,28060447,45695581,71368719,88180973,95639484,95720328,96417722,97774641,101639233,108608629,117985587,125573699,135470651,150237848,160401816,164357117,166250310,167910353,168430950,171634272,178523288,180848571,184846720,195467963,195685879,198769366,201605991,213498843,223215859,224135897,227752706,232313194,253795043,254528204,255839935,260829692,271773894,299097491,331043565,340425138,346907314,379749069,395966366,403800500,433992211,434999447,436623666,438792897,449003487,459043144,468076985,475368433,506626322,513498230,523264433,537565838,537577120,559648759]}
{"user_id":164341299,"collect_list(fan_id)":[14195,70536,95403,120420,192993,239909,259522,276228,278528,374823,434802,513276,530612,533508,568200,575388,593432,629571,794959,892265,911475,1204505,1417992,1551942,1555483,1573227,1632806,1683783,1800049,2242806,2530946,2837526,2838510,2968028,3086293,3167665,3883842,4109501,4164517,4165837,4290115,4393194,4761980,5230018,6361594,6371936,7658871,7700185,7799019,10051474,11589310,11885444,12922051,13884167,17333477,20567422,19850346,21361467,22668054,23358411,25279822,26368855,26781784,27803925,28042674,31207234,31256436,29885219,34700402,39594309,43434538,49831127,50064600,50242942,50849555,53247539,59355097,59905037,61381700,63277215,65041010,66344096,66527910,67631550,69966587,71602430,74249181,75697767,76274618,78961214,85464202,86163288,99043082,100484026,101597480,101822925,104230580,107098953,123580423,135415946,141101104,141625048,143116738,148154413,150966329,154103420,159306785,163948265,164820965,166676085,168264454,172548557,178417557,190576593,192801208,221642058,229577837,270673671,286365634,339981318,367656695,386413536,391387315,397943137,442270832,553780692]}
{"user_id":172825417,"collect_list(fan_id)":[2813,10988,20966,25461,50264,56154,651,58972,62355,66383,69008,74108,79979,83383,85619,89434,90151,99698,99714,110319,117567,142190,147398,155220,159703,167785,173334,179730,193522,195077,199048,199701,208125,220485,236029,237082,243259,244691,244796,253361,261421,264177,271014,307760,326795,342701,349497,354124,372130,375841,386061,391980,402995,406112,407527,408433,408989,409923,443027,470481,471869,479985,482548,496401,507191,517134,528892,532653,541199,549590,571587,573408,586106,594181,606851,609385,612028,624906,625416,637797,646463,674387,544228,724069,745833,746605,750778,752659,759393,767741,786885,790784,790999,814992,827094,865744,869226,887681,919812,928539,952540,986192,989076,1003324,1004862,1016890,1024427,1077221,1077603,1082609,1089839,1091948,1095237,1134881,1136627,1149303,1164813,1166343,1189842,1203681,1220719,1227412,1229996,1230134,1232783,1236508,1237482,1240732,1244237,1259213,1282805,1286137,1296372,1331527,1337280,1345420,1371399,1198089,1410189,1425425,1429134,1458344,1461645,1468136,1475334,1478223,1479774,1482537,1555392,1589400,1604766,1650031,1672242,1692863,1696955,1702616,1723103,1766363,1784247,1843958,1850957,1857009,1870788,1913190,1975714,1980954,1984183,1987032,2010302,2010664,2045247,2046601,2085927,2088056,2106279,2106879,2133487,2137689,2146229,2255648,2291152,2313158,2313432,2353019,2365879,2370532,2370730,2407401,2447349,2458688,2192446,2489319,2514670,2586592,2610425,2632548,2655204,2728411,2731883,2772374,2803821,2816009,2831253,2883515,2912552,2915652,2946822,3011130,3051107,3071746,3132835,3168172,3197313,3343999,3551675,3551839,3583797,3634924,3678846,3689972,3700540,3713120,3713425,3747185,3768848,3777103,3806306,3878455,3891351,3533425,3953341,3988610,4005827,4126911,4140855,4240568,4252792,4340781,4474906,4485979,4501525,4609662,4696280,4737301,4757220,4762240,4798621,4867907,4871822,4877721,5110167,5153865,5202188,5206609,5210432,5245608,5384885,5388162,5521294,5618994,5627220,5808619,5880342,5901813,5918144,5968876,6017553,6041100,6111440,6116295,6143907,6165850,6235817,6299997,6339717,6363025,6477392,6580162,6743660,6847361,7056780,7078769,7092447,7271766,7286339,7310059,7443075,7636732,7837462,7976927,7340873,8077580,8679432,8807334,8904440,8987524,9017923,9154675,9159771,9160776,9696480,9803309,10126047,10661436,10775280,10833720,10963645,10968727,11038645,11075132,11517272,11665097,11733691,12056852,12267043,12310571,12431954,12656363,12742260,12825947,12868867,12908993,12981528,13066071,13712625,13845909,14219958,14223889,14319866,14538824,14778877,15024668,15334201,15364980,16020484,15423718,16779916,17172266,17526035,17639563,18226101,18727588,19055931,19533747,19580752,19684496,19764497,20109851,20861469,20918785,21187680,21332923,21575179,21777126,21859420,22124733,22322170,22662584,22838380,22872342,23068834,23428008,23507846,24176809,24230849,24581391,24634250,25278380,26219592,26304116,26620255,28092738,28731861,28819749,28984458,29059625,29559530,29746961,30617861,31434318,31515704,32875804,33116845,33462800,33598115,34861209,34961035,35025729,33484049,35750838,37281427,40620566,42115029,46454281,48427009,49137148,49600253,50548368,51442506,51498753,52024785,52243791,52572506,53680527,54640377,55258725,56934445,57004678,57222128,57245276,58207343,58950003,59876412,60647475,61468313,63252763,63413489,63511956,64709779,64764028,65241660,65303505,65544591,66481300,66926215,66936218,70039893,70472120,70566004,70797110,72551097,72898838,75252850,76591033,76739619,76975546,77079604,79045452,79260707,79317958,79435568,84090038,84557066,84579272,84792533,85155473,85312219,86099379,86268693,87437171,90536276,91182293,91987152,91997409,93032081,94542782,94753433,95198945,96243136,96415750,98955491,99841144,100868293,101180897,102114274,103046308,103866608,107154507,111152904,112900765,115530392,115859686,116943846,117620632,118511547,119467691,119866844,120762691,122559891,123038056,125877407,126615988,132270058,132551385,132844468,133051876,133931469,132455878,134275439,134369650,134807653,134938662,135400017,134142513,136101504,136927548,137501428,137839808,138701298,138765432,139111526,139622465,139812917,140144129,140260796,141442193,141926783,142865322,143036724,143321559,145694244,147023776,149051412,150071426,150475549,152966885,153593603,155231412,156547002,159261642,162439596,162694817,164355029,167518506,167541491,172714891,173399173,175974278,178320599,178493115,182981983,183134581,183748452,183823617,184256845,184718146,184739745,185028389,183544758,187355147,187752029,188101065,188386127,188463796,189783411,190421696,190930942,191288087,192301065,193273327,193360034,193533077,196059214,196186916,199718918,200897238,201719555,202298995,202963027,203462150,205043768,205076503,205474895,205734529,206281509,207105085,207502922,208336026,210713679,219097562,219343469,220336705,221786066,224270561,230015065,231562657,232035841,235903686,240641828,240675217,240960983,243070950,245240249,245480050,249029804,250724459,251064227,252708311,252826291,254325577,254483363,267028938,268553107,268998545,269093153,272772031,274096650,274328563,275280367,278323973,279972630,276511972,287103300,289661248,291644130,295120084,296834816,299320637,298835702,304315450,309514789,315996617,319291177,319643526,319795971,323445197,328132874,329604952,332430977,333716188,336606655,337383373,340327996,341384770,353482612,354197420,367300975,370085668,370275738,371778901,379839143,380464466,382747908,384510174,384746882,385382244,394160268,396351462,408113093,413846372,414857253,415442188,415882987,417277476,417382144,424519612,428907759,432912100,448292697,449959857,450388884,450939177,456903241,464364052,465544439,468387553,473959397,477100470,478492211,484537108,485543173,493812819,495498609,497220773,500639057,508762877,510087749,513950501,514677352,515011288,515387455,523158528,526243603,531622514,532859667,534365748,535243177,535269558,536550369,539203403,542536620,542991499,544964164,548176173,549076316,549525570,550249947,553294547,553761668,554201019,554214429,554240455,557634276,559002854,560535675]}
{"user_id":180715769,"collect_list(fan_id)":[20304,533491,608578,677441,5201193,15667359,20270848,31058611,50367494,52019024,54511304,61180695,77972803,90262108,102051287,112437445,133407953,135454155,135507696,145660569,161564410,167809411,189239927,192627218,199504321,336756041,337013073,349322888,371906297,442567744,468625356,522611862,529137010]}
{"user_id":1294704,"collect_list(fan_id)":[111676,162324,218580,533092,625731,743804,808688,1443568,1863892,1947640,2442143,2949527,3810666,4520704,5406466,7297889,7343033,14240400,17331920,25797481,31884063,34206698,39854156,50602680,53168604,53396125,53403712,59511401,62594349,65913860,68558949,72322916,78994602,81022304,81666699,89582906,90779098,111279020,115208573,145155188,151989240,154464030,156224000,159395060,185242696,212574176,219564585,221720605,225158891,252804869,254657831,256447414,269103933,277485467,285339607,287406974,291530658,292069947,320889213,322299320,345480421,378029085,381904733,394113728,427824434,497860464,526468584,529132234]}
{"user_id":31658972,"collect_list(fan_id)":[128698,3998493,3927655,4700848,5338482,7918037,7985737,8452937,9267020,11232985,13221751,16448394,17480040,18740433,19678121,20498886,21832332,26126981,30379542,31301101,34258411,34533048,36647558,36754159,36763634,38543820,40639253,41825722,43560540,50336553,63277053,63409664,67953544,70307187,73535027,81557931,83287365,85322019,86838193,94805428,113946888,124359681,132774760,133832111,134347125,136724390,143126007,156591107,164304715,163446746,166712555,217737423,220876557,225190841,235847211,242224428,269167461,284606013,350362524]}
{"user_id":44067501,"collect_list(fan_id)":[58961,1013041,5491460,6607948,7695318,8023666,10064570,10746513,10877141,11850175,12288135,12909825,14338586,14951201,15296132,15358536,15656530,16343536,16381428,18763359,19243249,18630610,24512921,24544597,28501083,32919498,34413792,37346490,41379982,41944558,44900518,46807975,54943304,55134672,67725320,75814260,76560995,90071997,91988277,98253703,106602391,114308503,120063162,124873526,142523174,145802124,146201752,146710098,147085582,147467469,150198626,152579391,161040352,164644927,170764962,200326522,231656223,233773631,260413174,278432918,279188363,294876711,302047294,320808327,353988991,367199209,399217046,404075148,425645692,457047658,482404499,496227822,501592428,529520842,536585979,536889752,542101823,553926277,554982687]}
{"user_id":134032374,"collect_list(fan_id)":[117255,317014,436227,561115,1047212,1237978,1412534,1405516,1753233,2250263,3104566,3773752,9526525,11578584,13801319,16746729,22566591,23133954,24300766,33742912,44928997,58548475,132831192,137542950,138689644,145273574,168747430,173302183,211707116,227934878,273521878,278249654,408547630,413914041,408858951,431501873,509750822,514981053,519589677]}
{"user_id":524656784,"collect_list(fan_id)":[72723,13920460,24679647,30408170,50185099,159176260,167627470,182447232,183587376,333712804,360044201,379684101,389709377,430080595,464837922,471933764,491962037,531682108,531707777,537139223,538323811,544513715,546946834,554674589,561238856,563249725]}
{"user_id":745398,"collect_list(fan_id)":[149156,582480,1039879,1326384,1394443,1948622,2020678,2368015,2456007,2521991,2550579,2562539,2857406,2863503,2941108,2974794,2983850,3209119,3278099,3393321,3479282,3629133,3665221,3716980,3996262,4058789,4266653,4459543,4585913,4923796,5052743,5073410,5651916,5938711,5943809,6083931,6315932,6485688,6602784,6908492,7264087,6665326,6665523,7827273,7959567,8064520,8064651,8066735,8326271,8790083,9025026,9531904,9647072,9648914,10131576,10509903,10869497,11130744,11189102,11240000,11744448,12303023,12691917,12712326,12870274,13394482,14699392,15532921,15593794,15752328,16362969,16654481,17164754,17455553,17508748,16527601,19787340,20087397,20195604,20448160,21100630,21434276,21555415,22180169,22381678,23607257,24825319,25020329,25079069,25360722,25505041,25529125,25759212,27330260,27406006,27500874,27799316,29097778,29288432,29840692,30266427,30393169,30530965,30686838,31305838,31605809,32195636,32275653,32994384,34300768,34521331,34644268,35377116,35697869,35716869,35763911,37126219,37264668,37934939,38690404,39087071,41426186,41430326,41608424,42509821,42739708,43656891,47655427,47662490,49594231,47101447,51126113,51145499,51510040,54162729,54323432,54374200,54523955,55883616,56426761,56698932,57200589,58169050,58698160,58751555,59103761,59736233,60027481,58048377,60638323,61776482,62231271,62337923,64361884,64836425,63143797,65799721,65947046,68610023,68798794,69232181,68248223,71600345,71673822,72075985,73448148,74518458,76322779,76605777,76622815,76993110,76995423,80240807,80279854,80431967,82857083,83546960,83704912,84547346,84660995,87471272,87679297,88219779,92430273,96734139,106226815,109670757,110470451,111030692,111847607,112614865,115214236,116006517,116983768,117159398,118306784,118593579,125128531,128533076,132265366,133727147,133832004,135148864,135160575,136725163,138475807,139841209,142785598,142815171,142870605,143353244,144020883,144473340,143091664,145330066,146366540,146980249,148531655,150728880,152277789,152769582,153145592,153798402,153869961,155500623,156401980,157466197,158333156,159158677,160239471,160591023,161341625,161586081,162668299,163979516,164823579,165837739,169451424,169537065,171490087,172319746,172868536,173016150,178922414,180047330,180296528,180640116,183482555,180883510,187156745,187706848,191369888,191894672,191936320,194901832,197944446,198348327,199473368,199498608,199519268,199672015,200931147,203635999,204693172,206694025,208576991,208963774,215454994,217776069,219126696,221629764,223492077,224569800,225120128,225919618,227723809,231884404,234102524,234688824,236888297,239054768,241205686,244766560,252860067,255013014,256707350,257520968,262529583,262534979,263016760,271111017,271391802,272488624,277520344,277733357,277970389,280294414,281327105,283919155,284219655,284461342,286592733,286661358,288517558,289758302,293256092,293448563,294936050,295367699,297739234,302049324,305286210,306239045,307499461,317149350,318041424,318575632,320223264,322348317,326399990,327632572,324945899,330894368,334391475,334950816,337801876,338784646,338938075,339051024,343382553,345988523,343016937,348490511,349018214,352761558,354349873,356163223,357196265,358100197,363138547,363462401,363788811,370901349,371832219,373851750,375281285,378566843,383427162,387225998,388716086,390320026,393856649,394645076,395339462,395917075,399125191,397315898,408481355,408767034,410465883,421556197,424760728,435934900,436348491,439682115,444474770,444896302,445826460,457877273,458589300,462416316,468992700,469026583,469390881,469621806,471075733,473735907,474611682,475710006,487087295,489189783,485961691,490168770,492356557,495376234,505334995,506477560,507656976,512504235,513548471,515033318,516017579,520017715,523472428,523830426,529885110,530583297,531778215,532645065,534800648,535470754,537414187,537990095,540297428,540434695,543781904,545562840,548062038,548439383,550102606,551733749,560503209]}
{"user_id":12971402,"collect_list(fan_id)":[176981,202376,342066,1254176,3068397,3474886,4724799,8351357,12549810,15965078,16578842,19485261,22330415,26277200,28573817,29778632,55147716,60231997,82609069,99516554,164251903,165750092,417612452]}
{"user_id":33235332,"collect_list(fan_id)":[142244,1852207,1624951,4691644,27163295,32443811,60746868,66807256,98752126,137795152,147496076,150294564,161413978,172225572,201920785,246185397,306027816,330449197,332081949,336625752,345876197,349872305,373029006,402160637,525607146]}
{"user_id":154003132,"collect_list(fan_id)":[177090,344291,702351,776632,1317315,1380013,1196838,1505781,2355610,4335350,4876696,6727882,7290527,11756223,15048130,16845156,17677780,27139895,32175733,45148620,47691183,62915524,217989754,235876837,238469075]}
{"user_id":1048979,"collect_list(fan_id)":[221786,338072,443816,463882,3042946,4252532,4422141,5283935,19094301,45377739,48104942,85395202,110926257,113748719,118270107,132764600,147365358,155317302,160505969,187044298,208796197,219686251,230662141,238788193,295367699,412073599,438614354,438411079,459643448,464770695,500273378,510797667,560856621]}
{"user_id":4097514,"collect_list(fan_id)":[217192,406888,468530,499876,502035,635259,699627,1091427,1169774,1331491,1486677,2135274,2293444,2317359,2374318,2405475,3088883,3107584,3484651,4411881,4416250,4507278,6322206,6479901,6489097,7422688,7482913,9489312,8739143,11063664,11523444,11687555,11821462,12590790,15424571,22057628,23725668,25338479,30296679,33719643,34342916,35293660,48104942,49654464,53282125,55079647,68984359,69523211,70620865,71077669,74430333,82418172,82663279,92847880,101751490,102006477,114162408,130808514,140666884,138952854,142809129,153345241,153710625,163848483,185731247,186958727,208804243,228444794,229964737,232951835,240497161,247804643,301197669,317556224,369828837,380116011,387366859,404645571,427826976,437761236,468554839,475516613,476157641,480277200,505254344,520808979,521617959,530032354,552094630,554804400]}
{"user_id":536967281,"collect_list(fan_id)":[266644,7801011,9416112,10637547,11862809,17925035,20798826,21805721,23425270,25203447,28675541,29326899,31744550,32765492,34886125,37772962,39674948,44927831,50963536,52053913,52720071,54604026,57495158,58842853,59244169,60073439,61254399,62659469,63609205,63771710,67579761,72496566,76143929,83400487,86116442,89564703,97344680,99817024,105391150,106606247,106664338,107305259,107758212,111465565,112329022,113390337,118467891,118931803,119255732,119577086,119741028,125084564,132047594,132206477,133357101,133389411,134108444,135795776,136682087,137098795,140046330,141727223,143949816,144848863,145171687,147215001,151203830,153286070,154051561,156808282,161201183,162425558,164212783,164991166,166076762,166465527,167228574,169310790,169616440,170993537,172895896,176721341,179192972,182412969,182929291,185327481,186983425,190861823,198537033,200970227,203760175,207612514,213368054,221170476,222806785,223060600,225834435,228846690,230251340,231964869,233484813,237568746,239854487,246390544,246963402,248795784,251486148,254341767,254504304,258620074,259170265,260726771,264414910,270056176,274646201,276331118,277171420,282890461,284107085,287593436,289328001,296659982,305378545,307880295,312489731,320451612,323216739,325511542,328590827,330215056,332444660,328698032,335127899,335757076,338546771,350921064,364046813,366781685,368565699,370096614,380780379,381509879,382188384,389948028,399496364,403928476,406664542,406682781,407411002,407843042,408123643,409351070,412767456,413357208,414415562,415630718,418237508,420500397,423977812,430957901,431782936,438948641,441892196,443258326,445531350,445583161,445594582,446110772,448678346,455034261,455933033,456637641,460270203,460643234,462106626,464871842,467984418,472011697,472022043,472127300,473169192,474639983,477973267,479680629,480994536,481171054,481233599,484223766,485872688,488089416,488390250,489281256,490078726,490249388,492341094,493111906,494350572,495658905,498635457,498713036,499240145,499751294,502355603,502654925,503266206,504794750,505250738,505540225,505932669,508333280,519168082,521296400,518850026,528698459,531841511,532562598,533067746,533841339,535714533,537480865,538060363,538750119,538904240,541682437,552527666]}
{"user_id":208637,"collect_list(fan_id)":[383696,1209170,1659675,2270578,2650299,34639814,54328098,139617583,156859030,298886516,298910784,331492783,388208902,450869712,503641125]}
{"user_id":71594135,"collect_list(fan_id)":[354005,517056,2893617,3820867,4525842,4603603,5767316,7242030,12126201,17912357,27285613,29406153,30135953,36065238,49737255,55629986,59395616,63508899,64301582,66015870,70587444,73967633,78412357,79315256,83588127,96416063,101336082,105460209,112613797,117814903,119940456,135772054,144169747,147954893,196961225,197320466,200618563,206609768,208403982,210262176,226028098,237679145,245139168,262794910,267132236,269900742,269940499,279148084,292542109,330270958,336020069,348547330,352201729,363541559,373235460,385518029,390559055,405190826,437827975,440443026,446285496,456140932,459345782,459709611,475627662,486409654,520036582,521570451,536707769,544869234,552590901,562644492,564107109,564543027,565024760]}
{"user_id":740177,"collect_list(fan_id)":[432259,923501,831002,1948414,2962889,57333137,66828175,181111095,224360942,249263695,260209195,324602755,331677809,353156422,375090208,386800977,419129830,437262924,440948219,449099180,484960309,501539234,518521778,520433134,526634564,531080754,538707478,538708917,542271082,542466552,543142483,543622950,543633608,543637040]}
{"user_id":5267543,"collect_list(fan_id)":[557709,617880,1596214,1728987,1968850,2052517,2645583,3641221,4858212,5304191,7591010,7702937,12106917,14606572,15607007,56640037,57363564,63643648,147134747,154803858,160036256,188319756,226404710,374648204,415392876,417283578,468675504,476988423,526751720]}
{"user_id":349717880,"collect_list(fan_id)":[797693,1541115,2502408,12713035,24750872,29869795,34754444,50673552,71401473,71734416,73104048,80299526,90039280,102657459,109410895,122038699,126768700,134194072,138366558,152659156,163558431,163926616,167040364,184912747,190656727,199628818,210354910,211526472,224416567,225726884,245756671,246756871,258310730,270138514,274200249,275130079,292271579,296075580,316369022,342470873,358134323,362280256,365746264,375269025,402970532,440637044,441454104,449130308,453578750,469474155,484113545,496756099,523532580,531398155,531824322,532155284,537822613,539125416,553897479,554932482,560201651]}
{"user_id":10902173,"collect_list(fan_id)":[931472,2901410,9602314,12882046,17009218,26185914,30137905,42234764,67947162,70513028,71392252,99174523,173679477,195854344,229375802,303841252,443075537,527843430]}
{"user_id":12125251,"collect_list(fan_id)":[979544,1039137,2793655,3256100,3879492,4678157,6779789,8061261,11470796,11680904,11841354,11983696,12705291,13595884,27286469,29857825,28283139,30761010,31926481,41393346,49027627,54063867,54660535,70950411,74611382,90059079,94830067,134559271,137714535,139826682,147158655,161995640,177635273,185944832,189177010,190927983,193916677,195452004,197010282,203867254,205438450,214882192,219316778,227810941,239815384,244946129,258193509,267732282,268918944,280297131,282292691,295824656,298434471,310148797,318285019,330501444,332677153,414566537,420386310,420529355,433370703,449982715,456483317,458129711,468337285,468660126,477082338,514718164,521305355]}
{"user_id":208583221,"collect_list(fan_id)":[872080,8038198,49668193,197335382,204739341,218197913,232134263,247039096,358273957,385003314,390484428,390615289,452968671,479271658,516773580,522480573,531386700]}
{"user_id":144756274,"collect_list(fan_id)":[1283271,1516931,4521699,5366757,26253794,30428795,31133080,38891503,45062417,63600254,65350924,85262402,89682083,111606078,132556480,143978159,150810928,152246531,183648572,183898463,185886123,190473549,212621667,219774398,234857116,272639439,302766904,308028485,336052086,356087424,385588353,394684432,403393306,409055631,428366223,448307304,470004720,470685147,482375727,509696974,538499086,541056353,550503456]}
{"user_id":469748984,"collect_list(fan_id)":[1209137,3532180,3905746,4306871,5286186,6325053,7323663,11603843,13118507,17368191,19237648,19496174,22341676,28731861,31197688,31327822,31601025,32340877,33100538,33466186,33954929,38156330,46796101,50253154,50305227,50969205,52221589,53394429,53641306,55489319,55578835,57184377,57770677,61030991,63730784,64377136,65052074,66362531,67430925,72668678,83358846,84744885,84823329,85418946,88875065,89524357,91727995,96751612,102637504,103919395,105011234,107386412,110394343,117799373,127310456,130868586,132944556,132986788,134278382,136596093,137812485,143116341,145255154,146031950,150879167,150914861,154502040,154572605,156188528,158552114,161484991,161587360,162358863,162485596,165699066,166988351,167953349,171800016,177431096,182400440,183197453,183428797,184764171,190739505,190878950,200798993,201182522,198305383,205459278,207594804,209427546,209480223,209480393,210501763,211752303,213336172,213737734,217586845,221146682,222861858,222940703,225161382,226148262,234788934,239368286,241699692,248967595,250008182,250768537,250888623,254452469,263946921,269464806,271414067,272942765,275707922,278340938,279265863,280961278,281996052,284797369,289784926,289838950,295124851,299943789,300781439,302960775,304096921,309701299,316124919,316438909,318235624,321788205,322296091,331034368,331152770,331492293,332085510,334466086,336141131,337996821,344857422,345789040,353352893,360723726,360732862,360927994,362941811,363067634,358457337,358508476,367709131,376878957,378316132,381251976,382692821,382758190,383551826,384312481,384819902,385590968,383206719,383256069,390734778,394195266,392507755,401305118,402546303,404597936,408688844,409534768,408871387,419545672,422132497,422381356,423861886,428952332,431113248,434580001,435862580,436004849,436880490,436922729,442497377,443542849,444989492,445738277,445748966,449113312,449384740,449723094,449792810,450723603,451744996,454948432,457121826,458907438,461117035,464006051,465562795,465898055,468978802,469834141,473200284,473502654,475401775,475564737,477650043,482127905,483494563,484672961,485584532,487425299,487742755,487848889,488789533,489582710,490349558,493815474,493928355,494795782,495191668,496178611,499150493,499931596,500162029,500964076,503982542,505252732,505823281,505863819,506332616,508967579,509680936,509729784,511325542,512186391,512353379,512356978,513343577,514915170,514947773,516455134,518421676,521719158,521992030,523358029,524015805,526119309,527050984,528899429,528921625,529533314,531349803,531973111,533905975,533912556,533942690,533972353,534910254,534930806,535029388,536183621,537467938,540686850,538888041,541185665,541443571,541866667,542239326,542390814,542809106,543784209,541119886,543895267,544693397,545375294,546468141,547853581,548552059,548574845,549399017,549485468,550294567,550419992,550423349,550857743,550872085,551103250,551112747,551592266,551610157,552943883,553049603,553588021,553945867,554317124,554328141,554385332,556260065,556898615,557001675,557683850,559547498,559792457,559810521,560615751,560860784,562278984,562756253,563737724,563758305,565619869,565661121]}
{"user_id":153290181,"collect_list(fan_id)":[2324615,3144680,10800976,15047022,17162096,17179207,17534208,18829868,20785470,27233867,29350418,35826927,41701197,48559831,53367694,55076795,72692502,88470109,94654639,98991879,111040144,121480627,136760163,139525432,157632113,170076478,195523958,212190529,223817143,308454262,338738854,361776690,382276519]}
{"user_id":19937081,"collect_list(fan_id)":[3750708,4301028,4407983,4551647,5550791,6860174,8254425,9519251,12929145,13598329,17411882,18096983,20119032,20469314,20673375,22536730,23112173,26914710,31067900,31795984,32755963,33602737,34178542,38965248,51054229,52460071,56489067,57899071,59370670,61233004,61233923,63498185,65692614,76507611,77022542,81449514,83506391,87811992,89141835,91472716,93749480,95752643,98401887,100292523,133589649,138123339,156581400,163828073,166845468,171328055,172962494,177493609,180982550,183330810,184125939,185727468,186184303,199950837,201501753,205852482,212112103,217434792,223146218,228308344,253304462,259684392,311874316,334123225,379516582,475409647,477501345,531121358,552687113]}
{"user_id":175090628,"collect_list(fan_id)":[3725785,5786133,9235368,64022931,80428273,80985354,93030185,95620955,96436942,96825309,105770084,113529888,113925158,137867080,139773169,140890797,142886843,148258672,150968391,152526102,154117624,160725018,160885717,161320743,162074584,162601937,164211211,164820965,166118669,172560508,174258762,176543406,177490800,178700733,179849979,180332712,185104063,186170969,186183759,187631641,192165990,194010872,197526072,197642104,197964164,197979511,198709265,198982918,199320132,200868457,201401234,201430269,202452798,206710797,209914646,211128199,215572427,218310717,220500870,225255940,225353387,227534305,227846947,246038177,249444981,251712143,267390069,268714305,269972244,284068451,289414242,301335330,306633973,311288891,316232815,316375704,318384218,321526888,323598521,323731133,327392222,329137987,331445814,335977768,340661321,347253590,348683790,361768394,373233584,373632362,389628195,405373818,428426993,432155900,436080203,471702120,476901214,478409237,478748601,500896539,505107264,510172349,529178053,539422762,542627839,555170932]}
{"user_id":308811523,"collect_list(fan_id)":[3547012,10512029,11552486,25608280,26839726,34905174,43019821,45383208,57907712,65182079,63128291,66674666,93893402,124337455,132070238,134759466,135783790,136617130,138989049,141758865,142806087,143606817,144359502,146701882,146722508,147355017,147554251,149592317,150506331,151673192,152374486,154707071,157661206,161833989,163069430,163801761,163870470,164581476,164730974,167320788,168543993,171353895,171911197,175495018,177786695,179286988,180408140,180515497,181514706,183869628,185537890,188779563,189523394,190140915,190947463,194585212,201418944,203689207,204946081,206810962,206928524,209342006,209754082,219570172,220831834,222542923,225166813,229602615,230251445,230315571,231612154,234233086,236626025,242056919,242538533,249469690,249866329,258946327,262609331,267693516,268308422,268485941,274789155,280755689,282840913,285292631,285366176,294465229,294855516,299673352,299950083,304879335,306140945,306770898,309405221,312037576,315468425,324817604,327263277,329746494,338302319,344469559,350952915,353702445,356950855,363395502,368045599,375069451,384887551,390637285,402944325,408288119,423439541,425439454,428683565,433751051,438989189,442979407,449485091,454868760,468469177,479316324,487712333,488139965,493634811,494364582,504768916,505155061,519086854,522955704,523715363,524027553,543514007,548219525,551343865,553946714,554843600,558733129,559184536,559223192,559251392,560381351,560976800]}
{"user_id":263510095,"collect_list(fan_id)":[6952897,8333903,13076313,16209575,36347977,42905373,53599580,59069800,66477363,70711783,151707399,157946824,171324397,181086452,185509760,207730848,218413701,230096125,248766951,257912916,260308752,278464122,280620504,292823153,293595212,300208685,306365750,309598232,323536244,323658349,328894359,329112852,331133792,337886785,340670467,341434892,357945051,361553946,374513032,387075774,400904882,418162227,426010783,435333596,436227160,452361898,454593772,456203671,461048638,461852119,468789708,474788601,478434547,487828749,492322140,493815175,494882539,496708326,497183504,498488857,502540701,504676257,505692371,506338456,508064619,508360824,511615228,512793048,512806345,514486819,515011076,518035643,518561735,522047030,522282234,522480573,524496707,525960347,527404798,527966760,528785093,529591737,529850244,530363921,530805582,530921245,535160139,536077189]}
{"user_id":325235958,"collect_list(fan_id)":[6795415,9889200,30212712,32092140,65527471,81559402,87403120,96087942,101947519,145227165,164301077,168349354,170496980,181064324,182767312,199782475,213271037,221558588,231248005,238352584,248035443,263534819,275832908,296471880,302755027,304127865,336888530,340666073,341363158,355558064,368729529,406608542,420378858,423119472,425453559,426062051,457564969,458506820,478390292,481186751,486072871,490285256,504814437,508786682,525307461,528564832,531749117,531957246,535476298,538791005,544474410,548011180,558768801]}
{"user_id":173361073,"collect_list(fan_id)":[11788659,15563464,17661732,58096289,59826058,69902486,73288432,80444724,83335308,86672128,93250917,94466655,97983245,138095180,151190613,152224470,157811315,162590974,184870830,186714782,189040506,239933186,251621860,255734406,267697550,272046130,283814279,313037107,361646545,374761477,387209911,391887300,400349420,462877964,462962592,471666257,483424712,496749015,519563484,542210565,546629346,549155103,559892361]}
{"user_id":37008434,"collect_list(fan_id)":[13202005,31326524,104883235,244200949,423523386,478226365,546161383]}
{"user_id":223515151,"collect_list(fan_id)":[15240737,17622899,63600863,167066421,168864929,177175431,179010092,187823649,196432729,215277161,222451927,222995877,224083439,224595910,225747680,227454485,227630738,229620510,230754114,235871819,250344734,252042661,252644917,269255199,297750844,325879750,326020032,331211083,338653970,339566156,353857316,363922049,364274760,381219380,394106091,435840683,438847248,444927241,480430308,492346492,510382386,518231927,519532686,522571828,532394319,539584262,542052548,548207976,549058817,554282152,563908411]}
{"user_id":476329848,"collect_list(fan_id)":[15270697,28857692,32420596,44292819,88803846,90230177,105114101,114191633,156659593,164268452,175065200,215933694,216895729,220239573,247746915,259526657,260073208,267341579,270891054,276620714,285515694,286024547,309759852,314716475,334413405,346054128,373757413,383246464,388622702,397078727,398679653,417701621,421046588,422216850,425043270,441382432,450898784,452273656,453068796,464425938,470186831,477877397,483727644,483772309,484215544,490693400,495828940,500795964,508374110,511231524,511520728,523890831,521920824,521988059,525831566,527617395,531660640,531668991,533472141,534625106,535225358,535267329,535267668,536244348,536506531,539584262,540462944,542254042,544927435,545415624,549622766,551667576,554482663,554854768,554981496,555133482,555365723,556230438,560615751,561771283,562756434,564546705]}
{"user_id":315166028,"collect_list(fan_id)":[15683266,48425188,99236608,174570314,212430035,322513339,465483299,517644632,533858546]}
{"user_id":148871241,"collect_list(fan_id)":[20168987,27499838,81981052,93178240,94888944,102440649,154125198,182008718,244474362,261158277,275475140,311731361,346431059,412388490,434689117,442405521,483747203,498015077,501986711,527165624,548178583,554905561]}
{"user_id":5716972,"collect_list(fan_id)":[21664721,27343167,46502803,53165486,142396253,469258889,512686259,549606685,560779226]}
{"user_id":194900497,"collect_list(fan_id)":[26435962,39575615,39609939,47683245,52042889,53110314,96218774,120211073,120513506,131658995,137041188,137286656,138014198,142823295,143831392,144717843,150511864,153743935,160637183,161878609,162195879,162760954,163864280,163440902,167867639,169401176,174583385,174669747,176104774,178675914,181431452,182723138,185990599,191597592,193409428,199462793,213892331,213896654,217566267,222171088,227128335,228996108,232421102,234252824,238653053,252180246,253672886,262622760,272875136,276436737,284037262,284485583,287833799,306818195,319159812,322235150,341012492,359991707,383136108,390410246,428234181,431308176,451781438,493071916,557809142]}
{"user_id":11337898,"collect_list(fan_id)":[27526323,523653971,536598916]}
{"user_id":143552834,"collect_list(fan_id)":[30034875,77903462,84178560,90277824,119691824,124477412,133192161,137803621,142802606,145094568,157093093,162756019,168630325,177245266,191074457,246162311,272291055,291598045,334819394,340350490,373038353,416914040,417443384,516987020,554159388,554165300,559436767,566283547]}
{"user_id":46745826,"collect_list(fan_id)":[47559656,310132676]}
{"user_id":139232632,"collect_list(fan_id)":[95671591,169747667,496391670]}
{"user_id":200761705,"collect_list(fan_id)":[100684549,183648790,260374310,272945910,285635860,407021581,407796652,412868329,434807637,467743045,502783677,509584964,509799061,523590435,524900477,528848640,543783828,546391279,557633555]}
{"user_id":211446691,"collect_list(fan_id)":[102786285,166764084,195781834,196854403,298730406,370930494,553176336]}
{"user_id":31858582,"collect_list(fan_id)":[132581350,150364316,259117024,294495267,300023797,317163272,364508384,393143747,425501284,434177654,454639553,469565993,491253623,508451317,524058247,534398859,548127545,553248699,557791579]}
{"user_id":288583526,"collect_list(fan_id)":[163034869,220752012,228263210,362648370]}
{"user_id":336622848,"collect_list(fan_id)":[386375531,498602660]}
{"user_id":87852433,"collect_list(fan_id)":[399524475,448695135,547182195]}
{"user_id":450212472,"collect_list(fan_id)":[453303612,481734495]}
{"user_id":825591,"collect_list(fan_id)":[506881347,546787941]}
