{"user_id":20484,"collect_list(fan_id)":[6392,68483,86467,149995,168764,290745,495237,752077,983054,1014968,1027895,1059386,7896960,11829831,16835420,26561915,32993619,39381534,131517334,295987859,308853530,365121793]}
{"user_id":22196,"collect_list(fan_id)":[17659,40253,44113,216017,1123258,1237535,2095723,2173710,2610889,8701699,12196688,16856103,18258829,46691070,71892951,248911685,255584224,531930723]}
{"user_id":50335,"collect_list(fan_id)":[25944,63777,127957,271280,361354,1025871,1387590,2239846,3138109,3149258,3673231,228430752,327105170,348931739]}
{"user_id":5899516,"collect_list(fan_id)":[15042,56151,154678,323089,374417,524054,1087717,1351351,1772652,1865698,2328208,2445157,2984235,3394069,4330198,4734589,4807470,5381131,6145229,6224515,6292512,7486552,8854209,8967076,9545874,9739139,9942365,10126774,11142255,11354823,11983545,13076486,17417745,19928632,23778403,24463268,30042996,33766187,35336105,45068434,45946314,51509529,51615630,53654921,57463002,58378001,67415922,67572400,70835706,72735609,76761459,94916651,96330545,133882882,142567096,152226508,166709917,172502370,180251314,184519922,186950142,244759092,251739730,323151497,330647561,346891949,366638178,383389253,398975795,399391290,412767406,413125331,418088584,444942928,460215415,461412872,501266772,525365792,544174860,547662962,553796517]}
{"user_id":11003855,"collect_list(fan_id)":[13699,77054,94528,145851,245148,249511,295046,317972,409634,454776,469180,470666,504326,531592,655784,682317,682538,766511,677510,1019238,1049063,1078091,1092446,1446358,1498303,1597129,1619932,1802848,2340345,2542012,2875612,3284554,3426304,3614177,3765474,4126902,4134336,4612495,4692465,4877281,5111699,6074114,6219043,6585492,6049002,6921465,7493899,7735955,7778940,8113940,8750987,9107154,9216576,9413576,9925653,10284054,10412451,10746722,11225405,11546363,12368399,13564336,15175888,15640540,16053301,16074209,16964022,17516112,17610103,17710794,18191577,18747378,18947162,19415864,19733045,20325239,21353673,26677770,26736103,26942775,27567222,28154785,30429561,30821609,35220758,36087863,37568129,37902566,39963281,40357197,40869648,42750435,44722253,46300607,46341292,48594404,51378779,54881522,55942143,58929883,58939730,59249777,60595692,60970389,66757469,67022863,75436263,83132019,83168871,83352594,87741058,88374290,90083647,92274920,95932179,97541645,98692957,100449455,101034779,103866608,108431265,113469900,121334033,126581701,131341414,131975993,132786711,137810356,146566725,154866887,156466458,158109119,160771462,167064804,189849533,191827954,192302076,202315454,204007926,205565786,209640345,215640285,219999986,225433504,231122792,234320449,234327713,237358368,242935234,249906651,257458506,258748227,280763352,315033140,336288868,355008350,357304666,362463218,366302404,429415465,443718766,445752894,474002666,474505713,474761698,476177442,489327135,489830484,509321974,519383020,530164197,535469014,545161790,551083290,551195635]}
{"user_id":22619896,"collect_list(fan_id)":[30237,38755,73762,108813,115957,157234,223245,223417,245499,252691,320846,342432,347628,355330,463448,548716,591072,632379,718935,792700,888915,989571,1031172,1038488,1052483,1754709,2015576,2047291,2422429,2621469,2721297,2803464,2974866,3186670,3389305,3916407,3975408,4165150,4675734,5138391,5654993,5733324,5755691,6326955,6941535,7067545,7098919,7244706,7285979,7370447,7620110,7740845,7757619,8085054,8411714,8489967,8801416,8954287,9637343,11586725,13324669,13481701,13958796,14511563,14534058,15010218,15272712,15669259,16931260,17049983,17477097,18064298,19301245,20419425,20908518,21384263,21631559,21677385,21780353,21844337,21896119,23485136,23538737,26509937,26939523,29044595,30039985,30268252,30334995,30536040,31328576,32857274,33651851,35191465,35252231,36820832,37532603,38208500,39256280,45105705,45197412,47504277,49049412,49561418,51955105,55339329,56045680,56250171,56473366,56578304,59289484,64001539,64024080,67905612,70569594,75556809,79108556,82079671,89496059,89801136,93263821,95899433,95960650,98800595,102758948,102842831,106082145,107460713,107884491,110336233,110402873,113949229,114797801,118054021,119328878,120715164,123052263,134300404,136473606,139624607,140074267,140305772,140407914,140529150,140764964,142548480,151628582,153961430,156671515,157401332,159843104,160158288,158652517,162600630,163098925,165683137,167647423,170981135,174694657,176943930,177316083,179370787,182719581,183831623,187871777,190525957,191336452,201882455,201903893,203411233,206456092,209435102,210128228,210445960,210446333,223402972,225640391,228437785,228697253,230990928,231619446,235960572,239368286,242413428,243133144,246568238,248543574,252054426,254268666,256131886,262172408,268748700,272473936,278610368,293279262,293333911,297709022,309790083,311647022,312058435,315059166,318421455,320210548,328605348,329021879,331230110,338748323,350112974,350432273,350694732,351637033,354591532,357295578,365382558,368553152,370065838,378243016,380081623,380843545,382239996,382499442,385765001,390889481,393324416,405022441,405381105,410848614,414960574,417878081,419317324,419898021,424702335,430814623,436256358,443225451,443752453,451155305,452602756,465626640,468415689,468829907,474549910,475411541,480307585,483636572,483878608,487786476,492689780,493070031,494071656,499679939,500039496,512395622,513684354,515671635,516300227,517245488,517826293,515748222,519225641,519281466,519286913,519570715,523945011,525051200,525368545,527510059,529871429,532077140,532333454,532832716,539339854,543945588,545436306,546863848,547744478,548314726,552687113,555386498,556939712,560670254]}
{"user_id":33345909,"collect_list(fan_id)":[12126,16226,28972,32330,59301,123485,152329,166344,202817,261948,284549,291720,316257,214673,365370,473852,482819,541226,552365,576169,720451,737265,807643,1024660,1055942,1073917,1075064,1110574,1118377,1176865,1206670,1318153,1318727,1320644,1330689,1416665,1455420,1474013,1538528,1540778,1674880,1680185,1788728,1796253,1799964,1802615,1977418,2068425,2078018,2089607,2093871,2136261,2370645,2370987,2474363,2493434,2566039,2571899,2595188,2615111,2685320,2837147,2934445,2936946,3127597,2795483,3305674,3322847,3331793,3370774,3433784,3451099,3631719,3763051,3834830,3916679,4025900,4346343,4512192,4539083,4861164,4910392,5002752,5080662,5361858,5445522,5706264,5729247,5731419,5905397,5946768,6131991,6140685,6458392,6508969,6717761,6739498,6764311,7173267,7326017,8269994,10324995,10456623,10493438,11657826,13080744,13629463,13676459,13713339,14886559,17416622,17469795,18412197,18911475,19178560,19496326,20135321,20540092,21576970,25218335,26661211,27367672,27839964,28522219,31646583,37353400,37908595,38194625,40507500,41562303,48245535,50911634,53085653,54062472,54273125,54830352,63937198,71621392,91826324,96135345,98710949,133144646,142978275,145346097,146241793,146437690,151659894,153260604,160215806,169047001,174555479,175662469,177716152,178464032,183416273,183605669,183873207,184172204,192638462,192720110,192865976,198695220,209625014,209695198,219600527,226759495,227096720,239997111,248436784,251820219,266556158,268324081,282437675,317302884,320423944,327846693,337438299,340798541,384385877,386187885,398316877,424400886,439774598,440190424,440950209,454364052,454906675,473342694,512814866,513540592,522511126,524098709,524275863,528993752,537516649,538571094,543122085]}
{"user_id":89417157,"collect_list(fan_id)":[6371,223500,610345,1075226,2350080,2858016,5550791,19549000,20309254,21393847,43241426,54786657,62410798,95792290,97044690,132368361,132820377,133260169,134693968,136429081,136807870,137067801,145209721,152815288,154203025,171954143,176284767,180987528,182653596,220819477,223115430,250264577,264978729,270000220,292994899,293890100,320300643,387091150,415401389,415549530,417283578,427419592,439690965,453210728,476999171,482144123,533896018]}
{"user_id":133304751,"collect_list(fan_id)":[45291,545095,546101,944251,1251354,1357474,1515083,1754146,1842847,2446608,2672279,2681893,2844959,3802800,3951427,5034885,5536309,5692818,5828067,5980566,5479361,8791517,10742559,11753702,12611346,14017550,15920113,16617511,17217557,19692858,19862579,20548248,21026211,23984570,24342572,25377710,31300133,31600408,31900754,32100436,36755951,39763000,41682616,43666047,48024344,50755416,51628642,52625690,53146665,53933512,54723927,55893235,56115215,62474794,63930608,64211524,64216944,68375053,70360603,71302481,72251787,73918393,76620872,79645523,83208683,85842160,86449014,88111168,88795595,89590383,90566857,93375331,99203932,100870685,105352581,106255034,106844147,113537745,114052882,113706370,121283550,131775097,133164833,134095170,134102459,134107301,136947288,137401438,137854542,138286102,139499392,139680506,139715324,141780244,142901028,143520261,143920292,144982260,145783504,146920642,147770474,147998384,148357650,150525305,150661009,151706414,153002936,153528871,163621525,170077987,175337085,177215706,182305460,183394352,186956545,192445538,201137587,205631390,210006488,212588701,215315328,216972498,217388974,214965099,227691030,231449649,235467071,243057037,246932172,250063801,251706493,254324948,254882411,255219261,258254208,266752226,271029918,282825157,290292573,292437342,299041852,299423980,302475895,303546546,308223212,314386106,315335392,323583175,325954189,329601551,342672231,338183077,350996547,360993308,361529161,375040059,379246557,388785924,392164428,392211251,387857317,425530775,428985970,445676715,446399432,449727832,454490279,471916693,475938812,478624933,491262124,492422746,500459754,519314148,525417986,537217470,540072719,545098189,558051724]}
{"user_id":6761508,"collect_list(fan_id)":[175811,194144,618132,869455,976468,1306625,1338247,1431606,1459601,1533058,1645430,1667492,1781036,1813370,1941386,1954760,2178987,2306997,2370597,2378025,2190159,2487340,2499309,2526457,2628812,2670175,2765073,2824536,2897991,3068188,3114926,3198727,3200111,3320051,3324238,3355484,3414853,3574692,3717944,3776234,3855494,4168944,4179066,4802936,5101220,5443171,5769710,6124965,6499104,6787232,6880109,7021623,7119444,7220743,7467870,7516156,8064501,8145902,10028734,10056402,10235603,10280040,10442724,10598428,10972401,11323767,11333188,11747237,13440546,13546755,13628677,13743795,14305158,14766363,14784340,15025078,16619987,17054953,18099070,18483980,18571121,18605778,19190822,19286403,21751310,21754637,22128594,23055491,23534369,23610920,23735924,24022997,25417031,26049942,26296374,26873634,27555993,28117755,29682820,29818877,30024171,30441160,32414334,33632292,33802119,35258542,38059521,39446525,40052036,40383237,40614737,41455885,43143800,43169874,49688920,50026079,51132826,51489106,51723022,54853067,57098703,57458930,59442576,59913321,61130252,62083172,62393212,65381740,67243679,68097128,68142386,69003456,69331872,69831876,70289400,70601750,70895486,71347536,71717905,72053216,72795215,75609030,77181242,78765137,79689938,79908751,80505557,80730938,81671039,81691221,81737780,85488940,85680460,85771900,88320544,88926462,89037840,89933351,95443189,96307559,101421568,105007442,105421826,106625506,110246740,112401747,112591577,113118031,121945866,123641042,124121699,131981421,135066325,136033314,137757972,139342511,142392991,145918528,145920292,147748315,147834509,147203732,151425253,155055567,155203593,156759081,158549754,159115018,159376161,160585588,160769396,161084658,165059500,166874119,170235249,175398540,184523298,187160832,187193785,190846719,192822252,200571929,202361941,210751893,214773811,219155657,226916257,226956418,231542839,232596016,235009941,233328825,239482797,245150647,246545726,246888255,248969339,250135747,251367361,264882126,271422904,280924769,284024508,285493221,287552243,292927644,295173334,299813433,302506906,313706352,314422524,320220359,325886574,326145921,336348932,340305830,345247637,354289116,358695163,365725874,368899379,380007218,380837222,403325913,421034181,424043061,434533766,449472602,456725124,481776622,505533843,514467686,512075793,512123763,518867233,525878663,529718769,534038295,537373093,537517908,557370813,557837191]}
{"user_id":29874253,"collect_list(fan_id)":[156799,332710,2447742,2727473,3123972,3614994,3668578,4081506,4129781,4653755,5093951,5225637,6428330,6534997,8296791,9140338,11310553,11841480,12600983,12730581,13007024,13100524,12338977,14354412,15300537,15565164,16324924,21583097,24794945,25052452,30106279,31387330,31443890,34481307,36656993,37247635,38018946,40815552,40865278,42300173,48407573,50910424,51244706,51825190,51947490,52127142,52910550,56132885,57720739,59351844,62362209,63712569,63928488,66927188,69766234,70214194,73129155,75767865,77033083,77138626,79397421,79709186,85436273,86555945,87392301,88216044,91967227,93399596,93699403,93703640,96030157,96102725,97824334,99691062,103131372,105843149,106192908,107295999,112795963,112975725,114276823,120481748,121669905,118638650,128948318,130604611,134323001,134595864,135149271,137880625,138180330,138782734,139568323,142841064,144590701,146217117,146421059,147470021,147790554,147915771,148235223,148263035,148903461,149008006,149160697,151123732,151393595,152024891,152394313,152800436,153413110,156499883,157832927,158116786,159218517,159316800,159615667,159767572,167522882,167948738,168944441,170004476,172578111,171203183,174135710,175216907,179533958,184096863,188815639,193274834,194802690,195828446,199001533,199123980,200575175,204473786,201332926,205432554,206691115,215385019,217337186,219077714,222657598,225525299,228008911,230613122,232806147,235961447,236502255,237335503,239417214,240672867,247606041,247865171,252073976,256242708,267237020,267717703,272491195,284539411,288298661,289358794,296623447,296848957,307054646,312300372,323335565,324125019,334860646,338618201,347767790,350407712,360407638,381233346,381572158,382567007,395846090,416119416,438633761,444745358,448905046,453208880,457984646,458164980,461196410,481381741,529218361,537929928,547914320]}
{"user_id":35053265,"collect_list(fan_id)":[190104,198166,633636,544043,690883,730756,800840,909288,1002229,1622202,1970741,2009615,2144738,2698190,2721449,2979678,3166284,3382521,3465624,3503301,3887987,3969500,3987801,4028341,4249575,4492216,4736378,4853955,5053538,5236431,5298727,5315636,5354277,5515079,5784073,5834612,5840696,6146182,6319358,6335537,6340007,6610093,6812563,7548070,8193609,8220211,8332901,9018235,9468522,10544039,11091620,11305547,11393837,11398256,11626985,11629687,11764107,12031026,12524580,12577270,12583850,13175413,13584408,13801740,14219594,14480763,14773585,14905541,14964332,15082907,15161004,15915242,15953488,16214653,16730630,17320994,18172478,18406668,18423283,18450511,18905169,19578216,20075527,20099736,20345586,20538524,20691310,20939160,21044166,21107887,21209240,21216160,21256827,21504597,21673986,22149709,22784756,23129528,23208119,23315705,23323264,24191631,25937586,26476934,27110264,28676723,28945972,29496084,30646472,30777332,31161401,32425880,32783670,33006293,31584068,33906339,34034868,34437967,35372041,36645247,36842227,37615385,38006063,39172833,41492556,39639309,43138005,43247198,43249143,43280552,44496545,45113621,46726882,47059874,47387807,48417629,50749747,51193154,51314810,51928247,52634747,52753499,51698265,54106599,54448193,54720564,55382345,55432174,56315834,56568147,56764546,58247143,58583850,61024086,62076725,62640867,63226266,63393944,63431078,63552804,64708592,64841877,64867398,65004163,65162029,65316805,65378122,66353096,67438049,68022001,68722686,68931496,69013234,69810788,70579306,70859148,71414036,71684490,72704733,73119038,73403978,73430874,75783209,75960292,76574869,77223947,77356038,78324232,78511963,78610193,78802739,79128613,79456989,79460164,79682046,80653854,80808440,81489433,81662670,82562881,83442085,84099462,84665055,85639182,86380035,86679009,86985742,87041456,88114531,88928292,89871284,90468519,90532816,91119278,92228964,92554918,93201647,93710096,94793535,95624289,96320011,97016093,97538098,97683340,97799555,98158856,98745082,99219804,99223470,99270423,99311881,99514316,99603729,99893003,99918984,100400040,100687529,101092043,101267361,98217547,102013010,106056655,106304867,107083677,107962785,110020559,110549598,111696961,111814097,112138579,112889832,113766613,113889085,114073230,116703117,118982097,120585936,121677128,121698228,122303867,118685377,123085170,124411036,124870771,124888195,127553831,130183858,131725003,131871993,132038952,132059180,133181955,133296816,133953974,135227977,135590459,136096055,136180548,136219565,136554132,136707611,137125422,137679315,138161609,138967161,139521421,139547555,139829234,140206881,140478656,138956159,141491674,141591845,141717839,142423685,142493474,142608010,143471822,143696765,143737494,143755667,143816671,144817206,145249455,145866914,146253819,146450152,147173904,147466290,147511850,147887818,147936378,148333577,148902281,147205484,150817177,151185951,151413237,150305158,152199354,152461076,152700129,152928760,153022121,153773251,154201483,154298464,154432690,154686614,154777871,154786774,153960536,156299866,156508024,156681444,156731143,157042908,157594603,157790249,158113047,158384619,158709971,158741344,159156517,159532972,159571552,159760593,159800020,159875345,160231579,160249299,161488202,161726326,161869034,162145285,162366274,162897742,163066855,161001194,164104598,164277028,164416895,164897265,164944093,165017378,165293520,165350291,165470452,165757193,166344222,167266258,167530912,168446227,168552508,169164033,169239321,169351640,170236842,171818204,172058395,172185198,172616206,172865429,173267920,173312168,173443509,173961973,174320493,174765946,174996709,175016828,175283848,176041882,176250544,176542263,176614652,177419469,177762913,177783005,177808409,178288165,178967116,179187053,180143907,180453220,180570596,180582389,180582580,181101065,181470013,181686928,181840424,182291629,183351640,183396139,183417290,184176130,184652279,184871854,185113388,185190267,186301345,186896728,187377180,187887035,187935152,188321137,189251876,189295667,189923820,190063117,191488695,191793844,192142107,192143590,193157225,193259837,193626339,194136278,194146247,194530309,194669811,196721698,196801936,196887745,197210644,197514436,197727153,199115006,199556584,200022591,200267625,201243658,198306331,202082514,203029784,203553965,203824575,204235352,204550481,204728035,201302424,205454528,205549300,205899623,206515416,207102130,207319064,209154544,209330526,209709186,210481460,210509671,210736251,210972807,212001071,212002620,212097876,212547614,212680237,212742851,212798437,212818531,214312492,214456093,214763284,214861958,215980717,216811849,217315472,217359482,217464559,217466760,217699960,214989315,218505175,218567090,218865894,221009463,221450385,221520781,221793285,221883693,222109492,222385568,222824223,223927693,224329769,224709628,225272441,225666847,225705995,225866516,225881503,226935574,226936757,227042999,227144073,227639716,228645971,228839947,229069328,229136224,230253373,230268106,230370755,230997884,231079448,232769357,233478023,233703733,233828732,234057677,235726304,236168542,236499840,236592037,238956227,238963403,239085769,240208033,241401373,241830930,242306915,242828669,243146787,243213829,245984467,246127084,246320203,247189742,247471015,247561236,247804643,248005054,248166704,248781375,250011926,250311654,250450815,251030618,251916005,252400668,253151104,253985582,254243875,254425039,254905846,255040891,255158020,255477229,256115882,256838005,257663237,257885595,258472527,258730931,259037208,259194556,259643166,261027851,261658636,262048934,262931692,263561469,263810341,264702372,264863888,265124576,265603406,266168309,266497812,266844291,267153096,267218749,267617348,268349693,269491206,269817915,270419870,270517727,270885238,271678309,271950320,272521699,273041982,274201308,274728239,275208307,275459036,275642227,276965355,277563970,278202234,278578474,278865672,279682922,276526203,281387422,282222630,284193925,285567066,286034759,286146824,286440802,288502087,288986143,289058030,292244843,292934354,293753398,296458122,297565096,298617245,298879070,299174681,300417282,300808231,301027134,301083537,301469939,302526075,302839675,304996956,305475278,307562981,308971964,309711303,310379440,310517503,310610545,310794521,311362176,311704080,307506782,313667988,315427103,315773263,316196158,312205487,317039965,317125922,317713403,318037527,318557598,320419366,316767201,321945559,322095377,323514636,323992963,324151208,321222147,327719729,330533071,330537383,330907527,331776388,333537797,333619358,334638919,334821631,336191438,338652934,338778995,339022570,339819062,340004397,340996354,342223564,342358480,342451880,343377847,344737111,344926418,345004847,346245926,343016452,348404021,348594599,351017747,352093782,353401712,354852936,355828195,358885427,360013588,361048013,363232316,365167066,365174687,367079074,367571270,367576495,367765985,368430527,368800987,369161029,371492309,372070599,372598604,372791953,374620078,374635166,376566791,378445913,378905987,380687952,380894499,381879214,382022575,382229291,382318153,383627511,384394062,385266928,386784917,392328774,387750779,394033608,395985657,403715517,405208480,405229243,405767313,411426889,412323335,413824503,414422650,415286134,415397361,419025938,419721554,421477453,426206217,426888457,427656606,430671218,431013927,431184108,432854878,434664840,434859694,434954720,436100774,437694609,438862652,441094333,446898597,447605410,447704119,448015971,448632459,450641968,450678491,450801014,452134950,452501992,452727389,453552361,455721107,455847506,456722075,456923247,457142511,457463544,457879621,458557529,458809168,459365111,461834547,464773761,465219756,467569448,468388921,469118867,470342880,470422312,471304931,471807353,472216350,473988267,475634281,476527084,478385346,478702345,478868430,481170137,483960427,484027848,489354041,490303480,490716108,491541660,492047162,492169774,493074795,494528090,497899668,498582906,502660701,502702748,503543542,503899612,504584669,505986862,506233865,507255674,507909954,510513065,510590740,513330202,514559837,515649671,518598766,518936464,519852522,520250716,520923844,521775626,522002200,522477535,521955810,526588370,529629944,529641403,529113675,533626824,533695461,534426347,536126472,537638924,537806810,538933387]}
{"user_id":531003073,"collect_list(fan_id)":[208532,2187017,2488412,3109857,3245336,3937572,5074286,48720528,56702126,63634882,85947880,115218591,126393368,156044223,190632739,246892873,303300085,313412238,346982559,419684365,531584690,531605529]}
{"user_id":529083,"collect_list(fan_id)":[237909,392454,531832,626756,852727,4555424,13347401,20498068,24887325,45006690,50773679,57371129,80004315,85751583,111268922,139572081,182303507,228070647,228449504]}
{"user_id":11516502,"collect_list(fan_id)":[332131,1035744,28714592,43454773,79430866,284921670]}
{"user_id":315974885,"collect_list(fan_id)":[256240,365080,488503,1231330,1892906,9629186,13353338,20214999,21508864,22293223,23958294,28706808,35718697,39446534,46179993,49907913,61036857,64628494,65440291,69191329,74487809,75907706,77057672,86987201,87505815,94319110,98605484,102563577,116940278,120054620,128871333,131504387,138340617,139719865,140338417,143732969,145195132,151670594,151847706,154123774,157942406,158126932,162014934,165090528,167831580,172374388,179600532,180561290,189428201,193879739,201854577,206026492,210610917,213486423,222003248,222866512,222880396,230368984,231810716,237500447,245100088,256832468,260830584,266304012,268758246,269991378,270234471,281976474,283876906,286218018,291171055,293251789,289552152,296195481,306242399,324547623,325053172,333716733,335741702,336771891,337967802,341476609,344177626,352973893,354733303,355666982,357807208,359047324,362515730,363696116,381214091,384187433,387009430,392382168,405153857,406158347,414491495,422201487,427332669,430551870,434442281,447346896,465021748,475748214,479580345,482872284,484812332,494901621,499217514,502103418,502838082,509123641,515694330,528795657,532458091,545378086,561707455]}
{"user_id":137361967,"collect_list(fan_id)":[399447,467940,7869428,13434412,27464562,33613646,34448376,39838365,48347736,65887807,66683044,73373166,114804623,124538511,125744211,130865770,136571830,137855747,138147056,153930809,155994708,162641376,166185225,167122849,167867295,176215124,191194298,196259313,208439304,210181728,214360542,221360395,241449225,278219564,278930044,282962324,294689535,376189363,449572932]}
{"user_id":1567626,"collect_list(fan_id)":[441841,627136,762784,809265,855405,1458699,1526860,1775966,4079427,7148779,7704530,21443813,49658949,101432162,103520020,121242080,123631192,249665717,276386641]}
{"user_id":99803295,"collect_list(fan_id)":[574476,1449555,1491359,1855447,2186404,4174536,4927166,5526303,5475204,7096413,7435940,8553811,8996300,9526139,10026423,10854610,12017263,13378297,15937861,17182603,21193130,21354216,25892106,25932342,26984605,28342182,28460055,29221288,29788507,30191862,32730381,35550903,36509113,38452288,39217597,42294726,42419327,50094400,51081912,52116615,52961012,56279382,65328440,65891699,93130669,107475312,108623791,109615378,110963949,111144361,128146641,132281386,133104326,135292924,135732031,138048704,145668980,152467731,155485763,155875104,156638968,156857301,162206309,164524475,165652165,167937273,169086226,170498155,171719589,171912200,174597566,178552538,179078707,181383153,181795942,184557031,188921695,196285846,200820074,212054462,214193595,214806416,215833929,218450663,218683500,218895328,219366356,225815407,227245959,237833655,240266172,241788464,245789517,270437222,271700734,272068219,279046521,284596430,289066321,292385273,299729776,304977779,305940539,306388856,312568092,314763892,327406394,334885310,342034709,353224764,353735728,357034488,358256259,352866764,369621930,378534746,379654761,385918086,386250704,393775770,395749663,398976491,402170196,405368835,406894410,413056594,419551546,433454118,433697893,440766324,442162369,446027106,450251979,451115715,451858307,457375318,457644913,459934872,459955986,461278708,462098517,465028256,471335389,473545099,478817517,482498195,484612627,486335798,486866480,489241756,491517142,494816691,497334103,501990219,502278647,503606448,511165448,513045242,516069209,517208827,520594416,521148892,527729703,528050136,528968625,529343059,532970080,533585619,541663835,543810276,555785533]}
{"user_id":187817192,"collect_list(fan_id)":[614349,1099798,1245491,13945419,30014337,41500823,39665612,46237217,49218907,56487830,72087107,74638708,83258329,88244391,94081996,103721804,113877895,114917532,131602565,148031032,151276237,152326849,152480538,154107612,157501022,157863398,160217531,165210322,177281453,187540611,202544545,206704105,207224115,220740219,227413346,229306169,237705872,243172683,246218983,253475101,262459131,280785234,290142170,302161281,304678110,309996039,329408306,337293525,338928714,365912700,392640220,404707876,427121811,428430811,435490842,475848242,496803886,498552634,551022289,560037619]}
{"user_id":61854879,"collect_list(fan_id)":[729854,3329385,3160250,4801001,8144432,9388699,19494562,22225421,23346062,25128830,26479843,25036706,27401547,28345759,30691709,32421950,33300660,35075578,38689119,46276795,49238258,51054229,55347865,55563016,66820133,69994377,73392645,76226457,76468456,77166850,77512187,79703847,80835403,81784489,83543427,84192997,88879722,110583774,110773412,111077494,112620085,114702216,126636481,127475823,133234481,134342993,134725837,136197311,138784552,141407330,155415401,156765778,157464126,157934246,166845468,168996999,172817237,172828737,173032463,173658872,174104229,174338324,175991961,184226613,194189065,199385825,208366973,208199366,213528743,214737679,218293935,221269499,225083225,225445164,229356063,236817073,237333789,239554638,241871224,246510110,247579147,248075486,251702109,256698005,258294212,261674254,263693394,270490715,275878858,276789018,276799323,276820569,278860962,281380392,292503855,304249244,305416025,310071916,310956355,313672573,320999221,323859607,324965008,326303648,331051732,331470189,332181783,345469687,349920510,361147831,362484777,369506678,372086885,374087802,373636665,379408152,380220437,389493484,398842597,399580533,401203674,408286205,411876669,429439711,430159354,430843079,431709193,435233927,450335449,450726550,469534161,470366079,473635173,476571367,479657024,488152838,499431941,507983840,514383227,517259740,520805615,522555855,523492818,528297654,530505328,530951452,535769639,536099364,536164731,537034600,542037859,542149054,542467049,543903114,543963066,544487050,549559298,549857737,553241921,559102564,559912036,565966510]}
{"user_id":400820276,"collect_list(fan_id)":[700325,8828357,30571057,53759514,79173689,120066641,137056110,138293984,145330516,159202633,209747433,225447179,228424681,254160869,260855644,266677017,280326425,327661954,331048703,365874543,374909064,389646292,401231718,420774723,429202718,431526427,450660992,451172724,451330135,452748778,457372466,522976977,526126569,524375833,546544119,549383822,560432368,561385503,566454850]}
{"user_id":136217422,"collect_list(fan_id)":[883765,1288182,1446711,2022420,2093347,2810044,4407983,6651517,7852046,8530089,8662095,9451216,9732935,10336807,11874053,11446406,13837324,16217360,17523466,17957033,18314935,18451007,21653848,23958294,25806800,26346682,26776496,26940265,26945617,27385911,27461677,27934989,29285697,36042125,36071627,37127521,38527596,40520451,40540342,40874228,42245915,43138005,45240175,45471502,45687069,46363840,46719887,47552116,48896457,50496960,51807600,51812914,52042971,52521836,52607020,53142055,53759514,65297744,68027513,71593908,72825806,73248850,77481661,74026164,79250729,80185055,81656169,83518541,83978661,84555602,84633459,84677275,85663188,86664367,87751947,88253635,90392162,91964228,92288862,93031076,93132409,93579984,95011601,96291456,97127117,99164420,100363682,101096378,98221990,104914136,105595971,106150050,107361171,108077460,108147592,112119508,112952669,113104411,113508530,115129039,116742096,117157149,118043530,127924567,127930933,128082542,132389000,132960400,133119388,133142620,133514466,134004440,134852585,134144131,136645474,137178516,137364341,137760905,138005147,138072354,138272696,138320661,138524841,139273746,140186736,141977391,147525248,147681504,150421159,151505425,152276598,152757500,153467410,153708352,153748390,154587418,154711471,155697373,156581400,156662139,157444306,158986977,159202633,159872408,161418828,164054099,164584169,164859698,165457406,169683845,169827137,173338045,176018771,178897333,180471796,182296293,183842170,183898492,184160812,186104110,189773815,196180297,199085055,200187230,200752375,202222415,205867807,206161579,207901633,208502069,208950682,210410530,210648478,211267578,213388627,214742929,215422606,215704621,221973840,225264634,225299625,223747250,234041409,236831236,245908644,246510110,258509342,262430422,276174822,292680780,296939922,305126442,309802604,321320289,325646921,333617260,336991647,340225297,341148732,342596158,371332399,371916933,373420832,381841561,386711720,404286651,407537556,415392876,418093703,434735469,436252074,437074059,439903127,442534223,455619575,466678344,469258889,473095547,474361646,476985293,480291630,483010984,487544361,490481441,500082593,500957904,503633035,506831849,519438992,523949518,529028674,531003194,535391056,536037249,549245075,552687113]}
{"user_id":472505514,"collect_list(fan_id)":[965392,1634228,93254425,158750372,194242559,252196146,263409863,292994899,296118308,313704894,324185378,327214010,355342791,379896353,396405851,404858490,408787625,418569662,448964606,449193065,449616415,454052903,463511309,466913567,508075648,508452754,508721911,513770251,533087056,536470240,544163648,550199049,551634335,551789588,552252555,549956240,553925440,562836895]}
{"user_id":18467851,"collect_list(fan_id)":[1187295,3614548,4031138,5016698,7962172,19119314,26524060,28976532,33385433,38236401,39460145,50112010,56180969,57453517,58317797,59307591,59981771,64284196,65318197,67831040,70123945,76163640,78201399,84213446,102906625,120391742,125818901,132097681,132772516,132780678,138660862,146916849,151611769,157650866,159471197,165134965,168525789,175530702,177701738,187604035,194136474,194356385,200846443,203083145,212952895,214855081,218400365,220983548,221071522,226646946,236397155,243171002,244265674,244792384,251996781,285305833,287653812,295525433,297969289,298249781,327505098,329093389,335776179,361037607,388825480,389267058,393811645,403449556,449675479,538960116,563670812]}
{"user_id":133589649,"collect_list(fan_id)":[1284391,3221327,5282273,5448191,9545874,12118231,12149109,13332507,15027288,17582732,22119006,25053353,32607722,33419460,33696975,36044841,38965248,39430861,39853142,48609228,50984499,51024564,49906938,52385568,55251302,55455744,56050202,57178463,64783143,70843226,72420581,72726827,82102512,83183163,84844317,87857962,92204532,100687922,101957879,115050333,121944216,124650576,133575950,135765364,137695478,138336505,141567760,141664958,142375057,144231824,147592332,154447268,154492780,157489334,166908928,174243070,179873856,182521165,220178977,222723168,226653685,238162122,256240235,265303190,289854823,299609842,304579470,305222082,311228742,344629016,348373071,376765615,377041779,397259253,440752833,462416316,493107696,493341216,497646997,532323474,535394240,540232357,557524551,558127560,561705999]}
{"user_id":276661279,"collect_list(fan_id)":[1517010,2262580,3491899,5206780,6761508,13609634,16232978,16647485,16874059,17940470,20885366,30514179,37745901,50609713,55688851,58600861,66023486,75162956,80450109,85075600,110536126,114956198,126496060,128285066,130465909,132695729,134582178,151248563,151567906,155357128,168016858,170090100,174705397,174779958,202673895,226224762,238808503,244841664,278688727,297657345,332188827,332554212,333699352,364787744,366597196,378756405,384759300,393201735,395118963,401921857,422451151,494750894,501608297,501872666,527731930,531736997,536892390,541908268,553033957]}
{"user_id":285976524,"collect_list(fan_id)":[1443483,7642995,14050998,15042332,16906919,17726235,18258194,19538645,20806121,20877346,21241212,23734415,26294577,27113473,27176245,27769369,28974381,30606681,31357516,31607947,32018817,35252870,35777675,41881107,54491610,57402492,58214828,61243996,64163398,66213674,71099018,73642360,78082466,86747446,87298302,91547557,96350099,97101159,102194848,105194278,107253582,110026304,111060691,113397733,116778964,117188080,122383197,133390720,135305383,135635366,134146627,139209487,140516638,140856716,150403073,151773949,152158371,153615340,154361315,155596281,155939853,156756625,157954615,158334931,163854085,165000357,166831889,180981834,197654687,200743888,203595620,201336449,212252618,217178648,220460888,225279956,227772431,227987773,228238507,230794262,233119737,234466561,234714284,237684443,238983781,239517399,261418708,261582453,263961219,269228258,271383687,276051715,276999388,282008010,285118613,298858104,312873349,317976262,318979310,319723653,324329247,329364281,330076285,336439518,333228102,341867201,348422022,349837060,360250368,366384257,378069342,378698123,390876913,392271573,396308286,415029659,416724708,419025921,421199560,431272119,431658103,473635573,474080827,479191705,480535417,483368551,489799092,492073269,501855978,506660870,532157621,543766061,546663698,552687113,562017143]}
{"user_id":32823,"collect_list(fan_id)":[1841815]}
{"user_id":910680,"collect_list(fan_id)":[1687159,24631163,69651991,142844584,413644795,533519499,537023654]}
{"user_id":213300983,"collect_list(fan_id)":[1984152,70744144,99624757,105196555,167774628,224694762]}
{"user_id":42009442,"collect_list(fan_id)":[2516935,7265494,18406668,19261491,23798217,28149751,30904975,38539299,53448343,55380441,55494898,55886082,56369141,58818404,65902421,69682301,78074008,78917574,86636618,87751947,92927110,97435198,97500330,97712074,105996169,114524233,125879199,133233955,135600691,138919200,145308211,151015506,153840218,170034893,179303837,182094242,186304450,188835346,194231383,222679040,248023236,267872589,283105360,308445052,310518441,353028204,369092418,403312963,470821421]}
{"user_id":78674139,"collect_list(fan_id)":[2564673,183457921,223001282,245167988,257636456,350759414,375445493,406781549,430295454,443854286,539222027,548178583]}
{"user_id":221350987,"collect_list(fan_id)":[3856088,21164911,41520405,74373142,79551749,87153109,91130200,92083921,99059410,102902232,106671737,110596406,120439225,120855779,127832213,130212943,135635376,138131868,145400955,152469155,153178903,155176373,158105134,160377067,160840131,161388692,161582437,163580643,163964198,164103424,167057378,167827390,168524240,169592682,170039608,170175013,170378325,171321976,172611784,173052295,173100311,171159970,174165145,174265751,177099819,177492538,178765172,179044509,179497839,181428416,185953551,188477920,189137875,190878086,191424036,191567200,188938463,192888588,193185121,194926770,195195941,196530585,197340183,201180787,203557288,206520370,206857773,208805986,209101930,212561053,212605039,212681092,214004419,218571900,219612987,219874018,220747580,223074412,223218713,225707419,226046225,226228287,226516973,226540980,228635848,230212545,234827055,235314959,236338623,236533193,239697232,240364801,240468370,243809164,244256232,245208878,246428056,248286072,248416138,250044232,251896420,251928807,254590748,255020332,256833048,259793237,264010482,266800420,267572439,267573992,268075184,268731486,272619163,272834531,273862284,279944516,281994411,295070948,296732814,298163500,298283890,299079041,300755121,301556070,302592782,304984916,305890125,306494895,309882430,311649170,312041679,320360400,321370276,322866017,323994208,326740200,326870486,331152846,332570096,333577212,334402595,338903553,341552271,343240073,344304655,344306597,344607610,346358780,346469486,347171559,349597378,350939557,351319810,353060887,353888766,354457136,357517836,359207342,359541186,360243836,361663594,362258060,366306942,366886170,367749539,368698150,372040825,375647307,376432846,377148713,377637312,380068053,384167132,384804898,385211615,388399530,388990526,389866184,401461307,403269973,403661011,403427078,417424735,426207152,433542443,435814928,438456678,448707684,449681755,450016647,456642935,470550713,470569880,473621100,474374120,480713477,483034790,487656564,490793270,493379211,495341623,496008985,497433865,509584950,515297865,520767373,530706439,547025543,550339019,554372882,555159597]}
{"user_id":43006447,"collect_list(fan_id)":[4286938,16343826,19469389,33879756,34222177,34863890,56564057,57739464,63463890,71025913,74440115,80129311,83730792,114658133,134148135,142830961,142832758,218759588,231228501,242592046,353707444,381702843,509753019,536563702]}
{"user_id":84834906,"collect_list(fan_id)":[4475934,5036311,5073961,6634269,7435244,8990173,13798845,17946285,19954510,20077716,20587386,33178738,35703630,36749153,45216105,51496519,51793435,63678892,64059672,64404634,67872452,76473523,81641996,83624472,86798518,98731003,100569053,103514461,105609536,108077764,112669757,124729354,128152929,131483456,141034147,143156484,143081002,145975559,152844397,176839985,191651409,206709783,213504997,218932400,219892652,236150918,237536075,249041438,250102368,265796356,288769883,300421157,310658213,322756268,325844508,331410657,332215629,349634162,351599660,358833643,393183978,410946547,432726309,471374321,509422868,518697903,521692172,533179354,535404507,550484901,558508886]}
{"user_id":36056096,"collect_list(fan_id)":[5173154,20704330,21597970,28577196,34279661,33486120,35249454,43753387,45457160,45761212,50564039,51946143,79375005,80291290,85101102,97330909,104023673,122460541,134148135,150704432,153436423,169558676,184151992,203781962,204190526,222314577,228496110,249042729,257426514,259686946,265218869,292313261,298866207,339003897,415395518,555043722]}
{"user_id":136853757,"collect_list(fan_id)":[5209567,8670383,12820513,15105989,15886534,15938156,16074209,19264489,21058872,21292561,21387057,21395016,33628158,34939553,35707630,35839907,36404017,43315248,45817428,53440128,60370842,61048663,67839526,71505724,87978029,106606308,107254331,107321851,116972369,122355808,125742286,134532185,138349345,142610184,146483264,150629994,154273436,155214463,156758554,159077140,160198573,162287728,164048492,178874188,179812320,181803291,187790024,191564954,191607839,204018458,204947203,205544901,208400029,211319522,219737480,222098946,222107738,223650150,224641631,230442301,231869828,234327713,238365551,241010690,247529606,251704210,263580436,264619962,268021877,273942357,274811268,283934613,284943248,292137298,310975439,311788332,313537794,326099206,329365582,341440552,346804121,361848963,361968966,386379557,392374561,393270907,396446553,397561540,434275333,436250054,437536233,442410634,456558543,458664887,459127425,468899097,475799536,486968940,518976569,518978829,539619194]}
{"user_id":43841691,"collect_list(fan_id)":[5621452,16006409,19855392,22051548,28677124,29889837,33693996,34496585,35611609,39033077,39140456,44733611,51479917,54318157,58207598,58702406,60105798,62422680,65584050,69179651,74639567,74980219,75736864,78081708,82243801,89708237,97538213,108658074,118810997,120018301,125407143,134587171,151390869,150331528,152239521,153748699,154867856,159645730,173158671,174282368,177950691,182300408,182458655,183389537,185693141,194669816,201336136,206761062,213369114,217401971,223522873,230145928,233292821,247317141,265693049,325403849,326848425,338620012,338711988,354797696,426624939,455399052,489467698,529403945,538941969]}
{"user_id":151467456,"collect_list(fan_id)":[7562715,33096608,34854271,46416676,47183050,57723963,69332391,72147277,77367111,84195944,94953336,95105484,96975409,98614007,100203653,113513991,116549968,118017684,121321960,135511109,137952993,144285486,143081813,143088979,147736000,152991325,154461156,161725329,162224336,164926576,166486929,168440926,170864953,171733924,176273727,177260678,179869961,180379326,184472071,189479342,193370503,214867085,228657077,246904209,264867702,272847897,278067133,282124222,283105360,299530612,304530400,314765734,357647038,401932992,436020620,475066185,492845280,501976832,528832719]}
{"user_id":516669490,"collect_list(fan_id)":[8491210,17613611,20650603,20889163,89728607,93267132,129799839,136065651,139869573,142111855,263680118]}
{"user_id":172731642,"collect_list(fan_id)":[9699864,10050057,15406920,30690936,138208704,145853783,211237216,298967027,350360829,350712341,377201621,411183970,480219516,515957904,517184265,536470240,543983333,556264495]}
{"user_id":343742090,"collect_list(fan_id)":[10759774,25188907,45276618,55101821,55400196,79865199,90667180,114276823,118944738,132884823,141960997,142417672,142662793,143843820,150537001,158982206,171214248,175076681,177694718,179406779,179731908,182101972,194430373,197909211,200197455,202925791,204450257,209675074,216513994,222330599,222725392,225145973,240953069,241921876,245025128,248284960,249792963,271772514,272578912,283346725,293845156,296169025,334130097,342665687,362449086,383645458,401884525,405062627,436182429,436510495,442581241,469849172,473800135,477539890]}
{"user_id":70723438,"collect_list(fan_id)":[18149340,61642779,61885372,66600992,92168394,119623415,124410197,128028480,130276225,135257032,136671837,146152917,166074195,172130005,178410924,206859787,236181281,249013511,313186087,316886933,343793488,397585390,400012820,417739900,419074303,425245279,478136151,499512658,513176550,524958157,527157854,535997313]}
{"user_id":242963005,"collect_list(fan_id)":[18174634,32804166,31587920,35533686,51189099,76671542,93523902,138147018,140156638,187132478,222416545,332889879,342481553,355803421,359055848,383418257,478765211,525602640,556440739]}
{"user_id":321225621,"collect_list(fan_id)":[21254349,25449732,37932227,415387462,477498472]}
{"user_id":368509230,"collect_list(fan_id)":[21103063,324450440]}
{"user_id":468054309,"collect_list(fan_id)":[33565154,38233174,53825482,70064103,95401586,98481341,101018262,118182809,134387896,135804587,136469502,144353500,163597145,170384049,173485181,177306567,179192283,179999651,182271324,185325850,186336999,186939091,187570467,188885118,190050998,191000991,197666133,203409151,203750003,205498652,206901923,210333578,216755097,218866280,221004542,217874430,222584332,227935180,228174145,229902637,230590221,230835247,231211865,233019682,236712475,238355767,238982528,239109636,241558520,241657247,242543569,243188234,244644483,247296862,248752583,249842941,255562807,258322354,258579924,262275370,265128771,266240320,266521480,266933217,270636251,271269360,273830691,274060761,274288403,274832957,276709133,279355391,280314591,282885453,284077825,287391004,288173681,290158359,290850581,293195879,294391839,297367579,297606022,300718197,300959014,301458438,301691128,310595707,311786960,314318618,315959217,321926636,321973302,325321033,326484315,329026846,329106290,329563465,332829301,333565121,334488798,334670699,334715907,335098235,336713480,336726218,337482037,337904147,339191984,339373050,339973133,340362022,341701186,345091397,345932809,346070611,347457985,348175044,353216943,354235253,357959527,359193239,359879854,362436205,363781197,363886725,364617822,369314333,369346356,371549775,373060183,368985191,375392362,376376367,377531501,377914281,378103967,378469069,378991140,379295563,380286721,381717327,383026627,378669100,383817895,384992001,388118629,394403309,395447180,396421212,397030703,398889628,399874251,407197861,408693106,409440260,414357550,414379460,418841114,419065399,420932685,422949809,427575425,429529174,430006380,430359624,430439220,430511109,432733165,433268018,435204631,433776610,440491712,441601818,441884190,442710858,444574902,444711834,444791871,444809526,444852231,445674336,447035088,442913712,447212095,448983217,449052307,449376262,450013235,450604756,450771648,451621866,451940974,452579885,454001030,454008625,450927264,456174953,457636832,458028513,458651419,459059958,459147787,460427123,460544708,461849382,462019182,462083725,462526108,462681032,463616140,464789129,465656262,465962229,467217633,467476721,468335778,470622970,474358512,475807154,476878256,476924025,477085979,477251041,472996265,478477383,481389376,482987337,483968348,484005466,484323359,484767349,486182870,486421053,486815973,486995944,487127878,487295685,487335967,487639858,488293713,488770672,490332923,490349621,493395619,493685246,494861437,495321028,495417421,496188465,493493486,497647200,498330780,498746420,499095699,499252393,499390199,499930737,500964472,501862920,502057952,502249824,502594225,502812456,503195662,504558553,504779494,505331198,505597402,505814588,506416404,508598301,508798798,508912789,509270975,510031035,510646523,511338054,513289248,513617048,513802929,515523914,515635077,515971732,516465676,516689806,516727461,516998636,517174589,517554009,517980961,518466652,519269694,519623739,522807404,523252076,523403020,523552383,524023443,524090370,524630752,525877750,525885049,526207203,526286809,526301630,526910085,527389902,528534267,529013885,526685009,529274064,529843474,530433389,530513136,531624175,532016989,532227273,533211760,535701866,535780121,535893023,536135165,536216367,536252481,537543944,537718677,538279579,538487226,540053289,540276174,541467806,543425416,544027779,544355119,544398387,546834128,546994387,547732439,548322383,548367501,548716102,549135579,549458121,549503001,551186020,551527636,551597098,551947689,551998652,552210538,552408136,552462494,552665113,552956732,552984327,553913672,553994579,554431247,552696161,552797998,556305753,557310683,557691105,558935031,559603783,560288417,561364658,561371537,561373578,564503441,565628342]}
{"user_id":324345407,"collect_list(fan_id)":[36058094,67605176,138731510,144258940,145437949,153171551,160589172,160867507,181920564,188811672,188863616,197815726,203540901,204206331,205993391,209272119,210835290,212153931,218584500,222634397,264361693,264953557,268835124,269431812,279877956,305095724,318611399,344134330,371430775,522346553,552687113]}
{"user_id":413264176,"collect_list(fan_id)":[49854076,58182282,510345782,540222632]}
{"user_id":442930602,"collect_list(fan_id)":[48215273,81778633,136656132,159460670,199833891,226776090,274719402,415388631,476989489]}
{"user_id":322702034,"collect_list(fan_id)":[75838126,92281412,119005575,163131654,169728632,192835028,196444897,196852458,197544263,199045493,216312428,232425548,244606303,258073017,268749822,270787245,283626509,288089913,290335462,304273928,318706724,356806632,365891051,381503795,382022661,382948540,388152022,390572748,393627219,423185668,433693281,442168450,444711433,445259063,505662788,512945411,519350937,520603210,521134097,522465811,524170632,530782587,531724390,540404754,545418172,555372477,557544756,566736795]}
{"user_id":503692191,"collect_list(fan_id)":[101017079,152494200,164360871,170419081,168730521,180299160,186840702,205327766,205869821,216897100,226057844,232199929,266906185,281777149,283697826,291563560,298330226,346057900,369198501,376064740,397675632,400168972,418350300,432653411,435381171,440389361,466700527,487715017,490737141,492419462,506702167,508467097,508654020,509104218,517077529,527685336,533301126,547245944,548015477,550905667,554645568,559794814,563758305,564689272,564979944]}
{"user_id":56296239,"collect_list(fan_id)":[132492986,138928658,193642644,283248890,379765363,425722608,466986062,496856054,547215498]}
{"user_id":478503572,"collect_list(fan_id)":[180786027,183550517,366710143,403824090,481951668,526607816,538404239,558532570]}
{"user_id":217915018,"collect_list(fan_id)":[194510695,206305471,215829677,354278130,486034047,516630720,522763943,527704736,530552355,534061445,554908173]}
{"user_id":538581138,"collect_list(fan_id)":[241903405,247387838,291445847,332725295,338221420,341056269,368336765,400665451,439740088,442760054,443364664,492090231,493734164,515997274,537551403,539503665,543343107,543383242,547661406,551615820,553768595,561655310]}
{"user_id":31808,"collect_list(fan_id)":[531497939,552687113]}
{"user_id":10557015,"collect_list(fan_id)":[545741301]}
{"user_id":438645433,"collect_list(fan_id)":[543932494]}
