{"user_id":22304,"collect_list(fan_id)":[4624,28132,28993,34336,37051,39425,69502,79429,86624,88241,92450,93146,99402,99752,101372,106458,124746,136882,151142,165203,166060,167038,187531,204067,205071,208701,130758,234753,235764,271280,287366,287740,297369,305504,328451,356057,387417,424920,451403,479684,529794,533992,608259,608366,619083,645473,772979,785229,794884,825878,921331,960126,1010359,1090301,1134398,1235248,1245824,1483987,1527522,1532338,1659085,1827143,1971446,1987111,2088382,2376309,2504948,2650033,3698313,3907235,4136351,3924206,4709734,4864900,5104870,6179294,7727677,7855633,7866944,8906526,9080524,10110363,10660022,10807153,12629427,13250986,16108364,16155773,17304842,19529100,23280595,26557788,27207698,28096794,29934409,31093699,35804173,35974901,38035266,43394153,43476833,45425931,48155419,53028891,54796243,65422551,68487976,75665284,76204255,97133899,101148996,151698944,167294965,175523819,177305072,197160312,197696266,250124802,281717154,286269746,311639094,326259564,327105170,364779199,400544807,401411050,428401364,471920125,476420859]}
{"user_id":33309,"collect_list(fan_id)":[6927,33712,35045,42067,42969,51269,71077,71996,81354,137080,161177,182741,220329,271319,370618,377142,416526,453665,564970,714355,833907,976437,1342311,1977706,2420056,2525401,2560957,3306769,5805372,6633354,6871689,7828718,15988845,15433876,17108278,21175425,30613161,61403130,136696844,151592676,202938875,316038253,497871116,521851662,544441043,550794660,555850322]}
{"user_id":1152422,"collect_list(fan_id)":[52043,58961,87188,202723,203243,250420,291945,301877,313573,458547,540938,559102,754438,765441,949270,1032449,1048780,1133125,1292257,1308600,1420288,1483644,1741067,1792392,1922095,1969894,2069982,1879618,2670940,2689123,2481100,2824044,3217102,3242715,3480602,3580088,3750351,3766681,3819248,3866917,3543084,3978679,4023320,4256673,4409002,4435799,4465142,4491711,4735234,4881404,5033854,5054369,5071774,5078035,5289255,5380808,5952129,5473923,6103489,6104251,6226694,6322501,6437395,6730814,6813871,6877734,7293948,7458099,8264009,8508068,8544446,8677564,8998700,9089617,9267786,9396430,8737674,9631799,9691326,10097215,10529555,11313591,11538829,12111053,12286874,12316256,12730304,13801319,14354239,14484871,15126410,15294438,15349342,16266091,16657434,16670345,17375374,17654555,17703303,17898424,18038891,18664798,18788354,19057239,20404858,20909106,21424857,21889974,22654946,22762529,22826451,24617496,26680927,27744641,26753525,28812299,29318291,30507722,30693633,31277725,32365001,33242844,34036262,35012093,35049697,33489578,35329372,36649791,37624791,39012272,39107884,39598495,39902742,40085392,42196761,43831658,44836079,44901088,48762090,50066486,53434646,53460878,54279722,56288401,56582535,57054948,55607078,59170080,59304313,59618059,59643368,60335325,61508312,61538775,65296919,65850778,66459174,67975225,68942362,73849012,78787564,79413695,82903006,84632114,86665514,90415943,90474838,92102797,93034455,93593814,97723573,97936715,98804925,99930203,100984136,108843251,110002816,110646102,113346579,113425003,113590814,116286651,122541873,123301912,123827640,130273334,131659934,131956215,133860648,134632280,135857337,138118746,138855320,138904837,139756136,139968127,142209346,142582079,144231767,146727537,147675360,148117886,150465757,150614501,150813118,151261042,154694070,155479707,156245557,159276907,159808895,160337302,162266826,162366191,162980548,163742138,163964198,165577860,166720486,166729901,169182099,171784287,172166267,172377108,176795355,177148706,179268560,179947205,181034551,182778498,184388802,185142260,187125033,187559207,189852116,191436831,192909211,194773480,196115502,198556031,198804954,200894184,198273028,201515592,204342806,204657130,206055079,206209442,206812165,207541460,210844880,214203326,215695504,218337342,220855879,225228289,225723175,230512318,232520174,229799202,233887961,236007275,240071461,241984493,245038409,248595947,251200165,253990918,255549644,257060300,261400182,262139697,263873324,268453245,268568104,271440857,273784710,274170519,275959573,277519750,277895406,279179869,280102695,281347426,283004635,286924152,288851433,289930306,299626074,304775598,304813887,307916073,308284338,311838564,313125242,316093276,318230618,321429202,321617289,322268143,323351072,327957729,327997298,328781432,334991809,333231295,346174261,350669246,354912219,357051086,358252515,361547199,362107243,362948312,370713578,374910325,375333532,379029621,380201792,383123695,383468581,390494610,393509353,400184738,400637969,401064230,401237378,401856268,404279383,405411395,407505508,419339339,423537487,425920962,427550544,430015233,430086741,430729296,432043615,437755375,438990694,441581844,447780997,448149539,451201547,456682672,457026361,457730893,458657798,455323475,461246236,463159152,465268202,465278639,468569713,469859046,470512578,472205057,472309310,474937458,475302295,477238360,478093397,479817822,481257713,490153325,493259033,500112788,501072547,502251688,502397551,503173658,505214671,505593153,509511124,511359936,511532381,512511642,513577597,516517330,517105901,520467359,522125087,523053562,524178746,521931044,521938479,526269009,527138096,527423632,527849941,527983083,528822579,526714658,531626034,532273066,532539810,533278844,535010939,535619401,537634847,538200279,541030478,541943565,554187291,560369895,566002571]}
{"user_id":2316422,"collect_list(fan_id)":[13043,39497,50599,74894,80647,92450,92843,145016,308202,215452,351284,334294,442138,457783,491710,497391,499236,509182,587875,660573,690703,713864,867453,972218,979668,1026730,1151689,1165414,1223637,1251363,1257529,1271310,1355795,1461119,1529383,1554301,1555013,1730003,1749507,1801136,2139209,2144277,2318192,2549050,2956031,3010658,3268690,3156920,3637405,3692699,3743378,4136711,4565419,4570821,5252743,5338794,5411239,7239373,7743070,8148651,8523864,8946131,9182798,9365396,9688462,10602275,11397685,11471062,11719010,11846757,11916547,12936065,15042148,17205403,16536887,18112671,18652065,18879161,19330947,19375244,19515721,20697759,20734467,22442533,23795429,26476213,26965990,27550721,30181968,31247289,32401230,33052938,33624513,34159977,34870809,35386160,35738343,37758953,42279236,42458262,44070666,47925858,49060815,50531017,50707240,51159753,51611827,56174120,56295679,57343706,57655835,58554016,61098753,64192507,65739104,69366754,78126824,80425463,80597199,90028629,91821796,92194245,92251519,96370536,98500934,100031597,104518784,106199488,117974062,125112888,133807912,135065511,138493298,138699858,139170695,141731937,141792592,145829431,151242139,151404311,151432960,151698007,155694906,157538930,159186071,160728084,164402496,163397603,170836384,171676639,194633770,196448314,200802366,202387973,224255215,224913769,233012991,235909957,238885988,250378283,248355369,252407014,255364713,255640284,255777230,259577307,259744400,263819062,267679099,274832603,288850445,289433858,298061042,309137681,309806002,313562802,331294714,350928332,372228087,377120402,380102046,382626036,395334703,399775516,401781819,401910721,408393141,412633522,415089393,434319628,436145500,438362622,444201338,444288788,450868654,456988484,458561505,478111825,481512863,494068005,495747109,502442104,507181377,523360863,538851940,539098129,544945028,551046661,554436939]}
{"user_id":14133107,"collect_list(fan_id)":[2889,425644,3000937,22599186,28079027,527565791]}
{"user_id":39660732,"collect_list(fan_id)":[14195,20214,22158,25644,73548,76137,76345,153798,188941,189728,217963,389270,398660,416879,422378,469196,485242,523903,550349,647912,709962,767278,788072,875067,1004554,1093333,1132213,1163564,1180679,1206468,1306109,1599722,1646814,1723642,2010477,2368353,2388231,2421249,2713759,2748002,2864271,3071009,3169428,3200415,3675056,3687687,3950469,4012798,4032427,4059044,4068532,4152508,4342509,4359420,4373401,4437306,4481397,5137438,5359049,5776931,6035074,6463429,6831306,7228110,7803185,7807579,7837462,7866897,8311724,8347845,8454928,8495739,8537001,8586029,8591046,8672472,8870611,9409429,9547725,10034788,10182710,10251251,11182299,11250507,11597971,11861613,11983545,12122721,12136015,12286908,12299472,12898766,13150097,13223738,14227274,14232016,15460064,15568823,15592182,15870939,16259613,16306452,16640323,16663145,17207294,17709318,17791568,18078590,18228384,18320871,18517120,19436744,19448115,18621568,19945494,20760608,20791958,21222330,22658089,22659765,22703752,22940242,24452607,24526572,24550918,24935345,27364617,27639359,27802519,29409264,30518999,31327880,31347183,31728841,31572632,33856349,34133654,34878606,35963525,36173631,37196192,37301965,37592675,37737991,38793297,39028681,44075554,44626189,45174809,45817781,45861676,46279044,46589998,46878628,47217274,47286537,47122493,50342255,50387769,50873509,50943073,51175824,53861377,54309848,56192602,56266799,57405854,57850530,58258483,58615063,59563681,60680434,63970669,66250856,65594148,68422951,68629760,68927859,68978679,70453665,72943703,73246770,79618677,79722597,80897038,81347245,81823047,83341108,83426798,84527355,84663947,84716821,85778040,87580040,88316321,89157077,89158886,89977830,90202422,90668308,92232128,93192873,94689542,94834350,94924549,95103180,95172267,96641799,97471139,98014316,98706291,99505652,100210919,100297444,100491110,101822925,115296985,117229740,119034173,119177622,119242190,125826756,125887370,128335934,128908335,129291532,129534353,129897346,131900790,133959313,134990418,136806283,137040837,137968138,138165412,140022041,141038900,142512848,140718079,143179844,144930462,145958767,146174614,146930615,148887123,149113170,151172973,151594391,151698007,156711896,157644237,158889750,160304950,160512292,165429587,165745708,166357883,171315520,173904898,178544003,184871854,192666833,193449977,196008090,199122595,199157628,205703629,215231855,216510812,221182665,222205557,222760810,223598914,227930138,228340206,228909958,231506542,231521707,237307320,238596555,238898906,239762329,241495090,242227885,244042982,250962066,251390434,251463434,255057182,256960764,260794607,261789372,262635803,274306888,276601413,279011394,279492574,282906010,286959223,287145039,287989138,290792240,290982054,295213754,296090920,299695167,302562793,303368289,306406428,307657816,320325704,325749536,335742358,337274482,346949622,351653685,352885219,365574556,371332399,373931593,374256184,374256869,376884284,377263428,391880778,422988625,428393317,433293282,445232646,446302938,447042960,448250930,450206327,462112677,465472897,468159635,468464564,485152174,494670315,499327810,507694298,516031971,516305844,518048411,521441709,527874222,530759180,557444970]}
{"user_id":59687021,"collect_list(fan_id)":[2395,998381,1472663,4226676,5712510,9290590,9793009,14293131,20041877,21186289,21409594,27734326,28036083,28510965,28520839,29489143,31529778,34471677,38062273,39794876,40464240,40611612,42426874,42964292,45274692,50338922,54395019,55700713,56052335,57474752,59056195,59192816,59952420,60852528,69155326,77718616,79719935,79727391,80713577,82782254,86472819,90251380,90641072,90918114,94343751,96456981,96527453,96626427,102337660,104690379,116746554,116919265,123611702,128092212,128257836,130658312,131690720,131979740,132058360,137499519,137507893,138027399,139111711,142438361,142721662,143757249,145567981,146163962,146823336,148363995,154877244,155584780,155767442,155828901,156183622,156820603,158583961,159707699,162761238,164515197,166010464,166397475,167179490,167838215,169389205,169561153,170541749,172720303,173775221,174022633,178948424,182230094,188781349,190214944,193623445,194598497,195016778,195610933,201073837,202084595,204344289,206699036,207088801,207581230,210174654,214022670,215835886,215971330,217210633,220387597,223540800,225296149,226979086,227811219,228582598,230001836,231698545,232230060,232233025,236185924,236830638,238963403,254455373,255984543,267873775,270643922,275618805,277554686,283079615,291772780,291863183,298531959,302168401,305599980,311457495,311589280,312616932,313178525,321464497,334128690,339647495,345034458,350904885,353766451,359507228,365933604,375443768,384752305,396939908,403717525,406089321,406570486,420780836,424580723,445833704,448904542,449223971,454479436,462025674,471317465,473515326,479351231,490307594,492071920,496235612,496500574,498929292,500190929,501916055,513542020,525877945,528470032,531906692,532353946,543609020,545161647,546557653,552466814,553321411]}
{"user_id":118984095,"collect_list(fan_id)":[33889,56709,219419,383904,389964,428236,429325,447872,505706,586454,598002,1090413,1461119,1474418,1522083,1892906,2164013,2495708,6091367,10334396,10656479,13721652,18511577,19264233,21527676,22586580,25943000,32339424,35780333,40609626,44699384,44906532,51876222,54671323,58058299,60345301,60820485,61176194,69070536,73592684,89649992,94234422,95720328,97640293,99529604,121855588,151200030,163686477,213401521,241922055,305189160,333744512,347365741,378144082,392082345,396893644,399936784,416979528,452518049,469173624,478264796,505484565,518154814,528653418,528690303,528873180,533726563,539228201,552687113,559534189]}
{"user_id":235900686,"collect_list(fan_id)":[38763,121704,357977,369179,398454,427268,463888,526851,538419,561193,844533,911374,993094,1182158,1518807,1780952,1865698,1623155,2263146,2329903,2522911,2680090,2890296,3507369,3512520,4078716,4210888,4537059,4821624,5899761,5918703,6240380,6321297,7133388,7166705,7205851,7691138,8276837,8612877,8887629,9025847,9083483,9605285,10443305,11347689,12605493,14308791,14874262,15968048,16476491,17377212,17534077,18003987,18301331,18428687,19235112,19380403,19389245,19482504,19539790,19574772,19581784,20427934,20903399,21308406,21606971,21862922,22019438,22339867,22366986,22700529,22830260,22257695,24557623,24702705,26337062,26349263,26582664,26751525,28417238,29054739,29490291,29506718,31293938,31738900,32232660,32729895,32834795,33835451,34009433,34114117,34349900,34354926,36866523,37302965,35165123,38544187,38807358,40026418,40725201,43324198,43392426,43557452,43679190,42067862,44614308,45055442,45559866,46577583,49354833,50690526,50953152,50999747,51131407,52878635,53331311,53556417,53770741,53874048,54701185,55183027,57317271,57719494,58450989,58484611,59387996,59929431,61845904,65906442,66648923,67502241,68535802,71620886,72436155,73127649,74744894,76154432,79156535,79742271,79913323,80137926,80797770,80986146,77650889,82745563,82894772,84111398,84713216,85555025,86007964,86612742,88168094,88811667,88900217,90004132,90679338,91497766,91824872,91834350,94069172,94701028,96579702,97542684,99383663,99874697,101000967,98266348,101722587,102142684,104055004,104225085,104486198,101324475,106993285,109306309,109588854,110003190,110386911,114742719,116412177,119778661,121262138,122456941,123416172,124313009,125033729,126657953,122823411,131588042,132125412,134740695,135053249,135208609,136486720,136539584,136892953,137346170,137409770,137706021,137784012,138541207,139132980,139209632,139408049,140245538,141750681,142919913,144992940,145748943,145798601,145949480,146306275,147018580,147347913,147652130,148346082,147186116,150433915,151184872,151355776,151665495,151896763,151932802,152040011,152798274,152806440,153255841,154032740,154622421,154642129,154676908,154688720,155317208,155857221,156309765,156604466,156776786,157255068,157890280,158050892,158449821,159027334,159828693,159887309,162090433,162638554,162927562,163162930,164930412,165139970,165159380,165635646,166322632,168771437,168863776,168966902,169008956,169043394,169391003,170834453,170872195,172672367,174481972,174889381,177024381,177713348,178552071,178869845,179097214,179454074,180480806,181976433,182391521,180914366,184763544,184820126,186931060,186959978,187382408,187634174,186046599,189895482,190242079,190773414,191703069,191885634,192199422,193294736,193378512,194120629,194309362,194528310,194866095,195441015,195946510,196022704,197679789,198720597,198751260,199891501,199933442,201027888,201705834,201825363,201949434,201990121,202114246,202949325,203403184,206320413,206706354,207218835,209923049,210137077,210328264,211833506,212751253,213469915,213963359,214763487,215187534,215472411,215782658,215799591,216557723,216578157,216895248,217698914,218213435,218237511,218322817,218509870,218930330,219194888,220184853,220763742,220936980,221902698,221933468,221963238,222484779,222969174,221109859,224325321,225025879,225481481,225602642,226285680,226389240,226415456,223771068,227215651,228021193,229464435,231216912,231402086,231680330,231790268,231957935,229815857,234507609,235401015,235817855,237966051,238742752,239900594,241029806,241061628,241113051,241823735,242179959,242710316,243134589,244195441,244211876,245999908,246002267,246252075,246803869,244874779,248552145,249669027,250809765,252856334,252939836,253878924,254588351,255390124,255698756,256867288,257134289,257200079,257416180,257430656,258448745,258608351,259505506,260508950,260782135,260820831,262090820,262351333,263445675,264098918,265673827,266285825,266315532,266684556,268819976,270799835,272134855,272203268,272686080,272742805,272801231,272876116,272973110,273499661,273846050,273889450,273923719,275889048,275965357,276155859,276415254,277166795,278121493,278476850,279081204,279430681,281582917,282307387,282687764,282946210,283565249,284004620,284329178,280492930,285046257,285650205,285757568,286446769,286890557,287593417,288293224,288427364,284905726,289817342,292347727,293048289,293049088,293493905,294087059,294366186,294647602,294769669,294823344,295084499,296537905,296585060,297278288,297951799,298222167,300926473,301096848,301209949,301606373,301841043,302467973,303132611,304031058,304319672,305926864,306543214,306555912,306621438,303056699,309133088,311239657,313320630,313523449,314868834,317001446,318554984,319387891,319395614,319856303,319861889,319899807,321736097,321869437,321958352,322996423,323163713,323187968,323324819,323407905,323481944,323485033,323518117,323930010,324271205,324385749,324648409,324709599,325325710,325703292,325883546,325937402,326123552,326480316,326873240,326946779,327322048,327807043,328464426,328523725,330187716,330698415,331270704,331730393,332293793,335240941,335331728,335982341,336081448,337014468,337357044,337736719,338826296,338840699,339030453,339452050,339494377,340111643,340452978,340633933,340774587,341087201,341675625,341867069,341889931,343106850,343307214,343913602,344641783,345015877,345074293,345503022,345554473,346250767,347132349,347636075,348095982,348481490,348989056,349634162,349779045,350355567,350996659,351254624,351317487,351495550,352206605,355084508,355920098,356177389,356399273,356916521,357111699,358029503,358646761,358830929,358844208,359470422,360120722,361150800,361600158,361762347,361820694,362940799,363708821,363876433,358462681,365133778,365518627,365554196,365839759,366508289,366633139,366722180,367017333,367354828,367762442,369010914,369077035,369159689,369352193,370500768,371988798,372521001,373103102,373735432,374200276,374288907,374367526,379105855,379584965,380511629,381369659,381814926,382254329,382377406,382440412,382631503,378686654,378719559,383990706,384723461,384993111,385782249,386155759,386355369,386800977,387250858,388576213,388622724,389172583,389423432,390344550,390594870,390852263,392806183,393170885,393925113,393939590,394478534,394701574,394983368,395016111,395776998,396423364,397033759,397115066,392425716,398082171,398304858,398349729,399345716,399728814,401095170,401937356,402298578,403706634,405610679,406044516,406143215,406662359,406925986,409394079,410621513,411207359,411272110,413494151,413886168,414811336,415122144,415207790,415826368,416382958,416870226,417728283,417834964,419010701,419065432,419365395,419619825,420136073,421114137,422591496,418373067,423738601,425242229,425488321,426759190,427910139,429352298,430360711,431444794,431581457,431883358,432322208,432538196,433046731,433317694,435301490,435637316,435955064,437431883,438130880,438732689,440125329,440351259,440809281,441794189,442293114,442527157,438450903,443283299,443837342,444040435,444410294,444643628,445311008,445682015,445967946,446089852,446204938,446545552,446697032,446994978,448986394,449054158,449098098,449497705,449560701,450179110,450432342,450746445,452575632,452904619,453394005,453447981,454054473,455217420,456636764,456842102,457646243,457890543,458150041,460335007,460827697,461151548,461464366,462519651,463933766,464032891,464607746,465417022,466205628,466764651,469171159,469652032,471310707,473606931,473641735,475353060,475498771,476670954,477204299,477615926,477735303,478209379,478391391,479120085,480104925,482534972,482864567,483882817,484087686,487108373,488479837,488984079,489858782,492422125,494761329,494974756,495285458,500185829,501076290,502742536,502783007,506037451,507257923,508396936,510822024,510979543,511964747,512388182,513111798,514228139,515232855,516441783,516725657,517681743,517878340,519355193,520762570,521027634,521202120,522151740,523362164,523443331,523544442,524980735,525599777,525619719,526275007,526489309,529486234,529952361,530387379,531029779,531148697,531173705,534143039,534385868,534479319,534766567,535407193,537583421,538254467,539676477,543299041,546793216,547664214,548029911,559148962,561084706,565984895]}
{"user_id":84184518,"collect_list(fan_id)":[58801,2442363,2522600,3423757,3687105,4272234,5378520,6319898,8462634,9309048,9732935,11619176,17339856,23735862,24054138,25826689,27317620,32224206,34106015,34444136,36026567,39847738,49608662,54944054,59816703,60964675,62699739,73057772,73977173,78092386,80351610,88293012,91257846,93391891,93506528,93965652,94170587,96654861,99530833,104914136,122431403,122712204,126289988,128082542,128931303,130465909,133650845,133690788,134192603,134778573,134791589,134917802,135620862,135972226,136653281,137209556,137970279,139474848,140255190,141598617,145022914,145836388,146652556,155947003,161759429,178543015,180062188,187456803,188007999,210078102,212980282,215073840,217684572,223047078,238400055,250047900,267956852,273806536,282452212,282987452,332809633,339215712,372808801,403806012,488140761,507155776,513545349,521891543]}
{"user_id":256134740,"collect_list(fan_id)":[107152,1596858,1918552,2656540,3263946,3371299,3819182,4721762,5197602,5380787,6043900,6185816,7864451,7906624,8434557,8855415,9512797,10291717,10322882,11627518,11814148,13807510,13915277,14905826,17005289,17651541,17938225,17956299,18076957,18158098,18319243,21408035,21669690,21915144,25786720,27583387,28097621,28485394,35416846,39692399,43473725,44717726,45049366,46970077,53215386,54478997,61146447,61887888,64745981,68019857,72968164,76325339,77454575,84537128,85888899,92593471,95382603,98645200,99715617,99861990,103633860,107447853,113161559,121722904,124404597,124766058,131570241,137588736,138518936,138797082,143239258,144505943,151400358,152864551,153406631,153729849,155512387,163202736,166189603,172014436,181466233,187609370,195405157,199621919,209357288,217712572,222472699,226777970,229140413,232683617,261788793,275189548,278896030,279529279,282754019,297073736,297608497,306502501,311320230,322631155,328456695,329316881,346105413,350329800,351370064,355305704,368041697,421037283,422232604,426706588,448190295,462647335,477028922,482917678,510726207,512823147,517407436,519650333,523234438,528166487,531277123]}
{"user_id":2363974,"collect_list(fan_id)":[153039,295648,568318,585055,586842,541917,692207,710492,932891,948562,1017906,1234953,1510795,1540743,1549447,1560733,1581382,1687493,1700302,1748911,1823294,1849181,1990497,2101135,2145922,1876627,2439503,2454786,2460416,2538256,2552864,2599952,2623445,2672825,2731798,2735448,2827492,2835578,2840368,2917300,2982967,3023070,3030229,3134294,3164949,3318229,3384352,3418070,3512896,3163229,3766732,3817810,3974918,4052892,4083079,4092425,4133055,4139179,4167626,4233305,4255100,4316613,4323327,4368087,4548278,4595844,4674387,4748761,4792412,4799754,4909593,5003352,5009297,5107107,5135394,5380885,5410541,5665438,5731038,5870602,6026600,6248960,6269454,6347595,6478277,6513213,6711408,6746465,6837092,6905507,7124167,7162540,7198818,7310460,7693031,7727890,7784338,8149960,8447696,8491217,8584245,9064386,9213171,9318028,9430763,9519789,9554373,9640175,9736935,10124451,10302901,10311086,11119650,11691802,11733660,11805967,11967712,12619469,12652067,12743671,12784292,12951187,13068335,13514872,13552287,13783328,13841047,14113756,14235175,14349677,14536290,14749516,15337648,15354570,15769928,15809397,16327940,16461099,16659905,16690561,17058025,17130592,17253781,17592785,17713235,17726511,17835182,18092794,18196084,18595011,18759853,19065401,19172980,20355571,20562625,20754455,21299690,22666515,22670755,23112351,23183776,23639366,23919850,24832420,25469363,25832949,26501226,26551052,27170480,27175912,27398237,27704381,27960244,28406984,29028546,29499572,29537611,30001663,30044858,30503446,30720487,30811038,31704813,32637711,31577865,34168302,34531774,34588936,34601893,34781016,35234372,35381072,35677968,36380872,37229188,38169236,38908019,39066595,40632322,40980157,39652394,42438036,43063712,43618779,43720774,43838191,44393287,44395537,44814612,45286958,45362354,45899885,47561337,48399307,49786714,47090508,50188377,51185948,51330637,51504584,52288687,52441302,52925617,52927633,53518535,54250589,54475982,54507270,55165827,53614276,56000209,56149940,56496437,56547935,57534227,57780105,58768930,59244966,59777860,59783309,60076560,60087836,60716916,61465250,61948219,63783493,63871962,64194354,65059509,68021795,68215747,69016930,68286444,71840473,71954718,72408534,75378508,75504943,76181470,78623147,78767447,78952047,78953920,81005329,81424992,82818277,83199005,83383523,84308804,84328445,86213508,86718936,87290883,87470252,88302347,89393419,90701497,91472753,91651812,91801550,93981956,95244374,95427523,96290055,96708653,96753914,97612591,98297412,100282866,101264230,103127713,103284070,106243595,107859327,109383425,109894762,112578232,115112404,115977156,118300161,119441367,121091043,122208245,118713247,124093060,131632195,132387869,132510870,132832643,133376041,133914015,134552513,134936247,135111196,135142707,135870529,136266105,136281889,136286561,137117627,137182427,137477286,137513676,137551383,137692481,138356310,138705696,138718413,139901024,140818875,141584413,142080024,142406269,143019238,143231255,143939740,145037649,145562002,146202403,147685886,147837578,150585100,150622375,150956790,151187641,151484025,151773035,152557215,153218445,153653225,153693946,154778842,155862953,156967279,159057602,161992862,166045984,166107044,166966895,167379938,167415344,168275589,168555196,168647920,165910165,168791130,169020014,169482286,170561683,172647141,174134565,175177699,178607173,182613395,183009659,184466747,185881463,183513339,187673111,190842537,191334807,192771672,193165631,194772317,195510312,196072423,196851753,197511827,199920194,201066980,202033513,202903082,203533376,204798604,205130799,205501787,205941320,206664617,207883570,213555002,214049149,217693952,214993141,218596945,219490123,222555996,222762540,223478340,224088915,224116315,227714603,228019196,234044800,234491541,236801973,239797987,240204422,243058199,246107924,247429561,249207159,251547159,255549644,256473135,264710382,266281391,266627586,267013031,271059573,271128314,272209427,273529353,273921514,274663843,275433831,276030974,276208986,276456336,277582315,276542650,283974404,284648203,286150374,287899369,288477515,289750309,290445729,290633049,290706285,292635375,292655003,293224829,296610215,303945379,307133340,311687359,315345703,317015883,321914378,327386523,327734794,328012922,328809177,329017587,329744060,330979955,331853895,332113769,333585441,335894007,336695197,337816166,339828651,342541310,343208398,343807102,345667063,345756740,346688234,347637298,354702786,358955967,359252807,360366587,361498638,361731672,365991350,366273187,367202501,370402752,374186209,374455523,375350573,376596620,380955306,381370693,382691510,385382533,386567717,388667916,390081427,394430546,395255630,397576068,403499722,404184150,410872075,417484904,419373694,423467699,423676900,424031019,432119437,433292940,434785082,440843109,441642422,443678981,448025512,449571244,451546730,456809163,460713967,465288426,465472027,468064896,469046359,469824994,470405981,471190224,471844727,473335883,474658311,475055394,475797820,479778258,487382012,489362752,491654941,494254378,495231198,496435337,498034977,499376835,499720801,500644843,501114601,502811264,503097324,505089703,506675953,507110562,508921573,510143568,511463144,512773279,515802311,518775292,520389934,520631222,521901978,522324454,522362178,522624246,523013207,523283062,523591623,524628960,526404126,527536925,529341860,529749888,529910370,529971878,532230944,533464150,534681645,534710173,535826914,537260035,537346785,538973080,539185946,540600954,540687107,542012711,542817555,543792680,545172899,545868893,545937066,546466959,550476409,551650146,554149387,554482432,555306886,556239080,557928686,561775697,563752735,564506261,564726179,565702089]}
{"user_id":20917130,"collect_list(fan_id)":[140141,1579280,3124094,4135164,6490104,7832683,9690908,10137893,12097589,12326642,15272400,15662194,17817814,18302668,18796885,20119632,21922973,31182082,31685950,31841388,32880971,32932238,34600105,34857791,35378939,36329323,37390930,39735034,41446498,45739688,44291552,47357097,50300661,51658031,53383854,55573660,57135479,57883903,58528653,61907019,61928380,63329042,64117079,65075386,65790620,66612122,72588911,77775550,85111074,104018472,106202298,106681103,108545179,108620162,119890919,121041266,123419445,126401246,129632022,132351419,132901121,136964354,144678894,145270259,146720385,148403404,150365481,150667046,157308892,160783036,161049235,161753568,170003494,174975618,178543493,181429367,182963231,185439717,185720150,186266867,187680762,190956000,192171289,194493210,201349468,210935777,219921226,224021446,228752917,228841645,228872718,229564969,230046294,239816458,244244160,249322167,251782703,255282436,256479390,257349861,262030568,265475765,283569385,297169985,310217343,323834046,324263756,330665236,328768759,333405056,347661876,348679510,362614149,377756566,385529419,395374376,405711452,418326573,430875822,440456825,446704287,447188278,447344238,447904164,451881613,452614442,461058505,466292657,475543972,476013264,488384123,491482488,509662013]}
{"user_id":273513299,"collect_list(fan_id)":[153682,4107841,7302447,9046451,19646514,34106015,42575654,54981912,60355185,90584920,90660018,97391600,103324247,104933654,105610691,107194860,109288303,124796778,138841035,152258260,152773921,153113008,161587268,180533555,180791168,184871854,194702338,196011785,199785621,210915407,216687234,217501660,218110203,224393106,229886110,232955378,229785924,236930723,251256133,267394670,272011556,289141125,370778030,375315946,404716229,415389532,415392051,415392876,415395518,419486249,443710352,453236394,476988423,476995973,493304802,489949026,506021500]}
{"user_id":100136549,"collect_list(fan_id)":[214372,389806,465320,559995,843980,910432,1185294,1252234,2238998,2916843,99124721,358869140,386283647,399753446,402454342,445065912,471789155,522934931,526550998,563948010]}
{"user_id":190713301,"collect_list(fan_id)":[298133,2556096,4213291,5479223,8305568,12068731,16297441,32875494,37787482,43239703,43912220,63791047,99892941,109425745,113728419,137992158,138046509,139888455,141755425,144950425,145720580,149034269,151836207,152915823,154101004,154805915,155838588,157730504,162402367,163202023,165821434,167928696,168525789,170734277,171799535,185524752,194791400,196073990,203273207,203938805,205337885,207392508,207532391,210854798,213078350,223288790,223290629,227219034,235027635,240555434,271640259,282634262,280485089,300852307,313043719,313702005,320670535,323221317,371336791,374285096,381311660,381509046,386393428,409477395,409954263,468400703,476247273,480181698,484921736,503175378,532157365,547191092,555104854,555304727,563314111]}
{"user_id":267160385,"collect_list(fan_id)":[319989,6663549,17371423,18289806,21271831,29899052,35191357,39031447,49403731,50108890,50476779,52379838,52925501,58914856,60529117,62382307,67600746,71915739,75297196,87129434,90307903,98898314,103179018,107225934,108141605,104711442,109801237,113798919,116936239,121985887,126366187,132740853,132894058,132946646,139635466,142590400,143196142,143263795,144125588,145251185,145579633,146140162,154136111,161419774,161558401,162497232,165685811,165686705,167290782,171165131,177616892,181792871,180887603,184721724,185661042,186128156,188010376,205425277,206417896,208736924,216608106,220064320,223263925,223829995,230549265,233538018,247690738,249918429,275947414,279450727,297468092,304794570,319218471,324345407,338741880,345237201,346338356,346430107,362252874,366431303,404971451,424679092,433743608,434922109,441109922,455547747,472179208,472969105,525473095]}
{"user_id":407716,"collect_list(fan_id)":[401642,446098,471525,1047942,1359102,2290111,2817635,17270526,20159205,22841289,42733275,87528254,137226566,148531745,152592360,202328375,253650627,358348531,435353974,464403971,504826297]}
{"user_id":22835189,"collect_list(fan_id)":[340806,1026078,1460423,1519010,1738407,1968288,2321189,2493915,2723529,2861374,3741409,5017956,5605250,6222674,6693742,7430452,8020074,9540941,10416562,11542954,11731722,12253916,17456971,18060374,19041990,19043029,19349805,20400509,20707224,21028969,21616568,27028719,26776107,31128083,31278739,32925756,34329710,35378890,35701543,41064386,42629888,43849725,46604867,49507653,50318479,50759090,51398606,51809846,52258762,52508855,53769528,53838061,54679086,56053831,57676084,58461681,64688766,69484566,70573146,71339507,72916465,75419149,76951510,81833489,86312148,89196826,91636688,92529719,95293358,96008232,96241165,96844918,98138117,100413320,107086706,112366518,112920625,118760212,124958389,139909151,142347187,146751190,146886674,148522726,147206242,150920068,155800856,156850884,159780219,165383283,170460486,175860009,180810319,184851074,196745998,197643740,198694226,205126116,206129697,219126696,221194669,222621199,225757842,231706773,232222605,242285532,262756048,266296938,301561537,306292697,342888366,372149752,372478966,388028138,416180005,487990914]}
{"user_id":153100212,"collect_list(fan_id)":[426002,1108756,1591685,1814125,2606296,3148356,3312071,4640748,6629567,9585519,9800974,14058009,23273429,27008672,76038310,80098342,94730988,133951030,138098845,150973736,211577944,251762513,287633601,428227596]}
{"user_id":243517148,"collect_list(fan_id)":[393107,577371,696847,730078,751135,1091000,1163041,1177087,1460625,1678862,1683060,3181558,4074265,6223794,6457036,14804585,19337902,24149433,28723184,85156372,283794836,327281596,363608481,433927071]}
{"user_id":47255570,"collect_list(fan_id)":[471111,712918,1235662,1345835,2064147,3318506,3517535,3924321,10757444,48425462,52704250,59951223,63450348,98806584,137260476,139756179,144154091,154659181,162068229,165765327,176311638,243309349,247501758,345045653,477687318]}
{"user_id":129117200,"collect_list(fan_id)":[506042,775095,6698591,7702335,29796255,68122700,369093747,533512335]}
{"user_id":3270831,"collect_list(fan_id)":[654505,842250,960251,1045377,1419293,1552274,1775352,2305104,2872403,2901174,4062666,4129302,5122389,6048387,7252888,8173958,8551187,8934662,10367199,11073301,11094610,12268207,12556052,12866555,13250827,17752143,17793613,18419970,19853275,26278016,28863052,31069214,37676794,44160401,50951014,55938472,76897905,78742787,89002763,100626827,104525148,111483764,115891115,115936659,133172512,156418821,176128800,206058227,222200757,257202902,323978240,337336940,409420576,426206012,426551527,432461415,433196494,434496188,475726038,531387521]}
{"user_id":269895572,"collect_list(fan_id)":[584818,773994,1940284,3858406,7597866,8732234,11881517,11985392,14600993,14743779,22485662,26479460,29345629,34550885,38773314,43611452,54528937,57494109,58796573,62305356,70096617,71189542,88385741,90064145,90501078,101511135,102003303,107435153,121556997,129026980,132251726,143005559,144213712,145188960,145378631,145643937,152218209,152730412,153553910,154027981,154353270,157384694,164680878,169928611,170585884,171087837,171646570,171167913,186236661,189176969,194524882,195001824,198660945,201225478,203458597,209087346,212389304,216359713,218772071,220011956,221140578,221760189,222704152,226442471,227200754,230375007,231623097,234883069,236672781,238599327,241120768,241557543,241777628,244130879,247238577,251966847,261390798,263100104,264550125,266521129,268985328,274084253,291826103,292439954,292534462,289527661,303999358,305858449,306637678,309087526,310376934,311201938,317384541,322446924,323248346,324022062,324432511,331777830,342893941,344158760,343029098,357852072,364234892,366743845,368253678,370545355,376552102,388124255,396023317,398403673,401879848,405401338,418725712,424768070,431304990,443732983,444279396,447067445,455647466,461631530,464916168,465373078,495764706,496752145,497247520,500342255,503816166,507180652,507837380,507860887,509115161,509423881,524841104]}
{"user_id":20074677,"collect_list(fan_id)":[726443,794316,1353834,1931509,2366831,2910305,2925733,2987548,3158149,4060528,4283439,4740298,5187386,5648486,6373495,6842701,6869638,6932027,6955317,7039775,7760317,8269454,8297465,8308466,8329831,8580808,8843772,9428019,9711624,9862183,9891899,10241944,10705332,11218547,11414798,11415384,11881775,11928728,12044038,13634870,13823560,14335554,14618480,16051516,17157197,18218783,18894694,19952628,20108085,20366381,20929669,21520638,21775063,22094701,22148082,22792044,24928553,25435587,25833157,25955542,26054607,26609513,26652906,27150068,29384700,31479082,31957381,32771008,32954415,34211164,35760536,39910447,40761745,41163970,45242295,45998595,46071004,49246240,53415988,53441955,54320021,57199884,57368172,58710573,59315163,61612292,61746083,61822096,62724518,64895041,65089852,65956150,66754648,67951717,68474740,71275257,71374697,75051023,78466443,79129358,81137768,84617108,89309880,92253980,94416127,95786079,99185543,100196503,100808647,100853798,102794385,103158915,103984170,104577793,104994491,106261123,108532271,113534541,117544292,118614744,120872781,124873770,125875202,126407617,132356317,132899364,133461955,133628159,135001289,136489039,137537961,137625218,139409668,141208056,141503568,142648710,144583562,145441952,147550019,150191745,151687233,151713009,152337927,155206996,157576042,158407972,158539520,159262993,159773037,162773927,166519636,166631546,169700953,172051170,173126294,175219889,177536960,178434977,179438845,180177146,180570544,181736947,185994347,183505621,187766857,187808991,190118704,190179711,192592548,194465456,196458921,204097843,205285684,210415554,212574701,217266487,217331557,219813385,222573375,224765681,227031256,229689265,230953020,233138604,235363373,243511245,275947829,281814081,287604750,297314390,299722705,302583284,310336499,312415764,315559926,316984768,320404635,325876344,329446592,332832884,338441706,340828595,350690703,354398148,366451198,367499806,375195318,376036325,376382505,378250638,378595000,378866265,384695976,384757889,398146026,401385368,403687122,406451097,414603790,414869035,418101061,418505073,423586890,427614380,430724849,432096735,434073011,437484111,441588937,442111333,448759009,454700729,464650757,466601581,467404615,473401300,479707805,485248325,486047933,496764052,503612228,504780618,504931105,507361177,511747913,512582227,512888624,514550120,518859545,521979396,527260171,527660328,527962592,529472505,530499811,531783426,531909428,532512669,532535640,532633958,534356747,534502732,535500634,542933370,545832482,554214429,554242552,554250993]}
{"user_id":198012335,"collect_list(fan_id)":[779367,159202633,164351179,173554825,191666137,193320231,210430241,242036785,253385345,302652602,316269170,321664207,321211272,381431982,387238389,426729710,445812756,448959286,451504152,452594447,456606539,458081068,483191060,505010019,538805129,546179885,561915745]}
{"user_id":506427178,"collect_list(fan_id)":[700325,124347380,261588307,321685693,424840780,497615769,506429010,510323435,510471397,508718759,512868106,512136963,543180932]}
{"user_id":60902552,"collect_list(fan_id)":[835150,3599887,7196289,7265002,8656308,12791697,17067648,18456970,20939551,21879118,24969366,42260486,61749046,81016399,86083689,124709849,131747233,133825532,137839539,144636744,147922060,150271125,151299945,151820456,153516558,167726546,172732390,193364147,210766703,215903687,225818028,233299977,250326178,251507239,264749724,376760687,379032859,382325666,388806442,446764461,482708877,533714220]}
{"user_id":183742269,"collect_list(fan_id)":[1004849,10549370,33806154,89387712,153416876,224339736,303277357,329915273,333716188,340327996,351841032,354480138,356635687,389179235,407948404,409856841,417039934,425407208,434687342,447328883,469225099,478530510,492106636,492529534,498659218,514580460,515225290,521869837,527832337,533777994,538817192,543519163,557346718,557779068,559252491,559748889,561733791]}
{"user_id":192460296,"collect_list(fan_id)":[898909,8254517,10455671,16765096,26114677,29309423,70359470,104986667,132637499,140294660,140824143,141801993,142488793,146260834,150327713,159205737,162496485,163190480,168317561,172165292,173458866,173631701,178723804,180328410,189435407,205148358,205464251,210972073,225290929,237467274,244577783,246714942,257537149,267742798,276307854,279848753,290313421,290963460,297510454,301467584,315591298,329396416,355238489,357965657,360597478,367218747,381706099,421086153,425528709,438139632,451410814,451599209,451615099,453745351,461287630,478911479,487831339,504697398,509408447,514584008,523286252,543681565,549723743,550672595,560924264]}
{"user_id":536038132,"collect_list(fan_id)":[1266880,47221213,53042703,65224449,76748399,80022665,93266263,96814621,133591969,162503904,168551373,169745984,177274742,177349174,183950523,195635405,196337294,199541602,220686222,221335188,245575084,248831714,250506967,255258118,256416277,260989532,262934893,268485805,269607983,276360367,278972417,280072757,281180409,287383479,287773126,296513434,300233374,308291277,308339461,313404622,317456322,336684812,338320171,344084940,346368253,352714045,360281322,361924065,367309497,370802088,371058282,373792506,376173211,383274308,389724275,407168086,410103073,410626702,411005882,412483836,422135510,426509048,429585728,430377723,430434595,434282188,437300080,437394778,438809172,441315675,443325946,444745954,442938226,448361767,454825388,457296715,458252444,464631642,465128489,465670636,464232764,469893426,473417699,474627519,477532381,477568990,478592985,478869920,487980871,492828439,498266025,504099858,505569323,506936760,507762412,510845704,511213720,511710735,516385395,517110579,518731837,520171438,524890414,525342187,525876762,526447591,526854692,526860558,527939065,530000719,530017329,530204333,530219388,530641118,531410627,531999682,532301518,532818492,534444562,535203186,535769084,536221121,537412106,537606424,537851116,538050402,538095172,538212269,536525294,538999208,539232250,539410835,541282297,541432243,542974879,543555761,545181019,545353195,545737728,546011131,547788453,547813462,548400764,548468855,548653320,548855743,549093736,549288963,549514548,549678675,550652032,550790251,551130592,551396808]}
{"user_id":198655043,"collect_list(fan_id)":[1763747,4562618,5195318,6816897,11093693,12377491,19796880,55640523,71861472,86246374,115198184,159354212,199071590,260437317,261786257,262626680,292332089,314758735,355938891,535907526,552687113]}
{"user_id":379416090,"collect_list(fan_id)":[1763563,52167455,73271090,94642914,164623563,167326970,182488629,191341055,197100713,240447005,247499949,250829847,253335379,273370951,289627846,290079408,300493732,329271267,352109492,358974967,364812266,378314155,387902056,415666481,431862472,445438887,446627658,460161747,466589403,477444288,477915228,478557586,499644798,511513505,550268774]}
{"user_id":406883909,"collect_list(fan_id)":[2138879,12574401,13064270,43818289,139185291,139777290,151862474,160506443,165343545,211281519,246407737,263181660,314249161,314633588,356866260,369941021,374293033,376369986,498452966,537018327]}
{"user_id":77066266,"collect_list(fan_id)":[2732124,3257943,24885289,50896540,74654589,153183105,191682569,223328894,417826602,448625121,450081188]}
{"user_id":403571367,"collect_list(fan_id)":[3191947,76564061,215533005,354655239,365195521,438794344,440946101,448856594,466563278,473567328,491088386,500144391,515389676,516631617,526419659]}
{"user_id":81724953,"collect_list(fan_id)":[3730820,10443744,24643966,50541202,53567365,69314540,69983610,76287151,76623708,81718829,85743531,85772611,88330092,88666898,89698790,91456824,96052089,101475467,104231549,112136409,112646139,133076078,155313966,162197997,177086226,183236837,185992551,224208278,231473729,243429355,263883703,273054710,386077262,453960099,461067981,546431558]}
{"user_id":132884992,"collect_list(fan_id)":[4319919,11718334,17204744,26634580,26910257,27015672,28861388,30189554,32181694,34634283,43747798,44806499,53932593,54441503,57553378,63615682,67554463,71410573,71732018,72367485,82017136,87574114,88520673,88618247,94403646,94581139,96203844,96451788,99592829,101379563,106211966,109077006,118603068,119587290,124280716,126387756,131951624,133017944,134190660,134214890,135990163,136654609,137289751,137765123,137942733,138312244,138613809,139996843,140038307,140560135,142324163,142488429,142817769,143106205,143179542,143662827,143975777,144618437,144668230,144830715,145544546,146350004,148333577,149168385,151409102,153605971,155380838,155735471,156297761,159319381,162686405,163908410,165247731,165954305,167007100,168253522,169619741,171102738,173526836,174046134,174299996,175003838,175052633,176743346,176831392,177694103,181096215,184871849,188201619,191084327,191765138,194953607,195758935,197696266,198431104,202037550,203485368,203766337,203901345,206191228,207466932,210035471,210553909,208207726,211616680,212846265,215946850,216610022,220795327,222648005,226948769,230164314,232543590,233921895,239481531,241216859,248293207,248660206,251189776,252966618,259024701,259087319,261849881,264917487,266471879,264842349,270853550,273157779,273337332,274807934,277409931,280856805,288984984,290254033,295140144,297476776,294312092,298923336,299495363,303207873,306116738,315893718,315893902,317227849,320610541,324545969,324787748,334554416,342278579,342560269,358153360,358158707,367625146,367731338,372979407,387322344,396530494,419332896,432830540,447461380,460309105,487639287,512878389,519697030,524119122,529436740]}
{"user_id":94273466,"collect_list(fan_id)":[4681640,7285647,9866168,17312123,18750642,25889776,35759126,59765473,61226335,67899561,77083547,95963908,119504998,122827641,128158635,134178356,148506290,182858697,207249564,210568470,246120287,272399374,380769689,546814983]}
{"user_id":185336675,"collect_list(fan_id)":[5187253,10335162,13202697,18265859,20944256,22796853,29019774,29927738,33309179,38781007,57104182,85091959,87640768,89153792,96010051,99431966,114054747,115451125,115454641,120077139,132014958,135245037,136887309,138615673,139098747,144473532,146190436,147889599,150551141,154379910,154618411,159055702,159939885,161009706,170290603,173579873,188847522,193093285,194687695,195136403,203443862,219269947,247194000,257064920,268185462,272810905,283396688,306799337,333573823,338667628,359436367,363424396,367202703,375535715,375985176,444292014,462463693,484565476,490687232,524144402,559789957]}
{"user_id":406284169,"collect_list(fan_id)":[5085714,35031939,103730073,220850600,227864043,230183964,262241104,465627897,509698756,547550456]}
{"user_id":183535934,"collect_list(fan_id)":[5525021,5527271,7684137,9410865,13081591,13918150,19469389,19516173,24063513,27090083,28731861,30481768,33171393,40360328,40455432,50983613,58717008,66623952,94888944,113227185,116756036,124918345,133780162,134073248,134753286,138484738,140187912,146454958,150448900,151342682,153196361,167191189,174618214,183101913,185413465,185588418,193257920,197855983,199358052,199728999,203096592,209756404,212398343,214414835,224817197,233073579,240048257,242080298,249683824,250646806,253344542,254445989,273663970,285128003,285142769,293138716,293142819,295996680,299504772,310996523,313734967,321435151,327029244,347398341,349472160,357931539,360214740,374480709,378309883,391091437,404922005,405167135,415388631,415389532,415391250,415397361,415399445,415400336,415404361,417283578,418688547,422618677,433722581,439940213,470059784,470689928,471716221,476989489,479937950,483616802,498551210,505866933,508717882,516379712,518421676,518601723,522676656,522924082,525635535,526612393,531104861,532599055,534865774,535016057,535575615,535830530,536954220,539177314,539271104,541688463,543928975,544444354,544597456,546467177,550053682,551382742,552778989,558283137,555966482,561673750]}
{"user_id":15846249,"collect_list(fan_id)":[6241642,19881776,23261709,79351859,85873996,539584262]}
{"user_id":138699915,"collect_list(fan_id)":[6762515,11912972,12563098,14238890,18879428,25690078,28881158,30893372,38277117,41423425,42032858,44011609,46934121,47237480,49412877,71058233,74088737,88695865,92022162,92556354,103045179,107857844,111889408,113536751,116532225,121557896,139368514,140729832,144086375,146009623,148257413,148893617,153475582,154110386,154844452,157440199,190912435,207569565,225180009,256590084,282382755,291972152,307283121,367079311,382051122,393398101,429152708,511191036,555559875]}
{"user_id":197726110,"collect_list(fan_id)":[7209198,9118631,12426351,14412412,19380421,20933866,22039975,25811564,31601125,36187607,47065178,53899603,54403223,58994499,66593776,71751378,78350242,86573169,89376508,95215626,98162985,114655832,116784922,124592261,134786946,147181230,152483069,160886168,183196977,192413471,199023967,202917056,215829957,233541094,251467435,308329262,309666885,311306418,324891653,330506429,338192391,344940209,353863434,354506566,363154933,382879809,383613843,439808943,472272342,507290038,519060401,525196096,529779714,536956228,537044666,537184535,538175362,538402760,538518002,538661864,550543181,551294519,561590091]}
{"user_id":58081,"collect_list(fan_id)":[8361951,326191544,375687551,416239533,450917989,464428246,485360775,522109916,525894920,535073336]}
{"user_id":98464120,"collect_list(fan_id)":[8551187,13553656,19166385,23916535,27278383,28176525,28538005,32801808,32989541,41804602,45475512,52668074,53782996,63422404,67441483,69352686,73868018,82794380,84496610,94170587,99925605,106705927,124279594,125376958,134327834,139256123,139587036,141021987,148268288,158054278,160131340,162186494,172891351,174767788,175462254,175720799,182311359,224183988,225963679,226544955,276699747,320745528,368421513,368977009,392409941,445058261,547449583]}
{"user_id":145361481,"collect_list(fan_id)":[8516996,13177503,27290390,49836735,51477876,49873851,52867989,86431572,97564354,101148320,117992189,121690492,121811222,136957157,137018726,157170150,166193126,185420556,195446187,196520315,208950682,222840135,352947589,360052289,386166508,404286651,408339681,415396299,415397361,415404361,424406260,453194881,543795844,545220195]}
{"user_id":165640766,"collect_list(fan_id)":[9661135,26289213,37099771,40860298,46626314,48438451,55412947,62572186,91244327,98530963,98935993,102787761,110387273,120134220,121433122,124146513,133544248,133628044,132467097,134130918,135805710,136859737,138177715,138990396,140824789,141946493,142456719,145498584,145675539,146370883,152877938,153447338,155396060,155597424,156043271,156603622,161930531,163608766,164267101,165045979,167007494,168439001,169831870,170545920,170717759,171804323,174258352,177791739,179544104,179987806,181958687,182705025,182709439,185661395,189815685,196078583,198230946,202312755,205225247,205452639,205672002,206423877,209044777,210523445,215250466,218634940,223492734,225695294,225824236,226143479,229405692,231776479,238751982,239558805,240566783,242024606,244436305,244896869,244949710,248751260,251077907,251149573,252905740,253610286,259145961,263217487,270099881,271019755,271383389,271540335,274718340,278461832,278934545,279376673,282779595,288082769,289800971,294772730,295037742,300146579,300898564,309645552,311477126,311581792,312444067,319580394,320808475,331877424,333223441,339702268,344595196,351003078,354294887,357087123,366783292,366963560,368666340,372935913,373933650,376993681,382525637,384555688,385234075,394227600,396142522,397144019,397322537,404010614,405681232,415466641,420027947,423796399,424858268,431969120,433988254,437445420,442751547,444712562,467474734,471461636,473766216,473836727,474895428,477971672,483509809,485060756,492223443,494546396,505677169,505925753,507364084,508744457,513782209,515709623,519919679,521018445,532155511,538565004]}
{"user_id":140280,"collect_list(fan_id)":[10814733,21855184,41654662,245566286,386123559,485098841,539973455]}
{"user_id":296232683,"collect_list(fan_id)":[10661716,21488620,40910024,70469343,84626509,90978253,96111263,135010494,139591339,141480812,161930100,162150011,171880904,172661671,182281136,184904618,189468616,203518667,212859216,214024570,216532176,222246960,224508603,230230655,230501605,232202312,234048084,244641936,249477381,250792429,258466861,258980606,266402478,267130938,267324404,275676255,284922174,291448001,297960044,299228921,299904515,300852045,313654728,318531493,325407572,333486270,342585273,346246024,371680145,375706355,423258050,445629354,471265018,484392404,507436039,540745866,554576654,560244208]}
{"user_id":368026092,"collect_list(fan_id)":[11240610,155975836,175790724,240582564,263282249,293498459,313501166,318278678,334202085,364131479,374759849,420688258,423533370,440255714,440528196,472608539,480958487,484474270,494312040,515281919,523508477,531565138,536077876,538385650,552766732,557497050,558304201,561932507]}
{"user_id":70067475,"collect_list(fan_id)":[13240573,79856841,123985479,178935597,192417781,206110571,212535719,224625936,319021265,334586067,410436377,425144829,434690076,538367882,541184176]}
{"user_id":484113990,"collect_list(fan_id)":[14836660,87447586,139836905,143641980,145989711,147015583,163224237,247482155,379911344,415392051,476995973,479679987,551150894]}
{"user_id":272788979,"collect_list(fan_id)":[15567571,97220732,257514868,264796862,307627924,351973012,439168314,476547217,489942108,496427878,538495330,541039992,545689961,557796783]}
{"user_id":64398550,"collect_list(fan_id)":[17121286,27457827,36666510,57639177,58965838,73811844,85313247,90533356,98719816,112393603,116114327,135814248,142894260,155138402,184582068,186726484,192534799,201166024,284398145,291927404,297831314,310038287,366283950,366288397,374163591,376827846,394964452,398900428,404876721,429153683,442938226,473481679,485786541,503943069,505503894,511472168,514374049,514681929,514995335,519143392,532548446,535056714,544061531,546272034,546468141,547249239,547493773,561771283,561967409,564744818]}
{"user_id":269860760,"collect_list(fan_id)":[18102838,36828780,126680095,145240084,155845542,157856227,158919450,161751574,177543619,203713287,208387126,228094535,233046660,285992083,309404952,324008137,395842033,427299132,547199330,564089277]}
{"user_id":236945213,"collect_list(fan_id)":[22929538,64646409,86571569,110045271,136587269,365402159,407882282,425152977,493556979,516070808,533050379,535172740,539203153]}
{"user_id":137718777,"collect_list(fan_id)":[43371354,67765515,70248745,98822378,145463006,156179586,168448099,184097336,200607455,246943620,254745673,273065744,412947255,514182686]}
{"user_id":510378804,"collect_list(fan_id)":[52351906,119179149,308049624,444958674,449193065,501695442,508044812,508452754,508721911,520895846,530581371]}
{"user_id":490207955,"collect_list(fan_id)":[56004842,62676017,103962738,121058843,121425689,122798724,134154469,149558785,168448099,195371851,212354934,332406258,423771201,465173542,481771386,532867644]}
{"user_id":76492739,"collect_list(fan_id)":[96033042,104104835,116964690,196774925,385207377]}
{"user_id":171161446,"collect_list(fan_id)":[133223138,169489546,439963802,507247150,526861401,528632127]}
{"user_id":561773502,"collect_list(fan_id)":[164299292,256349375,340109198,346536038,403402237,493137257,521915479,561764039]}
{"user_id":291755395,"collect_list(fan_id)":[205690171,239320055,256709702,538226638]}
{"user_id":559301406,"collect_list(fan_id)":[440311540,481389246,552404258]}
{"user_id":499970468,"collect_list(fan_id)":[545850287]}
