{"user_id":81638,"collect_list(fan_id)":[24235,114064,116430,57752,222948,282217,330119,333550,466407,533071,574773,582342,598015,683723,774966,842450,1039492,1561481,1780357,1870807,1909534,1976171,2057622,2099925,1875841,2566585,2726355,3046030,3293125,3341039,3411964,3524737,3840738,3895354,4484318,5271189,5810815,6138220,6294482,7120997,7853915,8980332,9148949,9477429,9799746,11198757,11262717,12928949,14305432,14387146,14434419,15057762,15463678,16832312,17235101,17364841,17812223,18533841,19662170,20212933,20439408,20766126,22586609,22865465,31728841,33861220,35010128,38654480,39962233,42178450,47893502,49869265,51211879,62282280,63552804,66089426,74129800,80027471,99251590,110273492,131857535,137081021,137808327,138174582,139915003,151012811,156956545,157041087,163649675,168912376,169412079,173063174,175541505,176274838,182269178,194684938,204892550,216777640,242804435,243539328,246724106,253695615,259208707,294766228,297227346,311487064,311762206,330746334,334610728,357281961,378640976,411100462,453791140,468411818,470189305,472529034,475306156,476988423,490963138,494642596,495253072,503659089,503795708,504214833,508631681,515499628,522379180,523138948,537686471,540747997,541389564,550787762,552247688,554977514,556219164,565949428]}
{"user_id":2246933,"collect_list(fan_id)":[35453,577293,2454213,2469479,2980275,3976213,5401969,32139730,439257058,492727966,503094502]}
{"user_id":2273284,"collect_list(fan_id)":[22254,26899,42952,79026,92215,195393,206776,355924,383928,427260,608162,669346,671228,773563,897529,1057935,1145432,1181348,1335141,1358824,1463772,1519981,1565429,1956144,2322637,2354974,2589868,3047347,3337430,3432156,3519130,3571027,3855173,4395678,4450962,4602278,5302024,5368663,6109363,6230708,6285983,6553166,6896940,7093118,7470441,7839168,9167350,9351778,9356958,9848311,10888333,13312744,13315224,13604333,15382793,16717609,17756785,19297094,19383036,20249911,20801080,21106842,21643594,22761276,24820620,25119982,25378804,25554129,28875204,30070445,30854417,31701557,31851285,32074105,32884836,33138433,33187138,33451758,33670255,33801506,34327938,34634621,34855896,35307928,36256304,35131803,38364797,39347353,41140327,42207989,42559262,44610637,45962147,50309024,50465953,52753841,53303890,53893384,55062923,55249657,57164664,57548665,58488966,58863629,59287776,59964208,62834578,63218165,63281392,63314915,63835289,64884820,66008306,67583194,68488551,69194472,70061823,70308807,73850605,74270317,74738914,77913518,78025213,78069567,78336716,86370926,87906677,88793946,89429935,90253163,91428226,92084026,92762438,94038223,98041343,99575071,101677530,103462598,103540460,105400549,106496671,107139493,108410010,108864269,111926087,113202225,119315981,123142137,123601036,134316405,135329139,135445880,135847127,135853583,135913675,135954005,136308235,137200279,137530297,138110056,138127938,140472186,142041074,142869041,145996174,150585100,150628163,151614788,156650554,157242097,158026561,160465760,161497618,164114640,166203404,166370384,167279718,168423646,175573838,179707321,181384498,181396637,183276394,184418073,186518634,195518108,196188503,197586856,200033222,201144031,203193959,205308908,205752978,207602486,212014132,212310853,215850513,218437554,221219370,221559813,223414875,226103268,228268587,228712121,228878590,230436006,232202392,232914863,229805365,229813018,237382020,238151041,238261158,238480501,240954987,241941629,242827762,246012598,246163490,252333075,256708526,259410119,263685617,265812893,267518866,268230789,273804542,277381149,278555567,285537502,287289572,295985348,300161449,301430009,303177302,310223820,320968393,322799164,322921362,323863445,324309254,324795203,328009217,331121425,331669938,349191076,358037154,365152172,374825502,378302452,379913063,381070482,387449965,388622320,393618967,396725043,416650335,420325781,423939384,424405589,425458962,430229973,430521150,438607964,443709285,455032593,466991107,470700100,471133693,471930112,481504164,482100596,490510360,500047830,513686106,521858401,534599619,538672455,539928324,540523528,562067216]}
{"user_id":62219,"collect_list(fan_id)":[72600,88241,92450,58829,144014,407740,1118240,3169845,3260276,3874940,5448383,5784606,9834502,10601677,11923080,12798342,19608584,19904642,44184462,52248965,57399973,77601162,88870194,117316023,145888768,156922177,179361277,219050837,225286508,267467814,299139106,332800718,333901913,336154616,354978345,379294903,390125914,467976907,496269353,508473749,512558188,535316366,564220179]}
{"user_id":628925,"collect_list(fan_id)":[122376,436663,746822,944775,1436952,1474654,3199187,3819807,4674995,4803362,5355494,5401036,5631268,6073787,6563592,8099912,9346872,12103066,11440471,12724775,12896145,14053473,26795138,60874970,116990866,133435260,149184299,221171678,243754183,300421824,319179936,330748892,379475880,450409745,458602082,473538658]}
{"user_id":176461282,"collect_list(fan_id)":[101515,102929,204685,355173,408213,709855,748445,919043,1029579,1102712,1545250,1670376,1923201,1936408,2358945,2725358,2759104,3361937,3586186,4120544,4407720,5193400,5496013,5689008,6759931,6809472,7267778,8377470,9685004,9701145,10169628,10216452,10849205,11201340,11594446,11653286,13166764,13571897,18186907,18360753,18425289,20482385,19830093,21474280,23218681,23253664,24145453,27495539,29054700,29732602,41928561,44199202,48509506,52038430,53340591,55550726,60078608,68134775,68633360,80807564,82491204,82994412,86358586,86699094,101741615,105903165,106140661,107116168,110539336,116447235,116546396,117758798,120075875,123331733,131614945,133719001,134471399,136584408,136920940,139875739,143974409,146148393,151924780,152866368,153001574,158488941,161249426,161865995,164326871,164909901,165233268,169430669,168732057,174334932,174438398,174645883,187402607,189886485,190656407,191699058,195967592,196032004,203357541,207237772,212770430,233853385,237323783,237844283,238306977,240089986,242308407,242655090,243946473,248529758,263685760,264505533,267269786,272476282,282630944,284416976,284762680,286466303,288490564,290744208,291784490,293958173,302428480,313253977,326219475,335853695,337665415,339140229,339477862,341141530,343690360,344958444,346050618,354600566,355979579,368667374,372846804,376077686,382290140,386664737,389457344,396002181,396935002,399275367,408301619,421224209,423483297,426830051,429519968,431682675,428460664,438309590,438359529,443830464,445900672,456853114,470348530,476438306,498694652,499846876,523440913,539400030,543169640,551096369,551186667]}
{"user_id":183983261,"collect_list(fan_id)":[76994,4395394,4843506,28561774,48158880,69673361,109353865,150511864,163734196,177109005,184395700,192151555,192556797,192631166,197797991,199458188,201431171,221636747,236845643,240668794,249855546,263520974,268204736,270013445,288807417,305897346,322235150,323830570,352674570,357856779,360584550,362716737,364643966,365870292,414527465,508152221,528410087,529678654,551837654]}
{"user_id":243415712,"collect_list(fan_id)":[118753,444104,476672,647454,834846,1159909,1006771,1435584,2290664,2708932,2476521,10578701,11874384,21454235,24079190,32762601,41774550,46063044,48242073,53064869,55827023,59474754,61931665,79432116,93028390,94830531,95740759,95517175,99718501,101952377,108886924,112991502,119878158,131583824,133486884,134523545,136261594,138661090,142912826,146960305,147958939,151536831,151760346,152351596,155543102,155640396,158554988,160624288,161782150,170057865,170720292,168688494,171801471,174334501,178693812,179453935,184399566,185122068,186084273,190851920,198338262,199512700,211017552,212854059,213445899,218040002,221841000,226310065,226977951,228058362,228626272,229310523,236311057,237513857,243275536,243560126,240791457,244981595,245420410,250001576,254555427,257786896,267701499,269060697,272784038,282260331,291548440,291774430,292093129,296059197,304200495,311717460,314625061,320566193,321328907,336459825,344349966,346982020,350844573,357028909,360143885,360548798,362552000,366181523,370299623,371801496,382211281,390126029,404933546,407590724,416698145,420498999,424111024,432022352,434363393,435958671,483229812,485611743,492589706,494936090,507682880,517727908,520371187,539081209,559569861]}
{"user_id":17610015,"collect_list(fan_id)":[190079,226371,609266,634744,1236984,1342606,1645845,1760319,2028586,2157840,2257536,2434701,2613959,2624566,2714610,2881626,2950181,3127459,3247451,3467862,3592569,3642354,3802069,4245423,4304574,4362160,4698946,5560958,5683015,6471933,6689933,6793637,7172525,7411716,8377649,8469450,8799648,9025629,9170722,9957412,10027705,10047968,11731908,12752434,13462743,13634372,13706134,14027266,14237202,15399429,15540745,16253093,16373621,16867873,17393465,17522824,17861481,17865718,18725398,18743164,18833108,19031485,18633484,22536167,23112890,23494272,24952175,26694381,25053324,27961107,28700844,30702049,30771251,32378549,31588678,33689142,33724305,34353741,34553115,34928144,35362103,35975498,37936998,38324416,39470138,41455627,41615214,51069920,51743889,52750905,61090928,62822521,64161074,69368173,71635958,72299431,81063065,82797535,84857428,85112166,92785322,114360927,131985535,139026068,146252109,147726396,155775377,161488994,168634273,178164485,184607667,219451778,233400395,238609029,244207049,258787442,278067133,279448673,291737289,293353644,311678148,314611323,365166403,415371520,448682376,465403202,504780428,509869030,518992036,522168442,524621861,539906571]}
{"user_id":21892949,"collect_list(fan_id)":[168714,383387,534719,713462,1025306,1143000,1296114,1427234,1470450,1541310,1574477,2009556,2176844,3103686,5189029,5510954,6807152,7294650,7728413,9123051,9467665,10075413,11629516,15986953,24822044,31725971,50770031,59690679,79592928,93421162,137383261,137930578,155611489,167294965,277934204,323262579,367280842,372976365,484152596,539124153]}
{"user_id":75636808,"collect_list(fan_id)":[163878,163907,760255,1488228,1495101,1642494,5412701,5840420,9684410,11855802,12939846,13220433,17438917,21878825,84551913,90402178,95392537,102135470,134845404,139454353,142669062,155024091,183640083,197864760,245509883,249192926,263717225,300674320,505126461,507318649,536146627]}
{"user_id":102019446,"collect_list(fan_id)":[154696,661397,1319531,2571331,3494077,8171029,11771899,13125869,13360500,13363439,16546635,17339856,17347298,17710748,18067294,18533841,19306315,22332981,26643516,27032867,30312985,33902286,34508626,35224877,42408885,44823017,44888242,48692968,50484864,52102248,55804243,56744823,60973165,63365702,70854149,71108153,74555576,82570209,84857113,86246808,88066909,93621986,96439520,114117325,116066575,123536846,136272259,138335988,139660504,142431842,147932232,152050637,152988173,155068163,160438224,164290074,166197452,169690571,169728070,177824352,180952669,190870867,196448314,210213254,212705759,218856506,220877829,283473228,318917805,320848814,346963922,349232905,380228641,414209267,466127654,513844981,549246670,552687113]}
{"user_id":1478002,"collect_list(fan_id)":[311368,677780,970867,1099068,1421565,1595327,1825907,1996107,2631982,2918947,3222453,4135898,5339978,5383623,5662512,5680676,5867425,6346038,6599233,6852520,6872967,7933318,8485393,9857467,10511323,11657826,11711925,12627701,13683305,14612199,15043563,16157347,17497151,18022069,19175363,19337697,19515144,20289349,20575696,21539068,23627274,26273600,27211371,28344145,28814471,29132205,29140913,30587917,30715030,31550734,33118008,34516082,35611138,36001111,38488635,40485567,42715484,43718300,45335326,45453086,45457177,46813059,46959303,47263090,52382761,53320085,55083925,60662075,60731740,67072954,69152054,70508937,71844098,83114535,98469858,99732549,100512273,150619147,152358097,153566735,155648976,156777720,157207809,164657336,164898733,165384722,165919366,169756164,185641413,186790697,186990053,192263692,200945325,203602441,204552852,222371988,226481501,231577004,232559307,233109419,240496022,252879893,265710254,270530190,274604334,281783092,288014548,289902289,294765157,295216088,295398849,306831144,324791825,334024689,336901146,338810542,352926344,356248247,368845664,406594759,412844066,418658862,436935011,451855055,478374725,480221966,487068454,488638953,499698977,501804299,516072726,526740839]}
{"user_id":16300063,"collect_list(fan_id)":[227014,320971,856000,878562,1194105,1523048,1807726,1919512,1969467,2294517,2626740,3153087,2800596,3359066,3366341,3470921,3473249,3693942,4118677,4191265,4255697,4574348,4734826,4858188,4870392,5246037,5318654,5636842,5805567,6023166,6452071,6475969,7461606,7604128,7684530,8227903,8356317,8683640,8920033,9098780,9251823,9412517,9945564,10029904,10070844,10074775,9611054,10617060,10729625,11081095,11344908,11915127,11978541,12020498,12194757,12395751,12678175,12893518,13484010,14547358,14751718,15364669,15533984,16097168,17368964,17898424,18026027,18117980,18171557,18519102,18830004,18832320,19027166,19794488,18638399,20022627,20596100,21353209,21659256,21764429,21873989,22199740,22358461,22407842,22635780,22719665,22775858,23040752,23095739,23432520,23491653,23898396,24438099,24658682,25562746,25880655,25933124,26452488,26667147,27900740,28570840,28770312,29058450,29393170,29587399,28309748,30299766,30541456,30561934,30710572,30862507,31063660,31416760,31779185,32175155,32631862,33166863,33830591,34040825,34101790,34597106,34661571,35245188,35516904,36169884,36764360,35152176,37894993,40384894,40775890,43062707,43208678,43323172,44325609,44702428,44857688,45201924,45849972,46311971,46695392,46959360,47049459,47051080,47656441,47878369,48046249,49499460,50392004,50873509,51120111,51952069,52253501,54100531,55923034,56109670,56730707,58737077,59334355,60794500,62735328,63185735,64146703,67097664,69315857,69664054,70217277,70990331,71052198,68330522,71567376,74974544,76045614,77059898,78259590,78916655,80739168,81031254,82899725,84303848,84614001,84793391,86258623,87108089,89845381,90465294,90872292,92464595,94622343,95632883,96056655,97420603,97789491,97812156,98302023,98488909,99749570,100475959,101927349,108191745,111429523,112023721,112655799,113222455,113249772,114243746,115789942,119198142,119447386,120747051,120950889,126346259,131633203,131660210,132291071,133553169,133591294,134435300,134548996,134676822,135915831,136567146,136991153,138303079,138548046,141009632,141250034,141650261,141734605,142292427,142560346,143023199,143533326,147017012,147661223,148213409,150452066,151957652,154315534,155278871,155533384,156888570,156962703,159804212,161830014,162620306,164053283,171996123,174201149,176148736,176448853,181342128,184130382,184323185,185525007,197014985,198571345,202803529,204368300,204631078,207128439,207684225,210133052,224127452,231601412,237201909,241089249,248049735,248155497,256570439,256966868,258487035,263431158,269301622,275812329,282636347,299108698,300144076,302616090,307027578,308156517,310246072,310354972,312061272,318160937,318556525,329550996,336107902,340265453,341480894,348764679,352254854,355091548,356019406,366620305,367949012,368145004,369384691,369905696,375011789,377632273,378688431,384465581,389142138,390337210,393287687,401700094,406914556,410574561,411765412,412394194,421531692,430947799,431869856,432681618,450584954,455686208,462452970,472622592,491461596,507148651,519385759,522843236,526877077,527646953,529267145,531016524,538416574,545013513,546236906,549085803,551750749]}
{"user_id":526122695,"collect_list(fan_id)":[243080,989145,1119721,1618260,1782536,2687492,3861196,4161838,4693771,5307730,6259515,8326813,8694173,8787323,9489312,12451096,12838209,14708030,16189094,18139001,18671092,19244019,19528207,19779992,20457428,22930723,25266010,26471230,30658748,35265294,43568315,44350536,44577718,44900261,49796196,53157206,53227585,53356582,55847087,56915544,61627769,74737016,76079517,84841078,85935701,88373069,89255320,90199023,90729205,94675620,103502516,107636512,115330832,123133598,133466415,135974014,139995933,142795858,151094506,154831971,155671100,156589200,162073987,171125533,173179592,173440352,184531131,188667396,208942188,213909821,215690104,216689960,223725524,225897475,235559284,242221445,245855347,267399710,269248748,279169942,304284926,309688530,307442113,318768005,320916333,322617452,324473106,327055285,328267224,330522106,344242148,350853697,351458727,359820777,360833190,374710585,382821743,393988117,396424717,400831594,408491706,411996165,416319073,419829337,428604605,440594931,442397120,447975974,461837584,465989231,504038896,504779314,517242279,519548399,523663430,525724769,530738646,534543843]}
{"user_id":1684252,"collect_list(fan_id)":[414576,19097672,64159078,179064696,239896805,285128003,460220769,481301419,528890934]}
{"user_id":62234805,"collect_list(fan_id)":[593022,741067,1214609,2792404,3024912,4112866,9048873,9491964,9699159,10422628,10882591,12558726,12903742,14060487,17007175,17168978,17486003,20687364,26582481,27887940,30766971,31533223,31875645,31963702,32022786,40531933,41463388,41817643,43029457,47756421,47828271,47941084,50363197,51179806,57140285,57415660,57750062,59080015,60732020,61690290,69342632,72403679,79209494,83874741,89638942,90837786,96572633,97454654,99087381,99446606,101857123,112409815,112426362,124798725,130133413,134488581,136217078,138133066,139434888,140467211,147828199,154828996,158544177,158943110,161149924,162653001,175236889,178647959,180679895,185387943,191699843,197261632,200310119,201102975,202298896,205391283,207338667,213504394,215890870,216594581,218347665,218399898,218532740,218941943,223332733,223520956,226744986,230706728,232122948,232222284,232420391,233690447,241133787,243051543,246382737,244854602,250297702,251836480,255512544,257707722,260999176,272054934,277508331,278678492,278889024,276554014,280886746,285785738,285916597,289940735,297272784,299911008,300896582,304147586,314836891,322855053,326329832,332212759,335872097,336535764,340166985,342827643,346684040,347026659,363568263,366042736,366428583,367971148,369605530,373364589,374252914,376217214,376839318,377711834,378144082,384690738,389425945,391988083,392837504,393659248,405132039,406617018,407602347,412437183,417415950,418860503,421840047,427117118,427815002,428115682,431104390,433314133,434272967,438570838,444661608,444791711,446556187,447283929,448729889,448874753,449329549,449804474,453712707,453780526,454695388,455392751,456539663,458095787,458720454,458908850,463167933,468532553,468978385,471879479,475693133,479022129,479780822,483878431,484344302,484459581,486981743,486990132,485926758,492961826,493766591,494947278,501606718,506756133,507844745,508774830,510508967,514171761,514595488,516448257,522378750,525186760,524326011,526957003,528459531,528802617,529460218,529680014,529817757,531067753,531261126,531543213,531937829,532486455,533079851,533520262,534599376,534833015,536889303,537077053,537879042,539577561,539606937,541377397,543699764,546089418,546220547,548368478,550367028,553411621,553890219,554062530,554368146,556298133,556439896,557136986,557988590,560447740,560623613,561234993,562632124,566895285]}
{"user_id":80345,"collect_list(fan_id)":[692480,481907096]}
{"user_id":19752578,"collect_list(fan_id)":[941512,1487157,1548397,1980970,2456440,2755601,2889085,3352189,4945760,5336704,5652815,5702690,6139798,6619097,7170461,7830214,8418010,8631370,9071699,10053534,10657013,11197342,12114944,11428680,12521394,18245939,19548120,20084144,22042832,22749277,22769343,24361282,31092733,48217345,49712767,51122712,51229864,51888851,52040773,54579793,59004215,63321122,65644207,66134859,67147038,68218067,70192732,78738625,79609965,83741644,83861052,88653837,89151760,89954256,93358449,93538386,94082861,95800447,100012356,100259595,104201268,104333917,107391397,108331724,109571278,108720170,114209198,116003718,118470740,119383552,120045719,126894761,131497627,131786726,132041465,138158547,143105153,143201739,143941017,146268978,155660494,156277260,159876491,160899141,162314664,166084672,166797847,172139025,173031249,171213098,177530970,179046720,179716501,181445976,187541989,192493090,197220618,212063608,221276314,233069730,235224097,243663121,244091349,245253253,248240053,249468769,256456239,258373257,280183974,281218276,304566731,308720458,321105470,321732662,321809280,329043005,329695748,360443828,367753747,367879524,370057696,375898461,383515830,386898024,404942507,429864480,436842296,439050163,443103989,446431213,454726508,464082088,466064911,469328328,479144016,496595711,506436885,513430953,516006466,520007167,526064293,531397952,532155293,534861093,535108521,535668078,539586864]}
{"user_id":33680562,"collect_list(fan_id)":[934949,4927405,5794230,8685752,8690226,9784923,10670152,10502654,11476832,11581854,18278761,18751838,20335034,25716366,28644241,29271707,30525668,48079049,48410139,59016563,63075576,64663616,63139834,66150598,66539742,68107799,68639125,69250244,92182497,95928994,101800302,102095026,107930403,122387498,127540648,131580734,132164696,132806738,134501193,137522983,137802679,143294480,150547412,150669754,153745870,158026223,159319699,161058392,185933083,195775876,196971379,230529478,232019991,239855689,242920923,243443482,254109012,254525709,259090177,271792441,282929616,293773725,300461800,317569687,327262221,349461664,361467997,367908861,380976432,378685313,397438662,436942094,454036840,461472523,519840116,523733022,524491805,529136716]}
{"user_id":228825467,"collect_list(fan_id)":[929359,2968945,8605262,33866698,38792094,46603690,83620816,90612379,113171751,132023995,144302596,144803799,155874356,155932611,165076735,165340710,166950702,175784213,182126007,182944280,201628857,217207363,214996321,219934391,223913636,231264922,232558775,269510344,271148884,268699935,276859684,292711871,296758682,306686988,348764568,367521390,369978658,383708415,384883622,388539386,402743551,406961223,413017486,452476142,454188439,485423122,497068851,516733901,526367105,532399513,550927883]}
{"user_id":143370148,"collect_list(fan_id)":[1658801,33805680,66692590,76311743,81776255,98937809,133488641,139177474,140118486,144453588,152265984,152775175,153881738,163647168,168885183,185245852,230074436,235889156,244465426,257054034,269887553,273550449,297298922,324830206,342429693,356108485,361978871,377155321,407829127,429264532,451843084,462828932,467484313,473928460,479257189,488627371,497548058,505009424,508965311,508996189,515958695,519906217,523075835,526183244,528287799,528705148,529789501,530078885,531457274,533972323,536697570,536721794,537867825,538375443,538778287,538796327,539171563,541034180,541039571,542146117,544539862,545539761,546091048,543849665,547720222,549413112,554271364,555038482,555385469,556188041,556418246,559055436,559578512,560551112,561905487]}
{"user_id":3188156,"collect_list(fan_id)":[2258214,2266723,6017411,9045158,11805809,24190354,33372381,35426086,71454797,73945559,87898330,136338757,184471704,238003913,272132113,275001443,322117885,364076832,371369761]}
{"user_id":145767769,"collect_list(fan_id)":[2188228,3252716,11278871,21859028,26413302,30414409,30876540,44361807,49302419,50334643,55494282,64411725,76550580,79825644,82991593,84097190,88320942,90300302,92957048,100956591,103189031,109146626,109147286,127937451,128521126,139373255,140819961,144576812,149076374,150983911,151259038,152936992,154365100,155115453,155217185,155729361,156327575,157759589,159443003,159521878,161048821,161995691,162308191,164519981,167520176,168924083,169127924,169606649,169707676,170725119,172167153,173502376,173660790,174650083,176878941,178065785,181913530,184084558,185211847,187929506,188315655,186075588,191005942,192623805,193538553,201953043,202116923,202377873,204299171,209961216,214614859,223219851,224105404,226068824,235994863,236699159,244728879,245501103,268223188,270864638,274637408,278397558,281217465,292786197,293916282,299987580,300046244,300312238,309045611,319352478,322218844,326301936,326353517,342533456,342763571,365344335,369011345,373567281,391877245,403625832,415859733,426669915,427568444,442450277,442674155,445436837,450056356,454318107,472631532,482970701,483668938,487248040,528802633,533076149,546737792]}
{"user_id":17705050,"collect_list(fan_id)":[2522033,2730617,7079178,7291693,7602554,8093258,8717245,11027712,18616213,20134257,26508482,28687966,32971865,43895626,56591518,79057172,99631003,132310390,140694330,148381421,152636337,237429504,329827063,472569323,494272878]}
{"user_id":122709165,"collect_list(fan_id)":[3155450,5420845,5499454,5726720,19410028,20158592,21278961,31021359,38121908,44596274,50108417,62601334,94458876,96448918,100528991,111499152,112245964,112434805,115531664,132575511,133549491,135279607,139339082,140787029,143040403,153842224,154735464,154855502,153963792,157962840,159492579,159825248,177328304,183374276,186529807,188520895,191264009,194114677,198371433,200526868,202334127,203641147,207349355,209015116,213799875,215008413,223080591,224819682,225460012,227221325,227676321,243971810,264213206,270679793,276338847,280829346,280873661,283185338,287273807,288815142,294738822,296836429,300528596,301465028,308978685,316444129,320003460,324043899,362823054,373913262,375727799,378665474,383720900,403636895,415528543,443724279,446515798,486323528,492574507,502320503,503162160,510302041,540239604]}
{"user_id":315863614,"collect_list(fan_id)":[2874986,9458897,188409630,229077630,352492283,426990182,546569956]}
{"user_id":137223109,"collect_list(fan_id)":[3400726,3683111,4192809,4401421,4455890,6427757,8289457,10625647,21561414,28516468,30275064,30557495,43934635,50424560,51084962,62831446,64010930,68494344,77017499,84236545,85855759,93664533,98530963,122425213,124329175,134779528,135980372,137200006,137639416,140051985,143118809,150490301,157716217,157741981,159252944,160118413,161950944,162299229,163608766,165466937,166114550,166300678,167556970,168502915,168974601,170545920,170592770,173315713,176306997,178800732,180064561,185661395,185953283,189961386,191886137,194105616,195393440,198733098,198972880,203540901,204397611,209044777,209463077,210523445,210624874,212018751,212287530,213779374,216741213,217431503,221263003,222479355,224262447,227188699,227326627,232274623,232941522,233534865,236825002,240769457,243720061,245259928,245996773,247696209,248297907,251359390,251722782,259546534,265348432,269228628,273914845,292028118,295169906,297243295,301197840,302566882,306241910,309645552,310068402,314705625,317999205,322889280,323464469,326208087,332943714,338292740,352168437,360476412,375210337,378778224,394347012,416810689,438943136,490549194,504160932,535640198,554960965,555832072]}
{"user_id":295272701,"collect_list(fan_id)":[3604420,6318224,7652661,8275495,11981994,12263211,14074942,16416728,18506676,19606127,20798377,25200845,37860287,45996031,66250986,120549201,190210348,193778395,198588850,224516353,226340744,265861101,264852596,307288384,350694598,372193660,517568700]}
{"user_id":22374010,"collect_list(fan_id)":[5166816,14682459,15842806,21326429,21573387,21072100,24607640,24767655,25356978,25515341,27613158,27638817,30003304,30895488,31008830,33662830,34068862,35290514,35300520,35767809,38841657,39015474,45448109,48694536,51133785,52420574,56812379,62768977,62837244,64536481,66780294,85104263,87340495,88520409,88718346,94172043,98628748,99148904,102418520,104147706,104179579,106900654,121975683,122253454,122400776,132870389,134009555,137710387,139329723,139669365,139782538,141943865,142437538,143475467,146064044,147493638,148899310,149053286,150762394,151196871,151530013,152360013,152512687,154336495,158857349,160562165,161640699,162709287,163444944,169618843,170677828,170680434,173191627,174368370,178966140,180272576,183712629,184908347,185854250,191356470,193665076,193991196,198950533,199613533,200455717,208869606,209064514,209811343,211213609,211983486,224387581,232436886,236979177,242263816,254448387,254590547,256220346,256470045,257322900,259495679,261692676,267662656,268943421,280058180,283316453,289214680,307314896,317649307,317883874,341821003,364902726,372057729,394643845,404616128,423260733,428884014,432583191,463058187,468098486,476474691,520993797,552687113,557666533,564432091]}
{"user_id":8450895,"collect_list(fan_id)":[5564858,7923059,8741592,9945645,10401558,10631968,10735001,11144254,11223975,11724053,12960495,13323743,13630860,16014495,16340350,17245084,17321578,17370095,17583765,19106820,31525585,37838015,38555963,45161032,56354897,56389258,60659927,63781772,64931280,67260734,93903525,107666325,114724191,118297081,126098149,131895561,132561137,133048563,135152936,155703816,169973511,170968873,181601683,210792492,211946149,241054253,292739012,293521982,332289099,458565832]}
{"user_id":17055245,"collect_list(fan_id)":[6441978,6562365,10627890,18766421,19768249,34444854,37325500,50985909,59171389,488529005]}
{"user_id":250875191,"collect_list(fan_id)":[6072571,53901152,150867118,182173141,209559604,345050791,370452180,379194901,390428906,426353383,506193086,518642237,532419116,558650892]}
{"user_id":40756932,"collect_list(fan_id)":[7697818,18763413,59114052,126396102,131525861,134749878,137975068,139258490,152126516,173111695,177477566,195257381,242548453,245819247,246966388,291066418,306292013,330614599,340347666,347090702,360969843,377978847,388708845,399666494,402503099,405338106,423505063,441538046,453062844,468139340,475370150,480976308,488775211,508121807,509501784,514049125,516831132,527692627,540749955,546093329,546636967,548530758,548920266,553237194,559893282,561342722,563412174,566547973]}
{"user_id":6961149,"collect_list(fan_id)":[10013024,430356287,557141981]}
{"user_id":159928939,"collect_list(fan_id)":[9609550,132196999,225092011,334648402,370065950,457673085,504877020,510944809,528695881,538435376,541028741]}
{"user_id":304744047,"collect_list(fan_id)":[13581037,147944540,172544533,176851216,180724755,196868479,197294399,224781634,226241395,241760579,258149717,287923872,294169965,299222455,300521257,308285572,312859573,313739510,313771948,317610584,322925239,337712419,348375330,356877697,359235264,365144033,366135373,382452339,386097412,401915706,404097452,407451603,414704386,415188581,415783553,424144173,426280434,434457919,434704076,440599804,442204926,450235873,452957937,454192230,461958103,466072275,467185598,467478591,473836717,479795073,489208025,490228245,489995491,494789809,496217347,500154698,505172072,506261405,507142357,507927400,516636554,521559624,522305291,526291962,530826121,536158046,538562929,548745994,551310273,552060885,553287249,560184364,562688936]}
{"user_id":227281691,"collect_list(fan_id)":[20389989,31151196,55630071,68108451,65582971,68476749,136928800,139120780,146182608,159407489,169218580,169257309,180798203,196197569,197673387,211460212,218749931,240133696,269476251,330328012,372619477,374632260,385515644,398896021,425253460,449458060,451692170,452820704,465934609,467268626,481048172,500499832,522912953,525373721,526947626,535130786,564994521]}
{"user_id":279331262,"collect_list(fan_id)":[21420489,23134745,27281167,212720052,397685819,397880310,450639415,470794831,528407265]}
{"user_id":408376262,"collect_list(fan_id)":[26544920,88875902,106032127,109553617,147540303,153170877,184658212,191554066,210355495,212037631,214816661,218803759,221233535,227202708,253568357,253831858,257180411,270103524,271816479,268674874,272851981,273097505,292835363,295127799,303705289,307824801,310906200,311447233,313091606,315293533,318805081,319210224,322631136,325594081,328902862,333306851,335079581,335819274,344457842,346384419,356487374,359056264,362877072,376821139,389282442,389591434,391622213,405906546,407300833,412996949,414492094,428869234,429105056,429264770,431293413,432496162,434839502,433850810,439322645,452338262,455504626,456265879,458297410,458936831,461556973,461973549,467349712,474333637,475408208,477536450,479724730,481487211,484072906,488773485,493591171,497391217,501912897,502580437,505127670,507703897,509050078,511426856,514270821,517203471,518246155,518486285,518512412,521902422,522143661,522454069,523889561,525186269,524322242,534384503,540568999,542332259,545573704,547550249,547648425,551186956,553441550,557102458,557639018,558640397,559704151,561032213]}
{"user_id":400330627,"collect_list(fan_id)":[27715199,30573529,35152717,47480886,76803345,90109650,93102025,95388807,98596564,132829758,144176239,157884260,163821767,173084066,173577037,175171962,185317632,185729160,194307119,202328829,207407469,216162099,221101398,234733434,251113852,251132945,252145217,264133733,286748997,293156263,305760846,331472256,341433998,348677215,376201227,380617317,398891717,438733494,444849659,507893089,513925342,552106930]}
{"user_id":72438807,"collect_list(fan_id)":[29223950,30061880,108862030,152694830,183838296,191339513,233729250,250386165,302867232,425423098]}
{"user_id":154516212,"collect_list(fan_id)":[33552874,69363851,79648189,88959779,92776853,131628067,133125050,144678036,172588512,200192017,227932969,243406882,249468728,252519456,264183011,302297100,323326948,381838330,393954688,412477390,490734863,493571436]}
{"user_id":134207519,"collect_list(fan_id)":[58824382,465417458,517739495,523341267]}
{"user_id":137176041,"collect_list(fan_id)":[62712270,223851324]}
{"user_id":506917402,"collect_list(fan_id)":[71148318,275511082,329987689,453017024,481670588,502069395,511479489,523202149,564828422]}
{"user_id":658406,"collect_list(fan_id)":[83901401,403633182,526474457,529897746,533636586]}
{"user_id":62811383,"collect_list(fan_id)":[95844024,143413889,290805312]}
{"user_id":322330961,"collect_list(fan_id)":[95861481,139028866,141185247,224362685,285378849,300289476,301763017,318979501,319875536,321054946,321157837,321448948,321630791,322592575,325310905,327911911,332787060,343100280,345546360,347215950,358653418,380141476,380764322,381191130,381726252,382252204,382353520,382465183,385348125,390829223,396474919,397957413,401488395,402343184,408366331,411374325,416345067,423968436,424945986,426999933,429720395,442658906,444266383,445561500,445828938,450445510,450572279,451189282,451412675,469385370,471608845,472111356,486157660,504902945,505630056,508304412,510861116,519737480,539037595,547291518,551708278,554050174,564005147,564983903]}
{"user_id":536751986,"collect_list(fan_id)":[116192563,422857752]}
{"user_id":221433550,"collect_list(fan_id)":[150207098,152860977,165507396,166694762,167574574,180581552,194217302,195448377,202311628,203570988,207792470,214965316,219890950,220959030,221353944,231685699,235233389,251112773,266617073,279952579,287915256,288954409,289443713,290148906,291064881,295313901,297385256,297636920,300216232,326171889,331877541,354557908,371777911,376047664,400317992,401425012,402657343,433227859,450647981,452378361,456962221,461180895,469290728,475866697,477498472,490461507,498361855,508724475,508745402,521658174,532665308,536856495,542934051,559903637,561477366]}
{"user_id":74287548,"collect_list(fan_id)":[158512697,316899249,543918470]}
{"user_id":318403008,"collect_list(fan_id)":[184070499,188506937,244406569,305682037,341934878,343470926,345363677,417500460,465049884,479432860,509110508]}
{"user_id":545617094,"collect_list(fan_id)":[274437597,393419007,556044148]}
{"user_id":468341499,"collect_list(fan_id)":[319944253,392961308,444656164,535339733]}
