{"user_id":476992,"collect_list(fan_id)":[25034,106353,129921,303322,322094,367123,443536,744638,1029303,1396627,1682604,1819992,1866224,8037138,12265609,30301066,35979068,42043715,255307016,442095430]}
{"user_id":1055191,"collect_list(fan_id)":[6794,10210,11593,31521,59906,63220,63837,83245,106906,137165,163603,167501,169706,188455,235656,246793,253579,287456,307499,319603,329981,346174,350318,357263,377349,406089,406581,421023,423082,425920,446726,467940,468752,500516,510576,592285,603334,619983,661126,705635,731248,746822,764750,806551,678390,897831,978419,829345,1033771,1048403,1121565,1225528,1238720,1241219,1292882,1390604,1524181,1532959,1657969,1691301,1714699,1912896,1925806,2061677,2062466,2065352,2110955,2158720,1877750,2346856,2367208,2385921,2407441,2449751,2452169,2530999,2648100,2826186,2856069,2898920,3050009,3145909,3255035,3349438,3371912,3494161,3505452,3161346,3560719,3787291,3996272,4327713,3924308,4533210,4675182,4709038,4885997,5133864,5347083,5451754,5927908,5956195,6001415,6689179,6693708,6827808,7209399,7478932,7869428,8314926,8496508,8586029,10254428,10326525,10628081,10745724,12234632,12328434,13719204,14448827,15302047,15799943,16915220,17277751,18035322,18062011,18298021,18497897,19015233,19554217,19646140,21833602,21927281,22077090,22335440,22363356,23254538,24347557,24954244,25526812,26429376,27024150,27179090,28631981,29015788,29632073,29838148,30220519,30710215,31656402,31971944,34434904,35976638,36954303,38307013,38348106,41409186,42425437,44069049,44401283,44469849,46037154,50683438,50782541,51682212,53809664,54235294,54521157,55432232,58507391,59438211,67639250,67772644,71212381,72740457,73476469,75875650,79253667,88024070,86786701,90892223,94532448,95861508,98418293,98636028,105871315,106230671,109031506,111454673,112634521,134761346,139243991,141372460,146175173,152317128,152715235,153028185,158299541,161543725,162818519,164199336,164483697,173142100,183222191,185217951,205587657,207341272,217634015,219411903,224490141,229511935,250141932,259408991,259667306,264332528,269643636,269998507,275776192,290439395,293736485,306301857,322170082,324069554,353397216,366313697,374248848,375626271,382189739,384385877,394016278,400118641,416180005,436004942,457804822,470479317,473852134,476245778,478628688,498833509,505251430,516209016,547672013]}
{"user_id":1414959,"collect_list(fan_id)":[2203,19080,22021,44281,53641,89560,99963,193185,249438,260744,275702,299625,323337,353388,380304,463197,538969,587696,600774,618635,638373,643779,657950,673259,741074,842052,863149,868603,868777,871098,878053,954428,1078854,1170318,1239019,1350629,1594946,1762144,1628498,2161137,2269677,2272282,2339477,2636339,2750096,2864101,3143694,2799655,3340639,3632761,3671895,3778634,3543165,4290730,4317491,4342405,4532582,5128370,5159252,5763414,5467885,6296739,6346703,6045861,6718452,6785984,7105519,7474175,7691404,9774652,9831238,10387746,10490519,11526367,11649254,12185649,12928299,14202032,14753961,16329521,17911061,18048932,18110202,18373190,18918611,22602832,24502670,27180681,29402763,31614295,33199118,35989852,39291929,40729349,41106044,43047889,43120090,43306176,45117793,45226193,45293784,46353310,52157071,52306683,51682692,55381375,64437985,74925373,85037298,85843437,88813615,92571089,93983675,98668959,104101850,108328285,120354593,136500613,143900598,147761705,151137798,152248636,153087226,157017249,157900057,162891965,173093474,180296692,216124890,231463692,238403067,251330282,273618529,280371201,303168167,329069464,329291477,339837615,376745979,388437351,423562513,456639213,473959397,485071397,515751803,521982562,556261473]}
{"user_id":2812004,"collect_list(fan_id)":[3312,7880,19862,160626,168714,233410,264977,276817,344510,369198,424499,495080,507441,524368,554774,562960,564659,591180,599831,631449,683576,691410,716409,909487,1200282,1583228,2134255,2281738,2360955,2951496,3302891,4540756,5087700,5399700,6215607,6434066,6504952,7615546,8051342,10688520,11373315,11774100,13116951,13670912,16803892,22351064,24175942,26288663,31584562,36702756,38802353,40481875,40672500,49057884,51272748,52771004,53584012,57588779,64405470,69530615,74177199,78911362,82635288,86594382,87325782,100226605,126687308,145246736,145314161,153893235,154048470,157640853,160115107,179593390,181007768,183052768,241424767,248203765,295643856,294319732,318083568,325820435,332052531,345797386,358703088,368114317,375445493,446429298,455041365,487974122,510413190,511686332,511832395,526630375,530537298,539126661,539236798,541159837]}
{"user_id":9541980,"collect_list(fan_id)":[9409,869158,1144441,3674888,4711321,4712461,4749957,5455487,12968803,14827557,15454802,16407410,18206296,41286342,41746477,142918399,159435117,339291697]}
{"user_id":27215404,"collect_list(fan_id)":[26380,73618,198206,828659,1779446,2010349,2374135,3283865,5338042,5629437,11383483,11513873,11635284,12726878,16705960,18344306,23186664,24175281,24436567,32597631,35318131,42621949,69169263,90448858,132699204,132462354,134755747,138305184,145420004,145592653,146837631,150615587,152876672,156107212,160722646,182804566,192676535,195743171,201325305,212134080,215614589,217202832,218676221,259493882,282843035,302776693,328210081,333132709,432682093,448619135,492326243,513647868,515398299,533501304,540785470,547994617,548760675]}
{"user_id":49496845,"collect_list(fan_id)":[22312,106809,385692,416070,500003,505989,506619,1060734,1064838,1263671,1305283,1330272,1446219,2642197,5178085,7555044,9528124,11282228,12448236,12471627,13185161,13576619,14769816,15898667,16139361,16306775,18811881,20420260,23011822,24699562,25187218,25727402,29265662,29283610,30101679,30203034,30650635,37208366,42290272,44397342,47959912,51046562,64528274,68566558,70614684,73515667,76814329,78796014,81565968,81675831,84361336,85775406,94463467,95614479,95968429,97582165,98425811,98225361,110559548,113660749,124176508,132113979,133757597,136209366,138556071,139280649,139997446,142043599,145362558,147852650,154722266,160311804,161257335,167727420,168317509,171505038,177988663,180402929,188471167,197051907,213810554,214288787,233558816,239347781,239500902,239976519,240824140,256290014,268367116,275453493,275479835,306953403,318701921,320584021,324189246,334668271,350919747,354911904,363083576,364651623,364916454,367787134,389125591,415289949,415815561,423758812,479404668,501212741,530162847,530792575,545867423,545923782]}
{"user_id":95142434,"collect_list(fan_id)":[13793,84275,106722,155468,161676,164652,197672,256747,302552,426096,501173,654295,777181,796330,848367,921748,957157,1521293,1574778,1644372,1964160,2149656,2162028,2484753,2807023,2873721,3707689,4796559,4809288,4866903,5029561,6330023,6894267,8525304,8868444,9697598,10224766,10601891,11152709,11664541,11767343,12019397,12035982,12302236,13457139,13670912,13987584,14616639,14700892,15136170,17290251,17930361,19355775,19937257,20100914,20481904,20496893,21096636,21567246,21761830,22073083,22096879,22627520,23188409,24096478,26307533,26578226,27780475,29046501,30204145,30914976,31779192,33119914,33628811,33646845,35063324,37171109,39619960,40360328,45215697,47969794,52129333,52250066,53405749,53885767,55886191,56308569,58442800,61123190,61854879,62018664,60404913,64476638,66110915,67040575,73470769,75589127,77062184,80302437,84359047,84929566,85960099,86005918,86303834,86358648,87394233,89724803,93698739,93859273,96029700,97485833,98388417,103485202,105606325,107420234,133314084,136452477,137178465,139087440,139438472,144077006,145343342,148531354,150733509,151643662,151673544,152744902,153198475,154519885,156539740,157282433,157630607,160412230,171576258,181213429,187024042,200593881,206763531,216584196,225272022,235790825,244127203,244779277,255912488,258586288,269877554,270542383,271595861,271853974,273254219,291567911,299732535,305720045,306923598,307246427,314218380,321067437,322793688,324165340,329371619,337368538,346917120,355580960,355926601,415391250,415392876,415395518,415396299,415397361,415398425,415403198,417283578,418659051,474235952,476901740,476987030,476988423,476995973,477501345,491118951,502393007,506133442,507818730,536864351,543300207,543768405,543786735,545857240,559984997]}
{"user_id":122226091,"collect_list(fan_id)":[55349,82629,114064,160174,280903,288128,302226,342831,411657,445669,454586,519842,540364,698353,731293,865744,875229,944166,995180,1020869,1184860,1212243,1281979,1377602,1401015,1467107,1485271,1570917,1755940,1827620,1845668,2088816,2273491,2311263,2311792,2329677,2833923,2935482,3172271,3193758,3303595,3377540,3551953,3584463,3640807,3651111,3651693,4209497,4599129,4863973,4937433,5058071,5236333,5395270,5411817,6146647,6726417,6937863,7408218,7749354,8603296,8710085,9808099,10158239,11209785,11425403,10502180,12385823,12442429,12772995,12869908,13197969,13568262,14012947,14316876,14453100,14748541,15128319,14278905,15537162,15686401,15810909,15980120,16550838,16647683,16845415,17046672,17518367,17902420,17918290,18584176,18747113,18840582,19097727,19383956,19478437,20044333,20096960,20101722,20293100,20398721,21438184,21788801,22216538,22297136,22830325,24384213,24972707,25637412,27162732,27447723,27796040,26775675,28353907,28995294,29235303,29521642,28305896,32346179,32368074,32574817,32681847,33057999,33115059,33171370,33768188,34486329,36205853,36638654,37057375,37112636,35177010,37667702,38581790,39921965,40616088,41448849,41847960,42317583,42427196,44106983,44244551,44560668,45252730,45283788,45346722,46194343,47647922,48437955,48537522,48692968,48802716,49481474,49624814,49930721,50248508,50998418,51070905,51294463,51344989,51494199,51645342,51846097,52240047,52323425,52859165,53955040,54131096,54792566,55503926,53631206,55701753,55827921,56505894,56651995,56755308,57303095,57558182,57757201,58801699,61119908,61135193,62113498,62392337,62515286,62870246,62870755,63442795,63458318,63632241,63966883,64103916,64216031,64234609,64750203,64850910,65489629,65701665,66148738,66459174,67958998,68581344,68963096,70539127,71355181,71715123,72074570,72917573,72935071,74994120,75635723,76071113,76771972,77010669,77074520,77104945,77158038,77376738,79804952,80826018,81819722,82095152,82405405,82543811,82862396,82951193,83750530,84304317,84599155,84750771,86599000,86903601,87403515,87672333,87801121,88210954,88308020,90794340,93302933,94434167,96342968,96362314,96569857,96756743,96923491,96997277,97019792,97977355,98321130,99702640,101422285,101462088,101697348,101823663,102024330,102126671,102557102,102632812,103256851,103940098,106115260,106565097,107118637,108149317,110116056,111060955,112102330,112844917,108800003,114279151,115195233,117162317,117180093,117432958,118278446,118948885,119503898,121235825,121473938,122128612,122305506,123144489,123194599,123326468,123889806,124450716,126241692,131888160,131969458,134020753,134062978,134490152,134917802,135166362,135263613,136536557,136752769,136774476,136812061,135763973,137629453,137762921,138271650,138646461,139206388,139276860,139700379,140473009,140537460,140768379,141538908,142078126,142362011,142702977,142725307,142892484,143411577,144491182,144843497,145033245,145364782,145581132,145621631,145846348,145087804,147663811,147919695,148562715,148673474,151027006,151125118,151150776,151697379,152319191,152915995,153140094,153258847,154561136,154649902,155183193,155395211,155534357,155613067,156389339,156553281,156691841,157464381,159630211,159688152,159825166,159959752,160619070,162216326,162258912,162719955,163910527,165172025,166031843,166119280,167549570,168415465,168508923,169335690,169688661,171518592,172142542,173854193,174126958,174153087,174218716,174644130,174790586,176743390,177537008,179265600,179302134,179494281,182025284,183243059,183243321,180901450,184604757,185665778,186324838,188522987,190734758,191546359,192234620,195644519,195946151,199051214,199109927,199636004,201596993,202698802,204619380,210113980,211318545,211917362,213879908,215229602,218594217,220169153,224761715,229487703,232164787,232262026,229799202,233876947,239744077,239948082,240396651,245233907,245292930,247022781,247931642,251829842,253102933,253207066,255752460,256180136,257144863,257629629,258361736,259760459,261725917,262016156,267966655,271085224,272744725,273197196,273816706,275278909,278774538,279327226,284613403,286634238,286687614,288820118,291150766,291157291,293568098,293846878,299822164,300668334,301960056,305428810,308515420,312421109,312953751,317007847,319845872,320458925,320642726,322767605,323714372,332471705,332487371,341847659,342728770,347051292,353137199,355415811,358001541,358611496,359130400,360839877,362295676,365033603,365178846,365279460,371457662,371686615,374543138,374650595,376443328,379367410,380044333,382309574,389135983,400893524,403013914,406784103,410672439,410929629,416624032,417810842,424483403,423298623,440665274,440875632,441104860,443048050,446956907,447913756,451974734,453589096,454734601,458019087,464832542,473764005,478063511,480963536,487591625,487633780,488371050,496083650,496543309,502559667,504463471,505089124,507667053,530959136,539586214,541809217,546223321,548677600,549421465,551382742,563203177]}
{"user_id":282843035,"collect_list(fan_id)":[42425,50066,203997,407844,714783,1106120,1137230,1492269,1804478,1994601,1998703,2199908,2260963,4159818,5914368,7182810,12354963,13679845,17084065,30813439,43478172,66205201,100491289,139151235,243351320,268553107,273432638,274002855,285128003,291201438,296809060,306962948,319018150,348644481,424955830,425471630,452707314,465034335,476225960,477501345,502546352,502885994]}
{"user_id":402529425,"collect_list(fan_id)":[26117,60775,162603,200995,369255,514266,719547,729235,771661,1011353,1189757,1206173,1254885,1296944,1743199,1750356,1754857,1899333,1928897,1978694,2070053,2651971,2906834,3545774,4186729,4264433,4288228,4347630,4792075,5060538,5127672,5328574,5567659,5701889,6301343,6830693,7196950,7324384,7474429,7664418,7803342,7843999,8156951,8370752,9083152,9573338,9749768,10174276,10448654,11400118,11497430,11690116,12128848,12555160,13126215,13394717,13518465,13606224,13670637,13945708,14103604,14487524,15725215,16191806,16601959,16641776,18374082,18532564,18532630,19047588,19142085,19779191,20128354,20627736,21900830,22877537,23208240,23313612,22259281,24312867,24503661,24639227,24788620,25005133,25089034,25517077,25908389,25926984,27738051,28831416,28988449,29468466,30684093,30748268,31120118,31190222,31242053,31338697,31904363,32651247,32802414,32954760,35346092,35424549,35861046,37119721,38299416,38971778,44456558,45103535,46313482,46542349,48591615,49026427,50185944,50465100,53387338,53421200,56520504,57447590,58971096,59600426,59949877,59968672,62226758,62310667,62887907,63606800,64128550,64634157,64890387,65502547,66173579,66778208,67833317,72973317,77744087,78666045,79094438,82267330,83645740,85640370,86079294,89605293,89692776,89863461,90540673,90589475,91303392,91341206,92248561,93889072,94261544,94282588,94628834,97525299,99106679,99134432,99499806,100580043,101726410,102176457,102985690,105341906,105556623,107433670,107775518,108469003,109294668,109559643,109907420,110150329,111216243,117775319,119898039,121558129,126019999,127450594,128257663,128824752,131577047,132038587,127751271,132992488,133971012,134852693,134966599,135016529,135511731,136647135,136653347,137105768,135749682,137492600,137560553,138180444,138643406,138656815,138734092,139708070,139813638,140768026,141171710,141786872,141879014,143216706,143716463,143990514,144774233,145073248,145274233,146054371,146697354,149251732,149893742,150253146,150571240,151119039,151293426,151540721,151733213,151953395,152797360,153015795,153441341,153550622,153613979,153928907,154644046,154716260,154957796,155015651,155049723,155050367,155228716,155779990,156001215,156150048,156488760,156997408,158111331,158331915,159379734,160332351,161448273,160944405,160983292,163931991,164043565,164715777,164947113,165402850,165457957,165746188,165925875,166047533,166621469,167237702,169295697,169450492,169888265,170270271,170726547,170739929,171475951,171820055,172207923,173733457,173996641,174142671,175252007,176014475,176385366,176499638,177282189,177371373,178986989,179253767,179611298,180264671,180792454,181313872,181656031,183164297,183659653,183761859,183949865,184195707,184316906,184526186,186114325,186919121,187285411,189236098,189247257,189901381,190752844,194381334,195148253,195677791,196772449,197532811,197651328,197709107,198052124,198585540,199949781,200047495,200840769,201107975,203031025,203165358,203934975,206250812,206371146,207965529,209400308,210293235,211413630,211423778,208262254,211754484,212076029,212792312,211583609,215192733,215952097,216505281,216779170,216922362,217816517,218599002,218791464,218967228,219304374,220507862,221396820,222168325,223191122,224521286,224554440,225039413,225075384,225404385,225954122,226533932,226971890,227969124,228076623,228403085,228466216,229565144,226833192,226849287,230061742,230304436,231522159,231913849,232369257,232568186,235199012,235226860,235342548,235343530,235704316,236794358,233294898,237453654,238177151,238349047,240295096,240513703,241139327,241147684,244040632,244086141,244621054,244626697,245890172,246141086,246700929,247651310,247794874,248132739,248276078,248536412,248901953,249200937,251323118,251604733,252681377,253035639,253376112,254134978,254309951,255402820,255551472,256218089,256965754,257029877,257984419,258368211,259161113,261591902,261960760,262140894,262500711,263282872,263578727,264735168,264998012,265144202,266091628,266445458,266506193,269611771,269713100,269807151,272266627,272637060,273268153,273805904,274180022,274197223,274280211,276018812,278246928,279308505,279651399,279874698,280754811,281117266,281251976,282698024,282874053,286496984,286750008,287022121,289179548,284984386,290114911,290438395,290923345,291070171,291133839,291703836,291749524,292236235,292446348,293435824,289538719,296050130,296442077,296483243,297362617,297834423,298678738,299365402,299679164,300013824,300613941,300709590,301070805,301883649,304016114,304066277,304428954,304627490,304782899,304897629,305191384,305335042,306066704,306248811,307677913,307810249,308761106,308933543,309501163,311234613,312128042,313188689,313338009,313365109,314002335,314927966,314995997,316172798,316371599,317295742,317994935,318392599,318983716,319240563,320096460,320185755,321252194,321378757,321403269,322486021,323860615,324129599,324657078,325201832,325703696,325780092,328119290,328986015,331745999,331855584,331936034,332165688,332340095,332518744,332816925,332957384,328678425,333474788,333987839,335600307,335637299,335704645,335741621,337115257,337382872,337553518,339781926,339908904,340734704,341503010,341856535,342193010,343122284,343198962,343605305,344257369,344491644,345152525,345318316,345406031,346149826,346575352,346634737,346730299,346926064,347133733,347359974,347371640,347545565,348234868,348374347,348545743,348646288,348922571,349108710,349485103,349970596,350572581,351574595,351786184,352000065,352443299,352535524,352738641,353069743,353321312,353553430,353584302,353618216,353724495,354167601,354402337,354621494,355362143,355457861,355925673,356068113,356976678,357709066,352894758,358631077,359436345,359598976,359833859,360612821,362021721,362283538,362534505,363066154,364285329,358439793,364947200,365003615,365494300,365561267,366037636,366070812,366505008,366565720,366989513,367156609,367809651,369648119,369990326,369994354,370068441,370104565,370348021,371640811,371728393,371881642,372401320,372676850,374108489,374452384,375050587,375246279,375355182,375683963,376657476,376915599,377444757,377450375,377753577,378053197,373581479,378932901,381462620,381722303,383466912,384163556,384802778,393948125,395046304,395322138,398594625,401220120,402591578,402821232,403507628,403569687,404206218,406459862,406753793,407464535,408113286,408523087,410257138,411982310,413349065,414793086,415278146,415390635,416503112,416626114,416819745,417143035,417448589,417810551,418414776,418447628,418565841,420385577,420611343,420670055,420997959,421397085,422294294,423541307,423543879,423783568,425972140,425989326,426157000,426235659,426285195,426888591,427132924,428369184,428865303,429135495,429151941,429198393,429252546,429378786,429560731,429743676,429912648,430307970,432212917,432757200,432906027,433097984,433169063,433228334,433245412,433637671,434242731,435000220,435409267,435793213,435917387,436073334,436079018,436498785,437108987,438332388,438881830,439491813,439504281,440229067,440950417,441016682,441523002,441581633,442209224,442700979,443936192,445035112,445106282,445804515,446062361,446584301,446783815,446988344,447044927,447183636,447293830,447433320,447435318,448008722,449481396,452037110,452888788,453468553,453559160,453568496,453625003,453676344,454257869,454280660,454395414,455149854,455216386,455773629,456292386,457476211,457632048,457644550,457664766,458472942,459735054,460697877,460712204,461584082,462862792,463184321,463242798,463271659,463400427,463857747,464137836,464630209,464904065,465942496,467174318,467222325,467444081,467514698,468046148,468381766,468536641,468828875,469002263,469250854,469341407,470234421,470269776,470580113,471060277,472148540,472552390,468717017,474662902,475161864,475667012,475759879,476071609,476902661,472927045,477496469,478277736,478486104,478493336,478922430,479574391,479606558,480018067,480376628,480615087,480843147,482180962,483313209,483681347,483734017,484449483,484966244,484989766,485619972,481891650,486876085,487823472,488298563,488526257,488690241,488873647,489018644,489843260,490420469,490481441,490650422,491041773,491064964,491249896,491359577,491416603,492090231,492241400,492543437,492991055,493305579,494033248,494803000,495260712,495360393,495585749,495623808,496231767,496341620,496749015,496836599,497269696,498874765,499032393,499541923,499948815,500035849,500943753,501039386,501209073,502585889,502945593,503466044,503808660,506328078,506707503,506859551,507160428,507208384,508419359,509318790,509423061,510666717,511042691,511198184,511909928,512029436,513082663,514902134,515021692,515051910,515107346,515259746,516242852,516839960,516840097,517134153,517684194,518020150,518032336,519317691,519659394,519815402,519875620,520402757,521848141,522020954,522162632,522272626,523925671,524382947,524852270,524961445,525384817,525516062,526144572,527257723,527665454,528330736,528593578,528789938,529386788,529454247,530746027,531307952,532320613,533009934,533051637,534438744,534831190,535200263,535853996,536612342,536945882,537096807,538056002,539006067,539839250,539909241,540444385,541940283,542248098,543017986,543596697,544335209,545366886,549290479,550672595,551293396,552587707,553195845,553602126,557696869]}
{"user_id":37777521,"collect_list(fan_id)":[62855,2197865,2505956,14545092,21697603,34366629,38684623,49699559,57642143,58334056,62181551,63429091,64177978,80876771,83127965,95254220,130465909,133379154,158062896,158875328,159577690,166678286,194504578,197898321,221171153,247160296,248687333,281921877,285655358,357575143,475059337,480656582,485054832,494366946,503798937,505098845,529727462,563645641]}
{"user_id":74000518,"collect_list(fan_id)":[82074,92450,162446,297382,1179781,1815887,2232736,3472101,3500263,3512268,3680017,4604056,5705689,5849999,6565191,13132644,12337087,15971630,16596856,18315619,18655922,18901253,19086257,25540629,25034884,34093664,38366085,39405387,44070666,55055637,56173676,58710704,69758888,71602430,72167455,74220018,75794318,84597513,85557383,90020604,129546591,135083959,136199864,138330945,150785224,158905540,168462825,189108899,214461905,257915724,324724928,325392947,351583491,360693013,369092418,458287752]}
{"user_id":82028992,"collect_list(fan_id)":[92450,7470492,11421441,13526841,16783903,26732825,29336389,33143683,33350593,35434571,41320998,42507304,71575386,85855115,92861638,131816602,267446387,350548849,368099027,514053534]}
{"user_id":121780041,"collect_list(fan_id)":[70721,197902,297603,908071,2072345,2137591,2448368,2724300,2828434,2889722,4013809,4786052,5440145,6106322,6730755,7071432,7296028,7437192,7557336,7666992,8200550,8587780,8833345,10024830,10030035,10334600,10602678,10938392,11475292,11840617,12008062,13008045,13400887,13471547,13877799,13939391,14102633,14681972,14686427,14690946,14922695,15766809,16804564,18783171,19733973,19865365,20320741,20909656,21275080,21740966,24979708,25840128,26331040,29023583,29678204,30316205,30489775,31078290,31361996,32276040,32329622,32471205,33442959,34636755,35587820,37664165,38846068,38904610,42731365,42742847,42853430,44169134,44411663,48094006,48499970,50538212,51246780,53538997,54595939,55468657,55766029,57776245,58455954,58985524,59202543,63914378,64126587,64324294,65326554,65914493,66210704,67083766,69952580,70512518,70573743,71715833,73861538,74058845,74925102,73978775,77988851,78899559,81442130,85398818,85968720,84491854,88734635,92062642,93370538,93801476,96484122,97118992,99537109,99804503,100117531,102314020,103875144,106564948,108450864,109184245,110813553,115020937,116860440,118976974,119464307,119693550,120788747,125165373,126429456,131938523,132361092,134252735,134268071,134495194,134121817,135764629,138523548,138917427,139258365,139467191,140514634,142312908,143576032,143621865,143989160,144918876,145654326,145766882,146854966,147027235,147260275,147413490,150504188,151288609,151307135,151665494,152335608,152679494,155018654,155797987,155919055,156172884,156438215,156948268,158426426,159875131,159969957,162791835,164318937,164867921,166041157,166291034,166363879,166742756,167924839,165852493,168878761,172934329,173218814,173781183,173865083,176311098,177911447,178552538,179446629,179826933,180630833,180970691,182404044,182534412,182689956,183237111,186582438,186750653,186789209,188874114,189120739,189873465,190400579,190898404,193451987,193464383,196581377,197430904,197855926,199358052,201564147,202354044,202688345,202798168,204310723,206054807,206924103,207419445,208901454,209450985,213108250,213383175,214649664,211593752,218687698,220067684,220088236,220833872,217938763,224083924,225908017,226133281,226734466,230369745,230969606,231108661,231366093,232734318,235954464,242132230,242199067,242755878,243207692,243862743,246447702,247100495,247724551,247916919,248076085,249514710,250044847,251800268,252048223,252981205,254903948,257009304,258432789,259128666,261102864,261540268,261920911,263148965,264359330,264420936,264545006,264871859,267449183,267977050,269970978,270000234,271908496,275258378,275533061,275708145,275814242,272384232,277087814,277222231,277484496,279132063,279706544,280673825,282227103,283050358,283838243,283916789,284160767,280485089,288063585,288214998,290028335,291066418,292371009,292542198,293270901,294186333,289482842,297458397,297734839,297985171,298686445,299807159,301081952,301614226,302776044,303280135,303953928,304780050,305215105,307143574,307230666,303019424,308474607,308747742,310157297,312318136,316849223,317059598,317450589,317825427,317860960,320025248,320344114,320485193,321829690,321984769,322266440,323839395,324401105,328291989,324919148,329736211,330105276,330150913,330276097,331200419,331294743,331422593,332226869,333031548,333558976,333559755,334144716,335233036,336719408,339610753,340749999,340828595,340966061,342524957,338179580,343042915,345358934,345586791,346194719,347431052,348078962,348986576,351084346,351490707,352191584,353407466,353524559,353558018,354405694,354555410,355668551,356786897,357266386,358267088,358580470,359191274,360485869,361454009,362721407,365536683,365600800,366454304,366549761,369437428,369454705,369928390,370638540,373140541,373785804,377371721,378822151,379206452,379808145,380443554,381628741,381968150,383576217,384295851,388672774,390742898,391413679,393542016,393616721,394807975,395247028,395797906,397662143,398662739,399814208,402600790,397308375,403643829,407543534,408697884,414272465,414446854,415597273,415655062,416209130,419713537,420864409,421405414,418280365,423581790,425149166,427103422,427601134,423395101,428738146,429184475,431910352,432325024,433138737,434174811,434414216,435874242,438104855,440626644,441383293,438408999,443185663,443468024,443665044,444091317,445095391,445759266,446231314,446322601,446626593,447630848,449034268,449126045,449513029,450099894,451111814,451191977,451618288,451670146,451994152,452226982,452273656,452979924,453093962,453314955,454917964,458237676,458709632,459277583,460568848,460609397,463413754,463557997,465105618,466633400,467077799,467331469,467437285,467797345,464251862,469695421,470019362,471230449,471484779,471946679,472148729,472172378,472267881,472529034,472575009,473072526,473601861,474052535,474100432,474340390,474494986,475284919,475370150,475484164,475566202,475666912,475691475,477793820,477882135,479648254,481062722,481385190,483360707,483919394,484136595,484351894,484404192,484654057,484696192,485413031,485797585,486095584,487088838,488050554,488085106,489504064,489651959,490406599,492554604,492997258,493021772,489937153,495373562,495701737,497560402,498472628,499069731,499152526,499744129,499961945,500355274,500653566,501740140,501744770,502910207,503973686,505450219,505503894,505729558,506715252,509646270,509944180,510138205,510202257,510539205,511763378,514081493,514515395,514634446,515011433,516302748,516506148,518731167,518763556,519766743,520209105,520240118,520303857,520321536,521143068,522553911,522887090,522984383,523202512,523574294,523857141,524261091,525485521,526214096,526252001,526798685,526985108,527685336,527729434,527801387,527950637,528055186,528102436,528118767,528147413,528175178,528254654,528322095,528704053,528817385,528986094,526707588,529496728,529935012,530354332,530605404,530767711,530935208,531191751,531413658,531416685,531416938,532026647,533242745,533406246,533649379,533711587,533760155,534016692,531682108,531697642,534352063,534968483,535248365,535847953,535877430,536165022,536574474,536696586,536878523,537254998,537521236,538326003,538375443,538428622,539189314,539200090,539600147,539744312,539744954,539841859,540405062,540416920,541882734,541943024,542315068,542315819,542318879,542574391,542891340,543124810,543623375,543930503,544173389,544326777,544678670,545174485,545271488,545831009,545848329,546125546,546158558,546618964,546628130,546914491,547531852,547615009,547702273,547762865,547781029,549200551,549434791,549534169,549581309,551117772,551622501,552462215,549952420,552929033,553085780,553446529,553487968,553877600,553957409,554095961,554261627,554474224,554482098,554573289,555220233,555222123,556043263,556119098,556240346,556247814,556492965,557257837,557422097,557674966,557702298,558204546,558481305,558665776,559038600,559084301,559503987,559882718,560385452,560705392,560846877,561097729,562336483,562946714,563167887,563607434,563682418,564033772,564745024,565953998,566128353,566892214]}
{"user_id":429947715,"collect_list(fan_id)":[124221,153506,385924,420927,516712,569649,570770,650743,714249,732847,746563,886028,901263,922850,935709,1017910,1052468,1173039,1180990,1426507,1572862,2007285,2042766,2086077,2380518,2391674,2582740,2658864,2901969,2907724,2954938,2997395,3151157,3525663,3711198,3790528,4150345,4290023,4868797,5230806,5258288,5294492,6129019,6150069,6530002,7172871,7308053,7825962,7854078,7865517,7926133,8486204,8774757,9125647,9315122,9924716,10571158,11945308,12149460,12565426,12971093,13986025,13261287,14411908,15303559,15569895,17254748,18546385,24278530,25756347,25821777,26220180,26489770,27513779,29296886,29367004,30178870,30216158,30475904,31324646,34033185,34495663,37525550,42223185,42229520,45016475,45704884,49143370,50558697,50590687,51896308,51689623,54340852,54371546,59378649,61714726,62100059,62237600,68927460,69815197,71881748,73835145,76210466,78021515,78787324,79015567,80116446,81297498,81693199,82431007,83095466,83423225,83707642,84045725,84690204,87288861,95093044,98946314,99303924,116067263,121733109,122628516,123341991,127848156,129223955,137896327,139645585,141376623,142106459,144517539,149237510,150268961,151033678,152348379,152629731,153550622,153622579,157315177,157756050,159262542,159869761,159878194,160119992,160466427,160973233,166034967,167478404,169319079,169801351,172179144,173164163,175970747,182212797,183017301,183200247,183994697,184939163,185713727,186511773,189783411,191285422,194585804,195903556,196902458,198871708,199632224,200267273,198309546,202190102,206526979,206914244,208949558,209411142,210662990,218521967,219097358,219310321,219446205,219469226,220563722,223897591,226270175,228170069,228841096,229351457,231996999,233102835,233897147,234114094,242211220,245260125,246706877,253277076,255174960,259574654,262894720,264932715,265381387,267394944,268761337,270819781,273076993,274528290,274872118,277567482,278212424,279521750,283962865,284524037,287438169,290068797,295386725,297024864,301413804,303803122,308978443,309352169,309756264,307396243,312592495,313832612,314495519,322853914,324032993,324158532,327301679,327463701,327792954,331160009,334844509,336322773,344351092,347562612,348858372,350563523,350712341,351215606,352321576,352498758,356654656,356968447,357379442,361135039,361393532,362175194,362421151,363821813,367565352,367845301,375126342,375440776,376552037,377484930,377568574,379073852,379714977,384684165,391582042,394140043,394301742,395181639,396940359,402014322,402300659,408130799,410593426,412378053,412472613,412699372,413214917,413670397,413779248,415782794,421298416,421411658,425454427,426633198,429999890,430076351,430732858,431210172,428492377,434101790,436331788,436923510,437074549,437224480,441501109,442027758,442582034,438372667,443990434,447354041,448810670,450244736,450467886,450697520,451610964,452153335,452447708,452881254,454034749,458117738,458705518,459602617,460626053,461337226,461667544,462300797,466129153,466833005,468219880,469452190,471714864,471826088,473310141,473572149,475656260,475667012,475684800,477020612,478693382,479413682,482233909,482585783,483192567,484885940,484949022,488067462,489071136,490095068,492158425,494106254,494564217,494992268,495220068,496482154,496579402,497433264,499506445,500103923,500261917,506135753,506712633,507879467,508954944,510198553,511636828,512072326,513196354,514010847,514936111,515371047,515982410,516216330,516802155,517386195,517673268,515800908,519598603,519735689,520204547,520239178,521862946,523347806,523368298,524906696,525205608,525223935,525394355,525464474,525513698,525871373,526519363,526559806,526661348,524333516,526884759,527550516,528435103,528751484,526686126,529148375,530287432,530290227,530386064,530580804,530836063,531419753,531764029,532078930,532263663,532626213,533524759,533661305,531726276,534464459,534736650,535572273,536417645,537088716,537124624,537407248,537686471,538746220,538822024,539585832,541734388,541778174,541845158,542074207,542312538,542776769,543304696,543520729,543913406,545148701,545360600,545476988,546694144,546924382,548121228,548815691,548912568,549463825,550002205,550529628,550577355,550602668,551414584,551425403,551551373,551804125,551871787,551889769,552391560,552522035,549937152,549978392,553079968,553267301,553576783,553610844,554241495,555686471,552711179,558864838,560450571,560562233,560836106,561217762,562219253,562736763,563128059,563276395,563373670,563529443,564947363,565158653,566054479]}
{"user_id":54101707,"collect_list(fan_id)":[211721,910474,918654,1107317,1183038,1386996,1430416,1476810,1478401,1526125,1530749,1697848,1713634,2052408,2140511,2255551,2358014,2425815,2492146,2543160,3308469,3487943,3694121,3697878,4317745,4360709,4616069,4788641,4822084,4899413,5168052,6484187,6486426,6849115,7141282,7656399,9100565,8733735,9794553,10072284,12637844,13129672,14122041,17298385,18343307,18420053,20304332,27399922,32442917,33091362,33734394,35245406,48826772,50865144,64872723,67929028,73464866,83035570,85463805,92584351,122556759,134429981,152984444,155462428,162699778,163986379,164337671,171372852,180934392,182181453,182252560,192044772,225392752,226227275,241531382,262651906,270562159,273655957,278954476,286241359,312493378,313332178,324528566,334396984,341839689,342535723,387058042,495900905,511807701,552779675,564404976]}
{"user_id":147035701,"collect_list(fan_id)":[183634,395425,633452,915534,1146451,6224826,7975231,16423683,36754561,49503486,118614029,135853273,183970537,360455424,564374816]}
{"user_id":54374123,"collect_list(fan_id)":[272819,2945463,5587176,8161897,9179915,9224580,12562836,16873469,18142294,20040860,20910018,23437015,23774428,24527816,26211731,26334605,27179573,27210725,27622767,28094528,26760311,29636238,30298543,31640844,32550703,32899877,40115827,43661884,42080141,46183979,46412674,48397405,49472781,52854919,52971996,53307853,53873285,55215641,58740402,60185460,65040502,65322362,69165638,69425683,71224089,71226450,75595956,78844460,80977649,82449021,84198233,97096392,100610300,100758654,105345981,106109438,106609135,108540519,129916742,130102320,131772262,132270610,133357821,134307165,134725891,135483647,137520170,139547392,143918379,148006612,149209086,151073547,153075309,155081480,160983090,183373909,195719780,212684016,218944121,221880400,230856697,236312600,240990805,241390861,251672668,259066307,267071286,288269198,291002593,309562595,324370913,344580777,345118284,357771525,368148464,372659085,377821645,395225389,406894750,427948804,437295912,440619016,451416052,462927731,473814461,487384208,531743544,532861144,555628573]}
{"user_id":58744650,"collect_list(fan_id)":[232925,51417171,52888585,69171432,98689141,100612983,108613478,119221426,127953629,142361040,161319683,163664646,166351462,167477602,179952685,182165609,186334319,189349411,188935183,200959637,207377443,210635268,211571495,216059852,217058755,215009191,221055729,229376138,230016550,233391554,240919452,244568466,248554181,253268911,254699720,259046538,261450975,264745089,290706285,295472797,305867272,310292148,314636795,323048169,324140560,336377808,342135175,412438542,420228648,429047984,429171732,446204859,452569584,488454555,492893995,500092977,502637258,516598578,518477186,523907120]}
{"user_id":498367225,"collect_list(fan_id)":[249636,397284,986985,1436091,1867642,2634959,11148334,13011709,18693883,21774571,23363810,23466341,27115690,30716087,36681546,64299090,84651305,98814309,148873321,152348737,166624191,171143091,181733028,253952998,303894465,305668011,326784811,331666706,342048573,403334788,499524098,503973686,505420872,520869091,530981971,534663899,535059727,535898023,536216279,542433131,547074792,556634399]}
{"user_id":41811796,"collect_list(fan_id)":[424812,14179250,36630788,45767684,46002555,78211498,164849612,200440152,317184759,328005589]}
{"user_id":219697258,"collect_list(fan_id)":[505515,3642241,12022170,15542411,16374238,19432339,20019813,22320673,23050246,23211447,28032952,28943679,30490513,37833529,41491643,43482613,50964450,54152551,55076795,55687985,55890848,56298967,61069275,94628271,95742408,98346469,98637004,98818400,101273220,104277083,106255839,147283981,164303267,166458817,166858208,210705908,236065923,301640054,375698279,378643539,414029104,444958674,447371535,448819173,450015983,463156398,503446468,510154855]}
{"user_id":30860376,"collect_list(fan_id)":[582229,2064347,5280813,13440850,139648549,143806956,248510151,282473559,386869888,430985162]}
{"user_id":34229782,"collect_list(fan_id)":[557742,876439,4253400,4731689,7750554,8889798,12192216,13674076,21412596,90964455,101822925,106199488,116233103,186353771,187962186,207094966,213421277,220390290,305189160,340815778,344352345,412073599,449214429,451546765,457485238,465885107,553873685,559748518]}
{"user_id":19268550,"collect_list(fan_id)":[707919,983908,1141707,3580074,6821482,11092912,20929013,21495839,29438084,30045695,34628786,42274967,42293809,52700205,55404718,56839591,59283052,60681503,64740661,80053742,82669352,97278710,113153986,117142490,122724974,128128106,134304758,142418150,144300475,152376961,166193126,207424209,211926470,229430413,238121824,241975308,280800948,316128562,316335205,332373968,353829257,360632042,389636543,462164782,470091253,488251818,497191777]}
{"user_id":233174236,"collect_list(fan_id)":[894537,39676692,45903728,64788252,75797351,89154115,99969168,104549712,106218551,120282407,135375471,140047903,141474033,147223670,155027553,155939792,159531564,163204127,163998285,170647228,173315728,173345726,177805656,182195513,185413087,186608586,194217548,198601546,200452248,201104893,202259010,203722616,204083978,204233804,204278851,206642386,210835350,216514519,216622903,218670427,219497161,222384947,224279089,230736566,231160439,233026416,236759815,236779967,237366527,245652688,245737427,253603969,255241911,256616806,258028594,259866899,262564143,262936371,268104664,268479262,268829522,275303356,281240920,284187998,293919583,300821558,302679252,306136118,313953507,317150721,322400159,329959084,340506486,340782398,347457590,350523326,351811541,353701975,367040755,367152186,367949012,368145004,369905696,377632273,389336925,392512029,410574561,413354944,415267334,417782486,419041518,440235379,456676956,467036958,468766793,489304177,493128170,508853408,512601118,522105327,526325639,528293872,535924508,542234398,543578526,549234852,552159852,555635684]}
{"user_id":84563608,"collect_list(fan_id)":[1071165,1965352,6311977,6651517,8943178,10741827,11849413,12749542,13035537,16324717,17416368,22722738,25662832,27161415,28769423,29490148,29522206,29940632,36130598,56331512,57560756,57612022,60733152,63343301,65626843,69422317,72149673,75011977,80156190,83894494,88373173,91787538,91851964,97427937,126249110,132074455,135381565,136282621,137217575,140257909,143981215,144528885,144803117,146863108,147947030,151561775,154395470,172160382,200791507,204671973,216600022,224866138,223771469,243125554,259628908,267859780,269592872,273763351,278958317,280853086,286656659,289457101,317739467,323647878,333289227,341525407,363514295,378458326,400353700,406593021,415396299,436703086,437651298,441762048,457951345,470794831,485165786,504757616,505305350,509723241,510804515,512334077,519930640,520220616,541017398,547137462,548157364]}
{"user_id":169548494,"collect_list(fan_id)":[1201304,12017329,14187443,19243342,24703528,27968152,36416388,49661417,51283295,54944054,56455871,69531627,70430137,74233224,74473986,75560518,93122454,98357470,103435618,104398733,116489787,120961436,138787525,139186745,140722511,144510531,153914374,154754261,160104604,162908083,170017727,170473710,173671371,176014600,182543659,188600341,190003570,191693362,193074122,196949282,208598350,233440182,235353645,244393448,253470137,253609454,261799373,267183234,276951972,280349450,313712505,325171774,376447032,386163507,387023075,398173437,402234425,405367079,406494251,431961924,433511452,428471339,497108949,501285402,507627475,507775719,525183956]}
{"user_id":3860798,"collect_list(fan_id)":[1419707,2316967,2442651,2608570,2942379,3095919,3914792,4448503,5978345,8428125,11327219,17190144,19690736,21859975,32255511,56200940,75523871,131967835,157702073,176473191,197034974,290511955,429384136]}
{"user_id":120462155,"collect_list(fan_id)":[1862125,2497700,2796275,3436586,3903866,18701805,20644307,23926338,23946700,39243144,43322227,63501559,63895543,80123101,84411750,94745937,95967926,112265411,120449027,133716663,151200515,154679413,158349255,158466536,166176232,168626961,172451870,174608306,180381698,183411468,183475774,189724193,190849508,194303303,236982767,259038592,271799475,273257607,286464027,298734870,315753083,338318787,347111539,383598119,385964392,423708858,431156863,453538782,458574767,488255348,493841504,496465474,506966203,516009112,523527548,549678576]}
{"user_id":29289325,"collect_list(fan_id)":[3086177,9632958,10945227,12082666,13112378,16125310,17194921,18768618,19414835,21843664,22147487,23057892,22268940,27113881,28437685,29302560,30561369,31809727,32990892,33234434,33872367,34209667,36836630,38065293,38274359,38962886,39681728,39698793,41036600,42717362,43260616,43846502,44549493,45222941,45627177,48163455,48389408,48747750,51504909,52758414,55913705,60108378,58024494,62400493,62853892,64790650,66442239,66721393,70560761,70790722,70952518,71270770,72326317,72798944,73802918,74212598,77885385,82278732,82981075,85839729,90963820,94892968,99055100,105357147,106458305,106491562,110250921,113100841,118404786,119289311,124127380,124274311,127720125,134073918,135007476,135690260,137070555,144387662,143060842,151032545,151967967,152810514,154655676,156566218,158455482,161857149,166390259,166611827,170564996,168734738,177541101,177863058,184555115,187164115,195241538,195882232,203549054,208594577,209099810,212497603,224591160,229114237,236797193,247396475,255478108,267130117,268727848,271160508,274456979,284656328,289779944,298744514,319121875,326040740,326549297,334324607,352362718,436005639,440833563,504017692,516874254,555953998,555954102]}
{"user_id":34687298,"collect_list(fan_id)":[2840707,7213891,7995374,16125923,17410263,23536360,28190368,31693108,34526859,39823577,40809730,44623211,48091144,60293369,68044157,102651703,142171920,145732289,151015268,173097566,174133478,182908791,216128592,223567444,230478617,251640718,252359511,275921762,288890557,312874664,323709626,325006902,342049760,353075854,368015844,405087822,431536103,460235332,469865801,510458664,521287412]}
{"user_id":17117100,"collect_list(fan_id)":[3890871,12786150,13086179,41474973,47521570,48256974,54837434,58669772,71053933,81006060,83897564,85764376,88106327,119864094,122629482,125092152,128518054,133532063,134927726,136926795,139217126,142176994,142482439,145987564,151656698,155915099,157141295,186558269,204652660,204926498,210209644,211293583,231426084,244574221,250907173,301181106,399083403,397317637,429639260,441416649,447211298,528025934]}
{"user_id":187849802,"collect_list(fan_id)":[6108012,9887873,10836796,32549351,37628585,37922766,83156752,133823779,245438687,281239841,326166374,351017608]}
{"user_id":147164728,"collect_list(fan_id)":[6819697,9596160,11638873,14226625,15984721,17881423,39481941,50137353,57320009,59387580,60883596,65815736,70252838,71334401,72976122,74985128,84665208,85140058,92169207,95106968,95627185,105960555,106929635,107963297,109812549,110590751,119316324,120229855,120975017,121888696,132705024,133658879,135125152,137136651,138604047,140932631,140986629,141608839,141756068,143168430,143187998,143743336,144789476,145201463,145593087,145132287,147808876,148291679,148357402,150614282,150757604,151289035,152791361,153074779,153453478,154025888,157091094,157650866,159637250,160244054,161932770,163228859,164084244,166624629,167733506,168366595,169322189,169989680,170689210,176949240,177094742,183023537,183411769,186757906,188853573,192174310,192569824,192801208,195014384,195612025,198453069,199556450,199966381,203069743,204845049,212114411,215280001,222128983,223854118,227647519,228039999,228739434,233696915,241109264,253528440,262322624,270625404,278062896,276550031,293342454,298002819,299166471,306025682,312633866,323823194,339841631,350564568,354215718,356581063,360893060,364123819,372270198,384216426,395461404,417389037,420023864,421355490,432281912,444915480,453945479,461276553,466545089,466849879,467501435,470586157,477256003,512809165,514909393,534370532,536184708,542004397]}
{"user_id":301367708,"collect_list(fan_id)":[8561301,9665878,28110656,41213566,49918066,50267449,56886207,74254634,84795886,104498078,107669131,133571145,134177320,145284445,153302164,154670818,163554569,164576478,180554229,185371901,197831704,200354281,222207962,231179710,232061207,232162933,236102894,236413685,237195620,243552971,255669366,267847639,268304854,264806518,271921148,272770740,274921897,290175727,292964713,294656072,296497387,304249236,316860827,323967598,332767854,354576448,356665327,363128423,367820083,369615429,373042079,378056946,382705968,386283790,387397272,393404948,399911661,441353333,443598836,450356527,461668029,479594097,480312142,483528641,506938182]}
{"user_id":123863073,"collect_list(fan_id)":[11091417,19174018,26350629,26732570,30103880,43238967,54593052,66275143,75369134,89921512,93631689,133731402,137035799,150948665,160849818,202620516,210433957,222495514,246242527,280498899,293785275,301091024,328839778,393855087,416090138,472812701,484658191,514406840,522591721,528970855,530730605,532327431,535388458,540303833,546798074,547926447,553441901,557130594,559905487,561322511]}
{"user_id":487620477,"collect_list(fan_id)":[11050085,254694707,387584748,426726951,478690101,504929660,523734478,546264394,549477888,553319659]}
{"user_id":293921220,"collect_list(fan_id)":[14351226,32974764,72494102,74822281,79320592,118095599,124301758,135065501,135577808,137604989,139247010,139924210,140427034,144801084,150581020,151589790,152172258,153025000,160372653,162584950,162782514,165495749,166788901,165888508,173397131,181726342,198259417,207920823,208575240,210158428,213150893,214017586,237352464,238822739,251139112,260812696,261358485,262352488,265103742,264769767,268995082,277996843,279278641,276550005,294628099,302042581,303762886,304997436,322401091,340304921,340989182,355152478,364049673,374731879,383181292,405527974,408348738,403274661,419051123,428295757,467714114,487613722,511883474,518078039,520373446,540665016]}
{"user_id":361847023,"collect_list(fan_id)":[15063106,63791047,93177149,101488082,147850099,152915823,162912938,164585339,190713301,198120524,208037972,222035868,225570818,229021115,234104982,242608729,263254762,267248342,307085963,317157061,321990656,374447591,379210050,403269512,440004493,504100543,523824332,532083896]}
{"user_id":519526044,"collect_list(fan_id)":[16158200,164802162,180372460,206740008,219532535,244118735,251820685,255824639,272211590,278040576,287251178,297397562,303555941,304881397,306255637,335841555,340068898,370239851,378872504,379667058,383720093,392809448,404700932,414250745,422462653,425710083,445391022,447379705,447600068,453041852,453110517,507522657,510068690,554841996]}
{"user_id":245968468,"collect_list(fan_id)":[16637540,20792307,24948994,32055847,50961166,75362586,90328603,98672471,107620524,123839368,132188800,135930648,139964463,140470147,185121874,214701636,226477058,282171590,304532992,308585437,312827058,341147083,469474155,472664089,524335825,539061890]}
{"user_id":19230795,"collect_list(fan_id)":[18344973,90411907,142836446,200742175,285128003,394027876,453328853]}
{"user_id":502789225,"collect_list(fan_id)":[21875582,62873904,83625082,87404537,131331575,132029543,134693711,135895119,136862360,138448000,138754550,141294262,144451637,153789745,154771722,158543378,159904354,163780319,165046932,165749610,166627242,167446710,169667893,173073227,175321156,176873971,181888974,187218570,189544864,192171225,196030419,197229625,200633595,201442979,203904701,209243635,211142626,213093089,222096824,224593781,224682202,224934446,225199430,230350251,231353263,232329556,241327117,246738263,248155314,248452429,248939207,250578864,265704758,271259926,271578317,280727271,280972249,283126191,300851475,306266076,309063203,310370983,313368486,325028358,325118658,330351625,338287526,340294752,341138577,341460057,342205987,342298371,343304464,349618784,362354751,368595099,378852605,379343022,386125601,387104426,387778774,404325023,415086927,429531294,436550036,441119992,444156902,444891668,467759133,480898300,493744198,496810937,497711607,498495093,501280642,521909473,524640406,525919937,526061582,540026537,542768208,553125478]}
{"user_id":403623724,"collect_list(fan_id)":[30847235,87453174,245680459,252064195,253004098,274623425,388759207,419426353,438059278,448156636,459775673,482912109,491252933,506093014,538416332,538996729,542093918,559689382]}
{"user_id":411153034,"collect_list(fan_id)":[31815373,62708828,75247754,95462326,105432310,108391342,139566839,141230390,143392683,143681291,145278881,146514773,156882668,159244668,160586893,182242628,184827928,191273296,192630391,194693023,202352436,203458597,203725334,210222120,221060547,224159322,243568305,264022093,267301977,268463622,274350660,281581901,293124452,293206018,295956947,308275406,309167458,311619043,317316416,323248346,323995576,327181474,329097499,339220033,345453463,362520662,367912033,370562316,372331404,372409834,388247421,400064934,412101207,418000848,418334028,435079639,447526068,449036010,458554444,467485186,487182344,553379162]}
{"user_id":497557131,"collect_list(fan_id)":[38189179,48074566,89446514,150928220,156330255,176690414,186314606,218091600,233910121,255396611,297937601,302661361,389871032,402109451,417330932,537460987,564166113]}
{"user_id":204590279,"collect_list(fan_id)":[41023246,51084108,77052423,95106968,97389311,98357470,148107299,163517632,180665880,182483044,207187782,249998492,252637501,266290568,379757815]}
{"user_id":493304802,"collect_list(fan_id)":[39728844,54981912,64255714,66659147,98167240,141446720,145016474,166406370,178635486,184805713,207630218,234199449,252910452,262635803,268509199,283466287,291097225,295028457,295324329,306562992,308844884,337346928,341472100,350485685,370762265,461067981,506128012,508548317,505443975,552672036,561666546]}
{"user_id":340682710,"collect_list(fan_id)":[55749647,61120344,65904567,70651356,76979948,94070422,137362049,152547279,153460578,163165773,171630216,174139680,211614763,233629807,280831655,299624634,301369094,340086115,397777174,407280941,423050002,443072937,470899485,528325966,546126438]}
{"user_id":132026911,"collect_list(fan_id)":[66909367,67052300,97323423,120785731,139209749,140318829,157557967,164729862,172438785,180628278,191537548,194099639,228424681,231541119,251464993,297081864,306013219,358740692,379643463,473969838]}
{"user_id":321951328,"collect_list(fan_id)":[93675108,126130844,139228482,140394413,144668600,147981357,152512517,154176287,164316423,176879725,182387566,185998419,191235262,197390856,202202145,205857830,208419560,220630892,221364916,230216178,235688440,240287202,240459263,243548469,244206385,244341989,245958303,249899354,250167961,250416484,251987764,253606093,253770358,257811181,263495119,264859624,267149091,267796478,264841302,271950046,272767547,275129557,280950243,285128003,285182385,285190610,292118190,293421259,295900550,298042019,298096173,299210956,299216146,303323478,303428004,303653257,308046549,309524126,310087583,311142998,313047526,313868759,315556809,317652105,318417267,319293739,320779437,323132007,323164853,324703876,330798967,331091957,331864127,332157003,332171184,332319772,332444610,332505984,335575137,335838770,336752930,340131774,341410098,342597502,345095993,346345385,348518767,349764737,350135809,353277403,354248731,354605949,354821186,354898458,357788763,359186831,360022763,361917263,368269355,370182925,370256924,378171031,379684452,381044058,382784762,383592248,384434920,385222793,389623104,390295551,390773650,393935712,394115462,394957649,395078072,396156035,401434852,405614202,405926487,406063159,406129129,407866543,410118531,410755403,411084144,412927492,413897849,414369363,416532463,418163843,418620317,418313099,428331437,428704310,429710595,431158388,431739088,432616638,432645222,434548364,434870401,434905777,435500655,438453922,443920255,444449022,446203745,446796319,451281691,451754494,452386683,454657479,454820341,459461142,461070649,461525022,461820944,462941266,463267825,464600120,467352102,471501228,472812440,478790881,479289059,481130852,484435197,485532500,485776216,486768909,487962546,487986715,488488143,488644095,489039372,489703753,489815789,490266380,494547114,494652946,494693423,494750748,494860941,495459550,495986902,496822209,497314048,498114802,500974048,504645308,504963892,505789200,506583939,506733702,506946529,507624530,507640011,508346300,510051755,513238962,513444439,513550504,513909881,512108465,517025326,517149023,519207276,519548399,520352227,521721049,522336463,523085520,523218007,524079260,524893922,526238539,526874487,527868925,528158505,528861997,528998951,531377362,532427857,532500921,534553336,534994310,536058654,536074367,536762935,536766558,537022195,537136671,537329135,537528888,537911187,539006741,539341694,539432753,539581743,540442405,541576810,543118826,544225472,544226922,544967509,546736007,548010328,548063368,548069019,548429706,550036282,550648064,551167605,551531235,552204750,553018753,553694713,553970799,554149888,554633134,554899205,555231071,556267735,557780773,558822476,558858686,559761859,561712221,562997275,563395086,564220651,564254679]}
{"user_id":505131603,"collect_list(fan_id)":[100985975,176719375,181016655,275012328,292261730,292455480,380858931,462095245,493965483,529294882]}
{"user_id":62077616,"collect_list(fan_id)":[168791130,362163179,439335195,528956643,545690478]}
{"user_id":432093699,"collect_list(fan_id)":[225903422,318182335,439887202,483071653,510700236,546956165]}
{"user_id":139501658,"collect_list(fan_id)":[246017170,410246966,485994455,509254077,518556133,560912668]}
{"user_id":282503011,"collect_list(fan_id)":[256112867,533948376]}
{"user_id":546205633,"collect_list(fan_id)":[281847762,522422356,559420224]}
{"user_id":7771144,"collect_list(fan_id)":[415404361]}
{"user_id":5627601,"collect_list(fan_id)":[422623620,539274033]}
{"user_id":457577835,"collect_list(fan_id)":[474205254,507627569,560843901]}
{"user_id":600257,"collect_list(fan_id)":[525808109,539720988]}
{"user_id":553760871,"collect_list(fan_id)":[553207118]}
