{"user_id":2212,"collect_list(friend_id)":[1567]}
{"user_id":62497966,"collect_list(friend_id)":[351845]}
{"user_id":440822184,"collect_list(friend_id)":[14280636]}
{"user_id":30886917,"collect_list(friend_id)":[18737802]}
{"user_id":185742029,"collect_list(friend_id)":[25472200]}
{"user_id":48386251,"collect_list(friend_id)":[78118717]}
{"user_id":151685268,"collect_list(friend_id)":[131958294,160599894]}
{"user_id":456014405,"collect_list(friend_id)":[287862271]}
{"user_id":23589598,"collect_list(friend_id)":[364994243]}
