{"user_id":81221500,"collect_list(friend_id)":[4023,211690826]}
{"user_id":126450311,"collect_list(friend_id)":[246481,69995432,80891489,95233401,118043530,146369628,168354356]}
{"user_id":9535021,"collect_list(friend_id)":[7631219]}
{"user_id":135466015,"collect_list(friend_id)":[37807064,48096249,54626624,89342043,104282636,131958294,172158253,433824523]}
{"user_id":23438359,"collect_list(friend_id)":[63363182]}
{"user_id":8050972,"collect_list(friend_id)":[78242461]}
{"user_id":260357975,"collect_list(friend_id)":[165113280,174429824]}
{"user_id":555633260,"collect_list(friend_id)":[173751897,182977350]}
