{"user_id":12036702,"collect_list(friend_id)":[55983]}
{"user_id":49844584,"collect_list(friend_id)":[135451]}
{"user_id":21652163,"collect_list(friend_id)":[246481,13507593,74220018,93685375,203282703,225299625,336991647]}
{"user_id":40302574,"collect_list(friend_id)":[713114,5830376,7166551,27113664,80211123,151117071]}
{"user_id":6801684,"collect_list(friend_id)":[6282600]}
{"user_id":7862100,"collect_list(friend_id)":[9112733,66022003]}
{"user_id":61114679,"collect_list(friend_id)":[10417233]}
{"user_id":213406245,"collect_list(friend_id)":[10538777]}
{"user_id":71035655,"collect_list(friend_id)":[24445780,25094850,35521169,107361171,112174899,125071411,156311569,279517185,416140048]}
{"user_id":49735766,"collect_list(friend_id)":[31246438]}
{"user_id":393512304,"collect_list(friend_id)":[58809554,176690414,177789360,351174499]}
{"user_id":3544733,"collect_list(friend_id)":[64408757,379215164]}
{"user_id":240559097,"collect_list(friend_id)":[112174899]}
{"user_id":5007178,"collect_list(friend_id)":[132734639]}
{"user_id":219449723,"collect_list(friend_id)":[137223109]}
{"user_id":250268228,"collect_list(friend_id)":[151176754]}
{"user_id":460363250,"collect_list(friend_id)":[326228431,397867498,450203988,455421864,459543145]}
{"user_id":326228431,"collect_list(friend_id)":[329813582,459543145,460363250]}
