{"user_id":24147,"collect_list(friend_id)":[27419,81102,425920,2721781,17848439,21892949,98418000]}
{"user_id":106812,"collect_list(friend_id)":[282730]}
{"user_id":199583,"collect_list(friend_id)":[376596,22046637]}
{"user_id":64927354,"collect_list(friend_id)":[379173]}
{"user_id":205442512,"collect_list(friend_id)":[938845,113773552,139007252]}
{"user_id":16522553,"collect_list(friend_id)":[2871249]}
{"user_id":524905,"collect_list(friend_id)":[4068532]}
{"user_id":66022003,"collect_list(friend_id)":[7862100,72013331,95356919,326871725,482937697]}
{"user_id":19688357,"collect_list(friend_id)":[12067447,30833356]}
{"user_id":335643861,"collect_list(friend_id)":[20040894,21543701,29047514,29157018,50984373,100365912,123962501,160505008,205531057,472505514]}
{"user_id":11446406,"collect_list(friend_id)":[26940265,40520451,98606929,101096378,101181333,118043530]}
{"user_id":124435036,"collect_list(friend_id)":[27719844,336991647]}
{"user_id":3406455,"collect_list(friend_id)":[35817664,106132175,128041308,203282703,309770238,336991647]}
{"user_id":5547081,"collect_list(friend_id)":[39660732,47122493,50185099,151683189]}
{"user_id":43362088,"collect_list(friend_id)":[75900188,371533163]}
{"user_id":7150141,"collect_list(friend_id)":[95097630,462287395]}
{"user_id":261844846,"collect_list(friend_id)":[132902392,136742706]}
{"user_id":170297448,"collect_list(friend_id)":[140621169]}
{"user_id":230737055,"collect_list(friend_id)":[165345025]}
{"user_id":158548069,"collect_list(friend_id)":[182703092]}
{"user_id":495574416,"collect_list(friend_id)":[196336724]}
{"user_id":405448192,"collect_list(friend_id)":[206487266]}
{"user_id":118626747,"collect_list(friend_id)":[472956843]}
