{"user_id":2698190,"collect_list(friend_id)":[394348,124511284]}
{"user_id":26917747,"collect_list(friend_id)":[1120826]}
{"user_id":128698,"collect_list(friend_id)":[1120826,47122493,64393201,123839368]}
{"user_id":271769344,"collect_list(friend_id)":[1237285]}
{"user_id":2309982,"collect_list(friend_id)":[1996788]}
{"user_id":14675911,"collect_list(friend_id)":[2535583,12403553,38012104,61233004,69084262,157653992]}
{"user_id":26765936,"collect_list(friend_id)":[10349204]}
{"user_id":320560974,"collect_list(friend_id)":[19640999]}
{"user_id":377805819,"collect_list(friend_id)":[49608662]}
{"user_id":132907747,"collect_list(friend_id)":[50789478,91390312,128082542,150585829,392823834]}
{"user_id":2939822,"collect_list(friend_id)":[54046456]}
{"user_id":311987203,"collect_list(friend_id)":[73868018]}
{"user_id":74838857,"collect_list(friend_id)":[98548560,169548494,186104110,500082593]}
{"user_id":72710135,"collect_list(friend_id)":[107754730]}
{"user_id":106160555,"collect_list(friend_id)":[133589649]}
{"user_id":264049366,"collect_list(friend_id)":[194282477,470163231]}
{"user_id":50684146,"collect_list(friend_id)":[253431187]}
{"user_id":101319474,"collect_list(friend_id)":[253815750]}
{"user_id":266506709,"collect_list(friend_id)":[404546044]}
{"user_id":505623447,"collect_list(friend_id)":[446881639,455234786,495108427]}
{"user_id":508721911,"collect_list(friend_id)":[508044812]}
