{"user_id":23709373,"collect_list(friend_id)":[6343378,18239724]}
{"user_id":72247282,"collect_list(friend_id)":[49742979]}
{"user_id":15707234,"collect_list(friend_id)":[75554103]}
{"user_id":450413180,"collect_list(friend_id)":[161974811]}
{"user_id":39039549,"collect_list(friend_id)":[172158253]}
{"user_id":172000764,"collect_list(friend_id)":[218007203]}
{"user_id":217033494,"collect_list(friend_id)":[220055248,249635012]}
{"user_id":207109089,"collect_list(friend_id)":[237761518]}
