{"user_id":12902409,"collect_list(friend_id)":[3457017,48228422]}
{"user_id":126259762,"collect_list(friend_id)":[4428906]}
{"user_id":142991458,"collect_list(friend_id)":[15761583,50244876,97715644,101460038,140727039]}
{"user_id":123962501,"collect_list(friend_id)":[21543701,335643861]}
{"user_id":218400468,"collect_list(friend_id)":[26691754,137898199,372497194,448931452]}
{"user_id":36815819,"collect_list(friend_id)":[27719844,55850551,97715644]}
{"user_id":29576185,"collect_list(friend_id)":[41834448]}
{"user_id":29224349,"collect_list(friend_id)":[51420863,53869498,68357465,96176283,131564805,218091600,371332399]}
{"user_id":85929787,"collect_list(friend_id)":[56571690]}
{"user_id":26346682,"collect_list(friend_id)":[121776233]}
{"user_id":126077130,"collect_list(friend_id)":[157644700,191330776,306641566]}
{"user_id":1168939,"collect_list(friend_id)":[339234422]}
