{"user_id":87004,"collect_list(friend_id)":[308368]}
{"user_id":14311086,"collect_list(friend_id)":[17307019]}
{"user_id":37282924,"collect_list(friend_id)":[17502623]}
{"user_id":17310708,"collect_list(friend_id)":[44247350]}
{"user_id":110629206,"collect_list(friend_id)":[47896318,137174633,203853493]}
{"user_id":554622,"collect_list(friend_id)":[61439087]}
{"user_id":88491161,"collect_list(friend_id)":[75900188]}
{"user_id":53855448,"collect_list(friend_id)":[112309978]}
{"user_id":230242254,"collect_list(friend_id)":[157171850]}
{"user_id":235347839,"collect_list(friend_id)":[215704621]}
{"user_id":511479489,"collect_list(friend_id)":[390484777,509028382,510324897,511589004]}
{"user_id":398728780,"collect_list(friend_id)":[396624057]}
{"user_id":500307966,"collect_list(friend_id)":[512140188,512153550]}
