{"user_id":3398564,"collect_list(friend_id)":[22304,507824,4656597,20224097,28405519,30291751,44051369,63029534,81455355]}
{"user_id":359278,"collect_list(friend_id)":[27857]}
{"user_id":52167654,"collect_list(friend_id)":[482756,22158007,68495921]}
{"user_id":362041,"collect_list(friend_id)":[638492]}
{"user_id":620307,"collect_list(friend_id)":[944653]}
{"user_id":54582760,"collect_list(friend_id)":[2412819]}
{"user_id":154714550,"collect_list(friend_id)":[32224206,220064320,320739852]}
{"user_id":115201371,"collect_list(friend_id)":[52826268]}
{"user_id":234284553,"collect_list(friend_id)":[64393201,97837808,300288979]}
{"user_id":72976122,"collect_list(friend_id)":[106487922,135975909,166604387,178411788,240912133]}
{"user_id":53939460,"collect_list(friend_id)":[124530862]}
{"user_id":126790159,"collect_list(friend_id)":[172154834,198102380]}
{"user_id":268669671,"collect_list(friend_id)":[194282477,266899102,318403008]}
{"user_id":38281874,"collect_list(friend_id)":[336991647]}
