{"user_id":131429,"collect_list(friend_id)":[28312,30697,53366,158423,24862817]}
{"user_id":27420,"collect_list(friend_id)":[3428909]}
{"user_id":82903073,"collect_list(friend_id)":[10417233]}
{"user_id":131719318,"collect_list(friend_id)":[14448015,28405519,63765829]}
{"user_id":589527,"collect_list(friend_id)":[20378444]}
{"user_id":7166551,"collect_list(friend_id)":[40302574]}
{"user_id":279517185,"collect_list(friend_id)":[47896318,59708106,71035655,137174633,215061474,280063783,350514686]}
{"user_id":115386677,"collect_list(friend_id)":[51123370,135629029]}
{"user_id":208353206,"collect_list(friend_id)":[54019677]}
{"user_id":219885505,"collect_list(friend_id)":[54273300]}
{"user_id":55930167,"collect_list(friend_id)":[85183570]}
{"user_id":14448015,"collect_list(friend_id)":[131719318]}
{"user_id":140753340,"collect_list(friend_id)":[169912991,242332627]}
{"user_id":69007150,"collect_list(friend_id)":[173362398,206487266]}
{"user_id":220655954,"collect_list(friend_id)":[196728638,246676963]}
{"user_id":186651218,"collect_list(friend_id)":[237813937]}
{"user_id":129303046,"collect_list(friend_id)":[385818590]}
