{"user_id":423855934,"collect_list(friend_id)":[394348]}
{"user_id":93685375,"collect_list(friend_id)":[10518257,21652163]}
{"user_id":5616277,"collect_list(friend_id)":[11029945,482937697]}
{"user_id":38012104,"collect_list(friend_id)":[14675911]}
{"user_id":20653221,"collect_list(friend_id)":[20471439]}
{"user_id":201506786,"collect_list(friend_id)":[158499730]}
{"user_id":84513738,"collect_list(friend_id)":[192346558]}
{"user_id":113696938,"collect_list(friend_id)":[204600866]}
{"user_id":195042570,"collect_list(friend_id)":[262948806]}
