{"user_id":1502662,"collect_list(friend_id)":[32601]}
{"user_id":109799358,"collect_list(friend_id)":[1077823]}
{"user_id":112498659,"collect_list(friend_id)":[3423757,8436545,47122493,52042971,56132473,84184518,128082542,136653281,178897333,203282703,336991647]}
{"user_id":20471439,"collect_list(friend_id)":[20653221]}
{"user_id":158417929,"collect_list(friend_id)":[43318058,145412818]}
{"user_id":166604387,"collect_list(friend_id)":[72976122,89446514,147164728]}
{"user_id":44770563,"collect_list(friend_id)":[84563608,84659312,103229751,176863221,182073659,449638423]}
{"user_id":52905615,"collect_list(friend_id)":[122008942]}
{"user_id":82334903,"collect_list(friend_id)":[133734516,144592389]}
{"user_id":137970279,"collect_list(friend_id)":[168597426,261799373,336991647]}
{"user_id":396624057,"collect_list(friend_id)":[398728780,407876011,455421864,459543145]}
{"user_id":256152000,"collect_list(friend_id)":[400820276,503446468]}
{"user_id":453582190,"collect_list(friend_id)":[456509690]}
