{"user_id":23753969,"collect_list(friend_id)":[41603,64589973]}
{"user_id":2304555,"collect_list(friend_id)":[203042]}
{"user_id":23341310,"collect_list(friend_id)":[2442363,172158253]}
{"user_id":26515814,"collect_list(friend_id)":[3412835]}
{"user_id":69084262,"collect_list(friend_id)":[14675911,94967714,321198535]}
{"user_id":163562629,"collect_list(friend_id)":[133128915]}
{"user_id":192651259,"collect_list(friend_id)":[134990418,147615142]}
