{"user_id":88992371,"collect_list(friend_id)":[447899,38356055]}
{"user_id":116829039,"collect_list(friend_id)":[11141992,36056096,96382407,113344384,136266978]}
{"user_id":73248850,"collect_list(friend_id)":[25302595,40520451,101096378,118043530,183898492,215704621]}
{"user_id":94905465,"collect_list(friend_id)":[26209374,136006228,172030641]}
{"user_id":78440957,"collect_list(friend_id)":[28405519,63162489,172158253,220846414,249534514]}
{"user_id":114056624,"collect_list(friend_id)":[32224206]}
{"user_id":49608662,"collect_list(friend_id)":[47122493,61325935,66491012,128082542,336991647,377805819]}
{"user_id":253512962,"collect_list(friend_id)":[51619151]}
{"user_id":168620551,"collect_list(friend_id)":[74403239]}
{"user_id":277413628,"collect_list(friend_id)":[180724755]}
{"user_id":53369046,"collect_list(friend_id)":[257830985]}
{"user_id":174113987,"collect_list(friend_id)":[282729664,357674986]}
